\relax 
\ifx\hyper@anchor\@undefined
\global \let \oldcontentsline\contentsline
\gdef \contentsline#1#2#3#4{\oldcontentsline{#1}{#2}{#3}}
\global \let \oldnewlabel\newlabel
\gdef \newlabel#1#2{\newlabelxx{#1}#2}
\gdef \newlabelxx#1#2#3#4#5#6{\oldnewlabel{#1}{{#2}{#3}}}
\AtEndDocument{\let \contentsline\oldcontentsline
\let \newlabel\oldnewlabel}
\else
\global \let \hyper@last\relax 
\fi

\citation{GaleShapley1962}
\citation{DBLP:conf/icalp/IwamaMMM99}
\citation{DBLP:journals/tcs/ManloveIIMM02}
\citation{CodognetD01}
\citation{CodognetD03}
\citation{Munera2014a}
\citation{charles2005x10}
\citation{Saraswat2012}
\citation{Scott2005}
\citation{Iwama2008}
\citation{Gent2002}
\citation{DBLP:journals/dam/Irving94}
\citation{DBLP:journals/tcs/ManloveIIMM02}
\citation{Iwama2008}
\@writefile{toc}{\contentsline {section}{\numberline {1}Introduction}{1}{section.1}}
\newlabel{sec:introduction}{{1}{1}{Introduction\relax }{section.1}{}}
\@writefile{toc}{\contentsline {section}{\numberline {2}Background}{1}{section.2}}
\newlabel{sec:background}{{2}{1}{Background\relax }{section.2}{}}
\@writefile{toc}{\contentsline {subsection}{\numberline {2.1}Stable Marriage with Ties and Incompleteness}{1}{subsection.2.1}}
\newlabel{sec:defs}{{2.1}{1}{Stable Marriage with Ties and Incompleteness\relax }{subsection.2.1}{}}
\newlabel{def:marriage}{{2}{1}{Stable Marriage with Ties and Incompleteness\relax }{defn.2}{}}
\newlabel{def:blocking-pair}{{3}{1}{Stable Marriage with Ties and Incompleteness\relax }{defn.3}{}}
\citation{Iwama2008}
\citation{DBLP:journals/tcs/ManloveIIMM02}
\citation{DBLP:conf/icalp/IwamaMMM99}
\citation{DBLP:journals/tcs/ManloveIIMM02}
\citation{DBLP:journals/tcs/HalldorssonIIMMMS03}
\citation{Kiraly11}
\citation{Mcdermid2009}
\citation{DBLP:journals/algorithms/Kiraly13}
\citation{DBLP:journals/algorithms/Paluch14}
\citation{DBLP:journals/talg/HalldorssonIMY07}
\citation{Gent2001}
\citation{DBLP:journals/corr/UnsworthP13}
\citation{DBLP:conf/cpaior/ManloveOPU07}
\citation{Gent2002}
\citation{Gent2002a}
\citation{roth_stableLP:MOR93}
\citation{VadeVate89}
\citation{DBLP:journals/corr/KwanashieM13}
\citation{Gelain2013}
\citation{CodognetD01}
\citation{CaniouCRDA:2014:Constraints}
\citation{DBLP:journals/geb/KlijnM03}
\citation{Gelain2013}
\newlabel{def:stable-marriage}{{4}{2}{Stable Marriage with Ties and Incompleteness\relax }{defn.4}{}}
\@writefile{toc}{\contentsline {subparagraph}{SMTI algorithms}{2}{section*.1}}
\@writefile{toc}{\contentsline {subsection}{\numberline {2.2}The Adaptive Search method}{2}{subsection.2.2}}
\newlabel{sec:background-AS}{{2.2}{2}{The Adaptive Search method\relax }{subsection.2.2}{}}
\@writefile{toc}{\contentsline {section}{\numberline {3}An Adaptive Search Model for SMTI}{2}{section.3}}
\newlabel{sec:AS-model}{{3}{2}{An Adaptive Search Model for SMTI\relax }{section.3}{}}
\newlabel{def:dominated-blocking-pair}{{5}{2}{An Adaptive Search Model for SMTI\relax }{defn.5}{}}
\newlabel{def:undominated-blocking-pair}{{6}{2}{An Adaptive Search Model for SMTI\relax }{defn.6}{}}
\citation{Gelain2013}
\@writefile{loa}{\contentsline {algorithm}{\numberline {1}{\ignorespaces Function to compute BP error}}{3}{algorithm.1}}
\newlabel{algo:bp-error}{{1}{3}{An Adaptive Search Model for SMTI\relax }{algorithm.1}{}}
\@writefile{loa}{\contentsline {algorithm}{\numberline {2}{\ignorespaces Function to evaluate a marriage}}{3}{algorithm.2}}
\newlabel{algo:cost}{{2}{3}{An Adaptive Search Model for SMTI\relax }{algorithm.2}{}}
\@writefile{loa}{\contentsline {algorithm}{\numberline {3}{\ignorespaces Reset procedure to escape local minima}}{3}{algorithm.3}}
\newlabel{algo:reset}{{3}{3}{An Adaptive Search Model for SMTI\relax }{algorithm.3}{}}
\@writefile{toc}{\contentsline {section}{\numberline {4}Performance Evaluation}{3}{section.4}}
\newlabel{sec:seq-eval}{{4}{3}{Performance Evaluation\relax }{section.4}{}}
\citation{Gent2002}
\citation{Gelain2013}
\citation{Gelain2010}
\citation{Mcdermid2009}
\citation{Podhradsky2010}
\@writefile{toc}{\contentsline {subparagraph}{Problem Set}{4}{section*.2}}
\@writefile{toc}{\contentsline {subsection}{\numberline {4.1}Comparison with Local Search}{4}{subsection.4.1}}
\newlabel{sec:comp-with-local}{{4.1}{4}{Comparison with Local Search\relax }{subsection.4.1}{}}
\@writefile{lof}{\contentsline {figure}{\numberline {1}{\ignorespaces AS vs.\nobreakspace  {}LTIU - quality of solutions.}}{4}{figure.1}}
\newlabel{fig-com-LS-ps}{{1}{4}{AS vs.~LTIU - quality of solutions}{figure.1}{}}
\@writefile{lof}{\contentsline {figure}{\numberline {2}{\ignorespaces AS vs.\nobreakspace  {}LTIU - execution time.}}{4}{figure.2}}
\newlabel{fig-com-LS-time}{{2}{4}{AS vs.~LTIU - execution time}{figure.2}{}}
\newlabel{fn:supplemental}{{1}{4}{\relax }{Hfootnote.1}{}}
\@writefile{toc}{\contentsline {subsection}{\numberline {4.2}Comparison with Approximation Algorithms}{4}{subsection.4.2}}
\newlabel{sec:comp-with-mcderm}{{4.2}{4}{Comparison with Approximation Algorithms\relax }{subsection.4.2}{}}
\@writefile{lof}{\contentsline {figure}{\numberline {3}{\ignorespaces AS vs.\nobreakspace  {}MD - quality of solutions.}}{4}{figure.3}}
\newlabel{fig-com-Mc-PS}{{3}{4}{AS vs.~MD - quality of solutions}{figure.3}{}}
\@writefile{lof}{\contentsline {figure}{\numberline {4}{\ignorespaces AS vs.\nobreakspace  {}MD - execution time.}}{4}{figure.4}}
\newlabel{fig-com-Mc-Time}{{4}{4}{AS vs.~MD - execution time}{figure.4}{}}
\citation{Gent2002a}
\citation{Gent2002a}
\citation{Alba2005}
\citation{Alba2013}
\citation{Verhoeven1995}
\citation{CaniouCRDA:2014:Constraints}
\citation{DBLP:dblp_journals/pc/ToulouseCS04}
\citation{DBLP:dblp_journals/pc/ToulouseCS04}
\citation{Munera2014a}
\citation{Munera2014a}
\@writefile{toc}{\contentsline {subsection}{\numberline {4.3}Comparison with SAT}{5}{subsection.4.3}}
\newlabel{sec:comparison-with-sat}{{4.3}{5}{Comparison with SAT\relax }{subsection.4.3}{}}
\@writefile{lof}{\contentsline {figure}{\numberline {5}{\ignorespaces AS vs.\nobreakspace  {}SAT - execution time ($p1 = 0.5$).}}{5}{figure.5}}
\newlabel{fig:com-SAT-Time}{{5}{5}{AS vs.~SAT - execution time ($p1 = 0.5$)}{figure.5}{}}
\@writefile{toc}{\contentsline {section}{\numberline {5}Parallelization}{5}{section.5}}
\newlabel{sec:parallel-eval}{{5}{5}{Parallelization\relax }{section.5}{}}
\@writefile{toc}{\contentsline {subsection}{\numberline {5.1}The Cooperative Parallel Local Search Framework}{5}{subsection.5.1}}
\@writefile{toc}{\contentsline {subsection}{\numberline {5.2}Independence vs Cooperation}{5}{subsection.5.2}}
\@writefile{toc}{\contentsline {subparagraph}{Cooperation parameters}{5}{section*.3}}
\@writefile{toc}{\contentsline {subparagraph}{Problem Set}{6}{section*.4}}
\@writefile{toc}{\contentsline {subparagraph}{Parallel hardware}{6}{section*.5}}
\@writefile{lof}{\contentsline {figure}{\numberline {6}{\ignorespaces Execution time using IW and CW.}}{6}{figure.6}}
\newlabel{fig:times-N}{{6}{6}{Execution time using IW and CW}{figure.6}{}}
\newlabel{fn:log-scale}{{5.2}{6}{Parallel hardware\relax }{figure.6}{}}
\@writefile{toc}{\contentsline {subsection}{\numberline {5.3}Evaluation on Hard Problems}{6}{subsection.5.3}}
\@writefile{lof}{\contentsline {figure}{\numberline {7}{\ignorespaces Execution time on hard problems}}{6}{figure.7}}
\newlabel{fig-hard-speed-up}{{7}{6}{Execution time on hard problems\relax }{figure.7}{}}
\@writefile{toc}{\contentsline {section}{\numberline {6}Conclusion}{6}{section.6}}
\newlabel{sec:conclusion}{{6}{6}{Conclusion\relax }{section.6}{}}
\bibstyle{aaai}
\bibdata{SMTI-AAAI15}
\bibcite{Alba2013}{\citeauthoryear {{Alba}, {Luque}, and {Nesmachnow}}{2013}}
\bibcite{Alba2005}{\citeauthoryear {Alba}{2005}}
\bibcite{CaniouCRDA:2014:Constraints}{\citeauthoryear {Caniou \bgroup et al\unhbox \voidb@x \hbox {.}\egroup }{2014}}
\bibcite{charles2005x10}{\citeauthoryear {Charles \bgroup et al\unhbox \voidb@x \hbox {.}\egroup }{2005}}
\bibcite{CodognetD01}{\citeauthoryear {Codognet and Diaz}{2001}}
\bibcite{CodognetD03}{\citeauthoryear {Codognet and Diaz}{2003}}
\bibcite{GaleShapley1962}{\citeauthoryear {Gale and Shapley}{1962}}
\bibcite{Gelain2010}{\citeauthoryear {Gelain \bgroup et al\unhbox \voidb@x \hbox {.}\egroup }{2010}}
\bibcite{Gelain2013}{\citeauthoryear {Gelain \bgroup et al\unhbox \voidb@x \hbox {.}\egroup }{2013}}
\bibcite{Gent2002}{\citeauthoryear {Gent and Prosser}{2002}}
\bibcite{Gent2001}{\citeauthoryear {Gent \bgroup et al\unhbox \voidb@x \hbox {.}\egroup }{2001}}
\bibcite{Gent2002a}{\citeauthoryear {Gent \bgroup et al\unhbox \voidb@x \hbox {.}\egroup }{2002}}
\bibcite{DBLP:journals/tcs/HalldorssonIIMMMS03}{\citeauthoryear {Halld{\'o}rsson \bgroup et al\unhbox \voidb@x \hbox {.}\egroup }{2003}}
\bibcite{DBLP:journals/talg/HalldorssonIMY07}{\citeauthoryear {Halld{\'o}rsson \bgroup et al\unhbox \voidb@x \hbox {.}\egroup }{2007}}
\bibcite{DBLP:journals/dam/Irving94}{\citeauthoryear {Irving}{1994}}
\bibcite{Iwama2008}{\citeauthoryear {Iwama and Miyazaki}{2008}}
\bibcite{DBLP:conf/icalp/IwamaMMM99}{\citeauthoryear {Iwama \bgroup et al\unhbox \voidb@x \hbox {.}\egroup }{}}
\bibcite{Kiraly11}{\citeauthoryear {Kir{\'a}ly}{2011}}
\bibcite{DBLP:journals/algorithms/Kiraly13}{\citeauthoryear {Kir{\'a}ly}{2013}}
\bibcite{DBLP:journals/geb/KlijnM03}{\citeauthoryear {Klijn and Mass{\'o}}{2003}}
\bibcite{DBLP:journals/corr/KwanashieM13}{\citeauthoryear {Kwanashie and Manlove}{2013}}
\bibcite{DBLP:journals/tcs/ManloveIIMM02}{\citeauthoryear {Manlove \bgroup et al\unhbox \voidb@x \hbox {.}\egroup }{2002}}
\bibcite{DBLP:conf/cpaior/ManloveOPU07}{\citeauthoryear {Manlove \bgroup et al\unhbox \voidb@x \hbox {.}\egroup }{2007}}
\bibcite{Mcdermid2009}{\citeauthoryear {McDermid}{2009}}
\bibcite{Munera2014a}{\citeauthoryear {Munera \bgroup et al\unhbox \voidb@x \hbox {.}\egroup }{2014}}
\bibcite{DBLP:journals/algorithms/Paluch14}{\citeauthoryear {Paluch}{2014}}
\bibcite{Podhradsky2010}{\citeauthoryear {Podhradsky}{2010}}
\bibcite{roth_stableLP:MOR93}{\citeauthoryear {Roth, Rothblum, and Vande\nobreakspace  {}Vate}{1993}}
\bibcite{Saraswat2012}{\citeauthoryear {Saraswat \bgroup et al\unhbox \voidb@x \hbox {.}\egroup }{2012}}
\bibcite{Scott2005}{\citeauthoryear {Scott}{2005}}
\bibcite{DBLP:dblp_journals/pc/ToulouseCS04}{\citeauthoryear {Toulouse, Crainic, and Sansò}{2004}}
\bibcite{DBLP:journals/corr/UnsworthP13}{\citeauthoryear {Unsworth and Prosser}{2013}}
\bibcite{VadeVate89}{\citeauthoryear {Vande\nobreakspace  {}Vate}{1989}}
\bibcite{Verhoeven1995}{\citeauthoryear {Verhoeven and Aarts}{1995}}
