%!PS-Adobe-2.0 EPSF-2.0
%%Title: AST100vsMC-Time.eps
%%Creator: gnuplot 4.6 patchlevel 4
%%CreationDate: Thu Jun 19 11:29:36 2014
%%DocumentFonts: (atend)
%%BoundingBox: 50 50 554 424
%%EndComments
%%BeginProlog
/gnudict 256 dict def
gnudict begin
%
% The following true/false flags may be edited by hand if desired.
% The unit line width and grayscale image gamma correction may also be changed.
%
/Color true def
/Blacktext false def
/Solid false def
/Dashlength 1 def
/Landscape false def
/Level1 false def
/Rounded false def
/ClipToBoundingBox false def
/SuppressPDFMark false def
/TransparentPatterns false def
/gnulinewidth 5.000 def
/userlinewidth gnulinewidth def
/Gamma 1.0 def
/BackgroundColor {-1.000 -1.000 -1.000} def
%
/vshift -66 def
/dl1 {
  10.0 Dashlength mul mul
  Rounded { currentlinewidth 0.75 mul sub dup 0 le { pop 0.01 } if } if
} def
/dl2 {
  10.0 Dashlength mul mul
  Rounded { currentlinewidth 0.75 mul add } if
} def
/hpt_ 31.5 def
/vpt_ 31.5 def
/hpt hpt_ def
/vpt vpt_ def
/doclip {
  ClipToBoundingBox {
    newpath 50 50 moveto 554 50 lineto 554 424 lineto 50 424 lineto closepath
    clip
  } if
} def
%
% Gnuplot Prolog Version 4.6 (September 2012)
%
%/SuppressPDFMark true def
%
/M {moveto} bind def
/L {lineto} bind def
/R {rmoveto} bind def
/V {rlineto} bind def
/N {newpath moveto} bind def
/Z {closepath} bind def
/C {setrgbcolor} bind def
/f {rlineto fill} bind def
/g {setgray} bind def
/Gshow {show} def   % May be redefined later in the file to support UTF-8
/vpt2 vpt 2 mul def
/hpt2 hpt 2 mul def
/Lshow {currentpoint stroke M 0 vshift R 
	Blacktext {gsave 0 setgray show grestore} {show} ifelse} def
/Rshow {currentpoint stroke M dup stringwidth pop neg vshift R
	Blacktext {gsave 0 setgray show grestore} {show} ifelse} def
/Cshow {currentpoint stroke M dup stringwidth pop -2 div vshift R 
	Blacktext {gsave 0 setgray show grestore} {show} ifelse} def
/UP {dup vpt_ mul /vpt exch def hpt_ mul /hpt exch def
  /hpt2 hpt 2 mul def /vpt2 vpt 2 mul def} def
/DL {Color {setrgbcolor Solid {pop []} if 0 setdash}
 {pop pop pop 0 setgray Solid {pop []} if 0 setdash} ifelse} def
/BL {stroke userlinewidth 2 mul setlinewidth
	Rounded {1 setlinejoin 1 setlinecap} if} def
/AL {stroke userlinewidth 2 div setlinewidth
	Rounded {1 setlinejoin 1 setlinecap} if} def
/UL {dup gnulinewidth mul /userlinewidth exch def
	dup 1 lt {pop 1} if 10 mul /udl exch def} def
/PL {stroke userlinewidth setlinewidth
	Rounded {1 setlinejoin 1 setlinecap} if} def
3.8 setmiterlimit
% Default Line colors
/LCw {1 1 1} def
/LCb {0 0 0} def
/LCa {0 0 0} def
/LC0 {1 0 0} def
/LC1 {0 1 0} def
/LC2 {0 0 1} def
/LC3 {1 0 1} def
/LC4 {0 1 1} def
/LC5 {1 1 0} def
/LC6 {0 0 0} def
/LC7 {1 0.3 0} def
/LC8 {0.5 0.5 0.5} def
% Default Line Types
/LTw {PL [] 1 setgray} def
/LTb {BL [] LCb DL} def
/LTa {AL [1 udl mul 2 udl mul] 0 setdash LCa setrgbcolor} def
/LT0 {PL [] LC0 DL} def
/LT1 {PL [4 dl1 2 dl2] LC1 DL} def
/LT2 {PL [2 dl1 3 dl2] LC2 DL} def
/LT3 {PL [1 dl1 1.5 dl2] LC3 DL} def
/LT4 {PL [6 dl1 2 dl2 1 dl1 2 dl2] LC4 DL} def
/LT5 {PL [3 dl1 3 dl2 1 dl1 3 dl2] LC5 DL} def
/LT6 {PL [2 dl1 2 dl2 2 dl1 6 dl2] LC6 DL} def
/LT7 {PL [1 dl1 2 dl2 6 dl1 2 dl2 1 dl1 2 dl2] LC7 DL} def
/LT8 {PL [2 dl1 2 dl2 2 dl1 2 dl2 2 dl1 2 dl2 2 dl1 4 dl2] LC8 DL} def
/Pnt {stroke [] 0 setdash gsave 1 setlinecap M 0 0 V stroke grestore} def
/Dia {stroke [] 0 setdash 2 copy vpt add M
  hpt neg vpt neg V hpt vpt neg V
  hpt vpt V hpt neg vpt V closepath stroke
  Pnt} def
/Pls {stroke [] 0 setdash vpt sub M 0 vpt2 V
  currentpoint stroke M
  hpt neg vpt neg R hpt2 0 V stroke
 } def
/Box {stroke [] 0 setdash 2 copy exch hpt sub exch vpt add M
  0 vpt2 neg V hpt2 0 V 0 vpt2 V
  hpt2 neg 0 V closepath stroke
  Pnt} def
/Crs {stroke [] 0 setdash exch hpt sub exch vpt add M
  hpt2 vpt2 neg V currentpoint stroke M
  hpt2 neg 0 R hpt2 vpt2 V stroke} def
/TriU {stroke [] 0 setdash 2 copy vpt 1.12 mul add M
  hpt neg vpt -1.62 mul V
  hpt 2 mul 0 V
  hpt neg vpt 1.62 mul V closepath stroke
  Pnt} def
/Star {2 copy Pls Crs} def
/BoxF {stroke [] 0 setdash exch hpt sub exch vpt add M
  0 vpt2 neg V hpt2 0 V 0 vpt2 V
  hpt2 neg 0 V closepath fill} def
/TriUF {stroke [] 0 setdash vpt 1.12 mul add M
  hpt neg vpt -1.62 mul V
  hpt 2 mul 0 V
  hpt neg vpt 1.62 mul V closepath fill} def
/TriD {stroke [] 0 setdash 2 copy vpt 1.12 mul sub M
  hpt neg vpt 1.62 mul V
  hpt 2 mul 0 V
  hpt neg vpt -1.62 mul V closepath stroke
  Pnt} def
/TriDF {stroke [] 0 setdash vpt 1.12 mul sub M
  hpt neg vpt 1.62 mul V
  hpt 2 mul 0 V
  hpt neg vpt -1.62 mul V closepath fill} def
/DiaF {stroke [] 0 setdash vpt add M
  hpt neg vpt neg V hpt vpt neg V
  hpt vpt V hpt neg vpt V closepath fill} def
/Pent {stroke [] 0 setdash 2 copy gsave
  translate 0 hpt M 4 {72 rotate 0 hpt L} repeat
  closepath stroke grestore Pnt} def
/PentF {stroke [] 0 setdash gsave
  translate 0 hpt M 4 {72 rotate 0 hpt L} repeat
  closepath fill grestore} def
/Circle {stroke [] 0 setdash 2 copy
  hpt 0 360 arc stroke Pnt} def
/CircleF {stroke [] 0 setdash hpt 0 360 arc fill} def
/C0 {BL [] 0 setdash 2 copy moveto vpt 90 450 arc} bind def
/C1 {BL [] 0 setdash 2 copy moveto
	2 copy vpt 0 90 arc closepath fill
	vpt 0 360 arc closepath} bind def
/C2 {BL [] 0 setdash 2 copy moveto
	2 copy vpt 90 180 arc closepath fill
	vpt 0 360 arc closepath} bind def
/C3 {BL [] 0 setdash 2 copy moveto
	2 copy vpt 0 180 arc closepath fill
	vpt 0 360 arc closepath} bind def
/C4 {BL [] 0 setdash 2 copy moveto
	2 copy vpt 180 270 arc closepath fill
	vpt 0 360 arc closepath} bind def
/C5 {BL [] 0 setdash 2 copy moveto
	2 copy vpt 0 90 arc
	2 copy moveto
	2 copy vpt 180 270 arc closepath fill
	vpt 0 360 arc} bind def
/C6 {BL [] 0 setdash 2 copy moveto
	2 copy vpt 90 270 arc closepath fill
	vpt 0 360 arc closepath} bind def
/C7 {BL [] 0 setdash 2 copy moveto
	2 copy vpt 0 270 arc closepath fill
	vpt 0 360 arc closepath} bind def
/C8 {BL [] 0 setdash 2 copy moveto
	2 copy vpt 270 360 arc closepath fill
	vpt 0 360 arc closepath} bind def
/C9 {BL [] 0 setdash 2 copy moveto
	2 copy vpt 270 450 arc closepath fill
	vpt 0 360 arc closepath} bind def
/C10 {BL [] 0 setdash 2 copy 2 copy moveto vpt 270 360 arc closepath fill
	2 copy moveto
	2 copy vpt 90 180 arc closepath fill
	vpt 0 360 arc closepath} bind def
/C11 {BL [] 0 setdash 2 copy moveto
	2 copy vpt 0 180 arc closepath fill
	2 copy moveto
	2 copy vpt 270 360 arc closepath fill
	vpt 0 360 arc closepath} bind def
/C12 {BL [] 0 setdash 2 copy moveto
	2 copy vpt 180 360 arc closepath fill
	vpt 0 360 arc closepath} bind def
/C13 {BL [] 0 setdash 2 copy moveto
	2 copy vpt 0 90 arc closepath fill
	2 copy moveto
	2 copy vpt 180 360 arc closepath fill
	vpt 0 360 arc closepath} bind def
/C14 {BL [] 0 setdash 2 copy moveto
	2 copy vpt 90 360 arc closepath fill
	vpt 0 360 arc} bind def
/C15 {BL [] 0 setdash 2 copy vpt 0 360 arc closepath fill
	vpt 0 360 arc closepath} bind def
/Rec {newpath 4 2 roll moveto 1 index 0 rlineto 0 exch rlineto
	neg 0 rlineto closepath} bind def
/Square {dup Rec} bind def
/Bsquare {vpt sub exch vpt sub exch vpt2 Square} bind def
/S0 {BL [] 0 setdash 2 copy moveto 0 vpt rlineto BL Bsquare} bind def
/S1 {BL [] 0 setdash 2 copy vpt Square fill Bsquare} bind def
/S2 {BL [] 0 setdash 2 copy exch vpt sub exch vpt Square fill Bsquare} bind def
/S3 {BL [] 0 setdash 2 copy exch vpt sub exch vpt2 vpt Rec fill Bsquare} bind def
/S4 {BL [] 0 setdash 2 copy exch vpt sub exch vpt sub vpt Square fill Bsquare} bind def
/S5 {BL [] 0 setdash 2 copy 2 copy vpt Square fill
	exch vpt sub exch vpt sub vpt Square fill Bsquare} bind def
/S6 {BL [] 0 setdash 2 copy exch vpt sub exch vpt sub vpt vpt2 Rec fill Bsquare} bind def
/S7 {BL [] 0 setdash 2 copy exch vpt sub exch vpt sub vpt vpt2 Rec fill
	2 copy vpt Square fill Bsquare} bind def
/S8 {BL [] 0 setdash 2 copy vpt sub vpt Square fill Bsquare} bind def
/S9 {BL [] 0 setdash 2 copy vpt sub vpt vpt2 Rec fill Bsquare} bind def
/S10 {BL [] 0 setdash 2 copy vpt sub vpt Square fill 2 copy exch vpt sub exch vpt Square fill
	Bsquare} bind def
/S11 {BL [] 0 setdash 2 copy vpt sub vpt Square fill 2 copy exch vpt sub exch vpt2 vpt Rec fill
	Bsquare} bind def
/S12 {BL [] 0 setdash 2 copy exch vpt sub exch vpt sub vpt2 vpt Rec fill Bsquare} bind def
/S13 {BL [] 0 setdash 2 copy exch vpt sub exch vpt sub vpt2 vpt Rec fill
	2 copy vpt Square fill Bsquare} bind def
/S14 {BL [] 0 setdash 2 copy exch vpt sub exch vpt sub vpt2 vpt Rec fill
	2 copy exch vpt sub exch vpt Square fill Bsquare} bind def
/S15 {BL [] 0 setdash 2 copy Bsquare fill Bsquare} bind def
/D0 {gsave translate 45 rotate 0 0 S0 stroke grestore} bind def
/D1 {gsave translate 45 rotate 0 0 S1 stroke grestore} bind def
/D2 {gsave translate 45 rotate 0 0 S2 stroke grestore} bind def
/D3 {gsave translate 45 rotate 0 0 S3 stroke grestore} bind def
/D4 {gsave translate 45 rotate 0 0 S4 stroke grestore} bind def
/D5 {gsave translate 45 rotate 0 0 S5 stroke grestore} bind def
/D6 {gsave translate 45 rotate 0 0 S6 stroke grestore} bind def
/D7 {gsave translate 45 rotate 0 0 S7 stroke grestore} bind def
/D8 {gsave translate 45 rotate 0 0 S8 stroke grestore} bind def
/D9 {gsave translate 45 rotate 0 0 S9 stroke grestore} bind def
/D10 {gsave translate 45 rotate 0 0 S10 stroke grestore} bind def
/D11 {gsave translate 45 rotate 0 0 S11 stroke grestore} bind def
/D12 {gsave translate 45 rotate 0 0 S12 stroke grestore} bind def
/D13 {gsave translate 45 rotate 0 0 S13 stroke grestore} bind def
/D14 {gsave translate 45 rotate 0 0 S14 stroke grestore} bind def
/D15 {gsave translate 45 rotate 0 0 S15 stroke grestore} bind def
/DiaE {stroke [] 0 setdash vpt add M
  hpt neg vpt neg V hpt vpt neg V
  hpt vpt V hpt neg vpt V closepath stroke} def
/BoxE {stroke [] 0 setdash exch hpt sub exch vpt add M
  0 vpt2 neg V hpt2 0 V 0 vpt2 V
  hpt2 neg 0 V closepath stroke} def
/TriUE {stroke [] 0 setdash vpt 1.12 mul add M
  hpt neg vpt -1.62 mul V
  hpt 2 mul 0 V
  hpt neg vpt 1.62 mul V closepath stroke} def
/TriDE {stroke [] 0 setdash vpt 1.12 mul sub M
  hpt neg vpt 1.62 mul V
  hpt 2 mul 0 V
  hpt neg vpt -1.62 mul V closepath stroke} def
/PentE {stroke [] 0 setdash gsave
  translate 0 hpt M 4 {72 rotate 0 hpt L} repeat
  closepath stroke grestore} def
/CircE {stroke [] 0 setdash 
  hpt 0 360 arc stroke} def
/Opaque {gsave closepath 1 setgray fill grestore 0 setgray closepath} def
/DiaW {stroke [] 0 setdash vpt add M
  hpt neg vpt neg V hpt vpt neg V
  hpt vpt V hpt neg vpt V Opaque stroke} def
/BoxW {stroke [] 0 setdash exch hpt sub exch vpt add M
  0 vpt2 neg V hpt2 0 V 0 vpt2 V
  hpt2 neg 0 V Opaque stroke} def
/TriUW {stroke [] 0 setdash vpt 1.12 mul add M
  hpt neg vpt -1.62 mul V
  hpt 2 mul 0 V
  hpt neg vpt 1.62 mul V Opaque stroke} def
/TriDW {stroke [] 0 setdash vpt 1.12 mul sub M
  hpt neg vpt 1.62 mul V
  hpt 2 mul 0 V
  hpt neg vpt -1.62 mul V Opaque stroke} def
/PentW {stroke [] 0 setdash gsave
  translate 0 hpt M 4 {72 rotate 0 hpt L} repeat
  Opaque stroke grestore} def
/CircW {stroke [] 0 setdash 
  hpt 0 360 arc Opaque stroke} def
/BoxFill {gsave Rec 1 setgray fill grestore} def
/Density {
  /Fillden exch def
  currentrgbcolor
  /ColB exch def /ColG exch def /ColR exch def
  /ColR ColR Fillden mul Fillden sub 1 add def
  /ColG ColG Fillden mul Fillden sub 1 add def
  /ColB ColB Fillden mul Fillden sub 1 add def
  ColR ColG ColB setrgbcolor} def
/BoxColFill {gsave Rec PolyFill} def
/PolyFill {gsave Density fill grestore grestore} def
/h {rlineto rlineto rlineto gsave closepath fill grestore} bind def
%
% PostScript Level 1 Pattern Fill routine for rectangles
% Usage: x y w h s a XX PatternFill
%	x,y = lower left corner of box to be filled
%	w,h = width and height of box
%	  a = angle in degrees between lines and x-axis
%	 XX = 0/1 for no/yes cross-hatch
%
/PatternFill {gsave /PFa [ 9 2 roll ] def
  PFa 0 get PFa 2 get 2 div add PFa 1 get PFa 3 get 2 div add translate
  PFa 2 get -2 div PFa 3 get -2 div PFa 2 get PFa 3 get Rec
  TransparentPatterns {} {gsave 1 setgray fill grestore} ifelse
  clip
  currentlinewidth 0.5 mul setlinewidth
  /PFs PFa 2 get dup mul PFa 3 get dup mul add sqrt def
  0 0 M PFa 5 get rotate PFs -2 div dup translate
  0 1 PFs PFa 4 get div 1 add floor cvi
	{PFa 4 get mul 0 M 0 PFs V} for
  0 PFa 6 get ne {
	0 1 PFs PFa 4 get div 1 add floor cvi
	{PFa 4 get mul 0 2 1 roll M PFs 0 V} for
 } if
  stroke grestore} def
%
/languagelevel where
 {pop languagelevel} {1} ifelse
 2 lt
	{/InterpretLevel1 true def}
	{/InterpretLevel1 Level1 def}
 ifelse
%
% PostScript level 2 pattern fill definitions
%
/Level2PatternFill {
/Tile8x8 {/PaintType 2 /PatternType 1 /TilingType 1 /BBox [0 0 8 8] /XStep 8 /YStep 8}
	bind def
/KeepColor {currentrgbcolor [/Pattern /DeviceRGB] setcolorspace} bind def
<< Tile8x8
 /PaintProc {0.5 setlinewidth pop 0 0 M 8 8 L 0 8 M 8 0 L stroke} 
>> matrix makepattern
/Pat1 exch def
<< Tile8x8
 /PaintProc {0.5 setlinewidth pop 0 0 M 8 8 L 0 8 M 8 0 L stroke
	0 4 M 4 8 L 8 4 L 4 0 L 0 4 L stroke}
>> matrix makepattern
/Pat2 exch def
<< Tile8x8
 /PaintProc {0.5 setlinewidth pop 0 0 M 0 8 L
	8 8 L 8 0 L 0 0 L fill}
>> matrix makepattern
/Pat3 exch def
<< Tile8x8
 /PaintProc {0.5 setlinewidth pop -4 8 M 8 -4 L
	0 12 M 12 0 L stroke}
>> matrix makepattern
/Pat4 exch def
<< Tile8x8
 /PaintProc {0.5 setlinewidth pop -4 0 M 8 12 L
	0 -4 M 12 8 L stroke}
>> matrix makepattern
/Pat5 exch def
<< Tile8x8
 /PaintProc {0.5 setlinewidth pop -2 8 M 4 -4 L
	0 12 M 8 -4 L 4 12 M 10 0 L stroke}
>> matrix makepattern
/Pat6 exch def
<< Tile8x8
 /PaintProc {0.5 setlinewidth pop -2 0 M 4 12 L
	0 -4 M 8 12 L 4 -4 M 10 8 L stroke}
>> matrix makepattern
/Pat7 exch def
<< Tile8x8
 /PaintProc {0.5 setlinewidth pop 8 -2 M -4 4 L
	12 0 M -4 8 L 12 4 M 0 10 L stroke}
>> matrix makepattern
/Pat8 exch def
<< Tile8x8
 /PaintProc {0.5 setlinewidth pop 0 -2 M 12 4 L
	-4 0 M 12 8 L -4 4 M 8 10 L stroke}
>> matrix makepattern
/Pat9 exch def
/Pattern1 {PatternBgnd KeepColor Pat1 setpattern} bind def
/Pattern2 {PatternBgnd KeepColor Pat2 setpattern} bind def
/Pattern3 {PatternBgnd KeepColor Pat3 setpattern} bind def
/Pattern4 {PatternBgnd KeepColor Landscape {Pat5} {Pat4} ifelse setpattern} bind def
/Pattern5 {PatternBgnd KeepColor Landscape {Pat4} {Pat5} ifelse setpattern} bind def
/Pattern6 {PatternBgnd KeepColor Landscape {Pat9} {Pat6} ifelse setpattern} bind def
/Pattern7 {PatternBgnd KeepColor Landscape {Pat8} {Pat7} ifelse setpattern} bind def
} def
%
%
%End of PostScript Level 2 code
%
/PatternBgnd {
  TransparentPatterns {} {gsave 1 setgray fill grestore} ifelse
} def
%
% Substitute for Level 2 pattern fill codes with
% grayscale if Level 2 support is not selected.
%
/Level1PatternFill {
/Pattern1 {0.250 Density} bind def
/Pattern2 {0.500 Density} bind def
/Pattern3 {0.750 Density} bind def
/Pattern4 {0.125 Density} bind def
/Pattern5 {0.375 Density} bind def
/Pattern6 {0.625 Density} bind def
/Pattern7 {0.875 Density} bind def
} def
%
% Now test for support of Level 2 code
%
Level1 {Level1PatternFill} {Level2PatternFill} ifelse
%
/Symbol-Oblique /Symbol findfont [1 0 .167 1 0 0] makefont
dup length dict begin {1 index /FID eq {pop pop} {def} ifelse} forall
currentdict end definefont pop
/MFshow {
   { dup 5 get 3 ge
     { 5 get 3 eq {gsave} {grestore} ifelse }
     {dup dup 0 get findfont exch 1 get scalefont setfont
     [ currentpoint ] exch dup 2 get 0 exch R dup 5 get 2 ne {dup dup 6
     get exch 4 get {Gshow} {stringwidth pop 0 R} ifelse }if dup 5 get 0 eq
     {dup 3 get {2 get neg 0 exch R pop} {pop aload pop M} ifelse} {dup 5
     get 1 eq {dup 2 get exch dup 3 get exch 6 get stringwidth pop -2 div
     dup 0 R} {dup 6 get stringwidth pop -2 div 0 R 6 get
     show 2 index {aload pop M neg 3 -1 roll neg R pop pop} {pop pop pop
     pop aload pop M} ifelse }ifelse }ifelse }
     ifelse }
   forall} def
/Gswidth {dup type /stringtype eq {stringwidth} {pop (n) stringwidth} ifelse} def
/MFwidth {0 exch { dup 5 get 3 ge { 5 get 3 eq { 0 } { pop } ifelse }
 {dup 3 get{dup dup 0 get findfont exch 1 get scalefont setfont
     6 get Gswidth pop add} {pop} ifelse} ifelse} forall} def
/MLshow { currentpoint stroke M
  0 exch R
  Blacktext {gsave 0 setgray MFshow grestore} {MFshow} ifelse } bind def
/MRshow { currentpoint stroke M
  exch dup MFwidth neg 3 -1 roll R
  Blacktext {gsave 0 setgray MFshow grestore} {MFshow} ifelse } bind def
/MCshow { currentpoint stroke M
  exch dup MFwidth -2 div 3 -1 roll R
  Blacktext {gsave 0 setgray MFshow grestore} {MFshow} ifelse } bind def
/XYsave    { [( ) 1 2 true false 3 ()] } bind def
/XYrestore { [( ) 1 2 true false 4 ()] } bind def
Level1 SuppressPDFMark or 
{} {
/SDict 10 dict def
systemdict /pdfmark known not {
  userdict /pdfmark systemdict /cleartomark get put
} if
SDict begin [
  /Title (AST100vsMC-Time.eps)
  /Subject (gnuplot plot)
  /Creator (gnuplot 4.6 patchlevel 4)
  /Author (danny)
%  /Producer (gnuplot)
%  /Keywords ()
  /CreationDate (Thu Jun 19 11:29:36 2014)
  /DOCINFO pdfmark
end
} ifelse
end
%%EndProlog
%%Page: 1 1
gnudict begin
gsave
doclip
50 50 translate
0.050 0.050 scale
0 setgray
newpath
(Times-Roman) findfont 200 scalefont setfont
BackgroundColor 0 lt 3 1 roll 0 lt exch 0 lt or or not {BackgroundColor C 1.000 0 0 10080.00 7488.00 BoxColFill} if
gsave % colour palette begin
/maxcolors 0 def
/HSV2RGB {  exch dup 0.0 eq {pop exch pop dup dup} % achromatic gray
  { /HSVs exch def /HSVv exch def 6.0 mul dup floor dup 3 1 roll sub
     /HSVf exch def /HSVi exch cvi def /HSVp HSVv 1.0 HSVs sub mul def
	 /HSVq HSVv 1.0 HSVs HSVf mul sub mul def 
	 /HSVt HSVv 1.0 HSVs 1.0 HSVf sub mul sub mul def
	 /HSVi HSVi 6 mod def 0 HSVi eq {HSVv HSVt HSVp}
	 {1 HSVi eq {HSVq HSVv HSVp}{2 HSVi eq {HSVp HSVv HSVt}
	 {3 HSVi eq {HSVp HSVq HSVv}{4 HSVi eq {HSVt HSVp HSVv}
	 {HSVv HSVp HSVq} ifelse} ifelse} ifelse} ifelse} ifelse
  } ifelse} def
/Constrain {
  dup 0 lt {0 exch pop}{dup 1 gt {1 exch pop} if} ifelse} def
/YIQ2RGB {
  3 copy -1.702 mul exch -1.105 mul add add Constrain 4 1 roll
  3 copy -0.647 mul exch -0.272 mul add add Constrain 5 1 roll
  0.621 mul exch -0.956 mul add add Constrain 3 1 roll } def
/CMY2RGB {  1 exch sub exch 1 exch sub 3 2 roll 1 exch sub 3 1 roll exch } def
/XYZ2RGB {  3 copy -0.9017 mul exch -0.1187 mul add exch 0.0585 mul exch add
  Constrain 4 1 roll 3 copy -0.0279 mul exch 1.999 mul add exch
  -0.9844 mul add Constrain 5 1 roll -0.2891 mul exch -0.5338 mul add
  exch 1.91 mul exch add Constrain 3 1 roll} def
/SelectSpace {ColorSpace (HSV) eq {HSV2RGB}{ColorSpace (XYZ) eq {
  XYZ2RGB}{ColorSpace (CMY) eq {CMY2RGB}{ColorSpace (YIQ) eq {YIQ2RGB}
  if} ifelse} ifelse} ifelse} def
/InterpolatedColor true def
/grayindex {/gidx 0 def
  {GrayA gidx get grayv ge {exit} if /gidx gidx 1 add def} loop} def
/dgdx {grayv GrayA gidx get sub GrayA gidx 1 sub get
  GrayA gidx get sub div} def 
/redvalue {RedA gidx get RedA gidx 1 sub get
  RedA gidx get sub dgdxval mul add} def
/greenvalue {GreenA gidx get GreenA gidx 1 sub get
  GreenA gidx get sub dgdxval mul add} def
/bluevalue {BlueA gidx get BlueA gidx 1 sub get
  BlueA gidx get sub dgdxval mul add} def
/interpolate {
  grayindex grayv GrayA gidx get sub abs 1e-5 le
    {RedA gidx get GreenA gidx get BlueA gidx get}
    {/dgdxval dgdx def redvalue greenvalue bluevalue} ifelse} def
/GrayA [0 1 ] def
/RedA [0 1 ] def
/GreenA [1 0 ] def
/BlueA [0 0 ] def
/pm3dround {maxcolors 0 gt {dup 1 ge
	{pop 1} {maxcolors mul floor maxcolors 1 sub div} ifelse} if} def
/pm3dGamma 1.0 1.5 Gamma mul div def
/ColorSpace (RGB) def
Color InterpolatedColor or { % COLOUR vs. GRAY map
  InterpolatedColor { %% Interpolation vs. RGB-Formula
    /g {stroke pm3dround /grayv exch def interpolate
        SelectSpace setrgbcolor} bind def
  }{
  /g {stroke pm3dround dup cF7 Constrain exch dup cF5 Constrain exch cF15 Constrain 
       SelectSpace setrgbcolor} bind def
  } ifelse
}{
  /g {stroke pm3dround pm3dGamma exp setgray} bind def
} ifelse
1.000 UL
LTb
LCb setrgbcolor
1.000 UL
LTb
LCb setrgbcolor
1726 1588 M
3127 2850 L
stroke
LTb
LCb setrgbcolor
8354 2512 M
3127 2850 L
stroke
LTb
LCb setrgbcolor
1726 1588 M
0 3588 V
stroke
LTb
LCb setrgbcolor
3127 2850 M
0 3588 V
stroke
LTb
LCb setrgbcolor
8354 2512 M
0 3588 V
stroke
LTb
LCb setrgbcolor
1726 5176 M
3127 6438 L
stroke
LTb
LCb setrgbcolor
8354 6100 M
3127 6438 L
stroke
LTa
LCa setrgbcolor
1726 1588 M
3127 2850 L
stroke
LTb
LCb setrgbcolor
1726 1588 M
23 21 V
stroke
LTb
LCb setrgbcolor
1682 1522 M
[ [(Times-Roman) 200.0 0.0 true true 0 ( 0.1)]
] -66.7 MCshow
1.000 UL
LTb
LCb setrgbcolor
1.000 UL
LTb
LCb setrgbcolor
3127 2850 M
-23 -21 V
stroke
LTa
LCa setrgbcolor
2379 1545 M
3780 2807 L
stroke
LTb
LCb setrgbcolor
2379 1545 M
23 21 V
stroke
LTb
LCb setrgbcolor
2335 1479 M
[ [(Times-Roman) 200.0 0.0 true true 0 ( 0.2)]
] -66.7 MCshow
1.000 UL
LTb
LCb setrgbcolor
1.000 UL
LTb
LCb setrgbcolor
3780 2807 M
-23 -20 V
stroke
LTa
LCa setrgbcolor
3033 1503 M
4434 2765 L
stroke
LTb
LCb setrgbcolor
3033 1503 M
23 21 V
stroke
LTb
LCb setrgbcolor
2989 1437 M
[ [(Times-Roman) 200.0 0.0 true true 0 ( 0.3)]
] -66.7 MCshow
1.000 UL
LTb
LCb setrgbcolor
1.000 UL
LTb
LCb setrgbcolor
4434 2765 M
-23 -21 V
stroke
LTa
LCa setrgbcolor
3686 1461 M
5086 2723 L
stroke
LTb
LCb setrgbcolor
3686 1461 M
24 21 V
stroke
LTb
LCb setrgbcolor
3642 1395 M
[ [(Times-Roman) 200.0 0.0 true true 0 ( 0.4)]
] -66.7 MCshow
1.000 UL
LTb
LCb setrgbcolor
1.000 UL
LTb
LCb setrgbcolor
5086 2723 M
-23 -21 V
stroke
LTa
LCa setrgbcolor
4340 1419 M
5740 2681 L
stroke
LTb
LCb setrgbcolor
4340 1419 M
23 21 V
stroke
LTb
LCb setrgbcolor
4296 1353 M
[ [(Times-Roman) 200.0 0.0 true true 0 ( 0.5)]
] -66.7 MCshow
1.000 UL
LTb
LCb setrgbcolor
1.000 UL
LTb
LCb setrgbcolor
5740 2681 M
-23 -21 V
stroke
LTa
LCa setrgbcolor
4994 1376 M
6394 2638 L
stroke
LTb
LCb setrgbcolor
4994 1376 M
23 21 V
stroke
LTb
LCb setrgbcolor
4950 1310 M
[ [(Times-Roman) 200.0 0.0 true true 0 ( 0.6)]
] -66.7 MCshow
1.000 UL
LTb
LCb setrgbcolor
1.000 UL
LTb
LCb setrgbcolor
6394 2638 M
-24 -20 V
stroke
LTa
LCa setrgbcolor
5646 1334 M
7047 2596 L
stroke
LTb
LCb setrgbcolor
5646 1334 M
23 21 V
stroke
LTb
LCb setrgbcolor
5602 1268 M
[ [(Times-Roman) 200.0 0.0 true true 0 ( 0.7)]
] -66.7 MCshow
1.000 UL
LTb
LCb setrgbcolor
1.000 UL
LTb
LCb setrgbcolor
7047 2596 M
-23 -21 V
stroke
LTa
LCa setrgbcolor
6300 1292 M
7701 2554 L
stroke
LTb
LCb setrgbcolor
6300 1292 M
23 21 V
stroke
LTb
LCb setrgbcolor
6256 1226 M
[ [(Times-Roman) 200.0 0.0 true true 0 ( 0.8)]
] -66.7 MCshow
1.000 UL
LTb
LCb setrgbcolor
1.000 UL
LTb
LCb setrgbcolor
7701 2554 M
-23 -21 V
stroke
LTa
LCa setrgbcolor
6953 1250 M
8354 2512 L
stroke
LTb
LCb setrgbcolor
6953 1250 M
23 20 V
stroke
LTb
LCb setrgbcolor
6909 1184 M
[ [(Times-Roman) 200.0 0.0 true true 0 ( 0.9)]
] -66.7 MCshow
1.000 UL
LTb
LCb setrgbcolor
1.000 UL
LTb
LCb setrgbcolor
8354 2512 M
-23 -21 V
stroke
LTa
LCa setrgbcolor
6953 1250 M
1726 1588 L
stroke
LTb
LCb setrgbcolor
6953 1250 M
-61 4 V
stroke
7069 1237 M
[ [(Times-Roman) 200.0 0.0 true true 0 ( 0)]
] -66.7 MLshow
1.000 UL
LTb
LCb setrgbcolor
1.000 UL
LTb
LCb setrgbcolor
1726 1588 M
61 -4 V
stroke
LTa
LCa setrgbcolor
7093 1376 M
1866 1714 L
stroke
LTb
LCb setrgbcolor
7093 1376 M
-60 4 V
stroke
7209 1363 M
[ [(Times-Roman) 200.0 0.0 true true 0 ( 0.1)]
] -66.7 MLshow
1.000 UL
LTb
LCb setrgbcolor
1.000 UL
LTb
LCb setrgbcolor
1866 1714 M
61 -4 V
stroke
LTa
LCa setrgbcolor
7233 1502 M
2006 1840 L
stroke
LTb
LCb setrgbcolor
7233 1502 M
-60 4 V
stroke
7349 1490 M
[ [(Times-Roman) 200.0 0.0 true true 0 ( 0.2)]
] -66.7 MLshow
1.000 UL
LTb
LCb setrgbcolor
1.000 UL
LTb
LCb setrgbcolor
2006 1840 M
61 -4 V
stroke
LTa
LCa setrgbcolor
7374 1628 M
2146 1966 L
stroke
LTb
LCb setrgbcolor
7374 1628 M
-61 4 V
stroke
7489 1616 M
[ [(Times-Roman) 200.0 0.0 true true 0 ( 0.3)]
] -66.7 MLshow
1.000 UL
LTb
LCb setrgbcolor
1.000 UL
LTb
LCb setrgbcolor
2146 1966 M
61 -4 V
stroke
LTa
LCa setrgbcolor
7514 1754 M
2286 2093 L
stroke
LTb
LCb setrgbcolor
7514 1754 M
-61 4 V
stroke
7630 1742 M
[ [(Times-Roman) 200.0 0.0 true true 0 ( 0.4)]
] -66.7 MLshow
1.000 UL
LTb
LCb setrgbcolor
1.000 UL
LTb
LCb setrgbcolor
2286 2093 M
61 -4 V
stroke
LTa
LCa setrgbcolor
7654 1881 M
2426 2219 L
stroke
LTb
LCb setrgbcolor
7654 1881 M
-61 4 V
stroke
7770 1868 M
[ [(Times-Roman) 200.0 0.0 true true 0 ( 0.5)]
] -66.7 MLshow
1.000 UL
LTb
LCb setrgbcolor
1.000 UL
LTb
LCb setrgbcolor
2426 2219 M
61 -4 V
stroke
LTa
LCa setrgbcolor
7794 2007 M
2566 2345 L
stroke
LTb
LCb setrgbcolor
7794 2007 M
-61 4 V
stroke
7910 1994 M
[ [(Times-Roman) 200.0 0.0 true true 0 ( 0.6)]
] -66.7 MLshow
1.000 UL
LTb
LCb setrgbcolor
1.000 UL
LTb
LCb setrgbcolor
2566 2345 M
61 -4 V
stroke
LTa
LCa setrgbcolor
7934 2133 M
2706 2471 L
stroke
LTb
LCb setrgbcolor
7934 2133 M
-61 4 V
stroke
8050 2121 M
[ [(Times-Roman) 200.0 0.0 true true 0 ( 0.7)]
] -66.7 MLshow
1.000 UL
LTb
LCb setrgbcolor
1.000 UL
LTb
LCb setrgbcolor
2706 2471 M
61 -4 V
stroke
LTa
LCa setrgbcolor
8074 2259 M
2847 2597 L
stroke
LTb
LCb setrgbcolor
8074 2259 M
-61 4 V
stroke
8190 2247 M
[ [(Times-Roman) 200.0 0.0 true true 0 ( 0.8)]
] -66.7 MLshow
1.000 UL
LTb
LCb setrgbcolor
1.000 UL
LTb
LCb setrgbcolor
2847 2597 M
60 -4 V
stroke
LTa
LCa setrgbcolor
8214 2385 M
2987 2724 L
stroke
LTb
LCb setrgbcolor
8214 2385 M
-61 4 V
stroke
8330 2373 M
[ [(Times-Roman) 200.0 0.0 true true 0 ( 0.9)]
] -66.7 MLshow
1.000 UL
LTb
LCb setrgbcolor
1.000 UL
LTb
LCb setrgbcolor
2987 2724 M
60 -4 V
stroke
LTa
LCa setrgbcolor
8354 2512 M
3127 2850 L
stroke
LTb
LCb setrgbcolor
8354 2512 M
-61 4 V
stroke
8470 2499 M
[ [(Times-Roman) 200.0 0.0 true true 0 ( 1)]
] -66.7 MLshow
1.000 UL
LTb
LCb setrgbcolor
1.000 UL
LTb
LCb setrgbcolor
3127 2850 M
61 -4 V
stroke
LTa
LCa setrgbcolor
1726 1588 M
3127 2850 L
stroke
LTa
LCa setrgbcolor
3127 2850 M
8354 2512 L
stroke
LTb
LCb setrgbcolor
1726 1588 M
63 0 V
stroke
1600 1588 M
[ [(Times-Roman) 200.0 0.0 true true 0 ( 0)]
] -66.7 MRshow
1.000 UL
LTb
LCb setrgbcolor
1.000 UL
LTa
LCa setrgbcolor
1726 1914 M
3127 3176 L
stroke
LTa
LCa setrgbcolor
3127 3176 M
8354 2838 L
stroke
LTb
LCb setrgbcolor
1726 1914 M
63 0 V
stroke
1600 1914 M
[ [(Times-Roman) 200.0 0.0 true true 0 ( 0.01)]
] -66.7 MRshow
1.000 UL
LTb
LCb setrgbcolor
1.000 UL
LTa
LCa setrgbcolor
1726 2240 M
3127 3502 L
stroke
LTa
LCa setrgbcolor
3127 3502 M
8354 3164 L
stroke
LTb
LCb setrgbcolor
1726 2240 M
63 0 V
stroke
1600 2240 M
[ [(Times-Roman) 200.0 0.0 true true 0 ( 0.02)]
] -66.7 MRshow
1.000 UL
LTb
LCb setrgbcolor
1.000 UL
LTa
LCa setrgbcolor
1726 2567 M
3127 3829 L
stroke
LTa
LCa setrgbcolor
3127 3829 M
8354 3491 L
stroke
LTb
LCb setrgbcolor
1726 2567 M
63 0 V
stroke
1600 2567 M
[ [(Times-Roman) 200.0 0.0 true true 0 ( 0.03)]
] -66.7 MRshow
1.000 UL
LTb
LCb setrgbcolor
1.000 UL
LTa
LCa setrgbcolor
1726 2893 M
3127 4154 L
stroke
LTa
LCa setrgbcolor
3127 4154 M
8354 3817 L
stroke
LTb
LCb setrgbcolor
1726 2893 M
63 0 V
stroke
1600 2893 M
[ [(Times-Roman) 200.0 0.0 true true 0 ( 0.04)]
] -66.7 MRshow
1.000 UL
LTb
LCb setrgbcolor
1.000 UL
LTa
LCa setrgbcolor
1726 3219 M
3127 4480 L
stroke
LTa
LCa setrgbcolor
3127 4480 M
8354 4142 L
stroke
LTb
LCb setrgbcolor
1726 3219 M
63 0 V
stroke
1600 3219 M
[ [(Times-Roman) 200.0 0.0 true true 0 ( 0.05)]
] -66.7 MRshow
1.000 UL
LTb
LCb setrgbcolor
1.000 UL
LTa
LCa setrgbcolor
1726 3546 M
3127 4807 L
stroke
LTa
LCa setrgbcolor
3127 4807 M
8354 4469 L
stroke
LTb
LCb setrgbcolor
1726 3546 M
63 0 V
stroke
1600 3546 M
[ [(Times-Roman) 200.0 0.0 true true 0 ( 0.06)]
] -66.7 MRshow
1.000 UL
LTb
LCb setrgbcolor
1.000 UL
LTa
LCa setrgbcolor
1726 3871 M
3127 5133 L
stroke
LTa
LCa setrgbcolor
3127 5133 M
8354 4795 L
stroke
LTb
LCb setrgbcolor
1726 3871 M
63 0 V
stroke
1600 3871 M
[ [(Times-Roman) 200.0 0.0 true true 0 ( 0.07)]
] -66.7 MRshow
1.000 UL
LTb
LCb setrgbcolor
1.000 UL
LTa
LCa setrgbcolor
1726 4197 M
3127 5459 L
stroke
LTa
LCa setrgbcolor
3127 5459 M
8354 5121 L
stroke
LTb
LCb setrgbcolor
1726 4197 M
63 0 V
stroke
1600 4197 M
[ [(Times-Roman) 200.0 0.0 true true 0 ( 0.08)]
] -66.7 MRshow
1.000 UL
LTb
LCb setrgbcolor
1.000 UL
LTa
LCa setrgbcolor
1726 4524 M
3127 5786 L
stroke
LTa
LCa setrgbcolor
3127 5786 M
8354 5448 L
stroke
LTb
LCb setrgbcolor
1726 4524 M
63 0 V
stroke
1600 4524 M
[ [(Times-Roman) 200.0 0.0 true true 0 ( 0.09)]
] -66.7 MRshow
1.000 UL
LTb
LCb setrgbcolor
1.000 UL
LTa
LCa setrgbcolor
1726 4850 M
3127 6112 L
stroke
LTa
LCa setrgbcolor
3127 6112 M
8354 5774 L
stroke
LTb
LCb setrgbcolor
1726 4850 M
63 0 V
stroke
1600 4850 M
[ [(Times-Roman) 200.0 0.0 true true 0 ( 0.1)]
] -66.7 MRshow
1.000 UL
LTb
LCb setrgbcolor
1.000 UL
LTa
LCa setrgbcolor
1726 5176 M
3127 6438 L
stroke
LTa
LCa setrgbcolor
3127 6438 M
8354 6100 L
stroke
LTb
LCb setrgbcolor
1726 5176 M
63 0 V
stroke
1600 5176 M
[ [(Times-Roman) 200.0 0.0 true true 0 ( 0.11)]
] -66.7 MRshow
1.000 UL
LTb
LCb setrgbcolor
LCb setrgbcolor
886 3383 M
currentpoint gsave translate 90 rotate 0 0 moveto
[ [(Times-Roman) 200.0 0.0 true true 0 (Execution time \(s\))]
] -66.7 MCshow
grestore
LTb
1.000 UP
6720 1307935 M
[ [(Times-Roman) 200.0 0.0 true true 0 (MD)]
] -66.7 MLshow
6720 1242669 M
[ [(Times-Roman) 200.0 0.0 true true 0 (AS)]
] -66.7 MLshow
0.00 1.00 0.00 C 7178 1324222 M
[ [(Times-Roman) 200.0 0.0 true true 0 (-----)]
] -66.7 MLshow
1.00 0.00 0.00 C 7178 1258956 M
[ [(Times-Roman) 200.0 0.0 true true 0 (-----)]
] -66.7 MLshow
% Begin plot #1
1.000 UL
LT0
LC0 setrgbcolor
0.250 UL
LT1
0.27 0.27 0.27 C % End plot #1
% Begin plot #2
1.000 UL
LT1
LC1 setrgbcolor
0.250 UL
LT1
0.27 0.27 0.27 C % End plot #2
1 g gsave 3640 2717 N -653 42 V 140 92 V 653 -41 V 0.90 PolyFill
0.250 UL
LT1
0.27 0.27 0.27 C 3640 2717 M
140 93 V
-653 41 V
-140 -92 V
653 -42 V
1 g gsave 4294 2675 N -654 42 V 140 93 V 654 -41 V 0.90 PolyFill
stroke
LT1
0.27 0.27 0.27 C 4294 2675 M
140 94 V
-654 41 V
-140 -93 V
654 -42 V
1 g gsave 4947 2633 N -653 42 V 140 94 V 652 -40 V 0.90 PolyFill
stroke
LT1
0.27 0.27 0.27 C 4947 2633 M
139 96 V
-652 40 V
-140 -94 V
653 -42 V
0 g gsave 3640 3621 N -653 23 V 140 239 V 653 -133 V 0.90 PolyFill
stroke
LT1
0.27 0.27 0.27 C 3640 3621 M
140 129 V
-653 133 V
2987 3644 L
653 -23 V
1 g gsave 5600 2589 N -653 44 V 139 96 V 654 -40 V 0.90 PolyFill
stroke
LT1
0.27 0.27 0.27 C 5600 2589 M
140 100 V
-654 40 V
-139 -96 V
653 -44 V
1 g gsave 3500 2602 N -653 43 V 140 114 V 653 -42 V 0.90 PolyFill
stroke
LT1
0.27 0.27 0.27 C 3500 2602 M
140 115 V
-653 42 V
2847 2645 L
653 -43 V
0 g gsave 4294 3498 N -654 123 V 140 129 V 654 -40 V 0.90 PolyFill
stroke
LT1
0.27 0.27 0.27 C 4294 3498 M
140 212 V
-654 40 V
3640 3621 L
654 -123 V
1 g gsave 6253 2546 N -653 43 V 140 100 V 654 -39 V 0.90 PolyFill
stroke
LT1
0.27 0.27 0.27 C 6253 2546 M
141 104 V
-654 39 V
5600 2589 L
653 -43 V
1 g gsave 4154 2562 N -654 40 V 140 115 V 654 -42 V 0.90 PolyFill
stroke
LT1
0.27 0.27 0.27 C 4154 2562 M
140 113 V
-654 42 V
3500 2602 L
654 -40 V
0 g gsave 4947 3410 N -653 88 V 140 212 V 652 -135 V 0.90 PolyFill
stroke
LT1
0.27 0.27 0.27 C 4947 3410 M
139 165 V
-652 135 V
4294 3498 L
653 -88 V
0 g gsave 5600 3225 N -653 185 V 139 165 V 654 -159 V 0.90 PolyFill
stroke
LT1
0.27 0.27 0.27 C 5600 3225 M
140 191 V
-654 159 V
4947 3410 L
653 -185 V
1 g gsave 6907 2505 N -654 41 V 141 104 V 653 -38 V 0.90 PolyFill
stroke
LT1
0.27 0.27 0.27 C 6907 2505 M
140 107 V
-653 38 V
6253 2546 L
654 -41 V
1 g gsave 4807 2520 N -653 42 V 140 113 V 653 -42 V 0.90 PolyFill
stroke
LT1
0.27 0.27 0.27 C 4807 2520 M
140 113 V
-653 42 V
4154 2562 L
653 -42 V
0 g gsave 3500 3512 N -653 83 V 140 49 V 653 -23 V 0.90 PolyFill
stroke
LT1
0.27 0.27 0.27 C 3500 3512 M
140 109 V
-653 23 V
-140 -49 V
653 -83 V
1 g gsave 5460 2478 N -653 42 V 140 113 V 653 -44 V 0.90 PolyFill
stroke
LT1
0.27 0.27 0.27 C 5460 2478 M
140 111 V
-653 44 V
4807 2520 L
653 -42 V
1 g gsave 3360 2485 N -654 42 V 141 118 V 653 -43 V 0.90 PolyFill
stroke
LT1
0.27 0.27 0.27 C 3360 2485 M
140 117 V
-653 43 V
2706 2527 L
654 -42 V
1 g gsave 7561 2476 N -654 29 V 140 107 V 654 -33 V 0.90 PolyFill
stroke
LT1
0.27 0.27 0.27 C 7561 2476 M
140 103 V
-654 33 V
6907 2505 L
654 -29 V
0 g gsave 6253 3303 N -653 -78 V 140 191 V 654 -61 V 0.90 PolyFill
stroke
LT1
0.27 0.27 0.27 C 6253 3303 M
141 52 V
-654 61 V
5600 3225 L
653 78 V
0 g gsave 4154 3400 N -654 112 V 140 109 V 654 -123 V 0.90 PolyFill
stroke
LT1
0.27 0.27 0.27 C 4154 3400 M
140 98 V
-654 123 V
3500 3512 L
654 -112 V
0 g gsave 6907 3134 N -654 169 V 141 52 V 653 -117 V 0.90 PolyFill
stroke
LT1
0.27 0.27 0.27 C 6907 3134 M
140 104 V
-653 117 V
-141 -52 V
654 -169 V
1 g gsave 6113 2435 N -653 43 V 140 111 V 653 -43 V 0.90 PolyFill
stroke
LT1
0.27 0.27 0.27 C 6113 2435 M
140 111 V
-653 43 V
5460 2478 L
653 -43 V
1 g gsave 4014 2445 N -654 40 V 140 117 V 654 -40 V 0.90 PolyFill
stroke
LT1
0.27 0.27 0.27 C 4014 2445 M
140 117 V
-654 40 V
3360 2485 L
654 -40 V
0 g gsave 4807 3350 N -653 50 V 140 98 V 653 -88 V 0.90 PolyFill
stroke
LT1
0.27 0.27 0.27 C 4807 3350 M
140 60 V
-653 88 V
-140 -98 V
653 -50 V
0 g gsave 7561 3008 N -654 126 V 140 104 V 654 -108 V 0.90 PolyFill
stroke
LT1
0.27 0.27 0.27 C 7561 3008 M
140 122 V
-654 108 V
6907 3134 L
654 -126 V
1 g gsave 6767 2393 N -654 42 V 140 111 V 654 -41 V 0.90 PolyFill
stroke
LT1
0.27 0.27 0.27 C 6767 2393 M
140 112 V
-654 41 V
6113 2435 L
654 -42 V
1 g gsave 4667 2404 N -653 41 V 140 117 V 653 -42 V 0.90 PolyFill
stroke
LT1
0.27 0.27 0.27 C 4667 2404 M
140 116 V
-653 42 V
4014 2445 L
653 -41 V
1 g gsave 8214 2772 N -653 -296 V 140 103 V 653 4 V 0.90 PolyFill
stroke
LT1
0.27 0.27 0.27 C 8214 2772 M
140 -189 V
-653 -4 V
7561 2476 L
653 296 V
0 g gsave 5460 3160 N -653 190 V 140 60 V 653 -185 V 0.90 PolyFill
stroke
LT1
0.27 0.27 0.27 C 5460 3160 M
140 65 V
-653 185 V
-140 -60 V
653 -190 V
0 g gsave 8214 2932 N -653 76 V 140 122 V 653 -120 V 0.90 PolyFill
stroke
LT1
0.27 0.27 0.27 C 8214 2932 M
140 78 V
-653 120 V
7561 3008 L
653 -76 V
1 g gsave 3220 2364 N -654 42 V 140 121 V 654 -42 V 0.90 PolyFill
stroke
LT1
0.27 0.27 0.27 C 3220 2364 M
140 121 V
-654 42 V
2566 2406 L
654 -42 V
1 g gsave 5320 2361 N -653 43 V 140 116 V 653 -42 V 0.90 PolyFill
stroke
LT1
0.27 0.27 0.27 C 5320 2361 M
140 117 V
-653 42 V
4667 2404 L
653 -43 V
1 g gsave 7421 2380 N -654 13 V 140 112 V 654 -29 V 0.90 PolyFill
stroke
LT1
0.27 0.27 0.27 C 7421 2380 M
140 96 V
-654 29 V
6767 2393 L
654 -13 V
0 g gsave 6113 3108 N -653 52 V 140 65 V 653 78 V 0.90 PolyFill
stroke
LT1
0.27 0.27 0.27 C 6113 3108 M
140 195 V
-653 -78 V
-140 -65 V
653 -52 V
0 g gsave 3360 3479 N -654 54 V 141 62 V 653 -83 V 0.90 PolyFill
stroke
LT1
0.27 0.27 0.27 C 3360 3479 M
140 33 V
-653 83 V
-141 -62 V
654 -54 V
0 g gsave 4014 3339 N -654 140 V 140 33 V 654 -112 V 0.90 PolyFill
stroke
LT1
0.27 0.27 0.27 C 4014 3339 M
140 61 V
-654 112 V
-140 -33 V
654 -140 V
0 g gsave 6767 3036 N -654 72 V 140 195 V 654 -169 V 0.90 PolyFill
stroke
LT1
0.27 0.27 0.27 C 6767 3036 M
140 98 V
-654 169 V
6113 3108 L
654 -72 V
1 g gsave 5973 2319 N -653 42 V 140 117 V 653 -43 V 0.90 PolyFill
stroke
LT1
0.27 0.27 0.27 C 5973 2319 M
140 116 V
-653 43 V
5320 2361 L
653 -42 V
1 g gsave 3873 2325 N -653 39 V 140 121 V 654 -40 V 0.90 PolyFill
stroke
LT1
0.27 0.27 0.27 C 3873 2325 M
141 120 V
-654 40 V
3220 2364 L
653 -39 V
0 g gsave 4667 3306 N -653 33 V 140 61 V 653 -50 V 0.90 PolyFill
stroke
LT1
0.27 0.27 0.27 C 4667 3306 M
140 44 V
-653 50 V
-140 -61 V
653 -33 V
0 g gsave 7421 2953 N -654 83 V 140 98 V 654 -126 V 0.90 PolyFill
stroke
LT1
0.27 0.27 0.27 C 7421 2953 M
140 55 V
-654 126 V
-140 -98 V
654 -83 V
1 g gsave 4527 2284 N -654 41 V 141 120 V 653 -41 V 0.90 PolyFill
stroke
LT1
0.27 0.27 0.27 C 4527 2284 M
140 120 V
-653 41 V
3873 2325 L
654 -41 V
1 g gsave 6627 2282 N -654 37 V 140 116 V 654 -42 V 0.90 PolyFill
stroke
LT1
0.27 0.27 0.27 C 6627 2282 M
140 111 V
-654 42 V
5973 2319 L
654 -37 V
0 g gsave 5320 3110 N -653 196 V 140 44 V 653 -190 V 0.90 PolyFill
stroke
LT1
0.27 0.27 0.27 C 5320 3110 M
140 50 V
-653 190 V
-140 -44 V
653 -196 V
0 g gsave 8074 2836 N -653 117 V 140 55 V 653 -76 V 0.90 PolyFill
stroke
LT1
0.27 0.27 0.27 C 8074 2836 M
140 96 V
-653 76 V
-140 -55 V
653 -117 V
0 g gsave 3220 3229 N -654 121 V 140 183 V 654 -54 V 0.90 PolyFill
stroke
LT1
0.27 0.27 0.27 C 3220 3229 M
140 250 V
-654 54 V
2566 3350 L
654 -121 V
1 g gsave 3080 2242 N -654 41 V 140 123 V 654 -42 V 0.90 PolyFill
stroke
LT1
0.27 0.27 0.27 C 3080 2242 M
140 122 V
-654 42 V
2426 2283 L
654 -41 V
1 g gsave 5180 2242 N -653 42 V 140 120 V 653 -43 V 0.90 PolyFill
stroke
LT1
0.27 0.27 0.27 C 5180 2242 M
140 119 V
-653 43 V
4527 2284 L
653 -42 V
1 g gsave 7280 2312 N -653 -30 V 140 111 V 654 -13 V 0.90 PolyFill
stroke
LT1
0.27 0.27 0.27 C 7280 2312 M
141 68 V
-654 13 V
6627 2282 L
653 30 V
0 g gsave 5973 3056 N -653 54 V 140 50 V 653 -52 V 0.90 PolyFill
stroke
LT1
0.27 0.27 0.27 C 5973 3056 M
140 52 V
-653 52 V
-140 -50 V
653 -54 V
0 g gsave 3873 3166 N -653 63 V 140 250 V 654 -140 V 0.90 PolyFill
stroke
LT1
0.27 0.27 0.27 C 3873 3166 M
141 173 V
-654 140 V
3220 3229 L
653 -63 V
1 g gsave 3733 2203 N -653 39 V 140 122 V 653 -39 V 0.90 PolyFill
stroke
LT1
0.27 0.27 0.27 C 3733 2203 M
140 122 V
-653 39 V
3080 2242 L
653 -39 V
1 g gsave 5833 2203 N -653 39 V 140 119 V 653 -42 V 0.90 PolyFill
stroke
LT1
0.27 0.27 0.27 C 5833 2203 M
140 116 V
-653 42 V
5180 2242 L
653 -39 V
0 g gsave 6627 2938 N -654 118 V 140 52 V 654 -72 V 0.90 PolyFill
stroke
LT1
0.27 0.27 0.27 C 6627 2938 M
140 98 V
-654 72 V
-140 -52 V
654 -118 V
0 g gsave 4527 3056 N -654 110 V 141 173 V 653 -33 V 0.90 PolyFill
stroke
LT1
0.27 0.27 0.27 C 4527 3056 M
140 250 V
-653 33 V
3873 3166 L
654 -110 V
0 g gsave 7280 2811 N -653 127 V 140 98 V 654 -83 V 0.90 PolyFill
stroke
LT1
0.27 0.27 0.27 C 7280 2811 M
141 142 V
-654 83 V
-140 -98 V
653 -127 V
1 g gsave 4387 2163 N -654 40 V 140 122 V 654 -41 V 0.90 PolyFill
stroke
LT1
0.27 0.27 0.27 C 4387 2163 M
140 121 V
-654 41 V
3733 2203 L
654 -40 V
1 g gsave 6487 2174 N -654 29 V 140 116 V 654 -37 V 0.90 PolyFill
stroke
LT1
0.27 0.27 0.27 C 6487 2174 M
140 108 V
-654 37 V
5833 2203 L
654 -29 V
0 g gsave 5180 2912 N -653 144 V 140 250 V 653 -196 V 0.90 PolyFill
stroke
LT1
0.27 0.27 0.27 C 5180 2912 M
140 198 V
-653 196 V
4527 3056 L
653 -144 V
0 g gsave 7934 2707 N -654 104 V 141 142 V 653 -117 V 0.90 PolyFill
stroke
LT1
0.27 0.27 0.27 C 7934 2707 M
140 129 V
-653 117 V
7280 2811 L
654 -104 V
0 g gsave 3080 3132 N -654 93 V 140 125 V 654 -121 V 0.90 PolyFill
stroke
LT1
0.27 0.27 0.27 C 3080 3132 M
140 97 V
-654 121 V
2426 3225 L
654 -93 V
1 g gsave 2940 2117 N -654 42 V 140 124 V 654 -41 V 0.90 PolyFill
stroke
LT1
0.27 0.27 0.27 C 2940 2117 M
140 125 V
-654 41 V
2286 2159 L
654 -42 V
1 g gsave 5040 2121 N -653 42 V 140 121 V 653 -42 V 0.90 PolyFill
stroke
LT1
0.27 0.27 0.27 C 5040 2121 M
140 121 V
-653 42 V
4387 2163 L
653 -42 V
0 g gsave 5833 2878 N -653 34 V 140 198 V 653 -54 V 0.90 PolyFill
stroke
LT1
0.27 0.27 0.27 C 5833 2878 M
140 178 V
-653 54 V
5180 2912 L
653 -34 V
1 g gsave 8074 3965 N -653 -1585 V 140 96 V 653 296 V 0.90 PolyFill
stroke
LT1
0.27 0.27 0.27 C 8074 3965 M
8214 2772 L
7561 2476 L
-140 -96 V
653 1585 V
1 g gsave 7140 2270 N -653 -96 V 140 108 V 653 30 V 0.90 PolyFill
stroke
LT1
0.27 0.27 0.27 C 7140 2270 M
140 42 V
-653 -30 V
6487 2174 L
653 96 V
0 g gsave 3733 3082 N -653 50 V 140 97 V 653 -63 V 0.90 PolyFill
stroke
LT1
0.27 0.27 0.27 C 3733 3082 M
140 84 V
-653 63 V
-140 -97 V
653 -50 V
0 g gsave 6487 2779 N -654 99 V 140 178 V 654 -118 V 0.90 PolyFill
stroke
LT1
0.27 0.27 0.27 C 6487 2779 M
140 159 V
-654 118 V
5833 2878 L
654 -99 V
1 g gsave 3593 2078 N -653 39 V 140 125 V 653 -39 V 0.90 PolyFill
stroke
LT1
0.27 0.27 0.27 C 3593 2078 M
140 125 V
-653 39 V
2940 2117 L
653 -39 V
1 g gsave 5693 2085 N -653 36 V 140 121 V 653 -39 V 0.90 PolyFill
stroke
LT1
0.27 0.27 0.27 C 5693 2085 M
140 118 V
-653 39 V
5040 2121 L
653 -36 V
0 g gsave 7140 2658 N -653 121 V 140 159 V 653 -127 V 0.90 PolyFill
stroke
LT1
0.27 0.27 0.27 C 7140 2658 M
140 153 V
-653 127 V
6487 2779 L
653 -121 V
0 g gsave 4387 3049 N -654 33 V 140 84 V 654 -110 V 0.90 PolyFill
stroke
LT1
0.27 0.27 0.27 C 4387 3049 M
140 7 V
-654 110 V
-140 -84 V
654 -33 V
1 g gsave 4247 2037 N -654 41 V 140 125 V 654 -40 V 0.90 PolyFill
stroke
LT1
0.27 0.27 0.27 C 4247 2037 M
140 126 V
-654 40 V
3593 2078 L
654 -41 V
0 g gsave 5040 2782 N -653 267 V 140 7 V 653 -144 V 0.90 PolyFill
stroke
LT1
0.27 0.27 0.27 C 5040 2782 M
140 130 V
-653 144 V
-140 -7 V
653 -267 V
1 g gsave 6347 2060 N -654 25 V 140 118 V 654 -29 V 0.90 PolyFill
stroke
LT1
0.27 0.27 0.27 C 6347 2060 M
140 114 V
-654 29 V
5693 2085 L
654 -25 V
0 g gsave 2940 3007 N -654 144 V 140 74 V 654 -93 V 0.90 PolyFill
stroke
LT1
0.27 0.27 0.27 C 2940 3007 M
140 125 V
-654 93 V
-140 -74 V
654 -144 V
0 g gsave 7794 2639 N -654 19 V 140 153 V 654 -104 V 0.90 PolyFill
stroke
LT1
0.27 0.27 0.27 C 7794 2639 M
140 68 V
-654 104 V
7140 2658 L
654 -19 V
1 g gsave 2800 1991 N -654 42 V 140 126 V 654 -42 V 0.90 PolyFill
stroke
LT1
0.27 0.27 0.27 C 2800 1991 M
140 126 V
-654 42 V
2146 2033 L
654 -42 V
1 g gsave 4900 1996 N -653 41 V 140 126 V 653 -42 V 0.90 PolyFill
stroke
LT1
0.27 0.27 0.27 C 4900 1996 M
140 125 V
-653 42 V
4247 2037 L
653 -41 V
0 g gsave 5693 2810 N -653 -28 V 140 130 V 653 -34 V 0.90 PolyFill
stroke
LT1
0.27 0.27 0.27 C 5693 2810 M
140 68 V
-653 34 V
5040 2782 L
653 28 V
1 g gsave 7000 2258 N -653 -198 V 140 114 V 653 96 V 0.90 PolyFill
stroke
LT1
0.27 0.27 0.27 C 7000 2258 M
140 12 V
-653 -96 V
6347 2060 L
653 198 V
0 g gsave 3593 2990 N -653 17 V 140 125 V 653 -50 V 0.90 PolyFill
stroke
LT1
0.27 0.27 0.27 C 3593 2990 M
140 92 V
-653 50 V
2940 3007 L
653 -17 V
0 g gsave 6347 2656 N -654 154 V 140 68 V 654 -99 V 0.90 PolyFill
stroke
LT1
0.27 0.27 0.27 C 6347 2656 M
140 123 V
-654 99 V
-140 -68 V
654 -154 V
1 g gsave 3453 1952 N -653 39 V 140 126 V 653 -39 V 0.90 PolyFill
stroke
LT1
0.27 0.27 0.27 C 3453 1952 M
140 126 V
-653 39 V
2800 1991 L
653 -39 V
1 g gsave 5553 1971 N -653 25 V 140 125 V 653 -36 V 0.90 PolyFill
stroke
LT1
0.27 0.27 0.27 C 5553 1971 M
140 114 V
-653 36 V
4900 1996 L
653 -25 V
0 g gsave 4247 2869 N -654 121 V 140 92 V 654 -33 V 0.90 PolyFill
stroke
LT1
0.27 0.27 0.27 C 4247 2869 M
140 180 V
-654 33 V
-140 -92 V
654 -121 V
0 g gsave 7000 2549 N -653 107 V 140 123 V 653 -121 V 0.90 PolyFill
stroke
LT1
0.27 0.27 0.27 C 7000 2549 M
140 109 V
-653 121 V
6347 2656 L
653 -107 V
1 g gsave 4107 1912 N -654 40 V 140 126 V 654 -41 V 0.90 PolyFill
stroke
LT1
0.27 0.27 0.27 C 4107 1912 M
140 125 V
-654 41 V
3453 1952 L
654 -40 V
0 g gsave 4900 2676 N -653 193 V 140 180 V 653 -267 V 0.90 PolyFill
stroke
LT1
0.27 0.27 0.27 C 4900 2676 M
140 106 V
-653 267 V
4247 2869 L
653 -193 V
1 g gsave 6207 1980 N -654 -9 V 140 114 V 654 -25 V 0.90 PolyFill
stroke
LT1
0.27 0.27 0.27 C 6207 1980 M
140 80 V
-654 25 V
5553 1971 L
654 9 V
0 g gsave 7654 2426 N -654 123 V 140 109 V 654 -19 V 0.90 PolyFill
stroke
LT1
0.27 0.27 0.27 C 7654 2426 M
140 213 V
-654 19 V
7000 2549 L
654 -123 V
1 g gsave 7934 4663 N -654 -2351 V 141 68 V 653 1585 V 0.90 PolyFill
stroke
LT1
0.27 0.27 0.27 C 7934 4663 M
140 -698 V
7421 2380 L
-141 -68 V
654 2351 V
0 g gsave 2800 2898 N -654 156 V 140 97 V 654 -144 V 0.90 PolyFill
stroke
LT1
0.27 0.27 0.27 C 2800 2898 M
140 109 V
-654 144 V
-140 -97 V
654 -156 V
1 g gsave 2659 1865 N -653 41 V 140 127 V 654 -42 V 0.90 PolyFill
stroke
LT1
0.27 0.27 0.27 C 2659 1865 M
141 126 V
-654 42 V
2006 1906 L
653 -41 V
1 g gsave 4760 1871 N -653 41 V 140 125 V 653 -41 V 0.90 PolyFill
stroke
LT1
0.27 0.27 0.27 C 4760 1871 M
140 125 V
-653 41 V
4107 1912 L
653 -41 V
0 g gsave 5553 2652 N -653 24 V 140 106 V 653 28 V 0.90 PolyFill
stroke
LT1
0.27 0.27 0.27 C 5553 2652 M
140 158 V
-653 -28 V
4900 2676 L
653 -24 V
0 g gsave 3453 2787 N -653 111 V 140 109 V 653 -17 V 0.90 PolyFill
stroke
LT1
0.27 0.27 0.27 C 3453 2787 M
140 203 V
-653 17 V
2800 2898 L
653 -111 V
0 g gsave 6207 2530 N -654 122 V 140 158 V 654 -154 V 0.90 PolyFill
stroke
LT1
0.27 0.27 0.27 C 6207 2530 M
140 126 V
-654 154 V
5553 2652 L
654 -122 V
1 g gsave 3313 1826 N -654 39 V 141 126 V 653 -39 V 0.90 PolyFill
stroke
LT1
0.27 0.27 0.27 C 3313 1826 M
140 126 V
-653 39 V
2659 1865 L
654 -39 V
1 g gsave 5413 1845 N -653 26 V 140 125 V 653 -25 V 0.90 PolyFill
stroke
LT1
0.27 0.27 0.27 C 5413 1845 M
140 126 V
-653 25 V
4760 1871 L
653 -26 V
0 g gsave 6860 2355 N -653 175 V 140 126 V 653 -107 V 0.90 PolyFill
stroke
LT1
0.27 0.27 0.27 C 6860 2355 M
140 194 V
-653 107 V
6207 2530 L
653 -175 V
1 g gsave 6860 2372 N -653 -392 V 140 80 V 653 198 V 0.90 PolyFill
stroke
LT1
0.27 0.27 0.27 C 6860 2372 M
140 -114 V
6347 2060 L
-140 -80 V
653 392 V
0 g gsave 4107 2766 N -654 21 V 140 203 V 654 -121 V 0.90 PolyFill
stroke
LT1
0.27 0.27 0.27 C 4107 2766 M
140 103 V
-654 121 V
3453 2787 L
654 -21 V
1 g gsave 3967 1786 N -654 40 V 140 126 V 654 -40 V 0.90 PolyFill
stroke
LT1
0.27 0.27 0.27 C 3967 1786 M
140 126 V
-654 40 V
3313 1826 L
654 -40 V
0 g gsave 4760 2561 N -653 205 V 140 103 V 653 -193 V 0.90 PolyFill
stroke
LT1
0.27 0.27 0.27 C 4760 2561 M
140 115 V
-653 193 V
4107 2766 L
653 -205 V
1 g gsave 6066 1891 N -653 -46 V 140 126 V 654 9 V 0.90 PolyFill
stroke
LT1
0.27 0.27 0.27 C 6066 1891 M
141 89 V
-654 -9 V
5413 1845 L
653 46 V
0 g gsave 7514 2302 N -654 53 V 140 194 V 654 -123 V 0.90 PolyFill
stroke
LT1
0.27 0.27 0.27 C 7514 2302 M
140 124 V
-654 123 V
6860 2355 L
654 -53 V
1 g gsave 2519 1739 N -653 41 V 140 126 V 653 -41 V 0.90 PolyFill
stroke
LT1
0.27 0.27 0.27 C 2519 1739 M
140 126 V
-653 41 V
1866 1780 L
653 -41 V
0 g gsave 2659 2821 N -653 87 V 140 146 V 654 -156 V 0.90 PolyFill
stroke
LT1
0.27 0.27 0.27 C 2659 2821 M
141 77 V
-654 156 V
2006 2908 L
653 -87 V
1 g gsave 4620 1746 N -653 40 V 140 126 V 653 -41 V 0.90 PolyFill
stroke
LT1
0.27 0.27 0.27 C 4620 1746 M
140 125 V
-653 41 V
3967 1786 L
653 -40 V
0 g gsave 5413 2556 N -653 5 V 140 115 V 653 -24 V 0.90 PolyFill
stroke
LT1
0.27 0.27 0.27 C 5413 2556 M
140 96 V
-653 24 V
4760 2561 L
653 -5 V
0 g gsave 3313 2668 N -654 153 V 141 77 V 653 -111 V 0.90 PolyFill
stroke
LT1
0.27 0.27 0.27 C 3313 2668 M
140 119 V
-653 111 V
-141 -77 V
654 -153 V
1 g gsave 7794 4871 N -654 -2601 V 140 42 V 654 2351 V 0.90 PolyFill
stroke
LT1
0.27 0.27 0.27 C 7794 4871 M
140 -208 V
7280 2312 L
-140 -42 V
654 2601 V
0 g gsave 6066 2403 N -653 153 V 140 96 V 654 -122 V 0.90 PolyFill
stroke
LT1
0.27 0.27 0.27 C 6066 2403 M
141 127 V
-654 122 V
-140 -96 V
653 -153 V
1 g gsave 3173 1701 N -654 38 V 140 126 V 654 -39 V 0.90 PolyFill
stroke
LT1
0.27 0.27 0.27 C 3173 1701 M
140 125 V
-654 39 V
2519 1739 L
654 -38 V
1 g gsave 5273 1715 N -653 31 V 140 125 V 653 -26 V 0.90 PolyFill
stroke
LT1
0.27 0.27 0.27 C 5273 1715 M
140 130 V
-653 26 V
4620 1746 L
653 -31 V
0 g gsave 3967 2598 N -654 70 V 140 119 V 654 -21 V 0.90 PolyFill
stroke
LT1
0.27 0.27 0.27 C 3967 2598 M
140 168 V
-654 21 V
3313 2668 L
654 -70 V
0 g gsave 6720 2300 N -654 103 V 141 127 V 653 -175 V 0.90 PolyFill
stroke
LT1
0.27 0.27 0.27 C 6720 2300 M
140 55 V
-653 175 V
6066 2403 L
654 -103 V
1 g gsave 3827 1659 N -654 42 V 140 125 V 654 -40 V 0.90 PolyFill
stroke
LT1
0.27 0.27 0.27 C 3827 1659 M
140 127 V
-654 40 V
3173 1701 L
654 -42 V
0 g gsave 4620 2432 N -653 166 V 140 168 V 653 -205 V 0.90 PolyFill
stroke
LT1
0.27 0.27 0.27 C 4620 2432 M
140 129 V
-653 205 V
3967 2598 L
653 -166 V
1 g gsave 6720 2489 N -654 -598 V 141 89 V 653 392 V 0.90 PolyFill
stroke
LT1
0.27 0.27 0.27 C 6720 2489 M
140 -117 V
6207 1980 L
-141 -89 V
654 598 V
0 g gsave 7374 2156 N -654 144 V 140 55 V 654 -53 V 0.90 PolyFill
stroke
LT1
0.27 0.27 0.27 C 7374 2156 M
140 146 V
-654 53 V
-140 -55 V
654 -144 V
1 g gsave 5926 1833 N -653 -118 V 140 130 V 653 46 V 0.90 PolyFill
stroke
LT1
0.27 0.27 0.27 C 5926 1833 M
140 58 V
-653 -46 V
5273 1715 L
653 118 V
0 g gsave 2519 2642 N -653 102 V 140 164 V 653 -87 V 0.90 PolyFill
stroke
LT1
0.27 0.27 0.27 C 2519 2642 M
140 179 V
-653 87 V
1866 2744 L
653 -102 V
1 g gsave 2379 1611 N -653 43 V 140 126 V 653 -41 V 0.90 PolyFill
stroke
LT1
0.27 0.27 0.27 C 2379 1611 M
140 128 V
-653 41 V
1726 1654 L
653 -43 V
1 g gsave 4480 1618 N -653 41 V 140 127 V 653 -40 V 0.90 PolyFill
stroke
LT1
0.27 0.27 0.27 C 4480 1618 M
140 128 V
-653 40 V
3827 1659 L
653 -41 V
0 g gsave 5273 2408 N -653 24 V 140 129 V 653 -5 V 0.90 PolyFill
stroke
LT1
0.27 0.27 0.27 C 5273 2408 M
140 148 V
-653 5 V
4620 2432 L
653 -24 V
0 g gsave 3173 2570 N -654 72 V 140 179 V 654 -153 V 0.90 PolyFill
stroke
LT1
0.27 0.27 0.27 C 3173 2570 M
140 98 V
-654 153 V
2519 2642 L
654 -72 V
1 g gsave 3033 1572 N -654 39 V 140 128 V 654 -38 V 0.90 PolyFill
stroke
LT1
0.27 0.27 0.27 C 3033 1572 M
140 129 V
-654 38 V
2379 1611 L
654 -39 V
1 g gsave 5133 1582 N -653 36 V 140 128 V 653 -31 V 0.90 PolyFill
stroke
LT1
0.27 0.27 0.27 C 5133 1582 M
140 133 V
-653 31 V
4480 1618 L
653 -36 V
0 g gsave 5926 2318 N -653 90 V 140 148 V 653 -153 V 0.90 PolyFill
stroke
LT1
0.27 0.27 0.27 C 5926 2318 M
140 85 V
-653 153 V
5273 2408 L
653 -90 V
1 g gsave 7654 4911 N -654 -2653 V 140 12 V 654 2601 V 0.90 PolyFill
stroke
LT1
0.27 0.27 0.27 C 7654 4911 M
140 -40 V
7140 2270 L
-140 -12 V
654 2653 V
0 g gsave 6580 2084 N -654 234 V 140 85 V 654 -103 V 0.90 PolyFill
stroke
LT1
0.27 0.27 0.27 C 6580 2084 M
140 216 V
-654 103 V
-140 -85 V
654 -234 V
0 g gsave 3827 2466 N -654 104 V 140 98 V 654 -70 V 0.90 PolyFill
stroke
LT1
0.27 0.27 0.27 C 3827 2466 M
140 132 V
-654 70 V
-140 -98 V
654 -104 V
1 g gsave 3686 1532 N -653 40 V 140 129 V 654 -42 V 0.90 PolyFill
stroke
LT1
0.27 0.27 0.27 C 3686 1532 M
141 127 V
-654 42 V
3033 1572 L
653 -40 V
0 g gsave 4480 2277 N -653 189 V 140 132 V 653 -166 V 0.90 PolyFill
stroke
LT1
0.27 0.27 0.27 C 4480 2277 M
140 155 V
-653 166 V
3827 2466 L
653 -189 V
0 g gsave 7233 1999 N -653 85 V 140 216 V 654 -144 V 0.90 PolyFill
stroke
LT1
0.27 0.27 0.27 C 7233 1999 M
141 157 V
-654 144 V
6580 2084 L
653 -85 V
0 g gsave 2379 2464 N -653 112 V 140 168 V 653 -102 V 0.90 PolyFill
stroke
LT1
0.27 0.27 0.27 C 2379 2464 M
140 178 V
-653 102 V
1726 2576 L
653 -112 V
1 g gsave 5786 1843 N -653 -261 V 140 133 V 653 118 V 0.90 PolyFill
stroke
LT1
0.27 0.27 0.27 C 5786 1843 M
140 -10 V
5273 1715 L
5133 1582 L
653 261 V
1 g gsave 4340 1492 N -654 40 V 141 127 V 653 -41 V 0.90 PolyFill
stroke
LT1
0.27 0.27 0.27 C 4340 1492 M
140 126 V
-653 41 V
3686 1532 L
654 -40 V
0 g gsave 5133 2318 N -653 -41 V 140 155 V 653 -24 V 0.90 PolyFill
stroke
LT1
0.27 0.27 0.27 C 5133 2318 M
140 90 V
-653 24 V
4480 2277 L
653 41 V
0 g gsave 3033 2367 N -654 97 V 140 178 V 654 -72 V 0.90 PolyFill
stroke
LT1
0.27 0.27 0.27 C 3033 2367 M
140 203 V
-654 72 V
2379 2464 L
654 -97 V
1 g gsave 6580 2771 N -654 -938 V 140 58 V 654 598 V 0.90 PolyFill
stroke
LT1
0.27 0.27 0.27 C 6580 2771 M
140 -282 V
6066 1891 L
-140 -58 V
654 938 V
0 g gsave 5786 2126 N -653 192 V 140 90 V 653 -90 V 0.90 PolyFill
stroke
LT1
0.27 0.27 0.27 C 5786 2126 M
140 192 V
-653 90 V
-140 -90 V
653 -192 V
0 g gsave 3686 2274 N -653 93 V 140 203 V 654 -104 V 0.90 PolyFill
stroke
LT1
0.27 0.27 0.27 C 3686 2274 M
141 192 V
-654 104 V
3033 2367 L
653 -93 V
1 g gsave 4994 1576 N -654 -84 V 140 126 V 653 -36 V 0.90 PolyFill
stroke
LT1
0.27 0.27 0.27 C 4994 1576 M
139 6 V
-653 36 V
4340 1492 L
654 84 V
0 g gsave 6440 2004 N -654 122 V 140 192 V 654 -234 V 0.90 PolyFill
stroke
LT1
0.27 0.27 0.27 C 6440 2004 M
140 80 V
-654 234 V
5786 2126 L
654 -122 V
1 g gsave 7514 4882 N -654 -2510 V 140 -114 V 654 2653 V 0.90 PolyFill
stroke
LT1
0.27 0.27 0.27 C 7514 4882 M
140 29 V
7000 2258 L
-140 114 V
654 2510 V
0 g gsave 4340 2092 N -654 182 V 141 192 V 653 -189 V 0.90 PolyFill
stroke
LT1
0.27 0.27 0.27 C 4340 2092 M
140 185 V
-653 189 V
3686 2274 L
654 -182 V
0 g gsave 7093 1869 N -653 135 V 140 80 V 653 -85 V 0.90 PolyFill
stroke
LT1
0.27 0.27 0.27 C 7093 1869 M
140 130 V
-653 85 V
-140 -80 V
653 -135 V
0 g gsave 4994 2056 N -654 36 V 140 185 V 653 41 V 0.90 PolyFill
stroke
LT1
0.27 0.27 0.27 C 4994 2056 M
139 262 V
-653 -41 V
4340 2092 L
654 -36 V
0 g gsave 5646 1928 N -652 128 V 139 262 V 653 -192 V 0.90 PolyFill
stroke
LT1
0.27 0.27 0.27 C 5646 1928 M
140 198 V
-653 192 V
4994 2056 L
652 -128 V
1 g gsave 5646 2012 N -652 -436 V 139 6 V 653 261 V 0.90 PolyFill
stroke
LT1
0.27 0.27 0.27 C 5646 2012 M
140 -169 V
5133 1582 L
-139 -6 V
652 436 V
0 g gsave 6300 1769 N -654 159 V 140 198 V 654 -122 V 0.90 PolyFill
stroke
LT1
0.27 0.27 0.27 C 6300 1769 M
140 235 V
-654 122 V
5646 1928 L
654 -159 V
1 g gsave 7374 4770 N -654 -2281 V 140 -117 V 654 2510 V 0.90 PolyFill
stroke
LT1
0.27 0.27 0.27 C 7374 4770 M
140 112 V
6860 2372 L
-140 117 V
654 2281 V
0 g gsave 6953 1702 N -653 67 V 140 235 V 653 -135 V 0.90 PolyFill
stroke
LT1
0.27 0.27 0.27 C 6953 1702 M
140 167 V
-653 135 V
6300 1769 L
653 -67 V
1 g gsave 6440 3253 N -654 -1410 V 140 -10 V 654 938 V 0.90 PolyFill
stroke
LT1
0.27 0.27 0.27 C 6440 3253 M
140 -482 V
5926 1833 L
-140 10 V
654 1410 V
1 g gsave 7233 4734 N -653 -1963 V 140 -282 V 654 2281 V 0.90 PolyFill
stroke
LT1
0.27 0.27 0.27 C 7233 4734 M
141 36 V
6720 2489 L
-140 282 V
653 1963 V
1 g gsave 6300 3595 N -654 -1583 V 140 -169 V 654 1410 V 0.90 PolyFill
stroke
LT1
0.27 0.27 0.27 C 6300 3595 M
140 -342 V
5786 1843 L
-140 169 V
654 1583 V
1 g gsave 7093 4639 N -653 -1386 V 140 -482 V 653 1963 V 0.90 PolyFill
stroke
LT1
0.27 0.27 0.27 C 7093 4639 M
140 95 V
6580 2771 L
-140 482 V
653 1386 V
1 g gsave 6953 4513 N -653 -918 V 140 -342 V 653 1386 V 0.90 PolyFill
stroke
LT1
0.27 0.27 0.27 C 6953 4513 M
140 126 V
6440 3253 L
-140 342 V
653 918 V
stroke
1.000 UL
LTb
LCb setrgbcolor
8354 2512 M
6953 1250 L
stroke
LTb
LCb setrgbcolor
1726 1588 M
6953 1250 L
stroke
LTb
LCb setrgbcolor
6953 1250 M
0 3263 V
stroke
LCb setrgbcolor
3990 1103 M
[ [(Times-Roman) 200.0 0.0 true true 0 (Probability of incompleteness p1)]
] -66.7 MCshow
LTb
LCb setrgbcolor
8961 1796 M
[ [(Times-Roman) 200.0 0.0 true true 0 (Probability of ties p2)]
] -66.7 MCshow
LTb
LCb setrgbcolor
886 3383 M
currentpoint gsave translate 90 rotate 0 0 moveto
[ [(Times-Roman) 200.0 0.0 true true 0 (Execution time \(s\))]
] -66.7 MCshow
grestore
LTb
1.000 UP
grestore % colour palette end
stroke
grestore
end
showpage
%%Trailer
%%DocumentFonts: Times-Roman
