%!PS-Adobe-2.0 EPSF-2.0
%%Title: AST100vsMC-3DTime.eps
%%Creator: gnuplot 4.6 patchlevel 4
%%CreationDate: Mon Sep  8 12:00:47 2014
%%DocumentFonts: (atend)
%%BoundingBox: 50 50 554 338
%%EndComments
%%BeginProlog
/gnudict 256 dict def
gnudict begin
%
% The following true/false flags may be edited by hand if desired.
% The unit line width and grayscale image gamma correction may also be changed.
%
/Color true def
/Blacktext false def
/Solid false def
/Dashlength 1 def
/Landscape false def
/Level1 false def
/Rounded false def
/ClipToBoundingBox false def
/SuppressPDFMark false def
/TransparentPatterns false def
/gnulinewidth 5.000 def
/userlinewidth gnulinewidth def
/Gamma 1.0 def
/BackgroundColor {-1.000 -1.000 -1.000} def
%
/vshift -66 def
/dl1 {
  10.0 Dashlength mul mul
  Rounded { currentlinewidth 0.75 mul sub dup 0 le { pop 0.01 } if } if
} def
/dl2 {
  10.0 Dashlength mul mul
  Rounded { currentlinewidth 0.75 mul add } if
} def
/hpt_ 31.5 def
/vpt_ 31.5 def
/hpt hpt_ def
/vpt vpt_ def
/doclip {
  ClipToBoundingBox {
    newpath 50 50 moveto 554 50 lineto 554 338 lineto 50 338 lineto closepath
    clip
  } if
} def
%
% Gnuplot Prolog Version 4.6 (September 2012)
%
%/SuppressPDFMark true def
%
/M {moveto} bind def
/L {lineto} bind def
/R {rmoveto} bind def
/V {rlineto} bind def
/N {newpath moveto} bind def
/Z {closepath} bind def
/C {setrgbcolor} bind def
/f {rlineto fill} bind def
/g {setgray} bind def
/Gshow {show} def   % May be redefined later in the file to support UTF-8
/vpt2 vpt 2 mul def
/hpt2 hpt 2 mul def
/Lshow {currentpoint stroke M 0 vshift R 
	Blacktext {gsave 0 setgray show grestore} {show} ifelse} def
/Rshow {currentpoint stroke M dup stringwidth pop neg vshift R
	Blacktext {gsave 0 setgray show grestore} {show} ifelse} def
/Cshow {currentpoint stroke M dup stringwidth pop -2 div vshift R 
	Blacktext {gsave 0 setgray show grestore} {show} ifelse} def
/UP {dup vpt_ mul /vpt exch def hpt_ mul /hpt exch def
  /hpt2 hpt 2 mul def /vpt2 vpt 2 mul def} def
/DL {Color {setrgbcolor Solid {pop []} if 0 setdash}
 {pop pop pop 0 setgray Solid {pop []} if 0 setdash} ifelse} def
/BL {stroke userlinewidth 2 mul setlinewidth
	Rounded {1 setlinejoin 1 setlinecap} if} def
/AL {stroke userlinewidth 2 div setlinewidth
	Rounded {1 setlinejoin 1 setlinecap} if} def
/UL {dup gnulinewidth mul /userlinewidth exch def
	dup 1 lt {pop 1} if 10 mul /udl exch def} def
/PL {stroke userlinewidth setlinewidth
	Rounded {1 setlinejoin 1 setlinecap} if} def
3.8 setmiterlimit
% Default Line colors
/LCw {1 1 1} def
/LCb {0 0 0} def
/LCa {0 0 0} def
/LC0 {1 0 0} def
/LC1 {0 1 0} def
/LC2 {0 0 1} def
/LC3 {1 0 1} def
/LC4 {0 1 1} def
/LC5 {1 1 0} def
/LC6 {0 0 0} def
/LC7 {1 0.3 0} def
/LC8 {0.5 0.5 0.5} def
% Default Line Types
/LTw {PL [] 1 setgray} def
/LTb {BL [] LCb DL} def
/LTa {AL [1 udl mul 2 udl mul] 0 setdash LCa setrgbcolor} def
/LT0 {PL [] LC0 DL} def
/LT1 {PL [4 dl1 2 dl2] LC1 DL} def
/LT2 {PL [2 dl1 3 dl2] LC2 DL} def
/LT3 {PL [1 dl1 1.5 dl2] LC3 DL} def
/LT4 {PL [6 dl1 2 dl2 1 dl1 2 dl2] LC4 DL} def
/LT5 {PL [3 dl1 3 dl2 1 dl1 3 dl2] LC5 DL} def
/LT6 {PL [2 dl1 2 dl2 2 dl1 6 dl2] LC6 DL} def
/LT7 {PL [1 dl1 2 dl2 6 dl1 2 dl2 1 dl1 2 dl2] LC7 DL} def
/LT8 {PL [2 dl1 2 dl2 2 dl1 2 dl2 2 dl1 2 dl2 2 dl1 4 dl2] LC8 DL} def
/Pnt {stroke [] 0 setdash gsave 1 setlinecap M 0 0 V stroke grestore} def
/Dia {stroke [] 0 setdash 2 copy vpt add M
  hpt neg vpt neg V hpt vpt neg V
  hpt vpt V hpt neg vpt V closepath stroke
  Pnt} def
/Pls {stroke [] 0 setdash vpt sub M 0 vpt2 V
  currentpoint stroke M
  hpt neg vpt neg R hpt2 0 V stroke
 } def
/Box {stroke [] 0 setdash 2 copy exch hpt sub exch vpt add M
  0 vpt2 neg V hpt2 0 V 0 vpt2 V
  hpt2 neg 0 V closepath stroke
  Pnt} def
/Crs {stroke [] 0 setdash exch hpt sub exch vpt add M
  hpt2 vpt2 neg V currentpoint stroke M
  hpt2 neg 0 R hpt2 vpt2 V stroke} def
/TriU {stroke [] 0 setdash 2 copy vpt 1.12 mul add M
  hpt neg vpt -1.62 mul V
  hpt 2 mul 0 V
  hpt neg vpt 1.62 mul V closepath stroke
  Pnt} def
/Star {2 copy Pls Crs} def
/BoxF {stroke [] 0 setdash exch hpt sub exch vpt add M
  0 vpt2 neg V hpt2 0 V 0 vpt2 V
  hpt2 neg 0 V closepath fill} def
/TriUF {stroke [] 0 setdash vpt 1.12 mul add M
  hpt neg vpt -1.62 mul V
  hpt 2 mul 0 V
  hpt neg vpt 1.62 mul V closepath fill} def
/TriD {stroke [] 0 setdash 2 copy vpt 1.12 mul sub M
  hpt neg vpt 1.62 mul V
  hpt 2 mul 0 V
  hpt neg vpt -1.62 mul V closepath stroke
  Pnt} def
/TriDF {stroke [] 0 setdash vpt 1.12 mul sub M
  hpt neg vpt 1.62 mul V
  hpt 2 mul 0 V
  hpt neg vpt -1.62 mul V closepath fill} def
/DiaF {stroke [] 0 setdash vpt add M
  hpt neg vpt neg V hpt vpt neg V
  hpt vpt V hpt neg vpt V closepath fill} def
/Pent {stroke [] 0 setdash 2 copy gsave
  translate 0 hpt M 4 {72 rotate 0 hpt L} repeat
  closepath stroke grestore Pnt} def
/PentF {stroke [] 0 setdash gsave
  translate 0 hpt M 4 {72 rotate 0 hpt L} repeat
  closepath fill grestore} def
/Circle {stroke [] 0 setdash 2 copy
  hpt 0 360 arc stroke Pnt} def
/CircleF {stroke [] 0 setdash hpt 0 360 arc fill} def
/C0 {BL [] 0 setdash 2 copy moveto vpt 90 450 arc} bind def
/C1 {BL [] 0 setdash 2 copy moveto
	2 copy vpt 0 90 arc closepath fill
	vpt 0 360 arc closepath} bind def
/C2 {BL [] 0 setdash 2 copy moveto
	2 copy vpt 90 180 arc closepath fill
	vpt 0 360 arc closepath} bind def
/C3 {BL [] 0 setdash 2 copy moveto
	2 copy vpt 0 180 arc closepath fill
	vpt 0 360 arc closepath} bind def
/C4 {BL [] 0 setdash 2 copy moveto
	2 copy vpt 180 270 arc closepath fill
	vpt 0 360 arc closepath} bind def
/C5 {BL [] 0 setdash 2 copy moveto
	2 copy vpt 0 90 arc
	2 copy moveto
	2 copy vpt 180 270 arc closepath fill
	vpt 0 360 arc} bind def
/C6 {BL [] 0 setdash 2 copy moveto
	2 copy vpt 90 270 arc closepath fill
	vpt 0 360 arc closepath} bind def
/C7 {BL [] 0 setdash 2 copy moveto
	2 copy vpt 0 270 arc closepath fill
	vpt 0 360 arc closepath} bind def
/C8 {BL [] 0 setdash 2 copy moveto
	2 copy vpt 270 360 arc closepath fill
	vpt 0 360 arc closepath} bind def
/C9 {BL [] 0 setdash 2 copy moveto
	2 copy vpt 270 450 arc closepath fill
	vpt 0 360 arc closepath} bind def
/C10 {BL [] 0 setdash 2 copy 2 copy moveto vpt 270 360 arc closepath fill
	2 copy moveto
	2 copy vpt 90 180 arc closepath fill
	vpt 0 360 arc closepath} bind def
/C11 {BL [] 0 setdash 2 copy moveto
	2 copy vpt 0 180 arc closepath fill
	2 copy moveto
	2 copy vpt 270 360 arc closepath fill
	vpt 0 360 arc closepath} bind def
/C12 {BL [] 0 setdash 2 copy moveto
	2 copy vpt 180 360 arc closepath fill
	vpt 0 360 arc closepath} bind def
/C13 {BL [] 0 setdash 2 copy moveto
	2 copy vpt 0 90 arc closepath fill
	2 copy moveto
	2 copy vpt 180 360 arc closepath fill
	vpt 0 360 arc closepath} bind def
/C14 {BL [] 0 setdash 2 copy moveto
	2 copy vpt 90 360 arc closepath fill
	vpt 0 360 arc} bind def
/C15 {BL [] 0 setdash 2 copy vpt 0 360 arc closepath fill
	vpt 0 360 arc closepath} bind def
/Rec {newpath 4 2 roll moveto 1 index 0 rlineto 0 exch rlineto
	neg 0 rlineto closepath} bind def
/Square {dup Rec} bind def
/Bsquare {vpt sub exch vpt sub exch vpt2 Square} bind def
/S0 {BL [] 0 setdash 2 copy moveto 0 vpt rlineto BL Bsquare} bind def
/S1 {BL [] 0 setdash 2 copy vpt Square fill Bsquare} bind def
/S2 {BL [] 0 setdash 2 copy exch vpt sub exch vpt Square fill Bsquare} bind def
/S3 {BL [] 0 setdash 2 copy exch vpt sub exch vpt2 vpt Rec fill Bsquare} bind def
/S4 {BL [] 0 setdash 2 copy exch vpt sub exch vpt sub vpt Square fill Bsquare} bind def
/S5 {BL [] 0 setdash 2 copy 2 copy vpt Square fill
	exch vpt sub exch vpt sub vpt Square fill Bsquare} bind def
/S6 {BL [] 0 setdash 2 copy exch vpt sub exch vpt sub vpt vpt2 Rec fill Bsquare} bind def
/S7 {BL [] 0 setdash 2 copy exch vpt sub exch vpt sub vpt vpt2 Rec fill
	2 copy vpt Square fill Bsquare} bind def
/S8 {BL [] 0 setdash 2 copy vpt sub vpt Square fill Bsquare} bind def
/S9 {BL [] 0 setdash 2 copy vpt sub vpt vpt2 Rec fill Bsquare} bind def
/S10 {BL [] 0 setdash 2 copy vpt sub vpt Square fill 2 copy exch vpt sub exch vpt Square fill
	Bsquare} bind def
/S11 {BL [] 0 setdash 2 copy vpt sub vpt Square fill 2 copy exch vpt sub exch vpt2 vpt Rec fill
	Bsquare} bind def
/S12 {BL [] 0 setdash 2 copy exch vpt sub exch vpt sub vpt2 vpt Rec fill Bsquare} bind def
/S13 {BL [] 0 setdash 2 copy exch vpt sub exch vpt sub vpt2 vpt Rec fill
	2 copy vpt Square fill Bsquare} bind def
/S14 {BL [] 0 setdash 2 copy exch vpt sub exch vpt sub vpt2 vpt Rec fill
	2 copy exch vpt sub exch vpt Square fill Bsquare} bind def
/S15 {BL [] 0 setdash 2 copy Bsquare fill Bsquare} bind def
/D0 {gsave translate 45 rotate 0 0 S0 stroke grestore} bind def
/D1 {gsave translate 45 rotate 0 0 S1 stroke grestore} bind def
/D2 {gsave translate 45 rotate 0 0 S2 stroke grestore} bind def
/D3 {gsave translate 45 rotate 0 0 S3 stroke grestore} bind def
/D4 {gsave translate 45 rotate 0 0 S4 stroke grestore} bind def
/D5 {gsave translate 45 rotate 0 0 S5 stroke grestore} bind def
/D6 {gsave translate 45 rotate 0 0 S6 stroke grestore} bind def
/D7 {gsave translate 45 rotate 0 0 S7 stroke grestore} bind def
/D8 {gsave translate 45 rotate 0 0 S8 stroke grestore} bind def
/D9 {gsave translate 45 rotate 0 0 S9 stroke grestore} bind def
/D10 {gsave translate 45 rotate 0 0 S10 stroke grestore} bind def
/D11 {gsave translate 45 rotate 0 0 S11 stroke grestore} bind def
/D12 {gsave translate 45 rotate 0 0 S12 stroke grestore} bind def
/D13 {gsave translate 45 rotate 0 0 S13 stroke grestore} bind def
/D14 {gsave translate 45 rotate 0 0 S14 stroke grestore} bind def
/D15 {gsave translate 45 rotate 0 0 S15 stroke grestore} bind def
/DiaE {stroke [] 0 setdash vpt add M
  hpt neg vpt neg V hpt vpt neg V
  hpt vpt V hpt neg vpt V closepath stroke} def
/BoxE {stroke [] 0 setdash exch hpt sub exch vpt add M
  0 vpt2 neg V hpt2 0 V 0 vpt2 V
  hpt2 neg 0 V closepath stroke} def
/TriUE {stroke [] 0 setdash vpt 1.12 mul add M
  hpt neg vpt -1.62 mul V
  hpt 2 mul 0 V
  hpt neg vpt 1.62 mul V closepath stroke} def
/TriDE {stroke [] 0 setdash vpt 1.12 mul sub M
  hpt neg vpt 1.62 mul V
  hpt 2 mul 0 V
  hpt neg vpt -1.62 mul V closepath stroke} def
/PentE {stroke [] 0 setdash gsave
  translate 0 hpt M 4 {72 rotate 0 hpt L} repeat
  closepath stroke grestore} def
/CircE {stroke [] 0 setdash 
  hpt 0 360 arc stroke} def
/Opaque {gsave closepath 1 setgray fill grestore 0 setgray closepath} def
/DiaW {stroke [] 0 setdash vpt add M
  hpt neg vpt neg V hpt vpt neg V
  hpt vpt V hpt neg vpt V Opaque stroke} def
/BoxW {stroke [] 0 setdash exch hpt sub exch vpt add M
  0 vpt2 neg V hpt2 0 V 0 vpt2 V
  hpt2 neg 0 V Opaque stroke} def
/TriUW {stroke [] 0 setdash vpt 1.12 mul add M
  hpt neg vpt -1.62 mul V
  hpt 2 mul 0 V
  hpt neg vpt 1.62 mul V Opaque stroke} def
/TriDW {stroke [] 0 setdash vpt 1.12 mul sub M
  hpt neg vpt 1.62 mul V
  hpt 2 mul 0 V
  hpt neg vpt -1.62 mul V Opaque stroke} def
/PentW {stroke [] 0 setdash gsave
  translate 0 hpt M 4 {72 rotate 0 hpt L} repeat
  Opaque stroke grestore} def
/CircW {stroke [] 0 setdash 
  hpt 0 360 arc Opaque stroke} def
/BoxFill {gsave Rec 1 setgray fill grestore} def
/Density {
  /Fillden exch def
  currentrgbcolor
  /ColB exch def /ColG exch def /ColR exch def
  /ColR ColR Fillden mul Fillden sub 1 add def
  /ColG ColG Fillden mul Fillden sub 1 add def
  /ColB ColB Fillden mul Fillden sub 1 add def
  ColR ColG ColB setrgbcolor} def
/BoxColFill {gsave Rec PolyFill} def
/PolyFill {gsave Density fill grestore grestore} def
/h {rlineto rlineto rlineto gsave closepath fill grestore} bind def
%
% PostScript Level 1 Pattern Fill routine for rectangles
% Usage: x y w h s a XX PatternFill
%	x,y = lower left corner of box to be filled
%	w,h = width and height of box
%	  a = angle in degrees between lines and x-axis
%	 XX = 0/1 for no/yes cross-hatch
%
/PatternFill {gsave /PFa [ 9 2 roll ] def
  PFa 0 get PFa 2 get 2 div add PFa 1 get PFa 3 get 2 div add translate
  PFa 2 get -2 div PFa 3 get -2 div PFa 2 get PFa 3 get Rec
  TransparentPatterns {} {gsave 1 setgray fill grestore} ifelse
  clip
  currentlinewidth 0.5 mul setlinewidth
  /PFs PFa 2 get dup mul PFa 3 get dup mul add sqrt def
  0 0 M PFa 5 get rotate PFs -2 div dup translate
  0 1 PFs PFa 4 get div 1 add floor cvi
	{PFa 4 get mul 0 M 0 PFs V} for
  0 PFa 6 get ne {
	0 1 PFs PFa 4 get div 1 add floor cvi
	{PFa 4 get mul 0 2 1 roll M PFs 0 V} for
 } if
  stroke grestore} def
%
/languagelevel where
 {pop languagelevel} {1} ifelse
 2 lt
	{/InterpretLevel1 true def}
	{/InterpretLevel1 Level1 def}
 ifelse
%
% PostScript level 2 pattern fill definitions
%
/Level2PatternFill {
/Tile8x8 {/PaintType 2 /PatternType 1 /TilingType 1 /BBox [0 0 8 8] /XStep 8 /YStep 8}
	bind def
/KeepColor {currentrgbcolor [/Pattern /DeviceRGB] setcolorspace} bind def
<< Tile8x8
 /PaintProc {0.5 setlinewidth pop 0 0 M 8 8 L 0 8 M 8 0 L stroke} 
>> matrix makepattern
/Pat1 exch def
<< Tile8x8
 /PaintProc {0.5 setlinewidth pop 0 0 M 8 8 L 0 8 M 8 0 L stroke
	0 4 M 4 8 L 8 4 L 4 0 L 0 4 L stroke}
>> matrix makepattern
/Pat2 exch def
<< Tile8x8
 /PaintProc {0.5 setlinewidth pop 0 0 M 0 8 L
	8 8 L 8 0 L 0 0 L fill}
>> matrix makepattern
/Pat3 exch def
<< Tile8x8
 /PaintProc {0.5 setlinewidth pop -4 8 M 8 -4 L
	0 12 M 12 0 L stroke}
>> matrix makepattern
/Pat4 exch def
<< Tile8x8
 /PaintProc {0.5 setlinewidth pop -4 0 M 8 12 L
	0 -4 M 12 8 L stroke}
>> matrix makepattern
/Pat5 exch def
<< Tile8x8
 /PaintProc {0.5 setlinewidth pop -2 8 M 4 -4 L
	0 12 M 8 -4 L 4 12 M 10 0 L stroke}
>> matrix makepattern
/Pat6 exch def
<< Tile8x8
 /PaintProc {0.5 setlinewidth pop -2 0 M 4 12 L
	0 -4 M 8 12 L 4 -4 M 10 8 L stroke}
>> matrix makepattern
/Pat7 exch def
<< Tile8x8
 /PaintProc {0.5 setlinewidth pop 8 -2 M -4 4 L
	12 0 M -4 8 L 12 4 M 0 10 L stroke}
>> matrix makepattern
/Pat8 exch def
<< Tile8x8
 /PaintProc {0.5 setlinewidth pop 0 -2 M 12 4 L
	-4 0 M 12 8 L -4 4 M 8 10 L stroke}
>> matrix makepattern
/Pat9 exch def
/Pattern1 {PatternBgnd KeepColor Pat1 setpattern} bind def
/Pattern2 {PatternBgnd KeepColor Pat2 setpattern} bind def
/Pattern3 {PatternBgnd KeepColor Pat3 setpattern} bind def
/Pattern4 {PatternBgnd KeepColor Landscape {Pat5} {Pat4} ifelse setpattern} bind def
/Pattern5 {PatternBgnd KeepColor Landscape {Pat4} {Pat5} ifelse setpattern} bind def
/Pattern6 {PatternBgnd KeepColor Landscape {Pat9} {Pat6} ifelse setpattern} bind def
/Pattern7 {PatternBgnd KeepColor Landscape {Pat8} {Pat7} ifelse setpattern} bind def
} def
%
%
%End of PostScript Level 2 code
%
/PatternBgnd {
  TransparentPatterns {} {gsave 1 setgray fill grestore} ifelse
} def
%
% Substitute for Level 2 pattern fill codes with
% grayscale if Level 2 support is not selected.
%
/Level1PatternFill {
/Pattern1 {0.250 Density} bind def
/Pattern2 {0.500 Density} bind def
/Pattern3 {0.750 Density} bind def
/Pattern4 {0.125 Density} bind def
/Pattern5 {0.375 Density} bind def
/Pattern6 {0.625 Density} bind def
/Pattern7 {0.875 Density} bind def
} def
%
% Now test for support of Level 2 code
%
Level1 {Level1PatternFill} {Level2PatternFill} ifelse
%
/Symbol-Oblique /Symbol findfont [1 0 .167 1 0 0] makefont
dup length dict begin {1 index /FID eq {pop pop} {def} ifelse} forall
currentdict end definefont pop
/MFshow {
   { dup 5 get 3 ge
     { 5 get 3 eq {gsave} {grestore} ifelse }
     {dup dup 0 get findfont exch 1 get scalefont setfont
     [ currentpoint ] exch dup 2 get 0 exch R dup 5 get 2 ne {dup dup 6
     get exch 4 get {Gshow} {stringwidth pop 0 R} ifelse }if dup 5 get 0 eq
     {dup 3 get {2 get neg 0 exch R pop} {pop aload pop M} ifelse} {dup 5
     get 1 eq {dup 2 get exch dup 3 get exch 6 get stringwidth pop -2 div
     dup 0 R} {dup 6 get stringwidth pop -2 div 0 R 6 get
     show 2 index {aload pop M neg 3 -1 roll neg R pop pop} {pop pop pop
     pop aload pop M} ifelse }ifelse }ifelse }
     ifelse }
   forall} def
/Gswidth {dup type /stringtype eq {stringwidth} {pop (n) stringwidth} ifelse} def
/MFwidth {0 exch { dup 5 get 3 ge { 5 get 3 eq { 0 } { pop } ifelse }
 {dup 3 get{dup dup 0 get findfont exch 1 get scalefont setfont
     6 get Gswidth pop add} {pop} ifelse} ifelse} forall} def
/MLshow { currentpoint stroke M
  0 exch R
  Blacktext {gsave 0 setgray MFshow grestore} {MFshow} ifelse } bind def
/MRshow { currentpoint stroke M
  exch dup MFwidth neg 3 -1 roll R
  Blacktext {gsave 0 setgray MFshow grestore} {MFshow} ifelse } bind def
/MCshow { currentpoint stroke M
  exch dup MFwidth -2 div 3 -1 roll R
  Blacktext {gsave 0 setgray MFshow grestore} {MFshow} ifelse } bind def
/XYsave    { [( ) 1 2 true false 3 ()] } bind def
/XYrestore { [( ) 1 2 true false 4 ()] } bind def
Level1 SuppressPDFMark or 
{} {
/SDict 10 dict def
systemdict /pdfmark known not {
  userdict /pdfmark systemdict /cleartomark get put
} if
SDict begin [
  /Title (AST100vsMC-3DTime.eps)
  /Subject (gnuplot plot)
  /Creator (gnuplot 4.6 patchlevel 4)
  /Author (danny)
%  /Producer (gnuplot)
%  /Keywords ()
  /CreationDate (Mon Sep  8 12:00:47 2014)
  /DOCINFO pdfmark
end
} ifelse
end
%%EndProlog
%%Page: 1 1
gnudict begin
gsave
doclip
50 50 translate
0.050 0.050 scale
0 setgray
newpath
(Times-Roman) findfont 200 scalefont setfont
BackgroundColor 0 lt 3 1 roll 0 lt exch 0 lt or or not {BackgroundColor C 1.000 0 0 10080.00 5760.00 BoxColFill} if
gsave % colour palette begin
/maxcolors 0 def
/HSV2RGB {  exch dup 0.0 eq {pop exch pop dup dup} % achromatic gray
  { /HSVs exch def /HSVv exch def 6.0 mul dup floor dup 3 1 roll sub
     /HSVf exch def /HSVi exch cvi def /HSVp HSVv 1.0 HSVs sub mul def
	 /HSVq HSVv 1.0 HSVs HSVf mul sub mul def 
	 /HSVt HSVv 1.0 HSVs 1.0 HSVf sub mul sub mul def
	 /HSVi HSVi 6 mod def 0 HSVi eq {HSVv HSVt HSVp}
	 {1 HSVi eq {HSVq HSVv HSVp}{2 HSVi eq {HSVp HSVv HSVt}
	 {3 HSVi eq {HSVp HSVq HSVv}{4 HSVi eq {HSVt HSVp HSVv}
	 {HSVv HSVp HSVq} ifelse} ifelse} ifelse} ifelse} ifelse
  } ifelse} def
/Constrain {
  dup 0 lt {0 exch pop}{dup 1 gt {1 exch pop} if} ifelse} def
/YIQ2RGB {
  3 copy -1.702 mul exch -1.105 mul add add Constrain 4 1 roll
  3 copy -0.647 mul exch -0.272 mul add add Constrain 5 1 roll
  0.621 mul exch -0.956 mul add add Constrain 3 1 roll } def
/CMY2RGB {  1 exch sub exch 1 exch sub 3 2 roll 1 exch sub 3 1 roll exch } def
/XYZ2RGB {  3 copy -0.9017 mul exch -0.1187 mul add exch 0.0585 mul exch add
  Constrain 4 1 roll 3 copy -0.0279 mul exch 1.999 mul add exch
  -0.9844 mul add Constrain 5 1 roll -0.2891 mul exch -0.5338 mul add
  exch 1.91 mul exch add Constrain 3 1 roll} def
/SelectSpace {ColorSpace (HSV) eq {HSV2RGB}{ColorSpace (XYZ) eq {
  XYZ2RGB}{ColorSpace (CMY) eq {CMY2RGB}{ColorSpace (YIQ) eq {YIQ2RGB}
  if} ifelse} ifelse} ifelse} def
/InterpolatedColor true def
/grayindex {/gidx 0 def
  {GrayA gidx get grayv ge {exit} if /gidx gidx 1 add def} loop} def
/dgdx {grayv GrayA gidx get sub GrayA gidx 1 sub get
  GrayA gidx get sub div} def 
/redvalue {RedA gidx get RedA gidx 1 sub get
  RedA gidx get sub dgdxval mul add} def
/greenvalue {GreenA gidx get GreenA gidx 1 sub get
  GreenA gidx get sub dgdxval mul add} def
/bluevalue {BlueA gidx get BlueA gidx 1 sub get
  BlueA gidx get sub dgdxval mul add} def
/interpolate {
  grayindex grayv GrayA gidx get sub abs 1e-5 le
    {RedA gidx get GreenA gidx get BlueA gidx get}
    {/dgdxval dgdx def redvalue greenvalue bluevalue} ifelse} def
/GrayA [0 1 ] def
/RedA [0 1 ] def
/GreenA [1 0 ] def
/BlueA [0 0 ] def
/pm3dround {maxcolors 0 gt {dup 1 ge
	{pop 1} {maxcolors mul floor maxcolors 1 sub div} ifelse} if} def
/pm3dGamma 1.0 1.5 Gamma mul div def
/ColorSpace (RGB) def
Color InterpolatedColor or { % COLOUR vs. GRAY map
  InterpolatedColor { %% Interpolation vs. RGB-Formula
    /g {stroke pm3dround /grayv exch def interpolate
        SelectSpace setrgbcolor} bind def
  }{
  /g {stroke pm3dround dup cF7 Constrain exch dup cF5 Constrain exch cF15 Constrain 
       SelectSpace setrgbcolor} bind def
  } ifelse
}{
  /g {stroke pm3dround pm3dGamma exp setgray} bind def
} ifelse
1.000 UL
LTb
LCb setrgbcolor
1.000 UL
LTb
LCb setrgbcolor
1726 1307 M
1401 936 V
stroke
LTb
LCb setrgbcolor
8354 1992 M
3127 2243 L
stroke
LTb
LCb setrgbcolor
1726 1307 M
0 2661 V
stroke
LTb
LCb setrgbcolor
3127 2243 M
0 2661 V
stroke
LTb
LCb setrgbcolor
8354 1992 M
0 2661 V
stroke
LTb
LCb setrgbcolor
1726 3968 M
1401 936 V
stroke
LTb
LCb setrgbcolor
8354 4653 M
3127 4904 L
stroke
LTa
LCa setrgbcolor
1726 1307 M
1401 936 V
stroke
LTb
LCb setrgbcolor
1726 1307 M
31 21 V
stroke
LTb
LCb setrgbcolor
1666 1241 M
[ [(Times-Roman) 200.0 0.0 true true 0 ( 0.1)]
] -66.7 MCshow
1.000 UL
LTb
LCb setrgbcolor
1.000 UL
LTb
LCb setrgbcolor
3127 2243 M
-31 -21 V
stroke
LTa
LCa setrgbcolor
2379 1276 M
1401 935 V
stroke
LTb
LCb setrgbcolor
2379 1276 M
31 20 V
stroke
LTb
LCb setrgbcolor
2320 1209 M
[ [(Times-Roman) 200.0 0.0 true true 0 ( 0.2)]
] -66.7 MCshow
1.000 UL
LTb
LCb setrgbcolor
1.000 UL
LTb
LCb setrgbcolor
3780 2211 M
-31 -20 V
stroke
LTa
LCa setrgbcolor
3033 1244 M
1401 936 V
stroke
LTb
LCb setrgbcolor
3033 1244 M
31 21 V
stroke
LTb
LCb setrgbcolor
2974 1178 M
[ [(Times-Roman) 200.0 0.0 true true 0 ( 0.3)]
] -66.7 MCshow
1.000 UL
LTb
LCb setrgbcolor
1.000 UL
LTb
LCb setrgbcolor
4434 2180 M
-31 -21 V
stroke
LTa
LCa setrgbcolor
3686 1213 M
1400 936 V
stroke
LTb
LCb setrgbcolor
3686 1213 M
32 21 V
stroke
LTb
LCb setrgbcolor
3627 1147 M
[ [(Times-Roman) 200.0 0.0 true true 0 ( 0.4)]
] -66.7 MCshow
1.000 UL
LTb
LCb setrgbcolor
1.000 UL
LTb
LCb setrgbcolor
5086 2149 M
-31 -21 V
stroke
LTa
LCa setrgbcolor
4340 1181 M
1400 936 V
stroke
LTb
LCb setrgbcolor
4340 1181 M
31 21 V
stroke
LTb
LCb setrgbcolor
4281 1115 M
[ [(Times-Roman) 200.0 0.0 true true 0 ( 0.5)]
] -66.7 MCshow
1.000 UL
LTb
LCb setrgbcolor
1.000 UL
LTb
LCb setrgbcolor
5740 2117 M
-31 -20 V
stroke
LTa
LCa setrgbcolor
4994 1150 M
1400 936 V
stroke
LTb
LCb setrgbcolor
4994 1150 M
31 21 V
stroke
LTb
LCb setrgbcolor
4934 1084 M
[ [(Times-Roman) 200.0 0.0 true true 0 ( 0.6)]
] -66.7 MCshow
1.000 UL
LTb
LCb setrgbcolor
1.000 UL
LTb
LCb setrgbcolor
6394 2086 M
-32 -21 V
stroke
LTa
LCa setrgbcolor
5646 1119 M
1401 936 V
stroke
LTb
LCb setrgbcolor
5646 1119 M
31 21 V
stroke
LTb
LCb setrgbcolor
5587 1053 M
[ [(Times-Roman) 200.0 0.0 true true 0 ( 0.7)]
] -66.7 MCshow
1.000 UL
LTb
LCb setrgbcolor
1.000 UL
LTb
LCb setrgbcolor
7047 2055 M
-31 -21 V
stroke
LTa
LCa setrgbcolor
6300 1087 M
1401 936 V
stroke
LTb
LCb setrgbcolor
6300 1087 M
31 21 V
stroke
LTb
LCb setrgbcolor
6240 1021 M
[ [(Times-Roman) 200.0 0.0 true true 0 ( 0.8)]
] -66.7 MCshow
1.000 UL
LTb
LCb setrgbcolor
1.000 UL
LTb
LCb setrgbcolor
7701 2023 M
-31 -20 V
stroke
LTa
LCa setrgbcolor
6953 1056 M
1401 936 V
stroke
LTb
LCb setrgbcolor
6953 1056 M
31 21 V
stroke
LTb
LCb setrgbcolor
6894 990 M
[ [(Times-Roman) 200.0 0.0 true true 0 ( 0.9)]
] -66.7 MCshow
1.000 UL
LTb
LCb setrgbcolor
1.000 UL
LTb
LCb setrgbcolor
8354 1992 M
-31 -21 V
stroke
LTa
LCa setrgbcolor
6953 1056 M
1726 1307 L
stroke
LTb
LCb setrgbcolor
6953 1056 M
-61 3 V
stroke
7069 1047 M
[ [(Times-Roman) 200.0 0.0 true true 0 ( 0)]
] -66.7 MLshow
1.000 UL
LTb
LCb setrgbcolor
1.000 UL
LTb
LCb setrgbcolor
1726 1307 M
61 -3 V
stroke
LTa
LCa setrgbcolor
7093 1150 M
1866 1400 L
stroke
LTb
LCb setrgbcolor
7093 1150 M
-60 3 V
stroke
7209 1140 M
[ [(Times-Roman) 200.0 0.0 true true 0 ( 0.1)]
] -66.7 MLshow
1.000 UL
LTb
LCb setrgbcolor
1.000 UL
LTb
LCb setrgbcolor
1866 1400 M
61 -2 V
stroke
LTa
LCa setrgbcolor
7233 1243 M
2006 1494 L
stroke
LTb
LCb setrgbcolor
7233 1243 M
-60 3 V
stroke
7349 1234 M
[ [(Times-Roman) 200.0 0.0 true true 0 ( 0.2)]
] -66.7 MLshow
1.000 UL
LTb
LCb setrgbcolor
1.000 UL
LTb
LCb setrgbcolor
2006 1494 M
61 -3 V
stroke
LTa
LCa setrgbcolor
7374 1337 M
2146 1588 L
stroke
LTb
LCb setrgbcolor
7374 1337 M
-61 3 V
stroke
7489 1328 M
[ [(Times-Roman) 200.0 0.0 true true 0 ( 0.3)]
] -66.7 MLshow
1.000 UL
LTb
LCb setrgbcolor
1.000 UL
LTb
LCb setrgbcolor
2146 1588 M
61 -3 V
stroke
LTa
LCa setrgbcolor
7514 1430 M
2286 1681 L
stroke
LTb
LCb setrgbcolor
7514 1430 M
-61 3 V
stroke
7630 1421 M
[ [(Times-Roman) 200.0 0.0 true true 0 ( 0.4)]
] -66.7 MLshow
1.000 UL
LTb
LCb setrgbcolor
1.000 UL
LTb
LCb setrgbcolor
2286 1681 M
61 -3 V
stroke
LTa
LCa setrgbcolor
7654 1524 M
2426 1775 L
stroke
LTb
LCb setrgbcolor
7654 1524 M
-61 3 V
stroke
7770 1515 M
[ [(Times-Roman) 200.0 0.0 true true 0 ( 0.5)]
] -66.7 MLshow
1.000 UL
LTb
LCb setrgbcolor
1.000 UL
LTb
LCb setrgbcolor
2426 1775 M
61 -3 V
stroke
LTa
LCa setrgbcolor
7794 1618 M
2566 1868 L
stroke
LTb
LCb setrgbcolor
7794 1618 M
-61 3 V
stroke
7910 1608 M
[ [(Times-Roman) 200.0 0.0 true true 0 ( 0.6)]
] -66.7 MLshow
1.000 UL
LTb
LCb setrgbcolor
1.000 UL
LTb
LCb setrgbcolor
2566 1868 M
61 -3 V
stroke
LTa
LCa setrgbcolor
7934 1711 M
2706 1962 L
stroke
LTb
LCb setrgbcolor
7934 1711 M
-61 3 V
stroke
8050 1702 M
[ [(Times-Roman) 200.0 0.0 true true 0 ( 0.7)]
] -66.7 MLshow
1.000 UL
LTb
LCb setrgbcolor
1.000 UL
LTb
LCb setrgbcolor
2706 1962 M
61 -3 V
stroke
LTa
LCa setrgbcolor
8074 1805 M
2847 2056 L
stroke
LTb
LCb setrgbcolor
8074 1805 M
-61 3 V
stroke
8190 1796 M
[ [(Times-Roman) 200.0 0.0 true true 0 ( 0.8)]
] -66.7 MLshow
1.000 UL
LTb
LCb setrgbcolor
1.000 UL
LTb
LCb setrgbcolor
2847 2056 M
60 -3 V
stroke
LTa
LCa setrgbcolor
8214 1898 M
2987 2149 L
stroke
LTb
LCb setrgbcolor
8214 1898 M
-61 3 V
stroke
8330 1889 M
[ [(Times-Roman) 200.0 0.0 true true 0 ( 0.9)]
] -66.7 MLshow
1.000 UL
LTb
LCb setrgbcolor
1.000 UL
LTb
LCb setrgbcolor
2987 2149 M
60 -3 V
stroke
LTa
LCa setrgbcolor
8354 1992 M
3127 2243 L
stroke
LTb
LCb setrgbcolor
8354 1992 M
-61 3 V
stroke
8470 1983 M
[ [(Times-Roman) 200.0 0.0 true true 0 ( 1)]
] -66.7 MLshow
1.000 UL
LTb
LCb setrgbcolor
1.000 UL
LTb
LCb setrgbcolor
3127 2243 M
61 -3 V
stroke
LTa
LCa setrgbcolor
1726 1307 M
1401 936 V
stroke
LTa
LCa setrgbcolor
3127 2243 M
8354 1992 L
stroke
LTb
LCb setrgbcolor
1726 1307 M
63 0 V
stroke
1600 1307 M
[ [(Times-Roman) 200.0 0.0 true true 0 ( 0)]
] -66.7 MRshow
1.000 UL
LTb
LCb setrgbcolor
1.000 UL
LTa
LCa setrgbcolor
1726 1549 M
1401 936 V
stroke
LTa
LCa setrgbcolor
3127 2485 M
8354 2234 L
stroke
LTb
LCb setrgbcolor
1726 1549 M
63 0 V
stroke
1600 1549 M
[ [(Times-Roman) 200.0 0.0 true true 0 ( 0.01)]
] -66.7 MRshow
1.000 UL
LTb
LCb setrgbcolor
1.000 UL
LTa
LCa setrgbcolor
1726 1791 M
1401 936 V
stroke
LTa
LCa setrgbcolor
3127 2727 M
8354 2476 L
stroke
LTb
LCb setrgbcolor
1726 1791 M
63 0 V
stroke
1600 1791 M
[ [(Times-Roman) 200.0 0.0 true true 0 ( 0.02)]
] -66.7 MRshow
1.000 UL
LTb
LCb setrgbcolor
1.000 UL
LTa
LCa setrgbcolor
1726 2033 M
1401 936 V
stroke
LTa
LCa setrgbcolor
3127 2969 M
8354 2718 L
stroke
LTb
LCb setrgbcolor
1726 2033 M
63 0 V
stroke
1600 2033 M
[ [(Times-Roman) 200.0 0.0 true true 0 ( 0.03)]
] -66.7 MRshow
1.000 UL
LTb
LCb setrgbcolor
1.000 UL
LTa
LCa setrgbcolor
1726 2275 M
1401 935 V
stroke
LTa
LCa setrgbcolor
3127 3210 M
8354 2960 L
stroke
LTb
LCb setrgbcolor
1726 2275 M
63 0 V
stroke
1600 2275 M
[ [(Times-Roman) 200.0 0.0 true true 0 ( 0.04)]
] -66.7 MRshow
1.000 UL
LTb
LCb setrgbcolor
1.000 UL
LTa
LCa setrgbcolor
1726 2517 M
1401 935 V
stroke
LTa
LCa setrgbcolor
3127 3452 M
8354 3201 L
stroke
LTb
LCb setrgbcolor
1726 2517 M
63 0 V
stroke
1600 2517 M
[ [(Times-Roman) 200.0 0.0 true true 0 ( 0.05)]
] -66.7 MRshow
1.000 UL
LTb
LCb setrgbcolor
1.000 UL
LTa
LCa setrgbcolor
1726 2759 M
1401 935 V
stroke
LTa
LCa setrgbcolor
3127 3694 M
8354 3443 L
stroke
LTb
LCb setrgbcolor
1726 2759 M
63 0 V
stroke
1600 2759 M
[ [(Times-Roman) 200.0 0.0 true true 0 ( 0.06)]
] -66.7 MRshow
1.000 UL
LTb
LCb setrgbcolor
1.000 UL
LTa
LCa setrgbcolor
1726 3000 M
1401 936 V
stroke
LTa
LCa setrgbcolor
3127 3936 M
8354 3685 L
stroke
LTb
LCb setrgbcolor
1726 3000 M
63 0 V
stroke
1600 3000 M
[ [(Times-Roman) 200.0 0.0 true true 0 ( 0.07)]
] -66.7 MRshow
1.000 UL
LTb
LCb setrgbcolor
1.000 UL
LTa
LCa setrgbcolor
1726 3242 M
1401 936 V
stroke
LTa
LCa setrgbcolor
3127 4178 M
8354 3927 L
stroke
LTb
LCb setrgbcolor
1726 3242 M
63 0 V
stroke
1600 3242 M
[ [(Times-Roman) 200.0 0.0 true true 0 ( 0.08)]
] -66.7 MRshow
1.000 UL
LTb
LCb setrgbcolor
1.000 UL
LTa
LCa setrgbcolor
1726 3484 M
1401 936 V
stroke
LTa
LCa setrgbcolor
3127 4420 M
8354 4169 L
stroke
LTb
LCb setrgbcolor
1726 3484 M
63 0 V
stroke
1600 3484 M
[ [(Times-Roman) 200.0 0.0 true true 0 ( 0.09)]
] -66.7 MRshow
1.000 UL
LTb
LCb setrgbcolor
1.000 UL
LTa
LCa setrgbcolor
1726 3726 M
1401 936 V
stroke
LTa
LCa setrgbcolor
3127 4662 M
8354 4411 L
stroke
LTb
LCb setrgbcolor
1726 3726 M
63 0 V
stroke
1600 3726 M
[ [(Times-Roman) 200.0 0.0 true true 0 ( 0.1)]
] -66.7 MRshow
1.000 UL
LTb
LCb setrgbcolor
1.000 UL
LTa
LCa setrgbcolor
1726 3968 M
1401 936 V
stroke
LTa
LCa setrgbcolor
3127 4904 M
8354 4653 L
stroke
LTb
LCb setrgbcolor
1726 3968 M
63 0 V
stroke
1600 3968 M
[ [(Times-Roman) 200.0 0.0 true true 0 ( 0.11)]
] -66.7 MRshow
1.000 UL
LTb
LCb setrgbcolor
LCb setrgbcolor
886 2638 M
currentpoint gsave translate 90 rotate 0 0 moveto
[ [(Times-Roman) 200.0 0.0 true true 0 (Execution time \(s\))]
] -66.7 MCshow
grestore
LTb
1.000 UP
6720 3037 M
[ [(Times-Roman) 200.0 0.0 true true 0 (MD)]
] -66.7 MLshow
6720 2989 M
[ [(Times-Roman) 200.0 0.0 true true 0 (AS)]
] -66.7 MLshow
0.00 1.00 0.00 C 7178 3028 M
[ [(Times-Roman) 200.0 0.0 true true 0 (-----)]
] -66.7 MLshow
1.00 0.00 0.00 C 7178 2980 M
[ [(Times-Roman) 200.0 0.0 true true 0 (-----)]
] -66.7 MLshow
% Begin plot #1
1.000 UL
LT0
LC0 setrgbcolor
0.250 UL
LT1
0.27 0.27 0.27 C % End plot #1
% Begin plot #2
1.000 UL
LT1
LC1 setrgbcolor
0.250 UL
LT1
0.27 0.27 0.27 C % End plot #2
1 g gsave 3640 2144 N -653 32 V 140 68 V 653 -31 V 0.90 PolyFill
0.250 UL
LT1
0.27 0.27 0.27 C 3640 2144 M
140 69 V
-653 31 V
-140 -68 V
653 -32 V
1 g gsave 4294 2113 N -654 31 V 140 69 V 654 -30 V 0.90 PolyFill
stroke
LT1
0.27 0.27 0.27 C 4294 2113 M
140 70 V
-654 30 V
-140 -69 V
654 -31 V
1 g gsave 4947 2082 N -653 31 V 140 70 V 652 -30 V 0.90 PolyFill
stroke
LT1
0.27 0.27 0.27 C 4947 2082 M
139 71 V
-652 30 V
-140 -70 V
653 -31 V
0 g gsave 3640 2815 N -653 17 V 140 177 V 653 -98 V 0.90 PolyFill
stroke
LT1
0.27 0.27 0.27 C 3640 2815 M
140 96 V
-653 98 V
2987 2832 L
653 -17 V
1 g gsave 5600 2050 N -653 32 V 139 71 V 654 -29 V 0.90 PolyFill
stroke
LT1
0.27 0.27 0.27 C 5600 2050 M
140 74 V
-654 29 V
-139 -71 V
653 -32 V
1 g gsave 3500 2059 N -653 32 V 140 85 V 653 -32 V 0.90 PolyFill
stroke
LT1
0.27 0.27 0.27 C 3500 2059 M
140 85 V
-653 32 V
-140 -85 V
653 -32 V
0 g gsave 4294 2723 N -654 92 V 140 96 V 654 -31 V 0.90 PolyFill
stroke
LT1
0.27 0.27 0.27 C 4294 2723 M
140 157 V
-654 31 V
-140 -96 V
654 -92 V
1 g gsave 6253 2018 N -653 32 V 140 74 V 654 -29 V 0.90 PolyFill
stroke
LT1
0.27 0.27 0.27 C 6253 2018 M
141 77 V
-654 29 V
-140 -74 V
653 -32 V
1 g gsave 4154 2029 N -654 30 V 140 85 V 654 -31 V 0.90 PolyFill
stroke
LT1
0.27 0.27 0.27 C 4154 2029 M
140 84 V
-654 31 V
-140 -85 V
654 -30 V
0 g gsave 4947 2658 N -653 65 V 140 157 V 652 -99 V 0.90 PolyFill
stroke
LT1
0.27 0.27 0.27 C 4947 2658 M
139 123 V
-652 99 V
4294 2723 L
653 -65 V
0 g gsave 5600 2521 N -653 137 V 139 123 V 654 -119 V 0.90 PolyFill
stroke
LT1
0.27 0.27 0.27 C 5600 2521 M
140 141 V
-654 119 V
4947 2658 L
653 -137 V
1 g gsave 6907 1987 N -654 31 V 141 77 V 653 -28 V 0.90 PolyFill
stroke
LT1
0.27 0.27 0.27 C 6907 1987 M
140 80 V
-653 28 V
-141 -77 V
654 -31 V
1 g gsave 4807 1998 N -653 31 V 140 84 V 653 -31 V 0.90 PolyFill
stroke
LT1
0.27 0.27 0.27 C 4807 1998 M
140 84 V
-653 31 V
-140 -84 V
653 -31 V
0 g gsave 3500 2734 N -653 61 V 140 37 V 653 -17 V 0.90 PolyFill
stroke
LT1
0.27 0.27 0.27 C 3500 2734 M
140 81 V
-653 17 V
-140 -37 V
653 -61 V
1 g gsave 5460 1967 N -653 31 V 140 84 V 653 -32 V 0.90 PolyFill
stroke
LT1
0.27 0.27 0.27 C 5460 1967 M
140 83 V
-653 32 V
-140 -84 V
653 -31 V
1 g gsave 3360 1972 N -654 32 V 141 87 V 653 -32 V 0.90 PolyFill
stroke
LT1
0.27 0.27 0.27 C 3360 1972 M
140 87 V
-653 32 V
-141 -87 V
654 -32 V
1 g gsave 7561 1965 N -654 22 V 140 80 V 654 -25 V 0.90 PolyFill
stroke
LT1
0.27 0.27 0.27 C 7561 1965 M
140 77 V
-654 25 V
-140 -80 V
654 -22 V
0 g gsave 6253 2579 N -653 -58 V 140 141 V 654 -44 V 0.90 PolyFill
stroke
LT1
0.27 0.27 0.27 C 6253 2579 M
141 39 V
-654 44 V
5600 2521 L
653 58 V
0 g gsave 4154 2651 N -654 83 V 140 81 V 654 -92 V 0.90 PolyFill
stroke
LT1
0.27 0.27 0.27 C 4154 2651 M
140 72 V
-654 92 V
-140 -81 V
654 -83 V
0 g gsave 6907 2454 N -654 125 V 141 39 V 653 -87 V 0.90 PolyFill
stroke
LT1
0.27 0.27 0.27 C 6907 2454 M
140 77 V
-653 87 V
-141 -39 V
654 -125 V
1 g gsave 6113 1935 N -653 32 V 140 83 V 653 -32 V 0.90 PolyFill
stroke
LT1
0.27 0.27 0.27 C 6113 1935 M
140 83 V
-653 32 V
-140 -83 V
653 -32 V
1 g gsave 4014 1943 N -654 29 V 140 87 V 654 -30 V 0.90 PolyFill
stroke
LT1
0.27 0.27 0.27 C 4014 1943 M
140 86 V
-654 30 V
-140 -87 V
654 -29 V
0 g gsave 4807 2614 N -653 37 V 140 72 V 653 -65 V 0.90 PolyFill
stroke
LT1
0.27 0.27 0.27 C 4807 2614 M
140 44 V
-653 65 V
-140 -72 V
653 -37 V
0 g gsave 7561 2360 N -654 94 V 140 77 V 654 -81 V 0.90 PolyFill
stroke
LT1
0.27 0.27 0.27 C 7561 2360 M
140 90 V
-654 81 V
-140 -77 V
654 -94 V
1 g gsave 6767 1904 N -654 31 V 140 83 V 654 -31 V 0.90 PolyFill
stroke
LT1
0.27 0.27 0.27 C 6767 1904 M
140 83 V
-654 31 V
-140 -83 V
654 -31 V
1 g gsave 4667 1912 N -653 31 V 140 86 V 653 -31 V 0.90 PolyFill
stroke
LT1
0.27 0.27 0.27 C 4667 1912 M
140 86 V
-653 31 V
-140 -86 V
653 -31 V
1 g gsave 8214 2185 N -653 -220 V 140 77 V 653 3 V 0.90 PolyFill
stroke
LT1
0.27 0.27 0.27 C 8214 2185 M
140 -140 V
-653 -3 V
-140 -77 V
653 220 V
0 g gsave 5460 2473 N -653 141 V 140 44 V 653 -137 V 0.90 PolyFill
stroke
LT1
0.27 0.27 0.27 C 5460 2473 M
140 48 V
-653 137 V
-140 -44 V
653 -141 V
0 g gsave 8214 2304 N -653 56 V 140 90 V 653 -88 V 0.90 PolyFill
stroke
LT1
0.27 0.27 0.27 C 8214 2304 M
140 58 V
-653 88 V
-140 -90 V
653 -56 V
1 g gsave 3220 1882 N -654 31 V 140 91 V 654 -32 V 0.90 PolyFill
stroke
LT1
0.27 0.27 0.27 C 3220 1882 M
140 90 V
-654 32 V
-140 -91 V
654 -31 V
1 g gsave 5320 1880 N -653 32 V 140 86 V 653 -31 V 0.90 PolyFill
stroke
LT1
0.27 0.27 0.27 C 5320 1880 M
140 87 V
-653 31 V
-140 -86 V
653 -32 V
1 g gsave 7421 1895 N -654 9 V 140 83 V 654 -22 V 0.90 PolyFill
stroke
LT1
0.27 0.27 0.27 C 7421 1895 M
140 70 V
-654 22 V
-140 -83 V
654 -9 V
0 g gsave 6113 2434 N -653 39 V 140 48 V 653 58 V 0.90 PolyFill
stroke
LT1
0.27 0.27 0.27 C 6113 2434 M
140 145 V
-653 -58 V
-140 -48 V
653 -39 V
0 g gsave 3360 2710 N -654 40 V 141 45 V 653 -61 V 0.90 PolyFill
stroke
LT1
0.27 0.27 0.27 C 3360 2710 M
140 24 V
-653 61 V
-141 -45 V
654 -40 V
0 g gsave 4014 2605 N -654 105 V 140 24 V 654 -83 V 0.90 PolyFill
stroke
LT1
0.27 0.27 0.27 C 4014 2605 M
140 46 V
-654 83 V
-140 -24 V
654 -105 V
0 g gsave 6767 2381 N -654 53 V 140 145 V 654 -125 V 0.90 PolyFill
stroke
LT1
0.27 0.27 0.27 C 6767 2381 M
140 73 V
-654 125 V
6113 2434 L
654 -53 V
1 g gsave 5973 1849 N -653 31 V 140 87 V 653 -32 V 0.90 PolyFill
stroke
LT1
0.27 0.27 0.27 C 5973 1849 M
140 86 V
-653 32 V
-140 -87 V
653 -31 V
1 g gsave 3873 1854 N -653 28 V 140 90 V 654 -29 V 0.90 PolyFill
stroke
LT1
0.27 0.27 0.27 C 3873 1854 M
141 89 V
-654 29 V
-140 -90 V
653 -28 V
0 g gsave 4667 2581 N -653 24 V 140 46 V 653 -37 V 0.90 PolyFill
stroke
LT1
0.27 0.27 0.27 C 4667 2581 M
140 33 V
-653 37 V
-140 -46 V
653 -24 V
0 g gsave 7421 2319 N -654 62 V 140 73 V 654 -94 V 0.90 PolyFill
stroke
LT1
0.27 0.27 0.27 C 7421 2319 M
140 41 V
-654 94 V
-140 -73 V
654 -62 V
1 g gsave 4527 1823 N -654 31 V 141 89 V 653 -31 V 0.90 PolyFill
stroke
LT1
0.27 0.27 0.27 C 4527 1823 M
140 89 V
-653 31 V
-141 -89 V
654 -31 V
1 g gsave 6627 1821 N -654 28 V 140 86 V 654 -31 V 0.90 PolyFill
stroke
LT1
0.27 0.27 0.27 C 6627 1821 M
140 83 V
-654 31 V
-140 -86 V
654 -28 V
0 g gsave 5320 2436 N -653 145 V 140 33 V 653 -141 V 0.90 PolyFill
stroke
LT1
0.27 0.27 0.27 C 5320 2436 M
140 37 V
-653 141 V
-140 -33 V
653 -145 V
0 g gsave 8074 2233 N -653 86 V 140 41 V 653 -56 V 0.90 PolyFill
stroke
LT1
0.27 0.27 0.27 C 8074 2233 M
140 71 V
-653 56 V
-140 -41 V
653 -86 V
0 g gsave 3220 2524 N -654 90 V 140 136 V 654 -40 V 0.90 PolyFill
stroke
LT1
0.27 0.27 0.27 C 3220 2524 M
140 186 V
-654 40 V
2566 2614 L
654 -90 V
1 g gsave 3080 1792 N -654 31 V 140 90 V 654 -31 V 0.90 PolyFill
stroke
LT1
0.27 0.27 0.27 C 3080 1792 M
140 90 V
-654 31 V
-140 -90 V
654 -31 V
1 g gsave 5180 1792 N -653 31 V 140 89 V 653 -32 V 0.90 PolyFill
stroke
LT1
0.27 0.27 0.27 C 5180 1792 M
140 88 V
-653 32 V
-140 -89 V
653 -31 V
1 g gsave 7280 1844 N -653 -23 V 140 83 V 654 -9 V 0.90 PolyFill
stroke
LT1
0.27 0.27 0.27 C 7280 1844 M
141 51 V
-654 9 V
-140 -83 V
653 23 V
0 g gsave 5973 2396 N -653 40 V 140 37 V 653 -39 V 0.90 PolyFill
stroke
LT1
0.27 0.27 0.27 C 5973 2396 M
140 38 V
-653 39 V
-140 -37 V
653 -40 V
0 g gsave 3873 2477 N -653 47 V 140 186 V 654 -105 V 0.90 PolyFill
stroke
LT1
0.27 0.27 0.27 C 3873 2477 M
141 128 V
-654 105 V
3220 2524 L
653 -47 V
1 g gsave 3733 1763 N -653 29 V 140 90 V 653 -28 V 0.90 PolyFill
stroke
LT1
0.27 0.27 0.27 C 3733 1763 M
140 91 V
-653 28 V
-140 -90 V
653 -29 V
1 g gsave 5833 1763 N -653 29 V 140 88 V 653 -31 V 0.90 PolyFill
stroke
LT1
0.27 0.27 0.27 C 5833 1763 M
140 86 V
-653 31 V
-140 -88 V
653 -29 V
0 g gsave 6627 2309 N -654 87 V 140 38 V 654 -53 V 0.90 PolyFill
stroke
LT1
0.27 0.27 0.27 C 6627 2309 M
140 72 V
-654 53 V
-140 -38 V
654 -87 V
0 g gsave 4527 2395 N -654 82 V 141 128 V 653 -24 V 0.90 PolyFill
stroke
LT1
0.27 0.27 0.27 C 4527 2395 M
140 186 V
-653 24 V
3873 2477 L
654 -82 V
0 g gsave 7280 2214 N -653 95 V 140 72 V 654 -62 V 0.90 PolyFill
stroke
LT1
0.27 0.27 0.27 C 7280 2214 M
141 105 V
-654 62 V
-140 -72 V
653 -95 V
1 g gsave 4387 1733 N -654 30 V 140 91 V 654 -31 V 0.90 PolyFill
stroke
LT1
0.27 0.27 0.27 C 4387 1733 M
140 90 V
-654 31 V
-140 -91 V
654 -30 V
1 g gsave 6487 1742 N -654 21 V 140 86 V 654 -28 V 0.90 PolyFill
stroke
LT1
0.27 0.27 0.27 C 6487 1742 M
140 79 V
-654 28 V
-140 -86 V
654 -21 V
0 g gsave 5180 2289 N -653 106 V 140 186 V 653 -145 V 0.90 PolyFill
stroke
LT1
0.27 0.27 0.27 C 5180 2289 M
140 147 V
-653 145 V
4527 2395 L
653 -106 V
0 g gsave 7934 2137 N -654 77 V 141 105 V 653 -86 V 0.90 PolyFill
stroke
LT1
0.27 0.27 0.27 C 7934 2137 M
140 96 V
-653 86 V
7280 2214 L
654 -77 V
0 g gsave 3080 2452 N -654 69 V 140 93 V 654 -90 V 0.90 PolyFill
stroke
LT1
0.27 0.27 0.27 C 3080 2452 M
140 72 V
-654 90 V
-140 -93 V
654 -69 V
1 g gsave 2940 1699 N -654 31 V 140 93 V 654 -31 V 0.90 PolyFill
stroke
LT1
0.27 0.27 0.27 C 2940 1699 M
140 93 V
-654 31 V
-140 -93 V
654 -31 V
1 g gsave 5040 1702 N -653 31 V 140 90 V 653 -31 V 0.90 PolyFill
stroke
LT1
0.27 0.27 0.27 C 5040 1702 M
140 90 V
-653 31 V
-140 -90 V
653 -31 V
0 g gsave 5833 2264 N -653 25 V 140 147 V 653 -40 V 0.90 PolyFill
stroke
LT1
0.27 0.27 0.27 C 5833 2264 M
140 132 V
-653 40 V
5180 2289 L
653 -25 V
1 g gsave 8074 3070 N -653 -1175 V 140 70 V 653 220 V 0.90 PolyFill
stroke
LT1
0.27 0.27 0.27 C 8074 3070 M
140 -885 V
7561 1965 L
-140 -70 V
653 1175 V
1 g gsave 7140 1813 N -653 -71 V 140 79 V 653 23 V 0.90 PolyFill
stroke
LT1
0.27 0.27 0.27 C 7140 1813 M
140 31 V
-653 -23 V
-140 -79 V
653 71 V
0 g gsave 3733 2415 N -653 37 V 140 72 V 653 -47 V 0.90 PolyFill
stroke
LT1
0.27 0.27 0.27 C 3733 2415 M
140 62 V
-653 47 V
-140 -72 V
653 -37 V
0 g gsave 6487 2190 N -654 74 V 140 132 V 654 -87 V 0.90 PolyFill
stroke
LT1
0.27 0.27 0.27 C 6487 2190 M
140 119 V
-654 87 V
5833 2264 L
654 -74 V
1 g gsave 3593 1671 N -653 28 V 140 93 V 653 -29 V 0.90 PolyFill
stroke
LT1
0.27 0.27 0.27 C 3593 1671 M
140 92 V
-653 29 V
-140 -93 V
653 -28 V
1 g gsave 5693 1676 N -653 26 V 140 90 V 653 -29 V 0.90 PolyFill
stroke
LT1
0.27 0.27 0.27 C 5693 1676 M
140 87 V
-653 29 V
-140 -90 V
653 -26 V
0 g gsave 7140 2101 N -653 89 V 140 119 V 653 -95 V 0.90 PolyFill
stroke
LT1
0.27 0.27 0.27 C 7140 2101 M
140 113 V
-653 95 V
6487 2190 L
653 -89 V
0 g gsave 4387 2391 N -654 24 V 140 62 V 654 -82 V 0.90 PolyFill
stroke
LT1
0.27 0.27 0.27 C 4387 2391 M
140 4 V
-654 82 V
-140 -62 V
654 -24 V
1 g gsave 4247 1640 N -654 31 V 140 92 V 654 -30 V 0.90 PolyFill
stroke
LT1
0.27 0.27 0.27 C 4247 1640 M
140 93 V
-654 30 V
-140 -92 V
654 -31 V
0 g gsave 5040 2192 N -653 199 V 140 4 V 653 -106 V 0.90 PolyFill
stroke
LT1
0.27 0.27 0.27 C 5040 2192 M
140 97 V
-653 106 V
-140 -4 V
653 -199 V
1 g gsave 6347 1657 N -654 19 V 140 87 V 654 -21 V 0.90 PolyFill
stroke
LT1
0.27 0.27 0.27 C 6347 1657 M
140 85 V
-654 21 V
-140 -87 V
654 -19 V
0 g gsave 2940 2360 N -654 106 V 140 55 V 654 -69 V 0.90 PolyFill
stroke
LT1
0.27 0.27 0.27 C 2940 2360 M
140 92 V
-654 69 V
-140 -55 V
654 -106 V
0 g gsave 7794 2086 N -654 15 V 140 113 V 654 -77 V 0.90 PolyFill
stroke
LT1
0.27 0.27 0.27 C 7794 2086 M
140 51 V
-654 77 V
7140 2101 L
654 -15 V
1 g gsave 2800 1606 N -654 31 V 140 93 V 654 -31 V 0.90 PolyFill
stroke
LT1
0.27 0.27 0.27 C 2800 1606 M
140 93 V
-654 31 V
-140 -93 V
654 -31 V
1 g gsave 4900 1610 N -653 30 V 140 93 V 653 -31 V 0.90 PolyFill
stroke
LT1
0.27 0.27 0.27 C 4900 1610 M
140 92 V
-653 31 V
-140 -93 V
653 -30 V
0 g gsave 5693 2213 N -653 -21 V 140 97 V 653 -25 V 0.90 PolyFill
stroke
LT1
0.27 0.27 0.27 C 5693 2213 M
140 51 V
-653 25 V
-140 -97 V
653 21 V
1 g gsave 7000 1804 N -653 -147 V 140 85 V 653 71 V 0.90 PolyFill
stroke
LT1
0.27 0.27 0.27 C 7000 1804 M
140 9 V
-653 -71 V
-140 -85 V
653 147 V
0 g gsave 3593 2347 N -653 13 V 140 92 V 653 -37 V 0.90 PolyFill
stroke
LT1
0.27 0.27 0.27 C 3593 2347 M
140 68 V
-653 37 V
-140 -92 V
653 -13 V
0 g gsave 6347 2099 N -654 114 V 140 51 V 654 -74 V 0.90 PolyFill
stroke
LT1
0.27 0.27 0.27 C 6347 2099 M
140 91 V
-654 74 V
-140 -51 V
654 -114 V
1 g gsave 3453 1577 N -653 29 V 140 93 V 653 -28 V 0.90 PolyFill
stroke
LT1
0.27 0.27 0.27 C 3453 1577 M
140 94 V
-653 28 V
-140 -93 V
653 -29 V
1 g gsave 5553 1591 N -653 19 V 140 92 V 653 -26 V 0.90 PolyFill
stroke
LT1
0.27 0.27 0.27 C 5553 1591 M
140 85 V
-653 26 V
-140 -92 V
653 -19 V
0 g gsave 4247 2257 N -654 90 V 140 68 V 654 -24 V 0.90 PolyFill
stroke
LT1
0.27 0.27 0.27 C 4247 2257 M
140 134 V
-654 24 V
-140 -68 V
654 -90 V
0 g gsave 7000 2020 N -653 79 V 140 91 V 653 -89 V 0.90 PolyFill
stroke
LT1
0.27 0.27 0.27 C 7000 2020 M
140 81 V
-653 89 V
-140 -91 V
653 -79 V
1 g gsave 4107 1547 N -654 30 V 140 94 V 654 -31 V 0.90 PolyFill
stroke
LT1
0.27 0.27 0.27 C 4107 1547 M
140 93 V
-654 31 V
-140 -94 V
654 -30 V
0 g gsave 4900 2114 N -653 143 V 140 134 V 653 -199 V 0.90 PolyFill
stroke
LT1
0.27 0.27 0.27 C 4900 2114 M
140 78 V
-653 199 V
4247 2257 L
653 -143 V
1 g gsave 6207 1598 N -654 -7 V 140 85 V 654 -19 V 0.90 PolyFill
stroke
LT1
0.27 0.27 0.27 C 6207 1598 M
140 59 V
-654 19 V
-140 -85 V
654 7 V
0 g gsave 7654 1928 N -654 92 V 140 81 V 654 -15 V 0.90 PolyFill
stroke
LT1
0.27 0.27 0.27 C 7654 1928 M
140 158 V
-654 15 V
-140 -81 V
654 -92 V
1 g gsave 7934 3587 N -654 -1743 V 141 51 V 653 1175 V 0.90 PolyFill
stroke
LT1
0.27 0.27 0.27 C 7934 3587 M
140 -517 V
7421 1895 L
-141 -51 V
654 1743 V
0 g gsave 2800 2278 N -654 116 V 140 72 V 654 -106 V 0.90 PolyFill
stroke
LT1
0.27 0.27 0.27 C 2800 2278 M
140 82 V
-654 106 V
-140 -72 V
654 -116 V
1 g gsave 2659 1512 N -653 31 V 140 94 V 654 -31 V 0.90 PolyFill
stroke
LT1
0.27 0.27 0.27 C 2659 1512 M
141 94 V
-654 31 V
-140 -94 V
653 -31 V
1 g gsave 4760 1517 N -653 30 V 140 93 V 653 -30 V 0.90 PolyFill
stroke
LT1
0.27 0.27 0.27 C 4760 1517 M
140 93 V
-653 30 V
-140 -93 V
653 -30 V
0 g gsave 5553 2096 N -653 18 V 140 78 V 653 21 V 0.90 PolyFill
stroke
LT1
0.27 0.27 0.27 C 5553 2096 M
140 117 V
-653 -21 V
-140 -78 V
653 -18 V
0 g gsave 3453 2196 N -653 82 V 140 82 V 653 -13 V 0.90 PolyFill
stroke
LT1
0.27 0.27 0.27 C 3453 2196 M
140 151 V
-653 13 V
-140 -82 V
653 -82 V
0 g gsave 6207 2006 N -654 90 V 140 117 V 654 -114 V 0.90 PolyFill
stroke
LT1
0.27 0.27 0.27 C 6207 2006 M
140 93 V
-654 114 V
5553 2096 L
654 -90 V
1 g gsave 3313 1483 N -654 29 V 141 94 V 653 -29 V 0.90 PolyFill
stroke
LT1
0.27 0.27 0.27 C 3313 1483 M
140 94 V
-653 29 V
-141 -94 V
654 -29 V
1 g gsave 5413 1498 N -653 19 V 140 93 V 653 -19 V 0.90 PolyFill
stroke
LT1
0.27 0.27 0.27 C 5413 1498 M
140 93 V
-653 19 V
-140 -93 V
653 -19 V
0 g gsave 6860 1876 N -653 130 V 140 93 V 653 -79 V 0.90 PolyFill
stroke
LT1
0.27 0.27 0.27 C 6860 1876 M
140 144 V
-653 79 V
-140 -93 V
653 -130 V
1 g gsave 6860 1888 N -653 -290 V 140 59 V 653 147 V 0.90 PolyFill
stroke
LT1
0.27 0.27 0.27 C 6860 1888 M
140 -84 V
6347 1657 L
-140 -59 V
653 290 V
0 g gsave 4107 2181 N -654 15 V 140 151 V 654 -90 V 0.90 PolyFill
stroke
LT1
0.27 0.27 0.27 C 4107 2181 M
140 76 V
-654 90 V
3453 2196 L
654 -15 V
1 g gsave 3967 1454 N -654 29 V 140 94 V 654 -30 V 0.90 PolyFill
stroke
LT1
0.27 0.27 0.27 C 3967 1454 M
140 93 V
-654 30 V
-140 -94 V
654 -29 V
0 g gsave 4760 2028 N -653 153 V 140 76 V 653 -143 V 0.90 PolyFill
stroke
LT1
0.27 0.27 0.27 C 4760 2028 M
140 86 V
-653 143 V
-140 -76 V
653 -153 V
1 g gsave 6066 1532 N -653 -34 V 140 93 V 654 7 V 0.90 PolyFill
stroke
LT1
0.27 0.27 0.27 C 6066 1532 M
141 66 V
-654 -7 V
-140 -93 V
653 34 V
0 g gsave 7514 1837 N -654 39 V 140 144 V 654 -92 V 0.90 PolyFill
stroke
LT1
0.27 0.27 0.27 C 7514 1837 M
140 91 V
-654 92 V
6860 1876 L
654 -39 V
1 g gsave 2519 1419 N -653 30 V 140 94 V 653 -31 V 0.90 PolyFill
stroke
LT1
0.27 0.27 0.27 C 2519 1419 M
140 93 V
-653 31 V
-140 -94 V
653 -30 V
0 g gsave 2659 2221 N -653 65 V 140 108 V 654 -116 V 0.90 PolyFill
stroke
LT1
0.27 0.27 0.27 C 2659 2221 M
141 57 V
-654 116 V
2006 2286 L
653 -65 V
1 g gsave 4620 1424 N -653 30 V 140 93 V 653 -30 V 0.90 PolyFill
stroke
LT1
0.27 0.27 0.27 C 4620 1424 M
140 93 V
-653 30 V
-140 -93 V
653 -30 V
0 g gsave 5413 2025 N -653 3 V 140 86 V 653 -18 V 0.90 PolyFill
stroke
LT1
0.27 0.27 0.27 C 5413 2025 M
140 71 V
-653 18 V
-140 -86 V
653 -3 V
0 g gsave 3313 2108 N -654 113 V 141 57 V 653 -82 V 0.90 PolyFill
stroke
LT1
0.27 0.27 0.27 C 3313 2108 M
140 88 V
-653 82 V
-141 -57 V
654 -113 V
1 g gsave 7794 3741 N -654 -1928 V 140 31 V 654 1743 V 0.90 PolyFill
stroke
LT1
0.27 0.27 0.27 C 7794 3741 M
140 -154 V
7280 1844 L
-140 -31 V
654 1928 V
0 g gsave 6066 1911 N -653 114 V 140 71 V 654 -90 V 0.90 PolyFill
stroke
LT1
0.27 0.27 0.27 C 6066 1911 M
141 95 V
-654 90 V
-140 -71 V
653 -114 V
1 g gsave 3173 1391 N -654 28 V 140 93 V 654 -29 V 0.90 PolyFill
stroke
LT1
0.27 0.27 0.27 C 3173 1391 M
140 92 V
-654 29 V
-140 -93 V
654 -28 V
1 g gsave 5273 1401 N -653 23 V 140 93 V 653 -19 V 0.90 PolyFill
stroke
LT1
0.27 0.27 0.27 C 5273 1401 M
140 97 V
-653 19 V
-140 -93 V
653 -23 V
0 g gsave 3967 2056 N -654 52 V 140 88 V 654 -15 V 0.90 PolyFill
stroke
LT1
0.27 0.27 0.27 C 3967 2056 M
140 125 V
-654 15 V
-140 -88 V
654 -52 V
0 g gsave 6720 1835 N -654 76 V 141 95 V 653 -130 V 0.90 PolyFill
stroke
LT1
0.27 0.27 0.27 C 6720 1835 M
140 41 V
-653 130 V
-141 -95 V
654 -76 V
1 g gsave 3827 1360 N -654 31 V 140 92 V 654 -29 V 0.90 PolyFill
stroke
LT1
0.27 0.27 0.27 C 3827 1360 M
140 94 V
-654 29 V
-140 -92 V
654 -31 V
0 g gsave 4620 1933 N -653 123 V 140 125 V 653 -153 V 0.90 PolyFill
stroke
LT1
0.27 0.27 0.27 C 4620 1933 M
140 95 V
-653 153 V
3967 2056 L
653 -123 V
1 g gsave 6720 1975 N -654 -443 V 141 66 V 653 290 V 0.90 PolyFill
stroke
LT1
0.27 0.27 0.27 C 6720 1975 M
140 -87 V
6207 1598 L
-141 -66 V
654 443 V
0 g gsave 7374 1728 N -654 107 V 140 41 V 654 -39 V 0.90 PolyFill
stroke
LT1
0.27 0.27 0.27 C 7374 1728 M
140 109 V
-654 39 V
-140 -41 V
654 -107 V
1 g gsave 5926 1489 N -653 -88 V 140 97 V 653 34 V 0.90 PolyFill
stroke
LT1
0.27 0.27 0.27 C 5926 1489 M
140 43 V
-653 -34 V
-140 -97 V
653 88 V
0 g gsave 2519 2089 N -653 75 V 140 122 V 653 -65 V 0.90 PolyFill
stroke
LT1
0.27 0.27 0.27 C 2519 2089 M
140 132 V
-653 65 V
1866 2164 L
653 -75 V
1 g gsave 2379 1324 N -653 32 V 140 93 V 653 -30 V 0.90 PolyFill
stroke
LT1
0.27 0.27 0.27 C 2379 1324 M
140 95 V
-653 30 V
-140 -93 V
653 -32 V
1 g gsave 4480 1329 N -653 31 V 140 94 V 653 -30 V 0.90 PolyFill
stroke
LT1
0.27 0.27 0.27 C 4480 1329 M
140 95 V
-653 30 V
-140 -94 V
653 -31 V
0 g gsave 5273 1915 N -653 18 V 140 95 V 653 -3 V 0.90 PolyFill
stroke
LT1
0.27 0.27 0.27 C 5273 1915 M
140 110 V
-653 3 V
-140 -95 V
653 -18 V
0 g gsave 3173 2035 N -654 54 V 140 132 V 654 -113 V 0.90 PolyFill
stroke
LT1
0.27 0.27 0.27 C 3173 2035 M
140 73 V
-654 113 V
2519 2089 L
654 -54 V
1 g gsave 3033 1295 N -654 29 V 140 95 V 654 -28 V 0.90 PolyFill
stroke
LT1
0.27 0.27 0.27 C 3033 1295 M
140 96 V
-654 28 V
-140 -95 V
654 -29 V
1 g gsave 5133 1303 N -653 26 V 140 95 V 653 -23 V 0.90 PolyFill
stroke
LT1
0.27 0.27 0.27 C 5133 1303 M
140 98 V
-653 23 V
-140 -95 V
653 -26 V
0 g gsave 5926 1848 N -653 67 V 140 110 V 653 -114 V 0.90 PolyFill
stroke
LT1
0.27 0.27 0.27 C 5926 1848 M
140 63 V
-653 114 V
5273 1915 L
653 -67 V
1 g gsave 7654 3771 N -654 -1967 V 140 9 V 654 1928 V 0.90 PolyFill
stroke
LT1
0.27 0.27 0.27 C 7654 3771 M
140 -30 V
7140 1813 L
-140 -9 V
654 1967 V
0 g gsave 6580 1675 N -654 173 V 140 63 V 654 -76 V 0.90 PolyFill
stroke
LT1
0.27 0.27 0.27 C 6580 1675 M
140 160 V
-654 76 V
-140 -63 V
654 -173 V
0 g gsave 3827 1958 N -654 77 V 140 73 V 654 -52 V 0.90 PolyFill
stroke
LT1
0.27 0.27 0.27 C 3827 1958 M
140 98 V
-654 52 V
-140 -73 V
654 -77 V
1 g gsave 3686 1266 N -653 29 V 140 96 V 654 -31 V 0.90 PolyFill
stroke
LT1
0.27 0.27 0.27 C 3686 1266 M
141 94 V
-654 31 V
-140 -96 V
653 -29 V
0 g gsave 4480 1818 N -653 140 V 140 98 V 653 -123 V 0.90 PolyFill
stroke
LT1
0.27 0.27 0.27 C 4480 1818 M
140 115 V
-653 123 V
-140 -98 V
653 -140 V
0 g gsave 7233 1612 N -653 63 V 140 160 V 654 -107 V 0.90 PolyFill
stroke
LT1
0.27 0.27 0.27 C 7233 1612 M
141 116 V
-654 107 V
6580 1675 L
653 -63 V
0 g gsave 2379 1957 N -653 83 V 140 124 V 653 -75 V 0.90 PolyFill
stroke
LT1
0.27 0.27 0.27 C 2379 1957 M
140 132 V
-653 75 V
1726 2040 L
653 -83 V
1 g gsave 5786 1496 N -653 -193 V 140 98 V 653 88 V 0.90 PolyFill
stroke
LT1
0.27 0.27 0.27 C 5786 1496 M
140 -7 V
-653 -88 V
-140 -98 V
653 193 V
1 g gsave 4340 1236 N -654 30 V 141 94 V 653 -31 V 0.90 PolyFill
stroke
LT1
0.27 0.27 0.27 C 4340 1236 M
140 93 V
-653 31 V
-141 -94 V
654 -30 V
0 g gsave 5133 1849 N -653 -31 V 140 115 V 653 -18 V 0.90 PolyFill
stroke
LT1
0.27 0.27 0.27 C 5133 1849 M
140 66 V
-653 18 V
4480 1818 L
653 31 V
0 g gsave 3033 1885 N -654 72 V 140 132 V 654 -54 V 0.90 PolyFill
stroke
LT1
0.27 0.27 0.27 C 3033 1885 M
140 150 V
-654 54 V
2379 1957 L
654 -72 V
1 g gsave 6580 2184 N -654 -695 V 140 43 V 654 443 V 0.90 PolyFill
stroke
LT1
0.27 0.27 0.27 C 6580 2184 M
140 -209 V
6066 1532 L
-140 -43 V
654 695 V
0 g gsave 5786 1706 N -653 143 V 140 66 V 653 -67 V 0.90 PolyFill
stroke
LT1
0.27 0.27 0.27 C 5786 1706 M
140 142 V
-653 67 V
-140 -66 V
653 -143 V
0 g gsave 3686 1815 N -653 70 V 140 150 V 654 -77 V 0.90 PolyFill
stroke
LT1
0.27 0.27 0.27 C 3686 1815 M
141 143 V
-654 77 V
3033 1885 L
653 -70 V
1 g gsave 4994 1298 N -654 -62 V 140 93 V 653 -26 V 0.90 PolyFill
stroke
LT1
0.27 0.27 0.27 C 4994 1298 M
139 5 V
-653 26 V
-140 -93 V
654 62 V
0 g gsave 6440 1615 N -654 91 V 140 142 V 654 -173 V 0.90 PolyFill
stroke
LT1
0.27 0.27 0.27 C 6440 1615 M
140 60 V
-654 173 V
5786 1706 L
654 -91 V
1 g gsave 7514 3749 N -654 -1861 V 140 -84 V 654 1967 V 0.90 PolyFill
stroke
LT1
0.27 0.27 0.27 C 7514 3749 M
140 22 V
7000 1804 L
-140 84 V
654 1861 V
0 g gsave 4340 1680 N -654 135 V 141 143 V 653 -140 V 0.90 PolyFill
stroke
LT1
0.27 0.27 0.27 C 4340 1680 M
140 138 V
-653 140 V
3686 1815 L
654 -135 V
0 g gsave 7093 1515 N -653 100 V 140 60 V 653 -63 V 0.90 PolyFill
stroke
LT1
0.27 0.27 0.27 C 7093 1515 M
140 97 V
-653 63 V
-140 -60 V
653 -100 V
0 g gsave 4994 1654 N -654 26 V 140 138 V 653 31 V 0.90 PolyFill
stroke
LT1
0.27 0.27 0.27 C 4994 1654 M
139 195 V
-653 -31 V
4340 1680 L
654 -26 V
0 g gsave 5646 1559 N -652 95 V 139 195 V 653 -143 V 0.90 PolyFill
stroke
LT1
0.27 0.27 0.27 C 5646 1559 M
140 147 V
-653 143 V
4994 1654 L
652 -95 V
1 g gsave 5646 1621 N -652 -323 V 139 5 V 653 193 V 0.90 PolyFill
stroke
LT1
0.27 0.27 0.27 C 5646 1621 M
140 -125 V
5133 1303 L
-139 -5 V
652 323 V
0 g gsave 6300 1441 N -654 118 V 140 147 V 654 -91 V 0.90 PolyFill
stroke
LT1
0.27 0.27 0.27 C 6300 1441 M
140 174 V
-654 91 V
5646 1559 L
654 -118 V
1 g gsave 7374 3667 N -654 -1692 V 140 -87 V 654 1861 V 0.90 PolyFill
stroke
LT1
0.27 0.27 0.27 C 7374 3667 M
140 82 V
6860 1888 L
-140 87 V
654 1692 V
0 g gsave 6953 1391 N -653 50 V 140 174 V 653 -100 V 0.90 PolyFill
stroke
LT1
0.27 0.27 0.27 C 6953 1391 M
140 124 V
-653 100 V
6300 1441 L
653 -50 V
1 g gsave 6440 2542 N -654 -1046 V 140 -7 V 654 695 V 0.90 PolyFill
stroke
LT1
0.27 0.27 0.27 C 6440 2542 M
140 -358 V
5926 1489 L
-140 7 V
654 1046 V
1 g gsave 7233 3640 N -653 -1456 V 140 -209 V 654 1692 V 0.90 PolyFill
stroke
LT1
0.27 0.27 0.27 C 7233 3640 M
141 27 V
6720 1975 L
-140 209 V
653 1456 V
1 g gsave 6300 2796 N -654 -1175 V 140 -125 V 654 1046 V 0.90 PolyFill
stroke
LT1
0.27 0.27 0.27 C 6300 2796 M
140 -254 V
5786 1496 L
-140 125 V
654 1175 V
1 g gsave 7093 3569 N -653 -1027 V 140 -358 V 653 1456 V 0.90 PolyFill
stroke
LT1
0.27 0.27 0.27 C 7093 3569 M
140 71 V
6580 2184 L
-140 358 V
653 1027 V
1 g gsave 6953 3476 N -653 -680 V 140 -254 V 653 1027 V 0.90 PolyFill
stroke
LT1
0.27 0.27 0.27 C 6953 3476 M
140 93 V
6440 2542 L
-140 254 V
653 680 V
stroke
1.000 UL
LTb
LCb setrgbcolor
8354 1992 M
6953 1056 L
stroke
LTb
LCb setrgbcolor
1726 1307 M
6953 1056 L
stroke
LTb
LCb setrgbcolor
6953 1056 M
0 2420 V
stroke
LCb setrgbcolor
3990 947 M
[ [(Times-Roman) 200.0 0.0 true true 0 (Probability of incompleteness p1)]
] -66.7 MCshow
LTb
LCb setrgbcolor
8961 1461 M
[ [(Times-Roman) 200.0 0.0 true true 0 (Probability of ties p2)]
] -66.7 MCshow
LTb
LCb setrgbcolor
886 2638 M
currentpoint gsave translate 90 rotate 0 0 moveto
[ [(Times-Roman) 200.0 0.0 true true 0 (Execution time \(s\))]
] -66.7 MCshow
grestore
LTb
1.000 UP
grestore % colour palette end
stroke
grestore
end
showpage
%%Trailer
%%DocumentFonts: Times-Roman
