%!PS-Adobe-2.0 EPSF-2.0
%%Title: AST100vsMC-PS.eps
%%Creator: gnuplot 4.6 patchlevel 5
%%CreationDate: Tue Sep  2 10:21:47 2014
%%DocumentFonts: (atend)
%%BoundingBox: 50 50 554 338
%%EndComments
%%BeginProlog
/gnudict 256 dict def
gnudict begin
%
% The following true/false flags may be edited by hand if desired.
% The unit line width and grayscale image gamma correction may also be changed.
%
/Color true def
/Blacktext false def
/Solid false def
/Dashlength 1 def
/Landscape false def
/Level1 false def
/Rounded false def
/ClipToBoundingBox false def
/SuppressPDFMark false def
/TransparentPatterns false def
/gnulinewidth 5.000 def
/userlinewidth gnulinewidth def
/Gamma 1.0 def
/BackgroundColor {-1.000 -1.000 -1.000} def
%
/vshift -73 def
/dl1 {
  10.0 Dashlength mul mul
  Rounded { currentlinewidth 0.75 mul sub dup 0 le { pop 0.01 } if } if
} def
/dl2 {
  10.0 Dashlength mul mul
  Rounded { currentlinewidth 0.75 mul add } if
} def
/hpt_ 31.5 def
/vpt_ 31.5 def
/hpt hpt_ def
/vpt vpt_ def
/doclip {
  ClipToBoundingBox {
    newpath 50 50 moveto 554 50 lineto 554 338 lineto 50 338 lineto closepath
    clip
  } if
} def
%
% Gnuplot Prolog Version 4.6 (September 2012)
%
%/SuppressPDFMark true def
%
/M {moveto} bind def
/L {lineto} bind def
/R {rmoveto} bind def
/V {rlineto} bind def
/N {newpath moveto} bind def
/Z {closepath} bind def
/C {setrgbcolor} bind def
/f {rlineto fill} bind def
/g {setgray} bind def
/Gshow {show} def   % May be redefined later in the file to support UTF-8
/vpt2 vpt 2 mul def
/hpt2 hpt 2 mul def
/Lshow {currentpoint stroke M 0 vshift R 
	Blacktext {gsave 0 setgray show grestore} {show} ifelse} def
/Rshow {currentpoint stroke M dup stringwidth pop neg vshift R
	Blacktext {gsave 0 setgray show grestore} {show} ifelse} def
/Cshow {currentpoint stroke M dup stringwidth pop -2 div vshift R 
	Blacktext {gsave 0 setgray show grestore} {show} ifelse} def
/UP {dup vpt_ mul /vpt exch def hpt_ mul /hpt exch def
  /hpt2 hpt 2 mul def /vpt2 vpt 2 mul def} def
/DL {Color {setrgbcolor Solid {pop []} if 0 setdash}
 {pop pop pop 0 setgray Solid {pop []} if 0 setdash} ifelse} def
/BL {stroke userlinewidth 2 mul setlinewidth
	Rounded {1 setlinejoin 1 setlinecap} if} def
/AL {stroke userlinewidth 2 div setlinewidth
	Rounded {1 setlinejoin 1 setlinecap} if} def
/UL {dup gnulinewidth mul /userlinewidth exch def
	dup 1 lt {pop 1} if 10 mul /udl exch def} def
/PL {stroke userlinewidth setlinewidth
	Rounded {1 setlinejoin 1 setlinecap} if} def
3.8 setmiterlimit
% Default Line colors
/LCw {1 1 1} def
/LCb {0 0 0} def
/LCa {0 0 0} def
/LC0 {1 0 0} def
/LC1 {0 1 0} def
/LC2 {0 0 1} def
/LC3 {1 0 1} def
/LC4 {0 1 1} def
/LC5 {1 1 0} def
/LC6 {0 0 0} def
/LC7 {1 0.3 0} def
/LC8 {0.5 0.5 0.5} def
% Default Line Types
/LTw {PL [] 1 setgray} def
/LTb {BL [] LCb DL} def
/LTa {AL [1 udl mul 2 udl mul] 0 setdash LCa setrgbcolor} def
/LT0 {PL [] LC0 DL} def
/LT1 {PL [4 dl1 2 dl2] LC1 DL} def
/LT2 {PL [2 dl1 3 dl2] LC2 DL} def
/LT3 {PL [1 dl1 1.5 dl2] LC3 DL} def
/LT4 {PL [6 dl1 2 dl2 1 dl1 2 dl2] LC4 DL} def
/LT5 {PL [3 dl1 3 dl2 1 dl1 3 dl2] LC5 DL} def
/LT6 {PL [2 dl1 2 dl2 2 dl1 6 dl2] LC6 DL} def
/LT7 {PL [1 dl1 2 dl2 6 dl1 2 dl2 1 dl1 2 dl2] LC7 DL} def
/LT8 {PL [2 dl1 2 dl2 2 dl1 2 dl2 2 dl1 2 dl2 2 dl1 4 dl2] LC8 DL} def
/Pnt {stroke [] 0 setdash gsave 1 setlinecap M 0 0 V stroke grestore} def
/Dia {stroke [] 0 setdash 2 copy vpt add M
  hpt neg vpt neg V hpt vpt neg V
  hpt vpt V hpt neg vpt V closepath stroke
  Pnt} def
/Pls {stroke [] 0 setdash vpt sub M 0 vpt2 V
  currentpoint stroke M
  hpt neg vpt neg R hpt2 0 V stroke
 } def
/Box {stroke [] 0 setdash 2 copy exch hpt sub exch vpt add M
  0 vpt2 neg V hpt2 0 V 0 vpt2 V
  hpt2 neg 0 V closepath stroke
  Pnt} def
/Crs {stroke [] 0 setdash exch hpt sub exch vpt add M
  hpt2 vpt2 neg V currentpoint stroke M
  hpt2 neg 0 R hpt2 vpt2 V stroke} def
/TriU {stroke [] 0 setdash 2 copy vpt 1.12 mul add M
  hpt neg vpt -1.62 mul V
  hpt 2 mul 0 V
  hpt neg vpt 1.62 mul V closepath stroke
  Pnt} def
/Star {2 copy Pls Crs} def
/BoxF {stroke [] 0 setdash exch hpt sub exch vpt add M
  0 vpt2 neg V hpt2 0 V 0 vpt2 V
  hpt2 neg 0 V closepath fill} def
/TriUF {stroke [] 0 setdash vpt 1.12 mul add M
  hpt neg vpt -1.62 mul V
  hpt 2 mul 0 V
  hpt neg vpt 1.62 mul V closepath fill} def
/TriD {stroke [] 0 setdash 2 copy vpt 1.12 mul sub M
  hpt neg vpt 1.62 mul V
  hpt 2 mul 0 V
  hpt neg vpt -1.62 mul V closepath stroke
  Pnt} def
/TriDF {stroke [] 0 setdash vpt 1.12 mul sub M
  hpt neg vpt 1.62 mul V
  hpt 2 mul 0 V
  hpt neg vpt -1.62 mul V closepath fill} def
/DiaF {stroke [] 0 setdash vpt add M
  hpt neg vpt neg V hpt vpt neg V
  hpt vpt V hpt neg vpt V closepath fill} def
/Pent {stroke [] 0 setdash 2 copy gsave
  translate 0 hpt M 4 {72 rotate 0 hpt L} repeat
  closepath stroke grestore Pnt} def
/PentF {stroke [] 0 setdash gsave
  translate 0 hpt M 4 {72 rotate 0 hpt L} repeat
  closepath fill grestore} def
/Circle {stroke [] 0 setdash 2 copy
  hpt 0 360 arc stroke Pnt} def
/CircleF {stroke [] 0 setdash hpt 0 360 arc fill} def
/C0 {BL [] 0 setdash 2 copy moveto vpt 90 450 arc} bind def
/C1 {BL [] 0 setdash 2 copy moveto
	2 copy vpt 0 90 arc closepath fill
	vpt 0 360 arc closepath} bind def
/C2 {BL [] 0 setdash 2 copy moveto
	2 copy vpt 90 180 arc closepath fill
	vpt 0 360 arc closepath} bind def
/C3 {BL [] 0 setdash 2 copy moveto
	2 copy vpt 0 180 arc closepath fill
	vpt 0 360 arc closepath} bind def
/C4 {BL [] 0 setdash 2 copy moveto
	2 copy vpt 180 270 arc closepath fill
	vpt 0 360 arc closepath} bind def
/C5 {BL [] 0 setdash 2 copy moveto
	2 copy vpt 0 90 arc
	2 copy moveto
	2 copy vpt 180 270 arc closepath fill
	vpt 0 360 arc} bind def
/C6 {BL [] 0 setdash 2 copy moveto
	2 copy vpt 90 270 arc closepath fill
	vpt 0 360 arc closepath} bind def
/C7 {BL [] 0 setdash 2 copy moveto
	2 copy vpt 0 270 arc closepath fill
	vpt 0 360 arc closepath} bind def
/C8 {BL [] 0 setdash 2 copy moveto
	2 copy vpt 270 360 arc closepath fill
	vpt 0 360 arc closepath} bind def
/C9 {BL [] 0 setdash 2 copy moveto
	2 copy vpt 270 450 arc closepath fill
	vpt 0 360 arc closepath} bind def
/C10 {BL [] 0 setdash 2 copy 2 copy moveto vpt 270 360 arc closepath fill
	2 copy moveto
	2 copy vpt 90 180 arc closepath fill
	vpt 0 360 arc closepath} bind def
/C11 {BL [] 0 setdash 2 copy moveto
	2 copy vpt 0 180 arc closepath fill
	2 copy moveto
	2 copy vpt 270 360 arc closepath fill
	vpt 0 360 arc closepath} bind def
/C12 {BL [] 0 setdash 2 copy moveto
	2 copy vpt 180 360 arc closepath fill
	vpt 0 360 arc closepath} bind def
/C13 {BL [] 0 setdash 2 copy moveto
	2 copy vpt 0 90 arc closepath fill
	2 copy moveto
	2 copy vpt 180 360 arc closepath fill
	vpt 0 360 arc closepath} bind def
/C14 {BL [] 0 setdash 2 copy moveto
	2 copy vpt 90 360 arc closepath fill
	vpt 0 360 arc} bind def
/C15 {BL [] 0 setdash 2 copy vpt 0 360 arc closepath fill
	vpt 0 360 arc closepath} bind def
/Rec {newpath 4 2 roll moveto 1 index 0 rlineto 0 exch rlineto
	neg 0 rlineto closepath} bind def
/Square {dup Rec} bind def
/Bsquare {vpt sub exch vpt sub exch vpt2 Square} bind def
/S0 {BL [] 0 setdash 2 copy moveto 0 vpt rlineto BL Bsquare} bind def
/S1 {BL [] 0 setdash 2 copy vpt Square fill Bsquare} bind def
/S2 {BL [] 0 setdash 2 copy exch vpt sub exch vpt Square fill Bsquare} bind def
/S3 {BL [] 0 setdash 2 copy exch vpt sub exch vpt2 vpt Rec fill Bsquare} bind def
/S4 {BL [] 0 setdash 2 copy exch vpt sub exch vpt sub vpt Square fill Bsquare} bind def
/S5 {BL [] 0 setdash 2 copy 2 copy vpt Square fill
	exch vpt sub exch vpt sub vpt Square fill Bsquare} bind def
/S6 {BL [] 0 setdash 2 copy exch vpt sub exch vpt sub vpt vpt2 Rec fill Bsquare} bind def
/S7 {BL [] 0 setdash 2 copy exch vpt sub exch vpt sub vpt vpt2 Rec fill
	2 copy vpt Square fill Bsquare} bind def
/S8 {BL [] 0 setdash 2 copy vpt sub vpt Square fill Bsquare} bind def
/S9 {BL [] 0 setdash 2 copy vpt sub vpt vpt2 Rec fill Bsquare} bind def
/S10 {BL [] 0 setdash 2 copy vpt sub vpt Square fill 2 copy exch vpt sub exch vpt Square fill
	Bsquare} bind def
/S11 {BL [] 0 setdash 2 copy vpt sub vpt Square fill 2 copy exch vpt sub exch vpt2 vpt Rec fill
	Bsquare} bind def
/S12 {BL [] 0 setdash 2 copy exch vpt sub exch vpt sub vpt2 vpt Rec fill Bsquare} bind def
/S13 {BL [] 0 setdash 2 copy exch vpt sub exch vpt sub vpt2 vpt Rec fill
	2 copy vpt Square fill Bsquare} bind def
/S14 {BL [] 0 setdash 2 copy exch vpt sub exch vpt sub vpt2 vpt Rec fill
	2 copy exch vpt sub exch vpt Square fill Bsquare} bind def
/S15 {BL [] 0 setdash 2 copy Bsquare fill Bsquare} bind def
/D0 {gsave translate 45 rotate 0 0 S0 stroke grestore} bind def
/D1 {gsave translate 45 rotate 0 0 S1 stroke grestore} bind def
/D2 {gsave translate 45 rotate 0 0 S2 stroke grestore} bind def
/D3 {gsave translate 45 rotate 0 0 S3 stroke grestore} bind def
/D4 {gsave translate 45 rotate 0 0 S4 stroke grestore} bind def
/D5 {gsave translate 45 rotate 0 0 S5 stroke grestore} bind def
/D6 {gsave translate 45 rotate 0 0 S6 stroke grestore} bind def
/D7 {gsave translate 45 rotate 0 0 S7 stroke grestore} bind def
/D8 {gsave translate 45 rotate 0 0 S8 stroke grestore} bind def
/D9 {gsave translate 45 rotate 0 0 S9 stroke grestore} bind def
/D10 {gsave translate 45 rotate 0 0 S10 stroke grestore} bind def
/D11 {gsave translate 45 rotate 0 0 S11 stroke grestore} bind def
/D12 {gsave translate 45 rotate 0 0 S12 stroke grestore} bind def
/D13 {gsave translate 45 rotate 0 0 S13 stroke grestore} bind def
/D14 {gsave translate 45 rotate 0 0 S14 stroke grestore} bind def
/D15 {gsave translate 45 rotate 0 0 S15 stroke grestore} bind def
/DiaE {stroke [] 0 setdash vpt add M
  hpt neg vpt neg V hpt vpt neg V
  hpt vpt V hpt neg vpt V closepath stroke} def
/BoxE {stroke [] 0 setdash exch hpt sub exch vpt add M
  0 vpt2 neg V hpt2 0 V 0 vpt2 V
  hpt2 neg 0 V closepath stroke} def
/TriUE {stroke [] 0 setdash vpt 1.12 mul add M
  hpt neg vpt -1.62 mul V
  hpt 2 mul 0 V
  hpt neg vpt 1.62 mul V closepath stroke} def
/TriDE {stroke [] 0 setdash vpt 1.12 mul sub M
  hpt neg vpt 1.62 mul V
  hpt 2 mul 0 V
  hpt neg vpt -1.62 mul V closepath stroke} def
/PentE {stroke [] 0 setdash gsave
  translate 0 hpt M 4 {72 rotate 0 hpt L} repeat
  closepath stroke grestore} def
/CircE {stroke [] 0 setdash 
  hpt 0 360 arc stroke} def
/Opaque {gsave closepath 1 setgray fill grestore 0 setgray closepath} def
/DiaW {stroke [] 0 setdash vpt add M
  hpt neg vpt neg V hpt vpt neg V
  hpt vpt V hpt neg vpt V Opaque stroke} def
/BoxW {stroke [] 0 setdash exch hpt sub exch vpt add M
  0 vpt2 neg V hpt2 0 V 0 vpt2 V
  hpt2 neg 0 V Opaque stroke} def
/TriUW {stroke [] 0 setdash vpt 1.12 mul add M
  hpt neg vpt -1.62 mul V
  hpt 2 mul 0 V
  hpt neg vpt 1.62 mul V Opaque stroke} def
/TriDW {stroke [] 0 setdash vpt 1.12 mul sub M
  hpt neg vpt 1.62 mul V
  hpt 2 mul 0 V
  hpt neg vpt -1.62 mul V Opaque stroke} def
/PentW {stroke [] 0 setdash gsave
  translate 0 hpt M 4 {72 rotate 0 hpt L} repeat
  Opaque stroke grestore} def
/CircW {stroke [] 0 setdash 
  hpt 0 360 arc Opaque stroke} def
/BoxFill {gsave Rec 1 setgray fill grestore} def
/Density {
  /Fillden exch def
  currentrgbcolor
  /ColB exch def /ColG exch def /ColR exch def
  /ColR ColR Fillden mul Fillden sub 1 add def
  /ColG ColG Fillden mul Fillden sub 1 add def
  /ColB ColB Fillden mul Fillden sub 1 add def
  ColR ColG ColB setrgbcolor} def
/BoxColFill {gsave Rec PolyFill} def
/PolyFill {gsave Density fill grestore grestore} def
/h {rlineto rlineto rlineto gsave closepath fill grestore} bind def
%
% PostScript Level 1 Pattern Fill routine for rectangles
% Usage: x y w h s a XX PatternFill
%	x,y = lower left corner of box to be filled
%	w,h = width and height of box
%	  a = angle in degrees between lines and x-axis
%	 XX = 0/1 for no/yes cross-hatch
%
/PatternFill {gsave /PFa [ 9 2 roll ] def
  PFa 0 get PFa 2 get 2 div add PFa 1 get PFa 3 get 2 div add translate
  PFa 2 get -2 div PFa 3 get -2 div PFa 2 get PFa 3 get Rec
  TransparentPatterns {} {gsave 1 setgray fill grestore} ifelse
  clip
  currentlinewidth 0.5 mul setlinewidth
  /PFs PFa 2 get dup mul PFa 3 get dup mul add sqrt def
  0 0 M PFa 5 get rotate PFs -2 div dup translate
  0 1 PFs PFa 4 get div 1 add floor cvi
	{PFa 4 get mul 0 M 0 PFs V} for
  0 PFa 6 get ne {
	0 1 PFs PFa 4 get div 1 add floor cvi
	{PFa 4 get mul 0 2 1 roll M PFs 0 V} for
 } if
  stroke grestore} def
%
/languagelevel where
 {pop languagelevel} {1} ifelse
 2 lt
	{/InterpretLevel1 true def}
	{/InterpretLevel1 Level1 def}
 ifelse
%
% PostScript level 2 pattern fill definitions
%
/Level2PatternFill {
/Tile8x8 {/PaintType 2 /PatternType 1 /TilingType 1 /BBox [0 0 8 8] /XStep 8 /YStep 8}
	bind def
/KeepColor {currentrgbcolor [/Pattern /DeviceRGB] setcolorspace} bind def
<< Tile8x8
 /PaintProc {0.5 setlinewidth pop 0 0 M 8 8 L 0 8 M 8 0 L stroke} 
>> matrix makepattern
/Pat1 exch def
<< Tile8x8
 /PaintProc {0.5 setlinewidth pop 0 0 M 8 8 L 0 8 M 8 0 L stroke
	0 4 M 4 8 L 8 4 L 4 0 L 0 4 L stroke}
>> matrix makepattern
/Pat2 exch def
<< Tile8x8
 /PaintProc {0.5 setlinewidth pop 0 0 M 0 8 L
	8 8 L 8 0 L 0 0 L fill}
>> matrix makepattern
/Pat3 exch def
<< Tile8x8
 /PaintProc {0.5 setlinewidth pop -4 8 M 8 -4 L
	0 12 M 12 0 L stroke}
>> matrix makepattern
/Pat4 exch def
<< Tile8x8
 /PaintProc {0.5 setlinewidth pop -4 0 M 8 12 L
	0 -4 M 12 8 L stroke}
>> matrix makepattern
/Pat5 exch def
<< Tile8x8
 /PaintProc {0.5 setlinewidth pop -2 8 M 4 -4 L
	0 12 M 8 -4 L 4 12 M 10 0 L stroke}
>> matrix makepattern
/Pat6 exch def
<< Tile8x8
 /PaintProc {0.5 setlinewidth pop -2 0 M 4 12 L
	0 -4 M 8 12 L 4 -4 M 10 8 L stroke}
>> matrix makepattern
/Pat7 exch def
<< Tile8x8
 /PaintProc {0.5 setlinewidth pop 8 -2 M -4 4 L
	12 0 M -4 8 L 12 4 M 0 10 L stroke}
>> matrix makepattern
/Pat8 exch def
<< Tile8x8
 /PaintProc {0.5 setlinewidth pop 0 -2 M 12 4 L
	-4 0 M 12 8 L -4 4 M 8 10 L stroke}
>> matrix makepattern
/Pat9 exch def
/Pattern1 {PatternBgnd KeepColor Pat1 setpattern} bind def
/Pattern2 {PatternBgnd KeepColor Pat2 setpattern} bind def
/Pattern3 {PatternBgnd KeepColor Pat3 setpattern} bind def
/Pattern4 {PatternBgnd KeepColor Landscape {Pat5} {Pat4} ifelse setpattern} bind def
/Pattern5 {PatternBgnd KeepColor Landscape {Pat4} {Pat5} ifelse setpattern} bind def
/Pattern6 {PatternBgnd KeepColor Landscape {Pat9} {Pat6} ifelse setpattern} bind def
/Pattern7 {PatternBgnd KeepColor Landscape {Pat8} {Pat7} ifelse setpattern} bind def
} def
%
%
%End of PostScript Level 2 code
%
/PatternBgnd {
  TransparentPatterns {} {gsave 1 setgray fill grestore} ifelse
} def
%
% Substitute for Level 2 pattern fill codes with
% grayscale if Level 2 support is not selected.
%
/Level1PatternFill {
/Pattern1 {0.250 Density} bind def
/Pattern2 {0.500 Density} bind def
/Pattern3 {0.750 Density} bind def
/Pattern4 {0.125 Density} bind def
/Pattern5 {0.375 Density} bind def
/Pattern6 {0.625 Density} bind def
/Pattern7 {0.875 Density} bind def
} def
%
% Now test for support of Level 2 code
%
Level1 {Level1PatternFill} {Level2PatternFill} ifelse
%
/Symbol-Oblique /Symbol findfont [1 0 .167 1 0 0] makefont
dup length dict begin {1 index /FID eq {pop pop} {def} ifelse} forall
currentdict end definefont pop
/MFshow {
   { dup 5 get 3 ge
     { 5 get 3 eq {gsave} {grestore} ifelse }
     {dup dup 0 get findfont exch 1 get scalefont setfont
     [ currentpoint ] exch dup 2 get 0 exch R dup 5 get 2 ne {dup dup 6
     get exch 4 get {Gshow} {stringwidth pop 0 R} ifelse }if dup 5 get 0 eq
     {dup 3 get {2 get neg 0 exch R pop} {pop aload pop M} ifelse} {dup 5
     get 1 eq {dup 2 get exch dup 3 get exch 6 get stringwidth pop -2 div
     dup 0 R} {dup 6 get stringwidth pop -2 div 0 R 6 get
     show 2 index {aload pop M neg 3 -1 roll neg R pop pop} {pop pop pop
     pop aload pop M} ifelse }ifelse }ifelse }
     ifelse }
   forall} def
/Gswidth {dup type /stringtype eq {stringwidth} {pop (n) stringwidth} ifelse} def
/MFwidth {0 exch { dup 5 get 3 ge { 5 get 3 eq { 0 } { pop } ifelse }
 {dup 3 get{dup dup 0 get findfont exch 1 get scalefont setfont
     6 get Gswidth pop add} {pop} ifelse} ifelse} forall} def
/MLshow { currentpoint stroke M
  0 exch R
  Blacktext {gsave 0 setgray MFshow grestore} {MFshow} ifelse } bind def
/MRshow { currentpoint stroke M
  exch dup MFwidth neg 3 -1 roll R
  Blacktext {gsave 0 setgray MFshow grestore} {MFshow} ifelse } bind def
/MCshow { currentpoint stroke M
  exch dup MFwidth -2 div 3 -1 roll R
  Blacktext {gsave 0 setgray MFshow grestore} {MFshow} ifelse } bind def
/XYsave    { [( ) 1 2 true false 3 ()] } bind def
/XYrestore { [( ) 1 2 true false 4 ()] } bind def
Level1 SuppressPDFMark or 
{} {
/SDict 10 dict def
systemdict /pdfmark known not {
  userdict /pdfmark systemdict /cleartomark get put
} if
SDict begin [
  /Title (AST100vsMC-PS.eps)
  /Subject (gnuplot plot)
  /Creator (gnuplot 4.6 patchlevel 5)
  /Author (diaz)
%  /Producer (gnuplot)
%  /Keywords ()
  /CreationDate (Tue Sep  2 10:21:47 2014)
  /DOCINFO pdfmark
end
} ifelse
end
%%EndProlog
%%Page: 1 1
gnudict begin
gsave
doclip
50 50 translate
0.050 0.050 scale
0 setgray
newpath
(Times-Roman) findfont 220 scalefont setfont
BackgroundColor 0 lt 3 1 roll 0 lt exch 0 lt or or not {BackgroundColor C 1.000 0 0 10080.00 5760.00 BoxColFill} if
1.000 UL
LTb
LCb setrgbcolor
1078 704 M
63 0 V
6499 0 R
-63 0 V
stroke
946 704 M
[ [(Times-Roman) 220.0 0.0 true true 0 ( 0)]
] -73.3 MRshow
1.000 UL
LTb
LCb setrgbcolor
1078 1617 M
63 0 V
6499 0 R
-63 0 V
stroke
946 1617 M
[ [(Times-Roman) 220.0 0.0 true true 0 ( 20)]
] -73.3 MRshow
1.000 UL
LTb
LCb setrgbcolor
1078 2529 M
63 0 V
6499 0 R
-63 0 V
stroke
946 2529 M
[ [(Times-Roman) 220.0 0.0 true true 0 ( 40)]
] -73.3 MRshow
1.000 UL
LTb
LCb setrgbcolor
1078 3442 M
63 0 V
6499 0 R
-63 0 V
stroke
946 3442 M
[ [(Times-Roman) 220.0 0.0 true true 0 ( 60)]
] -73.3 MRshow
1.000 UL
LTb
LCb setrgbcolor
1078 4354 M
63 0 V
6499 0 R
-63 0 V
stroke
946 4354 M
[ [(Times-Roman) 220.0 0.0 true true 0 ( 80)]
] -73.3 MRshow
1.000 UL
LTb
LCb setrgbcolor
1078 5267 M
63 0 V
6499 0 R
-63 0 V
stroke
946 5267 M
[ [(Times-Roman) 220.0 0.0 true true 0 ( 100)]
] -73.3 MRshow
1.000 UL
LTb
LCb setrgbcolor
1078 704 M
0 63 V
0 4728 R
0 -63 V
stroke
1078 484 M
[ [(Times-Roman) 220.0 0.0 true true 0 ( 0)]
] -73.3 MCshow
1.000 UL
LTb
LCb setrgbcolor
1734 704 M
0 63 V
0 4728 R
0 -63 V
stroke
1734 484 M
[ [(Times-Roman) 220.0 0.0 true true 0 ( 0.1)]
] -73.3 MCshow
1.000 UL
LTb
LCb setrgbcolor
2390 704 M
0 63 V
0 4728 R
0 -63 V
stroke
2390 484 M
[ [(Times-Roman) 220.0 0.0 true true 0 ( 0.2)]
] -73.3 MCshow
1.000 UL
LTb
LCb setrgbcolor
3047 704 M
0 63 V
0 4728 R
0 -63 V
stroke
3047 484 M
[ [(Times-Roman) 220.0 0.0 true true 0 ( 0.3)]
] -73.3 MCshow
1.000 UL
LTb
LCb setrgbcolor
3703 704 M
0 63 V
0 4728 R
0 -63 V
stroke
3703 484 M
[ [(Times-Roman) 220.0 0.0 true true 0 ( 0.4)]
] -73.3 MCshow
1.000 UL
LTb
LCb setrgbcolor
4359 704 M
0 63 V
0 4728 R
0 -63 V
stroke
4359 484 M
[ [(Times-Roman) 220.0 0.0 true true 0 ( 0.5)]
] -73.3 MCshow
1.000 UL
LTb
LCb setrgbcolor
5015 704 M
0 63 V
0 4728 R
0 -63 V
stroke
5015 484 M
[ [(Times-Roman) 220.0 0.0 true true 0 ( 0.6)]
] -73.3 MCshow
1.000 UL
LTb
LCb setrgbcolor
5671 704 M
0 63 V
0 4728 R
0 -63 V
stroke
5671 484 M
[ [(Times-Roman) 220.0 0.0 true true 0 ( 0.7)]
] -73.3 MCshow
1.000 UL
LTb
LCb setrgbcolor
6328 704 M
0 63 V
0 4728 R
0 -63 V
stroke
6328 484 M
[ [(Times-Roman) 220.0 0.0 true true 0 ( 0.8)]
] -73.3 MCshow
1.000 UL
LTb
LCb setrgbcolor
6984 704 M
0 63 V
0 4728 R
0 -63 V
stroke
6984 484 M
[ [(Times-Roman) 220.0 0.0 true true 0 ( 0.9)]
] -73.3 MCshow
1.000 UL
LTb
LCb setrgbcolor
7640 704 M
0 63 V
0 4728 R
0 -63 V
stroke
7640 484 M
[ [(Times-Roman) 220.0 0.0 true true 0 ( 1)]
] -73.3 MCshow
1.000 UL
LTb
LCb setrgbcolor
1.000 UL
LTb
LCb setrgbcolor
1078 5495 N
0 -4791 V
6562 0 V
0 4791 V
-6562 0 V
Z stroke
LCb setrgbcolor
176 3099 M
currentpoint gsave translate -270 rotate 0 0 moveto
[ [(Times-Roman) 220.0 0.0 true true 0 (Percentage of Perfect Solution)]
] -73.3 MCshow
grestore
LTb
LCb setrgbcolor
4359 154 M
[ [(Times-Roman) 220.0 0.0 true true 0 (Probability of ties p2)]
] -73.3 MCshow
LTb
1.000 UP
1.000 UL
LTb
LCb setrgbcolor
% Begin plot #1
1.000 UP
2.000 UL
LT0
LC3 setrgbcolor
LCb setrgbcolor
9092 5385 M
[ [(Times-Roman) 220.0 0.0 true true 0 (AS p1=0.6)]
] -73.3 MRshow
LT0
LC3 setrgbcolor
9224 5385 M
591 0 V
1078 5084 M
656 183 V
656 0 V
657 -2 V
656 -1 V
656 3 V
656 0 V
656 0 V
657 0 V
656 0 V
656 0 V
1078 5084 CircleF
1734 5267 CircleF
2390 5267 CircleF
3047 5265 CircleF
3703 5264 CircleF
4359 5267 CircleF
5015 5267 CircleF
5671 5267 CircleF
6328 5267 CircleF
6984 5267 CircleF
7640 5267 CircleF
9519 5385 CircleF
% End plot #1
% Begin plot #2
1.000 UP
2.000 UL
LT6
LC3 setrgbcolor
LCb setrgbcolor
9092 5165 M
[ [(Times-Roman) 220.0 0.0 true true 0 (MD p1=0.6)]
] -73.3 MRshow
LT6
LC3 setrgbcolor
9224 5165 M
591 0 V
1078 5084 M
656 92 V
656 -92 V
657 92 V
656 45 V
656 46 V
656 0 V
656 0 V
657 0 V
656 0 V
656 0 V
1078 5084 TriU
1734 5176 TriU
2390 5084 TriU
3047 5176 TriU
3703 5221 TriU
4359 5267 TriU
5015 5267 TriU
5671 5267 TriU
6328 5267 TriU
6984 5267 TriU
7640 5267 TriU
9519 5165 TriU
% End plot #2
% Begin plot #3
1.000 UP
2.000 UL
LT0
LC2 setrgbcolor
LCb setrgbcolor
9092 4945 M
[ [(Times-Roman) 220.0 0.0 true true 0 (AS p1=0.7)]
] -73.3 MRshow
LT0
LC2 setrgbcolor
9224 4945 M
591 0 V
1078 4400 M
656 483 V
656 204 V
657 108 V
656 32 V
656 35 V
656 4 V
656 1 V
657 0 V
656 0 V
656 0 V
1078 4400 BoxF
1734 4883 BoxF
2390 5087 BoxF
3047 5195 BoxF
3703 5227 BoxF
4359 5262 BoxF
5015 5266 BoxF
5671 5267 BoxF
6328 5267 BoxF
6984 5267 BoxF
7640 5267 BoxF
9519 4945 BoxF
% End plot #3
% Begin plot #4
1.000 UP
2.000 UL
LT6
LC2 setrgbcolor
LCb setrgbcolor
9092 4725 M
[ [(Times-Roman) 220.0 0.0 true true 0 (MD p1=0.7)]
] -73.3 MRshow
LT6
LC2 setrgbcolor
9224 4725 M
591 0 V
1078 4400 M
656 182 V
656 0 V
657 92 V
656 228 V
656 274 V
656 0 V
656 91 V
657 0 V
656 0 V
656 0 V
1078 4400 Circle
1734 4582 Circle
2390 4582 Circle
3047 4674 Circle
3703 4902 Circle
4359 5176 Circle
5015 5176 Circle
5671 5267 Circle
6328 5267 Circle
6984 5267 Circle
7640 5267 Circle
9519 4725 Circle
% End plot #4
% Begin plot #5
1.000 UP
2.000 UL
LT0
LC1 setrgbcolor
LCb setrgbcolor
9092 4505 M
[ [(Times-Roman) 220.0 0.0 true true 0 (AS p1=0.8)]
] -73.3 MRshow
LT0
LC1 setrgbcolor
9224 4505 M
591 0 V
1078 2073 M
656 858 V
656 1013 V
657 648 V
656 324 V
656 238 V
656 79 V
656 27 V
657 7 V
656 0 V
656 0 V
1078 2073 Box
1734 2931 Box
2390 3944 Box
3047 4592 Box
3703 4916 Box
4359 5154 Box
5015 5233 Box
5671 5260 Box
6328 5267 Box
6984 5267 Box
7640 5267 Box
9519 4505 Box
% End plot #5
% Begin plot #6
1.000 UP
2.000 UL
LT6
LC1 setrgbcolor
LCb setrgbcolor
9092 4285 M
[ [(Times-Roman) 220.0 0.0 true true 0 (MD p1=0.8)]
] -73.3 MRshow
LT6
LC1 setrgbcolor
9224 4285 M
591 0 V
1078 2073 M
656 0 V
656 456 V
657 365 V
656 639 V
656 593 V
656 685 V
656 273 V
657 183 V
656 0 V
656 0 V
1078 2073 BoxF
1734 2073 BoxF
2390 2529 BoxF
3047 2894 BoxF
3703 3533 BoxF
4359 4126 BoxF
5015 4811 BoxF
5671 5084 BoxF
6328 5267 BoxF
6984 5267 BoxF
7640 5267 BoxF
9519 4285 BoxF
% End plot #6
% Begin plot #7
1.000 UP
2.000 UL
LT0
LC0 setrgbcolor
LCb setrgbcolor
9092 4065 M
[ [(Times-Roman) 220.0 0.0 true true 0 (AS p1=0.9)]
] -73.3 MRshow
LT0
LC0 setrgbcolor
9224 4065 M
591 0 V
1078 704 M
656 0 V
656 46 V
657 196 V
656 33 V
656 246 V
656 419 V
656 646 V
657 1553 V
656 1375 V
656 49 V
1078 704 Crs
1734 704 Crs
2390 750 Crs
3047 946 Crs
3703 979 Crs
4359 1225 Crs
5015 1644 Crs
5671 2290 Crs
6328 3843 Crs
6984 5218 Crs
7640 5267 Crs
9519 4065 Crs
% End plot #7
% Begin plot #8
1.000 UP
2.000 UL
LT6
LC0 setrgbcolor
LCb setrgbcolor
9092 3845 M
[ [(Times-Roman) 220.0 0.0 true true 0 (MD p1=0.9)]
] -73.3 MRshow
LT6
LC0 setrgbcolor
9224 3845 M
591 0 V
1078 704 M
656 0 V
656 46 V
657 0 V
656 137 V
656 182 V
656 502 V
656 1232 V
657 1734 V
656 730 V
656 0 V
1078 704 Star
1734 704 Star
2390 750 Star
3047 750 Star
3703 887 Star
4359 1069 Star
5015 1571 Star
5671 2803 Star
6328 4537 Star
6984 5267 Star
7640 5267 Star
9519 3845 Star
% End plot #8
1.000 UL
LTb
LCb setrgbcolor
1078 5495 N
0 -4791 V
6562 0 V
0 4791 V
-6562 0 V
Z stroke
1.000 UP
1.000 UL
LTb
LCb setrgbcolor
stroke
grestore
end
showpage
%%Trailer
%%DocumentFonts: Times-Roman
