%!PS-Adobe-2.0 EPSF-2.0
%%Title: AST35vsMC-3DTime-color.eps
%%Creator: gnuplot 4.6 patchlevel 5
%%CreationDate: Mon Dec  8 16:21:52 2014
%%DocumentFonts: (atend)
%%BoundingBox: 50 50 266 194
%%EndComments
%%BeginProlog
/gnudict 256 dict def
gnudict begin
%
% The following true/false flags may be edited by hand if desired.
% The unit line width and grayscale image gamma correction may also be changed.
%
/Color true def
/Blacktext false def
/Solid false def
/Dashlength 1 def
/Landscape false def
/Level1 false def
/Rounded false def
/ClipToBoundingBox false def
/SuppressPDFMark false def
/TransparentPatterns false def
/gnulinewidth 5.000 def
/userlinewidth gnulinewidth def
/Gamma 1.0 def
/BackgroundColor {-1.000 -1.000 -1.000} def
%
/vshift -40 def
/dl1 {
  10.0 Dashlength mul mul
  Rounded { currentlinewidth 0.75 mul sub dup 0 le { pop 0.01 } if } if
} def
/dl2 {
  10.0 Dashlength mul mul
  Rounded { currentlinewidth 0.75 mul add } if
} def
/hpt_ 31.5 def
/vpt_ 31.5 def
/hpt hpt_ def
/vpt vpt_ def
/doclip {
  ClipToBoundingBox {
    newpath 50 50 moveto 266 50 lineto 266 194 lineto 50 194 lineto closepath
    clip
  } if
} def
%
% Gnuplot Prolog Version 4.6 (September 2012)
%
%/SuppressPDFMark true def
%
/M {moveto} bind def
/L {lineto} bind def
/R {rmoveto} bind def
/V {rlineto} bind def
/N {newpath moveto} bind def
/Z {closepath} bind def
/C {setrgbcolor} bind def
/f {rlineto fill} bind def
/g {setgray} bind def
/Gshow {show} def   % May be redefined later in the file to support UTF-8
/vpt2 vpt 2 mul def
/hpt2 hpt 2 mul def
/Lshow {currentpoint stroke M 0 vshift R 
	Blacktext {gsave 0 setgray show grestore} {show} ifelse} def
/Rshow {currentpoint stroke M dup stringwidth pop neg vshift R
	Blacktext {gsave 0 setgray show grestore} {show} ifelse} def
/Cshow {currentpoint stroke M dup stringwidth pop -2 div vshift R 
	Blacktext {gsave 0 setgray show grestore} {show} ifelse} def
/UP {dup vpt_ mul /vpt exch def hpt_ mul /hpt exch def
  /hpt2 hpt 2 mul def /vpt2 vpt 2 mul def} def
/DL {Color {setrgbcolor Solid {pop []} if 0 setdash}
 {pop pop pop 0 setgray Solid {pop []} if 0 setdash} ifelse} def
/BL {stroke userlinewidth 2 mul setlinewidth
	Rounded {1 setlinejoin 1 setlinecap} if} def
/AL {stroke userlinewidth 2 div setlinewidth
	Rounded {1 setlinejoin 1 setlinecap} if} def
/UL {dup gnulinewidth mul /userlinewidth exch def
	dup 1 lt {pop 1} if 10 mul /udl exch def} def
/PL {stroke userlinewidth setlinewidth
	Rounded {1 setlinejoin 1 setlinecap} if} def
3.8 setmiterlimit
% Default Line colors
/LCw {1 1 1} def
/LCb {0 0 0} def
/LCa {0 0 0} def
/LC0 {1 0 0} def
/LC1 {0 1 0} def
/LC2 {0 0 1} def
/LC3 {1 0 1} def
/LC4 {0 1 1} def
/LC5 {1 1 0} def
/LC6 {0 0 0} def
/LC7 {1 0.3 0} def
/LC8 {0.5 0.5 0.5} def
% Default Line Types
/LTw {PL [] 1 setgray} def
/LTb {BL [] LCb DL} def
/LTa {AL [1 udl mul 2 udl mul] 0 setdash LCa setrgbcolor} def
/LT0 {PL [] LC0 DL} def
/LT1 {PL [4 dl1 2 dl2] LC1 DL} def
/LT2 {PL [2 dl1 3 dl2] LC2 DL} def
/LT3 {PL [1 dl1 1.5 dl2] LC3 DL} def
/LT4 {PL [6 dl1 2 dl2 1 dl1 2 dl2] LC4 DL} def
/LT5 {PL [3 dl1 3 dl2 1 dl1 3 dl2] LC5 DL} def
/LT6 {PL [2 dl1 2 dl2 2 dl1 6 dl2] LC6 DL} def
/LT7 {PL [1 dl1 2 dl2 6 dl1 2 dl2 1 dl1 2 dl2] LC7 DL} def
/LT8 {PL [2 dl1 2 dl2 2 dl1 2 dl2 2 dl1 2 dl2 2 dl1 4 dl2] LC8 DL} def
/Pnt {stroke [] 0 setdash gsave 1 setlinecap M 0 0 V stroke grestore} def
/Dia {stroke [] 0 setdash 2 copy vpt add M
  hpt neg vpt neg V hpt vpt neg V
  hpt vpt V hpt neg vpt V closepath stroke
  Pnt} def
/Pls {stroke [] 0 setdash vpt sub M 0 vpt2 V
  currentpoint stroke M
  hpt neg vpt neg R hpt2 0 V stroke
 } def
/Box {stroke [] 0 setdash 2 copy exch hpt sub exch vpt add M
  0 vpt2 neg V hpt2 0 V 0 vpt2 V
  hpt2 neg 0 V closepath stroke
  Pnt} def
/Crs {stroke [] 0 setdash exch hpt sub exch vpt add M
  hpt2 vpt2 neg V currentpoint stroke M
  hpt2 neg 0 R hpt2 vpt2 V stroke} def
/TriU {stroke [] 0 setdash 2 copy vpt 1.12 mul add M
  hpt neg vpt -1.62 mul V
  hpt 2 mul 0 V
  hpt neg vpt 1.62 mul V closepath stroke
  Pnt} def
/Star {2 copy Pls Crs} def
/BoxF {stroke [] 0 setdash exch hpt sub exch vpt add M
  0 vpt2 neg V hpt2 0 V 0 vpt2 V
  hpt2 neg 0 V closepath fill} def
/TriUF {stroke [] 0 setdash vpt 1.12 mul add M
  hpt neg vpt -1.62 mul V
  hpt 2 mul 0 V
  hpt neg vpt 1.62 mul V closepath fill} def
/TriD {stroke [] 0 setdash 2 copy vpt 1.12 mul sub M
  hpt neg vpt 1.62 mul V
  hpt 2 mul 0 V
  hpt neg vpt -1.62 mul V closepath stroke
  Pnt} def
/TriDF {stroke [] 0 setdash vpt 1.12 mul sub M
  hpt neg vpt 1.62 mul V
  hpt 2 mul 0 V
  hpt neg vpt -1.62 mul V closepath fill} def
/DiaF {stroke [] 0 setdash vpt add M
  hpt neg vpt neg V hpt vpt neg V
  hpt vpt V hpt neg vpt V closepath fill} def
/Pent {stroke [] 0 setdash 2 copy gsave
  translate 0 hpt M 4 {72 rotate 0 hpt L} repeat
  closepath stroke grestore Pnt} def
/PentF {stroke [] 0 setdash gsave
  translate 0 hpt M 4 {72 rotate 0 hpt L} repeat
  closepath fill grestore} def
/Circle {stroke [] 0 setdash 2 copy
  hpt 0 360 arc stroke Pnt} def
/CircleF {stroke [] 0 setdash hpt 0 360 arc fill} def
/C0 {BL [] 0 setdash 2 copy moveto vpt 90 450 arc} bind def
/C1 {BL [] 0 setdash 2 copy moveto
	2 copy vpt 0 90 arc closepath fill
	vpt 0 360 arc closepath} bind def
/C2 {BL [] 0 setdash 2 copy moveto
	2 copy vpt 90 180 arc closepath fill
	vpt 0 360 arc closepath} bind def
/C3 {BL [] 0 setdash 2 copy moveto
	2 copy vpt 0 180 arc closepath fill
	vpt 0 360 arc closepath} bind def
/C4 {BL [] 0 setdash 2 copy moveto
	2 copy vpt 180 270 arc closepath fill
	vpt 0 360 arc closepath} bind def
/C5 {BL [] 0 setdash 2 copy moveto
	2 copy vpt 0 90 arc
	2 copy moveto
	2 copy vpt 180 270 arc closepath fill
	vpt 0 360 arc} bind def
/C6 {BL [] 0 setdash 2 copy moveto
	2 copy vpt 90 270 arc closepath fill
	vpt 0 360 arc closepath} bind def
/C7 {BL [] 0 setdash 2 copy moveto
	2 copy vpt 0 270 arc closepath fill
	vpt 0 360 arc closepath} bind def
/C8 {BL [] 0 setdash 2 copy moveto
	2 copy vpt 270 360 arc closepath fill
	vpt 0 360 arc closepath} bind def
/C9 {BL [] 0 setdash 2 copy moveto
	2 copy vpt 270 450 arc closepath fill
	vpt 0 360 arc closepath} bind def
/C10 {BL [] 0 setdash 2 copy 2 copy moveto vpt 270 360 arc closepath fill
	2 copy moveto
	2 copy vpt 90 180 arc closepath fill
	vpt 0 360 arc closepath} bind def
/C11 {BL [] 0 setdash 2 copy moveto
	2 copy vpt 0 180 arc closepath fill
	2 copy moveto
	2 copy vpt 270 360 arc closepath fill
	vpt 0 360 arc closepath} bind def
/C12 {BL [] 0 setdash 2 copy moveto
	2 copy vpt 180 360 arc closepath fill
	vpt 0 360 arc closepath} bind def
/C13 {BL [] 0 setdash 2 copy moveto
	2 copy vpt 0 90 arc closepath fill
	2 copy moveto
	2 copy vpt 180 360 arc closepath fill
	vpt 0 360 arc closepath} bind def
/C14 {BL [] 0 setdash 2 copy moveto
	2 copy vpt 90 360 arc closepath fill
	vpt 0 360 arc} bind def
/C15 {BL [] 0 setdash 2 copy vpt 0 360 arc closepath fill
	vpt 0 360 arc closepath} bind def
/Rec {newpath 4 2 roll moveto 1 index 0 rlineto 0 exch rlineto
	neg 0 rlineto closepath} bind def
/Square {dup Rec} bind def
/Bsquare {vpt sub exch vpt sub exch vpt2 Square} bind def
/S0 {BL [] 0 setdash 2 copy moveto 0 vpt rlineto BL Bsquare} bind def
/S1 {BL [] 0 setdash 2 copy vpt Square fill Bsquare} bind def
/S2 {BL [] 0 setdash 2 copy exch vpt sub exch vpt Square fill Bsquare} bind def
/S3 {BL [] 0 setdash 2 copy exch vpt sub exch vpt2 vpt Rec fill Bsquare} bind def
/S4 {BL [] 0 setdash 2 copy exch vpt sub exch vpt sub vpt Square fill Bsquare} bind def
/S5 {BL [] 0 setdash 2 copy 2 copy vpt Square fill
	exch vpt sub exch vpt sub vpt Square fill Bsquare} bind def
/S6 {BL [] 0 setdash 2 copy exch vpt sub exch vpt sub vpt vpt2 Rec fill Bsquare} bind def
/S7 {BL [] 0 setdash 2 copy exch vpt sub exch vpt sub vpt vpt2 Rec fill
	2 copy vpt Square fill Bsquare} bind def
/S8 {BL [] 0 setdash 2 copy vpt sub vpt Square fill Bsquare} bind def
/S9 {BL [] 0 setdash 2 copy vpt sub vpt vpt2 Rec fill Bsquare} bind def
/S10 {BL [] 0 setdash 2 copy vpt sub vpt Square fill 2 copy exch vpt sub exch vpt Square fill
	Bsquare} bind def
/S11 {BL [] 0 setdash 2 copy vpt sub vpt Square fill 2 copy exch vpt sub exch vpt2 vpt Rec fill
	Bsquare} bind def
/S12 {BL [] 0 setdash 2 copy exch vpt sub exch vpt sub vpt2 vpt Rec fill Bsquare} bind def
/S13 {BL [] 0 setdash 2 copy exch vpt sub exch vpt sub vpt2 vpt Rec fill
	2 copy vpt Square fill Bsquare} bind def
/S14 {BL [] 0 setdash 2 copy exch vpt sub exch vpt sub vpt2 vpt Rec fill
	2 copy exch vpt sub exch vpt Square fill Bsquare} bind def
/S15 {BL [] 0 setdash 2 copy Bsquare fill Bsquare} bind def
/D0 {gsave translate 45 rotate 0 0 S0 stroke grestore} bind def
/D1 {gsave translate 45 rotate 0 0 S1 stroke grestore} bind def
/D2 {gsave translate 45 rotate 0 0 S2 stroke grestore} bind def
/D3 {gsave translate 45 rotate 0 0 S3 stroke grestore} bind def
/D4 {gsave translate 45 rotate 0 0 S4 stroke grestore} bind def
/D5 {gsave translate 45 rotate 0 0 S5 stroke grestore} bind def
/D6 {gsave translate 45 rotate 0 0 S6 stroke grestore} bind def
/D7 {gsave translate 45 rotate 0 0 S7 stroke grestore} bind def
/D8 {gsave translate 45 rotate 0 0 S8 stroke grestore} bind def
/D9 {gsave translate 45 rotate 0 0 S9 stroke grestore} bind def
/D10 {gsave translate 45 rotate 0 0 S10 stroke grestore} bind def
/D11 {gsave translate 45 rotate 0 0 S11 stroke grestore} bind def
/D12 {gsave translate 45 rotate 0 0 S12 stroke grestore} bind def
/D13 {gsave translate 45 rotate 0 0 S13 stroke grestore} bind def
/D14 {gsave translate 45 rotate 0 0 S14 stroke grestore} bind def
/D15 {gsave translate 45 rotate 0 0 S15 stroke grestore} bind def
/DiaE {stroke [] 0 setdash vpt add M
  hpt neg vpt neg V hpt vpt neg V
  hpt vpt V hpt neg vpt V closepath stroke} def
/BoxE {stroke [] 0 setdash exch hpt sub exch vpt add M
  0 vpt2 neg V hpt2 0 V 0 vpt2 V
  hpt2 neg 0 V closepath stroke} def
/TriUE {stroke [] 0 setdash vpt 1.12 mul add M
  hpt neg vpt -1.62 mul V
  hpt 2 mul 0 V
  hpt neg vpt 1.62 mul V closepath stroke} def
/TriDE {stroke [] 0 setdash vpt 1.12 mul sub M
  hpt neg vpt 1.62 mul V
  hpt 2 mul 0 V
  hpt neg vpt -1.62 mul V closepath stroke} def
/PentE {stroke [] 0 setdash gsave
  translate 0 hpt M 4 {72 rotate 0 hpt L} repeat
  closepath stroke grestore} def
/CircE {stroke [] 0 setdash 
  hpt 0 360 arc stroke} def
/Opaque {gsave closepath 1 setgray fill grestore 0 setgray closepath} def
/DiaW {stroke [] 0 setdash vpt add M
  hpt neg vpt neg V hpt vpt neg V
  hpt vpt V hpt neg vpt V Opaque stroke} def
/BoxW {stroke [] 0 setdash exch hpt sub exch vpt add M
  0 vpt2 neg V hpt2 0 V 0 vpt2 V
  hpt2 neg 0 V Opaque stroke} def
/TriUW {stroke [] 0 setdash vpt 1.12 mul add M
  hpt neg vpt -1.62 mul V
  hpt 2 mul 0 V
  hpt neg vpt 1.62 mul V Opaque stroke} def
/TriDW {stroke [] 0 setdash vpt 1.12 mul sub M
  hpt neg vpt 1.62 mul V
  hpt 2 mul 0 V
  hpt neg vpt -1.62 mul V Opaque stroke} def
/PentW {stroke [] 0 setdash gsave
  translate 0 hpt M 4 {72 rotate 0 hpt L} repeat
  Opaque stroke grestore} def
/CircW {stroke [] 0 setdash 
  hpt 0 360 arc Opaque stroke} def
/BoxFill {gsave Rec 1 setgray fill grestore} def
/Density {
  /Fillden exch def
  currentrgbcolor
  /ColB exch def /ColG exch def /ColR exch def
  /ColR ColR Fillden mul Fillden sub 1 add def
  /ColG ColG Fillden mul Fillden sub 1 add def
  /ColB ColB Fillden mul Fillden sub 1 add def
  ColR ColG ColB setrgbcolor} def
/BoxColFill {gsave Rec PolyFill} def
/PolyFill {gsave Density fill grestore grestore} def
/h {rlineto rlineto rlineto gsave closepath fill grestore} bind def
%
% PostScript Level 1 Pattern Fill routine for rectangles
% Usage: x y w h s a XX PatternFill
%	x,y = lower left corner of box to be filled
%	w,h = width and height of box
%	  a = angle in degrees between lines and x-axis
%	 XX = 0/1 for no/yes cross-hatch
%
/PatternFill {gsave /PFa [ 9 2 roll ] def
  PFa 0 get PFa 2 get 2 div add PFa 1 get PFa 3 get 2 div add translate
  PFa 2 get -2 div PFa 3 get -2 div PFa 2 get PFa 3 get Rec
  TransparentPatterns {} {gsave 1 setgray fill grestore} ifelse
  clip
  currentlinewidth 0.5 mul setlinewidth
  /PFs PFa 2 get dup mul PFa 3 get dup mul add sqrt def
  0 0 M PFa 5 get rotate PFs -2 div dup translate
  0 1 PFs PFa 4 get div 1 add floor cvi
	{PFa 4 get mul 0 M 0 PFs V} for
  0 PFa 6 get ne {
	0 1 PFs PFa 4 get div 1 add floor cvi
	{PFa 4 get mul 0 2 1 roll M PFs 0 V} for
 } if
  stroke grestore} def
%
/languagelevel where
 {pop languagelevel} {1} ifelse
 2 lt
	{/InterpretLevel1 true def}
	{/InterpretLevel1 Level1 def}
 ifelse
%
% PostScript level 2 pattern fill definitions
%
/Level2PatternFill {
/Tile8x8 {/PaintType 2 /PatternType 1 /TilingType 1 /BBox [0 0 8 8] /XStep 8 /YStep 8}
	bind def
/KeepColor {currentrgbcolor [/Pattern /DeviceRGB] setcolorspace} bind def
<< Tile8x8
 /PaintProc {0.5 setlinewidth pop 0 0 M 8 8 L 0 8 M 8 0 L stroke} 
>> matrix makepattern
/Pat1 exch def
<< Tile8x8
 /PaintProc {0.5 setlinewidth pop 0 0 M 8 8 L 0 8 M 8 0 L stroke
	0 4 M 4 8 L 8 4 L 4 0 L 0 4 L stroke}
>> matrix makepattern
/Pat2 exch def
<< Tile8x8
 /PaintProc {0.5 setlinewidth pop 0 0 M 0 8 L
	8 8 L 8 0 L 0 0 L fill}
>> matrix makepattern
/Pat3 exch def
<< Tile8x8
 /PaintProc {0.5 setlinewidth pop -4 8 M 8 -4 L
	0 12 M 12 0 L stroke}
>> matrix makepattern
/Pat4 exch def
<< Tile8x8
 /PaintProc {0.5 setlinewidth pop -4 0 M 8 12 L
	0 -4 M 12 8 L stroke}
>> matrix makepattern
/Pat5 exch def
<< Tile8x8
 /PaintProc {0.5 setlinewidth pop -2 8 M 4 -4 L
	0 12 M 8 -4 L 4 12 M 10 0 L stroke}
>> matrix makepattern
/Pat6 exch def
<< Tile8x8
 /PaintProc {0.5 setlinewidth pop -2 0 M 4 12 L
	0 -4 M 8 12 L 4 -4 M 10 8 L stroke}
>> matrix makepattern
/Pat7 exch def
<< Tile8x8
 /PaintProc {0.5 setlinewidth pop 8 -2 M -4 4 L
	12 0 M -4 8 L 12 4 M 0 10 L stroke}
>> matrix makepattern
/Pat8 exch def
<< Tile8x8
 /PaintProc {0.5 setlinewidth pop 0 -2 M 12 4 L
	-4 0 M 12 8 L -4 4 M 8 10 L stroke}
>> matrix makepattern
/Pat9 exch def
/Pattern1 {PatternBgnd KeepColor Pat1 setpattern} bind def
/Pattern2 {PatternBgnd KeepColor Pat2 setpattern} bind def
/Pattern3 {PatternBgnd KeepColor Pat3 setpattern} bind def
/Pattern4 {PatternBgnd KeepColor Landscape {Pat5} {Pat4} ifelse setpattern} bind def
/Pattern5 {PatternBgnd KeepColor Landscape {Pat4} {Pat5} ifelse setpattern} bind def
/Pattern6 {PatternBgnd KeepColor Landscape {Pat9} {Pat6} ifelse setpattern} bind def
/Pattern7 {PatternBgnd KeepColor Landscape {Pat8} {Pat7} ifelse setpattern} bind def
} def
%
%
%End of PostScript Level 2 code
%
/PatternBgnd {
  TransparentPatterns {} {gsave 1 setgray fill grestore} ifelse
} def
%
% Substitute for Level 2 pattern fill codes with
% grayscale if Level 2 support is not selected.
%
/Level1PatternFill {
/Pattern1 {0.250 Density} bind def
/Pattern2 {0.500 Density} bind def
/Pattern3 {0.750 Density} bind def
/Pattern4 {0.125 Density} bind def
/Pattern5 {0.375 Density} bind def
/Pattern6 {0.625 Density} bind def
/Pattern7 {0.875 Density} bind def
} def
%
% Now test for support of Level 2 code
%
Level1 {Level1PatternFill} {Level2PatternFill} ifelse
%
/Symbol-Oblique /Symbol findfont [1 0 .167 1 0 0] makefont
dup length dict begin {1 index /FID eq {pop pop} {def} ifelse} forall
currentdict end definefont pop
/MFshow {
   { dup 5 get 3 ge
     { 5 get 3 eq {gsave} {grestore} ifelse }
     {dup dup 0 get findfont exch 1 get scalefont setfont
     [ currentpoint ] exch dup 2 get 0 exch R dup 5 get 2 ne {dup dup 6
     get exch 4 get {Gshow} {stringwidth pop 0 R} ifelse }if dup 5 get 0 eq
     {dup 3 get {2 get neg 0 exch R pop} {pop aload pop M} ifelse} {dup 5
     get 1 eq {dup 2 get exch dup 3 get exch 6 get stringwidth pop -2 div
     dup 0 R} {dup 6 get stringwidth pop -2 div 0 R 6 get
     show 2 index {aload pop M neg 3 -1 roll neg R pop pop} {pop pop pop
     pop aload pop M} ifelse }ifelse }ifelse }
     ifelse }
   forall} def
/Gswidth {dup type /stringtype eq {stringwidth} {pop (n) stringwidth} ifelse} def
/MFwidth {0 exch { dup 5 get 3 ge { 5 get 3 eq { 0 } { pop } ifelse }
 {dup 3 get{dup dup 0 get findfont exch 1 get scalefont setfont
     6 get Gswidth pop add} {pop} ifelse} ifelse} forall} def
/MLshow { currentpoint stroke M
  0 exch R
  Blacktext {gsave 0 setgray MFshow grestore} {MFshow} ifelse } bind def
/MRshow { currentpoint stroke M
  exch dup MFwidth neg 3 -1 roll R
  Blacktext {gsave 0 setgray MFshow grestore} {MFshow} ifelse } bind def
/MCshow { currentpoint stroke M
  exch dup MFwidth -2 div 3 -1 roll R
  Blacktext {gsave 0 setgray MFshow grestore} {MFshow} ifelse } bind def
/XYsave    { [( ) 1 2 true false 3 ()] } bind def
/XYrestore { [( ) 1 2 true false 4 ()] } bind def
Level1 SuppressPDFMark or 
{} {
/SDict 10 dict def
systemdict /pdfmark known not {
  userdict /pdfmark systemdict /cleartomark get put
} if
SDict begin [
  /Title (AST35vsMC-3DTime-color.eps)
  /Subject (gnuplot plot)
  /Creator (gnuplot 4.6 patchlevel 5)
  /Author (dannymunera)
%  /Producer (gnuplot)
%  /Keywords ()
  /CreationDate (Mon Dec  8 16:21:52 2014)
  /DOCINFO pdfmark
end
} ifelse
end
%%EndProlog
%%Page: 1 1
gnudict begin
gsave
doclip
50 50 translate
0.050 0.050 scale
0 setgray
newpath
(Times-Roman) findfont 120 scalefont setfont
BackgroundColor 0 lt 3 1 roll 0 lt exch 0 lt or or not {BackgroundColor C 1.000 0 0 4320.00 2880.00 BoxColFill} if
gsave % colour palette begin
/maxcolors 0 def
/HSV2RGB {  exch dup 0.0 eq {pop exch pop dup dup} % achromatic gray
  { /HSVs exch def /HSVv exch def 6.0 mul dup floor dup 3 1 roll sub
     /HSVf exch def /HSVi exch cvi def /HSVp HSVv 1.0 HSVs sub mul def
	 /HSVq HSVv 1.0 HSVs HSVf mul sub mul def 
	 /HSVt HSVv 1.0 HSVs 1.0 HSVf sub mul sub mul def
	 /HSVi HSVi 6 mod def 0 HSVi eq {HSVv HSVt HSVp}
	 {1 HSVi eq {HSVq HSVv HSVp}{2 HSVi eq {HSVp HSVv HSVt}
	 {3 HSVi eq {HSVp HSVq HSVv}{4 HSVi eq {HSVt HSVp HSVv}
	 {HSVv HSVp HSVq} ifelse} ifelse} ifelse} ifelse} ifelse
  } ifelse} def
/Constrain {
  dup 0 lt {0 exch pop}{dup 1 gt {1 exch pop} if} ifelse} def
/YIQ2RGB {
  3 copy -1.702 mul exch -1.105 mul add add Constrain 4 1 roll
  3 copy -0.647 mul exch -0.272 mul add add Constrain 5 1 roll
  0.621 mul exch -0.956 mul add add Constrain 3 1 roll } def
/CMY2RGB {  1 exch sub exch 1 exch sub 3 2 roll 1 exch sub 3 1 roll exch } def
/XYZ2RGB {  3 copy -0.9017 mul exch -0.1187 mul add exch 0.0585 mul exch add
  Constrain 4 1 roll 3 copy -0.0279 mul exch 1.999 mul add exch
  -0.9844 mul add Constrain 5 1 roll -0.2891 mul exch -0.5338 mul add
  exch 1.91 mul exch add Constrain 3 1 roll} def
/SelectSpace {ColorSpace (HSV) eq {HSV2RGB}{ColorSpace (XYZ) eq {
  XYZ2RGB}{ColorSpace (CMY) eq {CMY2RGB}{ColorSpace (YIQ) eq {YIQ2RGB}
  if} ifelse} ifelse} ifelse} def
/InterpolatedColor true def
/grayindex {/gidx 0 def
  {GrayA gidx get grayv ge {exit} if /gidx gidx 1 add def} loop} def
/dgdx {grayv GrayA gidx get sub GrayA gidx 1 sub get
  GrayA gidx get sub div} def 
/redvalue {RedA gidx get RedA gidx 1 sub get
  RedA gidx get sub dgdxval mul add} def
/greenvalue {GreenA gidx get GreenA gidx 1 sub get
  GreenA gidx get sub dgdxval mul add} def
/bluevalue {BlueA gidx get BlueA gidx 1 sub get
  BlueA gidx get sub dgdxval mul add} def
/interpolate {
  grayindex grayv GrayA gidx get sub abs 1e-5 le
    {RedA gidx get GreenA gidx get BlueA gidx get}
    {/dgdxval dgdx def redvalue greenvalue bluevalue} ifelse} def
/GrayA [0 1 ] def
/RedA [1 0 ] def
/GreenA [0 1 ] def
/BlueA [0 0 ] def
/pm3dround {maxcolors 0 gt {dup 1 ge
	{pop 1} {maxcolors mul floor maxcolors 1 sub div} ifelse} if} def
/pm3dGamma 1.0 1.5 Gamma mul div def
/ColorSpace (RGB) def
Color InterpolatedColor or { % COLOUR vs. GRAY map
  InterpolatedColor { %% Interpolation vs. RGB-Formula
    /g {stroke pm3dround /grayv exch def interpolate
        SelectSpace setrgbcolor} bind def
  }{
  /g {stroke pm3dround dup cF7 Constrain exch dup cF5 Constrain exch cF15 Constrain 
       SelectSpace setrgbcolor} bind def
  } ifelse
}{
  /g {stroke pm3dround pm3dGamma exp setgray} bind def
} ifelse
1.000 UL
LTb
LCb setrgbcolor
1.000 UL
LTb
LCb setrgbcolor
794 691 M
577 453 V
stroke
LTb
LCb setrgbcolor
3526 1022 M
1371 1144 L
stroke
LTb
LCb setrgbcolor
794 691 M
0 1287 V
stroke
LTb
LCb setrgbcolor
1371 1144 M
0 1286 V
stroke
LTb
LCb setrgbcolor
3526 1022 M
0 1287 V
stroke
LTb
LCb setrgbcolor
794 1978 M
577 452 V
stroke
LTb
LCb setrgbcolor
3526 2309 M
1371 2430 L
stroke
LTa
LCa setrgbcolor
794 691 M
577 453 V
stroke
LTb
LCb setrgbcolor
794 691 M
26 21 V
stroke
LTb
LCb setrgbcolor
763 652 M
[ [(Times-Roman) 120.0 0.0 true true 0 ( 0.1)]
] -40.0 MCshow
1.000 UL
LTb
LCb setrgbcolor
1.000 UL
LTb
LCb setrgbcolor
1371 1144 M
-26 -21 V
stroke
LTa
LCa setrgbcolor
1063 676 M
578 453 V
stroke
LTb
LCb setrgbcolor
1063 676 M
27 21 V
stroke
LTb
LCb setrgbcolor
1033 636 M
[ [(Times-Roman) 120.0 0.0 true true 0 ( 0.2)]
] -40.0 MCshow
1.000 UL
LTb
LCb setrgbcolor
1.000 UL
LTb
LCb setrgbcolor
1641 1129 M
-27 -21 V
stroke
LTa
LCa setrgbcolor
1333 661 M
577 452 V
stroke
LTb
LCb setrgbcolor
1333 661 M
26 21 V
stroke
LTb
LCb setrgbcolor
1302 621 M
[ [(Times-Roman) 120.0 0.0 true true 0 ( 0.3)]
] -40.0 MCshow
1.000 UL
LTb
LCb setrgbcolor
1.000 UL
LTb
LCb setrgbcolor
1910 1113 M
-26 -20 V
stroke
LTa
LCa setrgbcolor
1602 646 M
577 452 V
stroke
LTb
LCb setrgbcolor
1602 646 M
27 20 V
stroke
LTb
LCb setrgbcolor
1572 606 M
[ [(Times-Roman) 120.0 0.0 true true 0 ( 0.4)]
] -40.0 MCshow
1.000 UL
LTb
LCb setrgbcolor
1.000 UL
LTb
LCb setrgbcolor
2179 1098 M
-26 -21 V
stroke
LTa
LCa setrgbcolor
1872 631 M
576 452 V
stroke
LTb
LCb setrgbcolor
1872 631 M
26 20 V
stroke
LTb
LCb setrgbcolor
1841 591 M
[ [(Times-Roman) 120.0 0.0 true true 0 ( 0.5)]
] -40.0 MCshow
1.000 UL
LTb
LCb setrgbcolor
1.000 UL
LTb
LCb setrgbcolor
2448 1083 M
-26 -21 V
stroke
LTa
LCa setrgbcolor
2141 615 M
577 453 V
stroke
LTb
LCb setrgbcolor
2141 615 M
26 21 V
stroke
LTb
LCb setrgbcolor
2111 576 M
[ [(Times-Roman) 120.0 0.0 true true 0 ( 0.6)]
] -40.0 MCshow
1.000 UL
LTb
LCb setrgbcolor
1.000 UL
LTb
LCb setrgbcolor
2718 1068 M
-27 -21 V
stroke
LTa
LCa setrgbcolor
2410 600 M
577 453 V
stroke
LTb
LCb setrgbcolor
2410 600 M
26 21 V
stroke
LTb
LCb setrgbcolor
2379 561 M
[ [(Times-Roman) 120.0 0.0 true true 0 ( 0.7)]
] -40.0 MCshow
1.000 UL
LTb
LCb setrgbcolor
1.000 UL
LTb
LCb setrgbcolor
2987 1053 M
-26 -21 V
stroke
LTa
LCa setrgbcolor
2679 585 M
578 453 V
stroke
LTb
LCb setrgbcolor
2679 585 M
27 21 V
stroke
LTb
LCb setrgbcolor
2649 545 M
[ [(Times-Roman) 120.0 0.0 true true 0 ( 0.8)]
] -40.0 MCshow
1.000 UL
LTb
LCb setrgbcolor
1.000 UL
LTb
LCb setrgbcolor
3257 1038 M
-27 -21 V
stroke
LTa
LCa setrgbcolor
2949 570 M
577 452 V
stroke
LTb
LCb setrgbcolor
2949 570 M
26 21 V
stroke
LTb
LCb setrgbcolor
2918 530 M
[ [(Times-Roman) 120.0 0.0 true true 0 ( 0.9)]
] -40.0 MCshow
1.000 UL
LTb
LCb setrgbcolor
1.000 UL
LTb
LCb setrgbcolor
3526 1022 M
-26 -20 V
stroke
LTa
LCa setrgbcolor
2949 570 M
794 691 L
stroke
LTb
LCb setrgbcolor
2949 570 M
-61 3 V
stroke
3018 563 M
[ [(Times-Roman) 120.0 0.0 true true 0 ( 0)]
] -40.0 MLshow
1.000 UL
LTb
LCb setrgbcolor
1.000 UL
LTb
LCb setrgbcolor
794 691 M
61 -3 V
stroke
LTa
LCa setrgbcolor
3064 660 M
909 782 L
stroke
LTb
LCb setrgbcolor
3064 660 M
-61 4 V
stroke
3134 654 M
[ [(Times-Roman) 120.0 0.0 true true 0 ( 0.2)]
] -40.0 MLshow
1.000 UL
LTb
LCb setrgbcolor
1.000 UL
LTb
LCb setrgbcolor
909 782 M
61 -4 V
stroke
LTa
LCa setrgbcolor
3180 751 M
1025 872 L
stroke
LTb
LCb setrgbcolor
3180 751 M
-61 3 V
stroke
3249 744 M
[ [(Times-Roman) 120.0 0.0 true true 0 ( 0.4)]
] -40.0 MLshow
1.000 UL
LTb
LCb setrgbcolor
1.000 UL
LTb
LCb setrgbcolor
1025 872 M
61 -3 V
stroke
LTa
LCa setrgbcolor
3295 841 M
1140 963 L
stroke
LTb
LCb setrgbcolor
3295 841 M
-61 4 V
stroke
3365 835 M
[ [(Times-Roman) 120.0 0.0 true true 0 ( 0.6)]
] -40.0 MLshow
1.000 UL
LTb
LCb setrgbcolor
1.000 UL
LTb
LCb setrgbcolor
1140 963 M
61 -4 V
stroke
LTa
LCa setrgbcolor
3411 932 M
1256 1053 L
stroke
LTb
LCb setrgbcolor
3411 932 M
-61 3 V
stroke
3480 925 M
[ [(Times-Roman) 120.0 0.0 true true 0 ( 0.8)]
] -40.0 MLshow
1.000 UL
LTb
LCb setrgbcolor
1.000 UL
LTb
LCb setrgbcolor
1256 1053 M
61 -3 V
stroke
LTa
LCa setrgbcolor
3526 1022 M
1371 1144 L
stroke
LTb
LCb setrgbcolor
3526 1022 M
-61 4 V
stroke
3596 1016 M
[ [(Times-Roman) 120.0 0.0 true true 0 ( 1)]
] -40.0 MLshow
1.000 UL
LTb
LCb setrgbcolor
1.000 UL
LTb
LCb setrgbcolor
1371 1144 M
61 -4 V
stroke
LTa
LCa setrgbcolor
794 691 M
577 453 V
stroke
LTa
LCa setrgbcolor
1371 1144 M
3526 1022 L
stroke
LTb
LCb setrgbcolor
794 691 M
63 0 V
stroke
668 691 M
[ [(Times-Roman) 120.0 0.0 true true 0 ( 0)]
] -40.0 MRshow
1.000 UL
LTb
LCb setrgbcolor
1.000 UL
LTa
LCa setrgbcolor
794 875 M
577 453 V
stroke
LTa
LCa setrgbcolor
1371 1328 M
3526 1206 L
stroke
LTb
LCb setrgbcolor
794 875 M
63 0 V
stroke
668 875 M
[ [(Times-Roman) 120.0 0.0 true true 0 ( 0.005)]
] -40.0 MRshow
1.000 UL
LTb
LCb setrgbcolor
1.000 UL
LTa
LCa setrgbcolor
794 1059 M
577 452 V
stroke
LTa
LCa setrgbcolor
1371 1511 M
3526 1390 L
stroke
LTb
LCb setrgbcolor
794 1059 M
63 0 V
stroke
668 1059 M
[ [(Times-Roman) 120.0 0.0 true true 0 ( 0.01)]
] -40.0 MRshow
1.000 UL
LTb
LCb setrgbcolor
1.000 UL
LTa
LCa setrgbcolor
794 1243 M
577 451 V
stroke
LTa
LCa setrgbcolor
1371 1694 M
3526 1573 L
stroke
LTb
LCb setrgbcolor
794 1243 M
63 0 V
stroke
668 1243 M
[ [(Times-Roman) 120.0 0.0 true true 0 ( 0.015)]
] -40.0 MRshow
1.000 UL
LTb
LCb setrgbcolor
1.000 UL
LTa
LCa setrgbcolor
794 1427 M
577 451 V
stroke
LTa
LCa setrgbcolor
1371 1878 M
3526 1757 L
stroke
LTb
LCb setrgbcolor
794 1427 M
63 0 V
stroke
668 1427 M
[ [(Times-Roman) 120.0 0.0 true true 0 ( 0.02)]
] -40.0 MRshow
1.000 UL
LTb
LCb setrgbcolor
1.000 UL
LTa
LCa setrgbcolor
794 1610 M
577 452 V
stroke
LTa
LCa setrgbcolor
1371 2062 M
3526 1941 L
stroke
LTb
LCb setrgbcolor
794 1610 M
63 0 V
stroke
668 1610 M
[ [(Times-Roman) 120.0 0.0 true true 0 ( 0.025)]
] -40.0 MRshow
1.000 UL
LTb
LCb setrgbcolor
1.000 UL
LTa
LCa setrgbcolor
794 1794 M
577 452 V
stroke
LTa
LCa setrgbcolor
1371 2246 M
3526 2125 L
stroke
LTb
LCb setrgbcolor
794 1794 M
63 0 V
stroke
668 1794 M
[ [(Times-Roman) 120.0 0.0 true true 0 ( 0.03)]
] -40.0 MRshow
1.000 UL
LTb
LCb setrgbcolor
1.000 UL
LTa
LCa setrgbcolor
794 1978 M
577 452 V
stroke
LTa
LCa setrgbcolor
1371 2430 M
3526 2309 L
stroke
LTb
LCb setrgbcolor
794 1978 M
63 0 V
stroke
668 1978 M
[ [(Times-Roman) 120.0 0.0 true true 0 ( 0.035)]
] -40.0 MRshow
1.000 UL
LTb
LCb setrgbcolor
LCb setrgbcolor
290 1335 M
currentpoint gsave translate 90 rotate 0 0 moveto
[ [(Times-Roman) 120.0 0.0 true true 0 (time \(s\))]
] -40.0 MCshow
grestore
LTb
1.000 UP
1.00 0.00 0.00 C 2853 2604 M
[ [(Times-Roman) 120.0 0.0 true true 0 (MD)]
] -40.0 MLshow
0.00 1.00 0.00 C 2853 2457 M
[ [(Times-Roman) 120.0 0.0 true true 0 (AS)]
] -40.0 MLshow
1.00 0.00 0.00 C 3041 2612 M
[ [(Times-Roman) 120.0 0.0 true true 0 (-----)]
] -40.0 MLshow
0.00 1.00 0.00 C 3041 2465 M
[ [(Times-Roman) 120.0 0.0 true true 0 (-----)]
] -40.0 MLshow
% Begin plot #1
1.000 UL
LT0
LC0 setrgbcolor
0.250 UL
LT1
0.27 0.27 0.27 C % End plot #1
% Begin plot #2
1.000 UL
LT1
LC1 setrgbcolor
0.250 UL
LT1
0.27 0.27 0.27 C % End plot #2
1 g gsave 1583 1137 N -269 15 V 57 11 V 270 -15 V 0.90 PolyFill
0.250 UL
LT1
0.27 0.27 0.27 C 1583 1137 M
58 11 V
-270 15 V
-57 -11 V
269 -15 V
1 g gsave 1853 1122 N -270 15 V 58 11 V 269 -13 V 0.90 PolyFill
stroke
LT1
0.27 0.27 0.27 C 1853 1122 M
57 13 V
-269 13 V
-58 -11 V
270 -15 V
1 g gsave 2122 1107 N -269 15 V 57 13 V 269 -13 V 0.90 PolyFill
stroke
LT1
0.27 0.27 0.27 C 2122 1107 M
57 15 V
-269 13 V
-57 -13 V
269 -15 V
1 g gsave 2391 1091 N -269 16 V 57 15 V 269 -15 V 0.90 PolyFill
stroke
LT1
0.27 0.27 0.27 C 2391 1091 M
57 16 V
-269 15 V
-57 -15 V
269 -16 V
1 g gsave 1525 1106 N -269 14 V 58 32 V 269 -15 V 0.90 PolyFill
stroke
LT1
0.27 0.27 0.27 C 1525 1106 M
58 31 V
-269 15 V
-58 -32 V
269 -14 V
1 g gsave 2660 1074 N -269 17 V 57 16 V 270 -12 V 0.90 PolyFill
stroke
LT1
0.27 0.27 0.27 C 2660 1074 M
58 21 V
-270 12 V
-57 -16 V
269 -17 V
1 g gsave 1795 1094 N -270 12 V 58 31 V 270 -15 V 0.90 PolyFill
stroke
LT1
0.27 0.27 0.27 C 1795 1094 M
58 28 V
-270 15 V
-58 -31 V
270 -12 V
1 g gsave 2930 1061 N -270 13 V 58 21 V 269 -9 V 0.90 PolyFill
stroke
LT1
0.27 0.27 0.27 C 2930 1061 M
57 25 V
-269 9 V
-58 -21 V
270 -13 V
1 g gsave 2064 1078 N -269 16 V 58 28 V 269 -15 V 0.90 PolyFill
stroke
LT1
0.27 0.27 0.27 C 2064 1078 M
58 29 V
-269 15 V
-58 -28 V
269 -16 V
1 g gsave 2333 1061 N -269 17 V 58 29 V 269 -16 V 0.90 PolyFill
stroke
LT1
0.27 0.27 0.27 C 2333 1061 M
58 30 V
-269 16 V
-58 -29 V
269 -17 V
1 g gsave 3199 1062 N -269 -1 V 57 25 V 270 -4 V 0.90 PolyFill
stroke
LT1
0.27 0.27 0.27 C 3199 1062 M
58 20 V
-270 4 V
-57 -25 V
269 1 V
1 g gsave 1468 1070 N -270 15 V 58 35 V 269 -14 V 0.90 PolyFill
stroke
LT1
0.27 0.27 0.27 C 1468 1070 M
57 36 V
-269 14 V
-58 -35 V
270 -15 V
1 g gsave 2602 1044 N -269 17 V 58 30 V 269 -17 V 0.90 PolyFill
stroke
LT1
0.27 0.27 0.27 C 2602 1044 M
58 30 V
-269 17 V
-58 -30 V
269 -17 V
1 g gsave 1737 1057 N -269 13 V 57 36 V 270 -12 V 0.90 PolyFill
stroke
LT1
0.27 0.27 0.27 C 1737 1057 M
58 37 V
-270 12 V
-57 -36 V
269 -13 V
1 g gsave 2872 1032 N -270 12 V 58 30 V 270 -13 V 0.90 PolyFill
stroke
LT1
0.27 0.27 0.27 C 2872 1032 M
58 29 V
-270 13 V
-58 -30 V
270 -12 V
1 g gsave 2007 1043 N -270 14 V 58 37 V 269 -16 V 0.90 PolyFill
stroke
LT1
0.27 0.27 0.27 C 2007 1043 M
57 35 V
-269 16 V
-58 -37 V
270 -14 V
0 g gsave 1583 2141 N -269 -6 V 57 173 V 270 -118 V 0.90 PolyFill
stroke
LT1
0.27 0.27 0.27 C 1583 2141 M
58 49 V
-270 118 V
-57 -173 V
269 6 V
0 g gsave 1853 2035 N -270 106 V 58 49 V 269 -13 V 0.90 PolyFill
stroke
LT1
0.27 0.27 0.27 C 1853 2035 M
57 142 V
-269 13 V
-58 -49 V
270 -106 V
1 g gsave 1410 1028 N -270 18 V 58 39 V 270 -15 V 0.90 PolyFill
stroke
LT1
0.27 0.27 0.27 C 1410 1028 M
58 42 V
-270 15 V
-58 -39 V
270 -18 V
1 g gsave 2275 1027 N -268 16 V 57 35 V 269 -17 V 0.90 PolyFill
stroke
LT1
0.27 0.27 0.27 C 2275 1027 M
58 34 V
-269 17 V
-57 -35 V
268 -16 V
1 g gsave 3141 1049 N -269 -17 V 58 29 V 269 1 V 0.90 PolyFill
stroke
LT1
0.27 0.27 0.27 C 3141 1049 M
58 13 V
-269 -1 V
-58 -29 V
269 17 V
0 g gsave 2122 1969 N -269 66 V 57 142 V 269 -119 V 0.90 PolyFill
stroke
LT1
0.27 0.27 0.27 C 2122 1969 M
57 89 V
-269 119 V
-57 -142 V
269 -66 V
0 g gsave 2391 1793 N -269 176 V 57 89 V 269 -148 V 0.90 PolyFill
stroke
LT1
0.27 0.27 0.27 C 2391 1793 M
57 117 V
-269 148 V
-57 -89 V
269 -176 V
1 g gsave 3469 1385 N -270 -323 V 58 20 V 269 38 V 0.90 PolyFill
stroke
LT1
0.27 0.27 0.27 C 3469 1385 M
57 -265 V
-269 -38 V
-58 -20 V
270 323 V
1 g gsave 2545 1013 N -270 14 V 58 34 V 269 -17 V 0.90 PolyFill
stroke
LT1
0.27 0.27 0.27 C 2545 1013 M
57 31 V
-269 17 V
-58 -34 V
270 -14 V
1 g gsave 1679 1019 N -269 9 V 58 42 V 269 -13 V 0.90 PolyFill
stroke
LT1
0.27 0.27 0.27 C 1679 1019 M
58 38 V
-269 13 V
-58 -42 V
269 -9 V
1 g gsave 2814 1000 N -269 13 V 57 31 V 270 -12 V 0.90 PolyFill
stroke
LT1
0.27 0.27 0.27 C 2814 1000 M
58 32 V
-270 12 V
-57 -31 V
269 -13 V
1 g gsave 1949 1004 N -270 15 V 58 38 V 270 -14 V 0.90 PolyFill
stroke
LT1
0.27 0.27 0.27 C 1949 1004 M
58 39 V
-270 14 V
-58 -38 V
270 -15 V
0 g gsave 3199 1646 N -269 109 V 57 20 V 270 -90 V 0.90 PolyFill
stroke
LT1
0.27 0.27 0.27 C 3199 1646 M
58 39 V
-270 90 V
-57 -20 V
269 -109 V
0 g gsave 2660 1913 N -269 -120 V 57 117 V 270 -35 V 0.90 PolyFill
stroke
LT1
0.27 0.27 0.27 C 2660 1913 M
58 -38 V
-270 35 V
-57 -117 V
269 120 V
0 g gsave 2930 1755 N -270 158 V 58 -38 V 269 -100 V 0.90 PolyFill
stroke
LT1
0.27 0.27 0.27 C 2930 1755 M
57 20 V
-269 100 V
-58 38 V
270 -158 V
0 g gsave 3469 1593 N -270 53 V 58 39 V 269 -102 V 0.90 PolyFill
stroke
LT1
0.27 0.27 0.27 C 3469 1593 M
57 -10 V
-269 102 V
-58 -39 V
270 -53 V
0 g gsave 1525 2115 N -269 61 V 58 -41 V 269 6 V 0.90 PolyFill
stroke
LT1
0.27 0.27 0.27 C 1525 2115 M
58 26 V
-269 -6 V
-58 41 V
269 -61 V
1 g gsave 1352 986 N -269 17 V 57 43 V 270 -18 V 0.90 PolyFill
stroke
LT1
0.27 0.27 0.27 C 1352 986 M
58 42 V
-270 18 V
-57 -43 V
269 -17 V
1 g gsave 2217 990 N -268 14 V 58 39 V 268 -16 V 0.90 PolyFill
stroke
LT1
0.27 0.27 0.27 C 2217 990 M
58 37 V
-268 16 V
-58 -39 V
268 -14 V
0 g gsave 1795 2022 N -270 93 V 58 26 V 270 -106 V 0.90 PolyFill
stroke
LT1
0.27 0.27 0.27 C 1795 2022 M
58 13 V
-270 106 V
-58 -26 V
270 -93 V
1 g gsave 3084 1059 N -270 -59 V 58 32 V 269 17 V 0.90 PolyFill
stroke
LT1
0.27 0.27 0.27 C 3084 1059 M
57 -10 V
-269 -17 V
-58 -32 V
270 59 V
0 g gsave 2333 1817 N -269 181 V 58 -29 V 269 -176 V 0.90 PolyFill
stroke
LT1
0.27 0.27 0.27 C 2333 1817 M
58 -24 V
-269 176 V
-58 29 V
269 -181 V
0 g gsave 2064 1998 N -269 24 V 58 13 V 269 -66 V 0.90 PolyFill
stroke
LT1
0.27 0.27 0.27 C 2064 1998 M
58 -29 V
-269 66 V
-58 -13 V
269 -24 V
1 g gsave 1622 975 N -270 11 V 58 42 V 269 -9 V 0.90 PolyFill
stroke
LT1
0.27 0.27 0.27 C 1622 975 M
57 44 V
-269 9 V
-58 -42 V
270 -11 V
1 g gsave 2487 980 N -270 10 V 58 37 V 270 -14 V 0.90 PolyFill
stroke
LT1
0.27 0.27 0.27 C 2487 980 M
58 33 V
-270 14 V
-58 -37 V
270 -10 V
0 g gsave 2602 1790 N -269 27 V 58 -24 V 269 120 V 0.90 PolyFill
stroke
LT1
0.27 0.27 0.27 C 2602 1790 M
58 123 V
2391 1793 L
-58 24 V
269 -27 V
1 g gsave 1891 962 N -269 13 V 57 44 V 270 -15 V 0.90 PolyFill
stroke
LT1
0.27 0.27 0.27 C 1891 962 M
58 42 V
-270 15 V
-57 -44 V
269 -13 V
0 g gsave 2872 1741 N -270 49 V 58 123 V 270 -158 V 0.90 PolyFill
stroke
LT1
0.27 0.27 0.27 C 2872 1741 M
58 14 V
-270 158 V
-58 -123 V
270 -49 V
1 g gsave 2756 978 N -269 2 V 58 33 V 269 -13 V 0.90 PolyFill
stroke
LT1
0.27 0.27 0.27 C 2756 978 M
58 22 V
-269 13 V
-58 -33 V
269 -2 V
0 g gsave 3141 1680 N -269 61 V 58 14 V 269 -109 V 0.90 PolyFill
stroke
LT1
0.27 0.27 0.27 C 3141 1680 M
58 -34 V
-269 109 V
-58 -14 V
269 -61 V
0 g gsave 3411 1582 N -270 98 V 58 -34 V 270 -53 V 0.90 PolyFill
stroke
LT1
0.27 0.27 0.27 C 3411 1582 M
58 11 V
-270 53 V
-58 34 V
270 -98 V
1 g gsave 1294 942 N -269 16 V 58 45 V 269 -17 V 0.90 PolyFill
stroke
LT1
0.27 0.27 0.27 C 1294 942 M
58 44 V
-269 17 V
-58 -45 V
269 -16 V
1 g gsave 2160 949 N -269 13 V 58 42 V 268 -14 V 0.90 PolyFill
stroke
LT1
0.27 0.27 0.27 C 2160 949 M
57 41 V
-268 14 V
-58 -42 V
269 -13 V
0 g gsave 1468 2176 N -270 28 V 58 -28 V 269 -61 V 0.90 PolyFill
stroke
LT1
0.27 0.27 0.27 C 1468 2176 M
57 -61 V
-269 61 V
-58 28 V
270 -28 V
0 g gsave 1737 2050 N -269 126 V 57 -61 V 270 -93 V 0.90 PolyFill
stroke
LT1
0.27 0.27 0.27 C 1737 2050 M
58 -28 V
-270 93 V
-57 61 V
269 -126 V
1 g gsave 1564 931 N -270 11 V 58 44 V 270 -11 V 0.90 PolyFill
stroke
LT1
0.27 0.27 0.27 C 1564 931 M
58 44 V
-270 11 V
-58 -44 V
270 -11 V
1 g gsave 2429 939 N -269 10 V 57 41 V 270 -10 V 0.90 PolyFill
stroke
LT1
0.27 0.27 0.27 C 2429 939 M
58 41 V
-270 10 V
-57 -41 V
269 -10 V
1 g gsave 3026 1077 N -270 -99 V 58 22 V 270 59 V 0.90 PolyFill
stroke
LT1
0.27 0.27 0.27 C 3026 1077 M
58 -18 V
-270 -59 V
-58 -22 V
270 99 V
0 g gsave 2275 1857 N -268 188 V 57 -47 V 269 -181 V 0.90 PolyFill
stroke
LT1
0.27 0.27 0.27 C 2275 1857 M
58 -40 V
-269 181 V
-57 47 V
268 -188 V
0 g gsave 2007 2045 N -270 5 V 58 -28 V 269 -24 V 0.90 PolyFill
stroke
LT1
0.27 0.27 0.27 C 2007 2045 M
57 -47 V
-269 24 V
-58 28 V
270 -5 V
1 g gsave 1833 919 N -269 12 V 58 44 V 269 -13 V 0.90 PolyFill
stroke
LT1
0.27 0.27 0.27 C 1833 919 M
58 43 V
-269 13 V
-58 -44 V
269 -12 V
0 g gsave 2545 1829 N -270 28 V 58 -40 V 269 -27 V 0.90 PolyFill
stroke
LT1
0.27 0.27 0.27 C 2545 1829 M
57 -39 V
-269 27 V
-58 40 V
270 -28 V
1 g gsave 2698 938 N -269 1 V 58 41 V 269 -2 V 0.90 PolyFill
stroke
LT1
0.27 0.27 0.27 C 2698 938 M
58 40 V
-269 2 V
-58 -41 V
269 -1 V
0 g gsave 2814 1729 N -269 100 V 57 -39 V 270 -49 V 0.90 PolyFill
stroke
LT1
0.27 0.27 0.27 C 2814 1729 M
58 12 V
-270 49 V
-57 39 V
269 -100 V
0 g gsave 1410 1991 N -270 103 V 58 110 V 270 -28 V 0.90 PolyFill
stroke
LT1
0.27 0.27 0.27 C 1410 1991 M
58 185 V
-270 28 V
-58 -110 V
270 -103 V
0 g gsave 3084 1617 N -270 112 V 58 12 V 269 -61 V 0.90 PolyFill
stroke
LT1
0.27 0.27 0.27 C 3084 1617 M
57 63 V
-269 61 V
-58 -12 V
270 -112 V
1 g gsave 3411 1893 N -270 -844 V 58 13 V 270 323 V 0.90 PolyFill
stroke
LT1
0.27 0.27 0.27 C 3411 1893 M
58 -508 V
3199 1062 L
-58 -13 V
270 844 V
0 g gsave 3353 1532 N -269 85 V 57 63 V 270 -98 V 0.90 PolyFill
stroke
LT1
0.27 0.27 0.27 C 3353 1532 M
58 50 V
-270 98 V
-57 -63 V
269 -85 V
1 g gsave 1236 898 N -269 14 V 58 46 V 269 -16 V 0.90 PolyFill
stroke
LT1
0.27 0.27 0.27 C 1236 898 M
58 44 V
-269 16 V
967 912 L
269 -14 V
1 g gsave 2103 906 N -270 13 V 58 43 V 269 -13 V 0.90 PolyFill
stroke
LT1
0.27 0.27 0.27 C 2103 906 M
57 43 V
-269 13 V
-58 -43 V
270 -13 V
0 g gsave 1679 1952 N -269 39 V 58 185 V 269 -126 V 0.90 PolyFill
stroke
LT1
0.27 0.27 0.27 C 1679 1952 M
58 98 V
-269 126 V
-58 -185 V
269 -39 V
0 g gsave 1949 1860 N -270 92 V 58 98 V 270 -5 V 0.90 PolyFill
stroke
LT1
0.27 0.27 0.27 C 1949 1860 M
58 185 V
-270 5 V
-58 -98 V
270 -92 V
0 g gsave 2217 1731 N -268 129 V 58 185 V 268 -188 V 0.90 PolyFill
stroke
LT1
0.27 0.27 0.27 C 2217 1731 M
58 126 V
-268 188 V
-58 -185 V
268 -129 V
1 g gsave 1506 887 N -270 11 V 58 44 V 270 -11 V 0.90 PolyFill
stroke
LT1
0.27 0.27 0.27 C 1506 887 M
58 44 V
-270 11 V
-58 -44 V
270 -11 V
1 g gsave 2371 901 N -268 5 V 57 43 V 269 -10 V 0.90 PolyFill
stroke
LT1
0.27 0.27 0.27 C 2371 901 M
58 38 V
-269 10 V
-57 -43 V
268 -5 V
0 g gsave 2487 1725 N -270 6 V 58 126 V 270 -28 V 0.90 PolyFill
stroke
LT1
0.27 0.27 0.27 C 2487 1725 M
58 104 V
-270 28 V
-58 -126 V
270 -6 V
1 g gsave 2968 1096 N -270 -158 V 58 40 V 270 99 V 0.90 PolyFill
stroke
LT1
0.27 0.27 0.27 C 2968 1096 M
58 -19 V
2756 978 L
-58 -40 V
270 158 V
1 g gsave 1775 870 N -269 17 V 58 44 V 269 -12 V 0.90 PolyFill
stroke
LT1
0.27 0.27 0.27 C 1775 870 M
58 49 V
-269 12 V
-58 -44 V
269 -17 V
0 g gsave 2756 1646 N -269 79 V 58 104 V 269 -100 V 0.90 PolyFill
stroke
LT1
0.27 0.27 0.27 C 2756 1646 M
58 83 V
-269 100 V
-58 -104 V
269 -79 V
0 g gsave 3026 1542 N -270 104 V 58 83 V 270 -112 V 0.90 PolyFill
stroke
LT1
0.27 0.27 0.27 C 3026 1542 M
58 75 V
-270 112 V
-58 -83 V
270 -104 V
1 g gsave 2641 921 N -270 -20 V 58 38 V 269 -1 V 0.90 PolyFill
stroke
LT1
0.27 0.27 0.27 C 2641 921 M
57 17 V
-269 1 V
-58 -38 V
270 20 V
0 g gsave 1352 1979 N -269 71 V 57 44 V 270 -103 V 0.90 PolyFill
stroke
LT1
0.27 0.27 0.27 C 1352 1979 M
58 12 V
-270 103 V
-57 -44 V
269 -71 V
1 g gsave 1179 850 N -270 15 V 58 47 V 269 -14 V 0.90 PolyFill
stroke
LT1
0.27 0.27 0.27 C 1179 850 M
57 48 V
967 912 L
909 865 L
270 -15 V
1 g gsave 2045 859 N -270 11 V 58 49 V 270 -13 V 0.90 PolyFill
stroke
LT1
0.27 0.27 0.27 C 2045 859 M
58 47 V
-270 13 V
-58 -49 V
270 -11 V
0 g gsave 3295 1553 N -269 -11 V 58 75 V 269 -85 V 0.90 PolyFill
stroke
LT1
0.27 0.27 0.27 C 3295 1553 M
58 -21 V
-269 85 V
-58 -75 V
269 11 V
0 g gsave 1622 1954 N -270 25 V 58 12 V 269 -39 V 0.90 PolyFill
stroke
LT1
0.27 0.27 0.27 C 1622 1954 M
57 -2 V
-269 39 V
-58 -12 V
270 -25 V
1 g gsave 1448 839 N -269 11 V 57 48 V 270 -11 V 0.90 PolyFill
stroke
LT1
0.27 0.27 0.27 C 1448 839 M
58 48 V
-270 11 V
-57 -48 V
269 -11 V
1 g gsave 2313 858 N -268 1 V 58 47 V 268 -5 V 0.90 PolyFill
stroke
LT1
0.27 0.27 0.27 C 2313 858 M
58 43 V
-268 5 V
-58 -47 V
268 -1 V
1 g gsave 3353 2048 N -269 -989 V 57 -10 V 270 844 V 0.90 PolyFill
stroke
LT1
0.27 0.27 0.27 C 3353 2048 M
58 -155 V
3141 1049 L
-57 10 V
269 989 V
0 g gsave 1891 1950 N -269 4 V 57 -2 V 270 -92 V 0.90 PolyFill
stroke
LT1
0.27 0.27 0.27 C 1891 1950 M
58 -90 V
-270 92 V
-57 2 V
269 -4 V
0 g gsave 2160 1681 N -269 269 V 58 -90 V 268 -129 V 0.90 PolyFill
stroke
LT1
0.27 0.27 0.27 C 2160 1681 M
57 50 V
-268 129 V
-58 90 V
269 -269 V
1 g gsave 1718 826 N -270 13 V 58 48 V 269 -17 V 0.90 PolyFill
stroke
LT1
0.27 0.27 0.27 C 1718 826 M
57 44 V
-269 17 V
-58 -48 V
270 -13 V
0 g gsave 2429 1745 N -269 -64 V 57 50 V 270 -6 V 0.90 PolyFill
stroke
LT1
0.27 0.27 0.27 C 2429 1745 M
58 -20 V
-270 6 V
-57 -50 V
269 64 V
0 g gsave 2698 1604 N -269 141 V 58 -20 V 269 -79 V 0.90 PolyFill
stroke
LT1
0.27 0.27 0.27 C 2698 1604 M
58 42 V
-269 79 V
-58 20 V
269 -141 V
0 g gsave 2968 1517 N -270 87 V 58 42 V 270 -104 V 0.90 PolyFill
stroke
LT1
0.27 0.27 0.27 C 2968 1517 M
58 25 V
-270 104 V
-58 -42 V
270 -87 V
1 g gsave 2583 891 N -270 -33 V 58 43 V 270 20 V 0.90 PolyFill
stroke
LT1
0.27 0.27 0.27 C 2583 891 M
58 30 V
2371 901 L
-58 -43 V
270 33 V
0 g gsave 3237 1410 N -269 107 V 58 25 V 269 11 V 0.90 PolyFill
stroke
LT1
0.27 0.27 0.27 C 3237 1410 M
58 143 V
-269 -11 V
-58 -25 V
269 -107 V
0 g gsave 1294 1935 N -269 129 V 58 -14 V 269 -71 V 0.90 PolyFill
stroke
LT1
0.27 0.27 0.27 C 1294 1935 M
58 44 V
-269 71 V
-58 14 V
269 -129 V
1 g gsave 2910 1162 N -269 -241 V 57 17 V 270 158 V 0.90 PolyFill
stroke
LT1
0.27 0.27 0.27 C 2910 1162 M
58 -66 V
2698 938 L
-57 -17 V
269 241 V
1 g gsave 1121 804 N -270 15 V 58 46 V 270 -15 V 0.90 PolyFill
stroke
LT1
0.27 0.27 0.27 C 1121 804 M
58 46 V
909 865 L
851 819 L
270 -15 V
1 g gsave 1987 814 N -269 12 V 57 44 V 270 -11 V 0.90 PolyFill
stroke
LT1
0.27 0.27 0.27 C 1987 814 M
58 45 V
-270 11 V
-57 -44 V
269 -12 V
0 g gsave 1564 1948 N -270 -13 V 58 44 V 270 -25 V 0.90 PolyFill
stroke
LT1
0.27 0.27 0.27 C 1564 1948 M
58 6 V
-270 25 V
-58 -44 V
270 13 V
1 g gsave 1390 792 N -269 12 V 58 46 V 269 -11 V 0.90 PolyFill
stroke
LT1
0.27 0.27 0.27 C 1390 792 M
58 47 V
-269 11 V
-58 -46 V
269 -12 V
1 g gsave 2256 807 N -269 7 V 58 45 V 268 -1 V 0.90 PolyFill
stroke
LT1
0.27 0.27 0.27 C 2256 807 M
57 51 V
-268 1 V
-58 -45 V
269 -7 V
0 g gsave 1833 1844 N -269 104 V 58 6 V 269 -4 V 0.90 PolyFill
stroke
LT1
0.27 0.27 0.27 C 1833 1844 M
58 106 V
-269 4 V
-58 -6 V
269 -104 V
0 g gsave 2103 1659 N -270 185 V 58 106 V 269 -269 V 0.90 PolyFill
stroke
LT1
0.27 0.27 0.27 C 2103 1659 M
57 22 V
-269 269 V
-58 -106 V
270 -185 V
0 g gsave 2371 1664 N -268 -5 V 57 22 V 269 64 V 0.90 PolyFill
stroke
LT1
0.27 0.27 0.27 C 2371 1664 M
58 81 V
-269 -64 V
-57 -22 V
268 5 V
1 g gsave 1660 780 N -270 12 V 58 47 V 270 -13 V 0.90 PolyFill
stroke
LT1
0.27 0.27 0.27 C 1660 780 M
58 46 V
-270 13 V
-58 -47 V
270 -12 V
1 g gsave 3295 2068 N -269 -991 V 58 -18 V 269 989 V 0.90 PolyFill
stroke
LT1
0.27 0.27 0.27 C 3295 2068 M
58 -20 V
3084 1059 L
-58 18 V
269 991 V
0 g gsave 2641 1560 N -270 104 V 58 81 V 269 -141 V 0.90 PolyFill
stroke
LT1
0.27 0.27 0.27 C 2641 1560 M
57 44 V
-269 141 V
-58 -81 V
270 -104 V
0 g gsave 2910 1396 N -269 164 V 57 44 V 270 -87 V 0.90 PolyFill
stroke
LT1
0.27 0.27 0.27 C 2910 1396 M
58 121 V
-270 87 V
-57 -44 V
269 -164 V
0 g gsave 3180 1368 N -270 28 V 58 121 V 269 -107 V 0.90 PolyFill
stroke
LT1
0.27 0.27 0.27 C 3180 1368 M
57 42 V
-269 107 V
-58 -121 V
270 -28 V
1 g gsave 2525 869 N -269 -62 V 57 51 V 270 33 V 0.90 PolyFill
stroke
LT1
0.27 0.27 0.27 C 2525 869 M
58 22 V
2313 858 L
-57 -51 V
269 62 V
1 g gsave 1063 754 N -269 14 V 57 51 V 270 -15 V 0.90 PolyFill
stroke
LT1
0.27 0.27 0.27 C 1063 754 M
58 50 V
851 819 L
794 768 L
269 -14 V
0 g gsave 1236 1908 N -269 144 V 58 12 V 269 -129 V 0.90 PolyFill
stroke
LT1
0.27 0.27 0.27 C 1236 1908 M
58 27 V
-269 129 V
-58 -12 V
269 -144 V
1 g gsave 1929 765 N -269 15 V 58 46 V 269 -12 V 0.90 PolyFill
stroke
LT1
0.27 0.27 0.27 C 1929 765 M
58 49 V
-269 12 V
-58 -46 V
269 -15 V
0 g gsave 1506 1816 N -270 92 V 58 27 V 270 13 V 0.90 PolyFill
stroke
LT1
0.27 0.27 0.27 C 1506 1816 M
58 132 V
-270 -13 V
-58 -27 V
270 -92 V
1 g gsave 2852 1212 N -269 -321 V 58 30 V 269 241 V 0.90 PolyFill
stroke
LT1
0.27 0.27 0.27 C 2852 1212 M
58 -50 V
2641 921 L
-58 -30 V
269 321 V
1 g gsave 1333 743 N -270 11 V 58 50 V 269 -12 V 0.90 PolyFill
stroke
LT1
0.27 0.27 0.27 C 1333 743 M
57 49 V
-269 12 V
-58 -50 V
270 -11 V
1 g gsave 2198 756 N -269 9 V 58 49 V 269 -7 V 0.90 PolyFill
stroke
LT1
0.27 0.27 0.27 C 2198 756 M
58 51 V
-269 7 V
-58 -49 V
269 -9 V
0 g gsave 2045 1626 N -270 199 V 58 19 V 270 -185 V 0.90 PolyFill
stroke
LT1
0.27 0.27 0.27 C 2045 1626 M
58 33 V
-270 185 V
-58 -19 V
270 -199 V
0 g gsave 1775 1825 N -269 -9 V 58 132 V 269 -104 V 0.90 PolyFill
stroke
LT1
0.27 0.27 0.27 C 1775 1825 M
58 19 V
-269 104 V
-58 -132 V
269 9 V
1 g gsave 1602 730 N -269 13 V 57 49 V 270 -12 V 0.90 PolyFill
stroke
LT1
0.27 0.27 0.27 C 1602 730 M
58 50 V
-270 12 V
-57 -49 V
269 -13 V
0 g gsave 2313 1652 N -268 -26 V 58 33 V 268 5 V 0.90 PolyFill
stroke
LT1
0.27 0.27 0.27 C 2313 1652 M
58 12 V
-268 -5 V
-58 -33 V
268 26 V
0 g gsave 2583 1513 N -270 139 V 58 12 V 270 -104 V 0.90 PolyFill
stroke
LT1
0.27 0.27 0.27 C 2583 1513 M
58 47 V
-270 104 V
-58 -12 V
270 -139 V
1 g gsave 3237 2050 N -269 -954 V 58 -19 V 269 991 V 0.90 PolyFill
stroke
LT1
0.27 0.27 0.27 C 3237 2050 M
58 18 V
3026 1077 L
-58 19 V
269 954 V
0 g gsave 2852 1430 N -269 83 V 58 47 V 269 -164 V 0.90 PolyFill
stroke
LT1
0.27 0.27 0.27 C 2852 1430 M
58 -34 V
-269 164 V
-58 -47 V
269 -83 V
0 g gsave 3122 1300 N -270 130 V 58 -34 V 270 -28 V 0.90 PolyFill
stroke
LT1
0.27 0.27 0.27 C 3122 1300 M
58 68 V
-270 28 V
-58 34 V
270 -130 V
1 g gsave 1872 720 N -270 10 V 58 50 V 269 -15 V 0.90 PolyFill
stroke
LT1
0.27 0.27 0.27 C 1872 720 M
57 45 V
-269 15 V
-58 -50 V
270 -10 V
1 g gsave 2467 868 N -269 -112 V 58 51 V 269 62 V 0.90 PolyFill
stroke
LT1
0.27 0.27 0.27 C 2467 868 M
58 1 V
2256 807 L
-58 -51 V
269 112 V
0 g gsave 1179 1918 N -270 66 V 58 68 V 269 -144 V 0.90 PolyFill
stroke
LT1
0.27 0.27 0.27 C 1179 1918 M
57 -10 V
967 2052 L
-58 -68 V
270 -66 V
0 g gsave 1448 1779 N -269 139 V 57 -10 V 270 -92 V 0.90 PolyFill
stroke
LT1
0.27 0.27 0.27 C 1448 1779 M
58 37 V
-270 92 V
-57 10 V
269 -139 V
0 g gsave 1987 1577 N -269 155 V 57 93 V 270 -199 V 0.90 PolyFill
stroke
LT1
0.27 0.27 0.27 C 1987 1577 M
58 49 V
-270 199 V
-57 -93 V
269 -155 V
0 g gsave 1718 1732 N -270 47 V 58 37 V 269 9 V 0.90 PolyFill
stroke
LT1
0.27 0.27 0.27 C 1718 1732 M
57 93 V
-269 -9 V
-58 -37 V
270 -47 V
1 g gsave 2141 753 N -269 -33 V 57 45 V 269 -9 V 0.90 PolyFill
stroke
LT1
0.27 0.27 0.27 C 2141 753 M
57 3 V
-269 9 V
-57 -45 V
269 33 V
1 g gsave 2795 1298 N -270 -429 V 58 22 V 269 321 V 0.90 PolyFill
stroke
LT1
0.27 0.27 0.27 C 2795 1298 M
57 -86 V
2583 891 L
-58 -22 V
270 429 V
0 g gsave 2256 1584 N -269 -7 V 58 49 V 268 26 V 0.90 PolyFill
stroke
LT1
0.27 0.27 0.27 C 2256 1584 M
57 68 V
-268 -26 V
-58 -49 V
269 7 V
0 g gsave 3064 1221 N -269 63 V 57 146 V 270 -130 V 0.90 PolyFill
stroke
LT1
0.27 0.27 0.27 C 3064 1221 M
58 79 V
-270 130 V
-57 -146 V
269 -63 V
1 g gsave 3180 2024 N -270 -862 V 58 -66 V 269 954 V 0.90 PolyFill
stroke
LT1
0.27 0.27 0.27 C 3180 2024 M
57 26 V
2968 1096 L
-58 66 V
270 862 V
0 g gsave 2525 1514 N -269 70 V 57 68 V 270 -139 V 0.90 PolyFill
stroke
LT1
0.27 0.27 0.27 C 2525 1514 M
58 -1 V
-270 139 V
-57 -68 V
269 -70 V
0 g gsave 2795 1284 N -270 230 V 58 -1 V 269 -83 V 0.90 PolyFill
stroke
LT1
0.27 0.27 0.27 C 2795 1284 M
57 146 V
-269 83 V
-58 1 V
270 -230 V
0 g gsave 1121 1814 N -270 82 V 58 88 V 270 -66 V 0.90 PolyFill
stroke
LT1
0.27 0.27 0.27 C 1121 1814 M
58 104 V
-270 66 V
-58 -88 V
270 -82 V
0 g gsave 1390 1766 N -269 48 V 58 104 V 269 -139 V 0.90 PolyFill
stroke
LT1
0.27 0.27 0.27 C 1390 1766 M
58 13 V
-269 139 V
-58 -104 V
269 -48 V
0 g gsave 1660 1680 N -270 86 V 58 13 V 270 -47 V 0.90 PolyFill
stroke
LT1
0.27 0.27 0.27 C 1660 1680 M
58 52 V
-270 47 V
-58 -13 V
270 -86 V
0 g gsave 1929 1500 N -269 180 V 58 52 V 269 -155 V 0.90 PolyFill
stroke
LT1
0.27 0.27 0.27 C 1929 1500 M
58 77 V
-269 155 V
-58 -52 V
269 -180 V
1 g gsave 2410 919 N -269 -166 V 57 3 V 269 112 V 0.90 PolyFill
stroke
LT1
0.27 0.27 0.27 C 2410 919 M
57 -51 V
2198 756 L
-57 -3 V
269 166 V
0 g gsave 2737 1291 N -270 105 V 58 118 V 270 -230 V 0.90 PolyFill
stroke
LT1
0.27 0.27 0.27 C 2737 1291 M
58 -7 V
-270 230 V
-58 -118 V
270 -105 V
0 g gsave 3006 1171 N -269 120 V 58 -7 V 269 -63 V 0.90 PolyFill
stroke
LT1
0.27 0.27 0.27 C 3006 1171 M
58 50 V
-269 63 V
-58 7 V
269 -120 V
0 g gsave 1063 1710 N -269 94 V 57 92 V 270 -82 V 0.90 PolyFill
stroke
LT1
0.27 0.27 0.27 C 1063 1710 M
58 104 V
-270 82 V
-57 -92 V
269 -94 V
0 g gsave 2198 1579 N -269 -79 V 58 77 V 269 7 V 0.90 PolyFill
stroke
LT1
0.27 0.27 0.27 C 2198 1579 M
58 5 V
-269 -7 V
-58 -77 V
269 79 V
0 g gsave 2467 1396 N -269 183 V 58 5 V 269 -70 V 0.90 PolyFill
stroke
LT1
0.27 0.27 0.27 C 2467 1396 M
58 118 V
-269 70 V
-58 -5 V
269 -183 V
1 g gsave 3122 1978 N -270 -766 V 58 -50 V 270 862 V 0.90 PolyFill
stroke
LT1
0.27 0.27 0.27 C 3122 1978 M
58 46 V
2910 1162 L
-58 50 V
270 766 V
0 g gsave 1333 1633 N -270 77 V 58 104 V 269 -48 V 0.90 PolyFill
stroke
LT1
0.27 0.27 0.27 C 1333 1633 M
57 133 V
-269 48 V
-58 -104 V
270 -77 V
0 g gsave 1602 1561 N -269 72 V 57 133 V 270 -86 V 0.90 PolyFill
stroke
LT1
0.27 0.27 0.27 C 1602 1561 M
58 119 V
-270 86 V
-57 -133 V
269 -72 V
0 g gsave 1872 1389 N -270 172 V 58 119 V 269 -180 V 0.90 PolyFill
stroke
LT1
0.27 0.27 0.27 C 1872 1389 M
57 111 V
-269 180 V
-58 -119 V
270 -172 V
1 g gsave 2737 1437 N -270 -569 V 58 1 V 270 429 V 0.90 PolyFill
stroke
LT1
0.27 0.27 0.27 C 2737 1437 M
58 -139 V
2525 869 L
-58 -1 V
270 569 V
0 g gsave 2141 1382 N -269 7 V 57 111 V 269 79 V 0.90 PolyFill
stroke
LT1
0.27 0.27 0.27 C 2141 1382 M
57 197 V
-269 -79 V
-57 -111 V
269 -7 V
0 g gsave 2679 1122 N -269 148 V 57 126 V 270 -105 V 0.90 PolyFill
stroke
LT1
0.27 0.27 0.27 C 2679 1122 M
58 169 V
-270 105 V
-57 -126 V
269 -148 V
0 g gsave 2410 1270 N -269 112 V 57 197 V 269 -183 V 0.90 PolyFill
stroke
LT1
0.27 0.27 0.27 C 2410 1270 M
57 126 V
-269 183 V
-57 -197 V
269 -112 V
0 g gsave 2949 1079 N -270 43 V 58 169 V 269 -120 V 0.90 PolyFill
stroke
LT1
0.27 0.27 0.27 C 2949 1079 M
57 92 V
-269 120 V
-58 -169 V
270 -43 V
1 g gsave 3064 1947 N -269 -649 V 57 -86 V 270 766 V 0.90 PolyFill
stroke
LT1
0.27 0.27 0.27 C 3064 1947 M
58 31 V
2852 1212 L
-57 86 V
269 649 V
1 g gsave 2679 1520 N -269 -601 V 57 -51 V 270 569 V 0.90 PolyFill
stroke
LT1
0.27 0.27 0.27 C 2679 1520 M
58 -83 V
2467 868 L
-57 51 V
269 601 V
1 g gsave 3006 1902 N -269 -465 V 58 -139 V 269 649 V 0.90 PolyFill
stroke
LT1
0.27 0.27 0.27 C 3006 1902 M
58 45 V
2795 1298 L
-58 139 V
269 465 V
1 g gsave 2949 1856 N -270 -336 V 58 -83 V 269 465 V 0.90 PolyFill
stroke
LT1
0.27 0.27 0.27 C 2949 1856 M
57 46 V
2737 1437 L
-58 83 V
270 336 V
stroke
1.000 UL
LTb
LCb setrgbcolor
3526 1022 M
2949 570 L
stroke
LTb
LCb setrgbcolor
794 691 M
2949 570 L
stroke
LTb
LCb setrgbcolor
2949 570 M
0 1286 V
stroke
LCb setrgbcolor
1727 517 M
[ [(Times-Roman) 120.0 0.0 true true 0 (p1)]
] -40.0 MCshow
LTb
LCb setrgbcolor
3776 766 M
[ [(Times-Roman) 120.0 0.0 true true 0 (p2)]
] -40.0 MCshow
LTb
LCb setrgbcolor
290 1335 M
currentpoint gsave translate 90 rotate 0 0 moveto
[ [(Times-Roman) 120.0 0.0 true true 0 (time \(s\))]
] -40.0 MCshow
grestore
LTb
1.000 UP
grestore % colour palette end
stroke
grestore
end
showpage
%%Trailer
%%DocumentFonts: Times-Roman
