%!PS-Adobe-2.0 EPSF-2.0
%%Title: AST30vsMC-Time-v2.eps
%%Creator: gnuplot 4.6 patchlevel 4
%%CreationDate: Mon Jun 16 17:01:56 2014
%%DocumentFonts: (atend)
%%BoundingBox: 50 50 554 424
%%EndComments
%%BeginProlog
/gnudict 256 dict def
gnudict begin
%
% The following true/false flags may be edited by hand if desired.
% The unit line width and grayscale image gamma correction may also be changed.
%
/Color true def
/Blacktext false def
/Solid false def
/Dashlength 1 def
/Landscape false def
/Level1 false def
/Rounded false def
/ClipToBoundingBox false def
/SuppressPDFMark false def
/TransparentPatterns false def
/gnulinewidth 5.000 def
/userlinewidth gnulinewidth def
/Gamma 1.0 def
/BackgroundColor {-1.000 -1.000 -1.000} def
%
/vshift -66 def
/dl1 {
  10.0 Dashlength mul mul
  Rounded { currentlinewidth 0.75 mul sub dup 0 le { pop 0.01 } if } if
} def
/dl2 {
  10.0 Dashlength mul mul
  Rounded { currentlinewidth 0.75 mul add } if
} def
/hpt_ 31.5 def
/vpt_ 31.5 def
/hpt hpt_ def
/vpt vpt_ def
/doclip {
  ClipToBoundingBox {
    newpath 50 50 moveto 554 50 lineto 554 424 lineto 50 424 lineto closepath
    clip
  } if
} def
%
% Gnuplot Prolog Version 4.6 (September 2012)
%
%/SuppressPDFMark true def
%
/M {moveto} bind def
/L {lineto} bind def
/R {rmoveto} bind def
/V {rlineto} bind def
/N {newpath moveto} bind def
/Z {closepath} bind def
/C {setrgbcolor} bind def
/f {rlineto fill} bind def
/g {setgray} bind def
/Gshow {show} def   % May be redefined later in the file to support UTF-8
/vpt2 vpt 2 mul def
/hpt2 hpt 2 mul def
/Lshow {currentpoint stroke M 0 vshift R 
	Blacktext {gsave 0 setgray show grestore} {show} ifelse} def
/Rshow {currentpoint stroke M dup stringwidth pop neg vshift R
	Blacktext {gsave 0 setgray show grestore} {show} ifelse} def
/Cshow {currentpoint stroke M dup stringwidth pop -2 div vshift R 
	Blacktext {gsave 0 setgray show grestore} {show} ifelse} def
/UP {dup vpt_ mul /vpt exch def hpt_ mul /hpt exch def
  /hpt2 hpt 2 mul def /vpt2 vpt 2 mul def} def
/DL {Color {setrgbcolor Solid {pop []} if 0 setdash}
 {pop pop pop 0 setgray Solid {pop []} if 0 setdash} ifelse} def
/BL {stroke userlinewidth 2 mul setlinewidth
	Rounded {1 setlinejoin 1 setlinecap} if} def
/AL {stroke userlinewidth 2 div setlinewidth
	Rounded {1 setlinejoin 1 setlinecap} if} def
/UL {dup gnulinewidth mul /userlinewidth exch def
	dup 1 lt {pop 1} if 10 mul /udl exch def} def
/PL {stroke userlinewidth setlinewidth
	Rounded {1 setlinejoin 1 setlinecap} if} def
3.8 setmiterlimit
% Default Line colors
/LCw {1 1 1} def
/LCb {0 0 0} def
/LCa {0 0 0} def
/LC0 {1 0 0} def
/LC1 {0 1 0} def
/LC2 {0 0 1} def
/LC3 {1 0 1} def
/LC4 {0 1 1} def
/LC5 {1 1 0} def
/LC6 {0 0 0} def
/LC7 {1 0.3 0} def
/LC8 {0.5 0.5 0.5} def
% Default Line Types
/LTw {PL [] 1 setgray} def
/LTb {BL [] LCb DL} def
/LTa {AL [1 udl mul 2 udl mul] 0 setdash LCa setrgbcolor} def
/LT0 {PL [] LC0 DL} def
/LT1 {PL [4 dl1 2 dl2] LC1 DL} def
/LT2 {PL [2 dl1 3 dl2] LC2 DL} def
/LT3 {PL [1 dl1 1.5 dl2] LC3 DL} def
/LT4 {PL [6 dl1 2 dl2 1 dl1 2 dl2] LC4 DL} def
/LT5 {PL [3 dl1 3 dl2 1 dl1 3 dl2] LC5 DL} def
/LT6 {PL [2 dl1 2 dl2 2 dl1 6 dl2] LC6 DL} def
/LT7 {PL [1 dl1 2 dl2 6 dl1 2 dl2 1 dl1 2 dl2] LC7 DL} def
/LT8 {PL [2 dl1 2 dl2 2 dl1 2 dl2 2 dl1 2 dl2 2 dl1 4 dl2] LC8 DL} def
/Pnt {stroke [] 0 setdash gsave 1 setlinecap M 0 0 V stroke grestore} def
/Dia {stroke [] 0 setdash 2 copy vpt add M
  hpt neg vpt neg V hpt vpt neg V
  hpt vpt V hpt neg vpt V closepath stroke
  Pnt} def
/Pls {stroke [] 0 setdash vpt sub M 0 vpt2 V
  currentpoint stroke M
  hpt neg vpt neg R hpt2 0 V stroke
 } def
/Box {stroke [] 0 setdash 2 copy exch hpt sub exch vpt add M
  0 vpt2 neg V hpt2 0 V 0 vpt2 V
  hpt2 neg 0 V closepath stroke
  Pnt} def
/Crs {stroke [] 0 setdash exch hpt sub exch vpt add M
  hpt2 vpt2 neg V currentpoint stroke M
  hpt2 neg 0 R hpt2 vpt2 V stroke} def
/TriU {stroke [] 0 setdash 2 copy vpt 1.12 mul add M
  hpt neg vpt -1.62 mul V
  hpt 2 mul 0 V
  hpt neg vpt 1.62 mul V closepath stroke
  Pnt} def
/Star {2 copy Pls Crs} def
/BoxF {stroke [] 0 setdash exch hpt sub exch vpt add M
  0 vpt2 neg V hpt2 0 V 0 vpt2 V
  hpt2 neg 0 V closepath fill} def
/TriUF {stroke [] 0 setdash vpt 1.12 mul add M
  hpt neg vpt -1.62 mul V
  hpt 2 mul 0 V
  hpt neg vpt 1.62 mul V closepath fill} def
/TriD {stroke [] 0 setdash 2 copy vpt 1.12 mul sub M
  hpt neg vpt 1.62 mul V
  hpt 2 mul 0 V
  hpt neg vpt -1.62 mul V closepath stroke
  Pnt} def
/TriDF {stroke [] 0 setdash vpt 1.12 mul sub M
  hpt neg vpt 1.62 mul V
  hpt 2 mul 0 V
  hpt neg vpt -1.62 mul V closepath fill} def
/DiaF {stroke [] 0 setdash vpt add M
  hpt neg vpt neg V hpt vpt neg V
  hpt vpt V hpt neg vpt V closepath fill} def
/Pent {stroke [] 0 setdash 2 copy gsave
  translate 0 hpt M 4 {72 rotate 0 hpt L} repeat
  closepath stroke grestore Pnt} def
/PentF {stroke [] 0 setdash gsave
  translate 0 hpt M 4 {72 rotate 0 hpt L} repeat
  closepath fill grestore} def
/Circle {stroke [] 0 setdash 2 copy
  hpt 0 360 arc stroke Pnt} def
/CircleF {stroke [] 0 setdash hpt 0 360 arc fill} def
/C0 {BL [] 0 setdash 2 copy moveto vpt 90 450 arc} bind def
/C1 {BL [] 0 setdash 2 copy moveto
	2 copy vpt 0 90 arc closepath fill
	vpt 0 360 arc closepath} bind def
/C2 {BL [] 0 setdash 2 copy moveto
	2 copy vpt 90 180 arc closepath fill
	vpt 0 360 arc closepath} bind def
/C3 {BL [] 0 setdash 2 copy moveto
	2 copy vpt 0 180 arc closepath fill
	vpt 0 360 arc closepath} bind def
/C4 {BL [] 0 setdash 2 copy moveto
	2 copy vpt 180 270 arc closepath fill
	vpt 0 360 arc closepath} bind def
/C5 {BL [] 0 setdash 2 copy moveto
	2 copy vpt 0 90 arc
	2 copy moveto
	2 copy vpt 180 270 arc closepath fill
	vpt 0 360 arc} bind def
/C6 {BL [] 0 setdash 2 copy moveto
	2 copy vpt 90 270 arc closepath fill
	vpt 0 360 arc closepath} bind def
/C7 {BL [] 0 setdash 2 copy moveto
	2 copy vpt 0 270 arc closepath fill
	vpt 0 360 arc closepath} bind def
/C8 {BL [] 0 setdash 2 copy moveto
	2 copy vpt 270 360 arc closepath fill
	vpt 0 360 arc closepath} bind def
/C9 {BL [] 0 setdash 2 copy moveto
	2 copy vpt 270 450 arc closepath fill
	vpt 0 360 arc closepath} bind def
/C10 {BL [] 0 setdash 2 copy 2 copy moveto vpt 270 360 arc closepath fill
	2 copy moveto
	2 copy vpt 90 180 arc closepath fill
	vpt 0 360 arc closepath} bind def
/C11 {BL [] 0 setdash 2 copy moveto
	2 copy vpt 0 180 arc closepath fill
	2 copy moveto
	2 copy vpt 270 360 arc closepath fill
	vpt 0 360 arc closepath} bind def
/C12 {BL [] 0 setdash 2 copy moveto
	2 copy vpt 180 360 arc closepath fill
	vpt 0 360 arc closepath} bind def
/C13 {BL [] 0 setdash 2 copy moveto
	2 copy vpt 0 90 arc closepath fill
	2 copy moveto
	2 copy vpt 180 360 arc closepath fill
	vpt 0 360 arc closepath} bind def
/C14 {BL [] 0 setdash 2 copy moveto
	2 copy vpt 90 360 arc closepath fill
	vpt 0 360 arc} bind def
/C15 {BL [] 0 setdash 2 copy vpt 0 360 arc closepath fill
	vpt 0 360 arc closepath} bind def
/Rec {newpath 4 2 roll moveto 1 index 0 rlineto 0 exch rlineto
	neg 0 rlineto closepath} bind def
/Square {dup Rec} bind def
/Bsquare {vpt sub exch vpt sub exch vpt2 Square} bind def
/S0 {BL [] 0 setdash 2 copy moveto 0 vpt rlineto BL Bsquare} bind def
/S1 {BL [] 0 setdash 2 copy vpt Square fill Bsquare} bind def
/S2 {BL [] 0 setdash 2 copy exch vpt sub exch vpt Square fill Bsquare} bind def
/S3 {BL [] 0 setdash 2 copy exch vpt sub exch vpt2 vpt Rec fill Bsquare} bind def
/S4 {BL [] 0 setdash 2 copy exch vpt sub exch vpt sub vpt Square fill Bsquare} bind def
/S5 {BL [] 0 setdash 2 copy 2 copy vpt Square fill
	exch vpt sub exch vpt sub vpt Square fill Bsquare} bind def
/S6 {BL [] 0 setdash 2 copy exch vpt sub exch vpt sub vpt vpt2 Rec fill Bsquare} bind def
/S7 {BL [] 0 setdash 2 copy exch vpt sub exch vpt sub vpt vpt2 Rec fill
	2 copy vpt Square fill Bsquare} bind def
/S8 {BL [] 0 setdash 2 copy vpt sub vpt Square fill Bsquare} bind def
/S9 {BL [] 0 setdash 2 copy vpt sub vpt vpt2 Rec fill Bsquare} bind def
/S10 {BL [] 0 setdash 2 copy vpt sub vpt Square fill 2 copy exch vpt sub exch vpt Square fill
	Bsquare} bind def
/S11 {BL [] 0 setdash 2 copy vpt sub vpt Square fill 2 copy exch vpt sub exch vpt2 vpt Rec fill
	Bsquare} bind def
/S12 {BL [] 0 setdash 2 copy exch vpt sub exch vpt sub vpt2 vpt Rec fill Bsquare} bind def
/S13 {BL [] 0 setdash 2 copy exch vpt sub exch vpt sub vpt2 vpt Rec fill
	2 copy vpt Square fill Bsquare} bind def
/S14 {BL [] 0 setdash 2 copy exch vpt sub exch vpt sub vpt2 vpt Rec fill
	2 copy exch vpt sub exch vpt Square fill Bsquare} bind def
/S15 {BL [] 0 setdash 2 copy Bsquare fill Bsquare} bind def
/D0 {gsave translate 45 rotate 0 0 S0 stroke grestore} bind def
/D1 {gsave translate 45 rotate 0 0 S1 stroke grestore} bind def
/D2 {gsave translate 45 rotate 0 0 S2 stroke grestore} bind def
/D3 {gsave translate 45 rotate 0 0 S3 stroke grestore} bind def
/D4 {gsave translate 45 rotate 0 0 S4 stroke grestore} bind def
/D5 {gsave translate 45 rotate 0 0 S5 stroke grestore} bind def
/D6 {gsave translate 45 rotate 0 0 S6 stroke grestore} bind def
/D7 {gsave translate 45 rotate 0 0 S7 stroke grestore} bind def
/D8 {gsave translate 45 rotate 0 0 S8 stroke grestore} bind def
/D9 {gsave translate 45 rotate 0 0 S9 stroke grestore} bind def
/D10 {gsave translate 45 rotate 0 0 S10 stroke grestore} bind def
/D11 {gsave translate 45 rotate 0 0 S11 stroke grestore} bind def
/D12 {gsave translate 45 rotate 0 0 S12 stroke grestore} bind def
/D13 {gsave translate 45 rotate 0 0 S13 stroke grestore} bind def
/D14 {gsave translate 45 rotate 0 0 S14 stroke grestore} bind def
/D15 {gsave translate 45 rotate 0 0 S15 stroke grestore} bind def
/DiaE {stroke [] 0 setdash vpt add M
  hpt neg vpt neg V hpt vpt neg V
  hpt vpt V hpt neg vpt V closepath stroke} def
/BoxE {stroke [] 0 setdash exch hpt sub exch vpt add M
  0 vpt2 neg V hpt2 0 V 0 vpt2 V
  hpt2 neg 0 V closepath stroke} def
/TriUE {stroke [] 0 setdash vpt 1.12 mul add M
  hpt neg vpt -1.62 mul V
  hpt 2 mul 0 V
  hpt neg vpt 1.62 mul V closepath stroke} def
/TriDE {stroke [] 0 setdash vpt 1.12 mul sub M
  hpt neg vpt 1.62 mul V
  hpt 2 mul 0 V
  hpt neg vpt -1.62 mul V closepath stroke} def
/PentE {stroke [] 0 setdash gsave
  translate 0 hpt M 4 {72 rotate 0 hpt L} repeat
  closepath stroke grestore} def
/CircE {stroke [] 0 setdash 
  hpt 0 360 arc stroke} def
/Opaque {gsave closepath 1 setgray fill grestore 0 setgray closepath} def
/DiaW {stroke [] 0 setdash vpt add M
  hpt neg vpt neg V hpt vpt neg V
  hpt vpt V hpt neg vpt V Opaque stroke} def
/BoxW {stroke [] 0 setdash exch hpt sub exch vpt add M
  0 vpt2 neg V hpt2 0 V 0 vpt2 V
  hpt2 neg 0 V Opaque stroke} def
/TriUW {stroke [] 0 setdash vpt 1.12 mul add M
  hpt neg vpt -1.62 mul V
  hpt 2 mul 0 V
  hpt neg vpt 1.62 mul V Opaque stroke} def
/TriDW {stroke [] 0 setdash vpt 1.12 mul sub M
  hpt neg vpt 1.62 mul V
  hpt 2 mul 0 V
  hpt neg vpt -1.62 mul V Opaque stroke} def
/PentW {stroke [] 0 setdash gsave
  translate 0 hpt M 4 {72 rotate 0 hpt L} repeat
  Opaque stroke grestore} def
/CircW {stroke [] 0 setdash 
  hpt 0 360 arc Opaque stroke} def
/BoxFill {gsave Rec 1 setgray fill grestore} def
/Density {
  /Fillden exch def
  currentrgbcolor
  /ColB exch def /ColG exch def /ColR exch def
  /ColR ColR Fillden mul Fillden sub 1 add def
  /ColG ColG Fillden mul Fillden sub 1 add def
  /ColB ColB Fillden mul Fillden sub 1 add def
  ColR ColG ColB setrgbcolor} def
/BoxColFill {gsave Rec PolyFill} def
/PolyFill {gsave Density fill grestore grestore} def
/h {rlineto rlineto rlineto gsave closepath fill grestore} bind def
%
% PostScript Level 1 Pattern Fill routine for rectangles
% Usage: x y w h s a XX PatternFill
%	x,y = lower left corner of box to be filled
%	w,h = width and height of box
%	  a = angle in degrees between lines and x-axis
%	 XX = 0/1 for no/yes cross-hatch
%
/PatternFill {gsave /PFa [ 9 2 roll ] def
  PFa 0 get PFa 2 get 2 div add PFa 1 get PFa 3 get 2 div add translate
  PFa 2 get -2 div PFa 3 get -2 div PFa 2 get PFa 3 get Rec
  TransparentPatterns {} {gsave 1 setgray fill grestore} ifelse
  clip
  currentlinewidth 0.5 mul setlinewidth
  /PFs PFa 2 get dup mul PFa 3 get dup mul add sqrt def
  0 0 M PFa 5 get rotate PFs -2 div dup translate
  0 1 PFs PFa 4 get div 1 add floor cvi
	{PFa 4 get mul 0 M 0 PFs V} for
  0 PFa 6 get ne {
	0 1 PFs PFa 4 get div 1 add floor cvi
	{PFa 4 get mul 0 2 1 roll M PFs 0 V} for
 } if
  stroke grestore} def
%
/languagelevel where
 {pop languagelevel} {1} ifelse
 2 lt
	{/InterpretLevel1 true def}
	{/InterpretLevel1 Level1 def}
 ifelse
%
% PostScript level 2 pattern fill definitions
%
/Level2PatternFill {
/Tile8x8 {/PaintType 2 /PatternType 1 /TilingType 1 /BBox [0 0 8 8] /XStep 8 /YStep 8}
	bind def
/KeepColor {currentrgbcolor [/Pattern /DeviceRGB] setcolorspace} bind def
<< Tile8x8
 /PaintProc {0.5 setlinewidth pop 0 0 M 8 8 L 0 8 M 8 0 L stroke} 
>> matrix makepattern
/Pat1 exch def
<< Tile8x8
 /PaintProc {0.5 setlinewidth pop 0 0 M 8 8 L 0 8 M 8 0 L stroke
	0 4 M 4 8 L 8 4 L 4 0 L 0 4 L stroke}
>> matrix makepattern
/Pat2 exch def
<< Tile8x8
 /PaintProc {0.5 setlinewidth pop 0 0 M 0 8 L
	8 8 L 8 0 L 0 0 L fill}
>> matrix makepattern
/Pat3 exch def
<< Tile8x8
 /PaintProc {0.5 setlinewidth pop -4 8 M 8 -4 L
	0 12 M 12 0 L stroke}
>> matrix makepattern
/Pat4 exch def
<< Tile8x8
 /PaintProc {0.5 setlinewidth pop -4 0 M 8 12 L
	0 -4 M 12 8 L stroke}
>> matrix makepattern
/Pat5 exch def
<< Tile8x8
 /PaintProc {0.5 setlinewidth pop -2 8 M 4 -4 L
	0 12 M 8 -4 L 4 12 M 10 0 L stroke}
>> matrix makepattern
/Pat6 exch def
<< Tile8x8
 /PaintProc {0.5 setlinewidth pop -2 0 M 4 12 L
	0 -4 M 8 12 L 4 -4 M 10 8 L stroke}
>> matrix makepattern
/Pat7 exch def
<< Tile8x8
 /PaintProc {0.5 setlinewidth pop 8 -2 M -4 4 L
	12 0 M -4 8 L 12 4 M 0 10 L stroke}
>> matrix makepattern
/Pat8 exch def
<< Tile8x8
 /PaintProc {0.5 setlinewidth pop 0 -2 M 12 4 L
	-4 0 M 12 8 L -4 4 M 8 10 L stroke}
>> matrix makepattern
/Pat9 exch def
/Pattern1 {PatternBgnd KeepColor Pat1 setpattern} bind def
/Pattern2 {PatternBgnd KeepColor Pat2 setpattern} bind def
/Pattern3 {PatternBgnd KeepColor Pat3 setpattern} bind def
/Pattern4 {PatternBgnd KeepColor Landscape {Pat5} {Pat4} ifelse setpattern} bind def
/Pattern5 {PatternBgnd KeepColor Landscape {Pat4} {Pat5} ifelse setpattern} bind def
/Pattern6 {PatternBgnd KeepColor Landscape {Pat9} {Pat6} ifelse setpattern} bind def
/Pattern7 {PatternBgnd KeepColor Landscape {Pat8} {Pat7} ifelse setpattern} bind def
} def
%
%
%End of PostScript Level 2 code
%
/PatternBgnd {
  TransparentPatterns {} {gsave 1 setgray fill grestore} ifelse
} def
%
% Substitute for Level 2 pattern fill codes with
% grayscale if Level 2 support is not selected.
%
/Level1PatternFill {
/Pattern1 {0.250 Density} bind def
/Pattern2 {0.500 Density} bind def
/Pattern3 {0.750 Density} bind def
/Pattern4 {0.125 Density} bind def
/Pattern5 {0.375 Density} bind def
/Pattern6 {0.625 Density} bind def
/Pattern7 {0.875 Density} bind def
} def
%
% Now test for support of Level 2 code
%
Level1 {Level1PatternFill} {Level2PatternFill} ifelse
%
/Symbol-Oblique /Symbol findfont [1 0 .167 1 0 0] makefont
dup length dict begin {1 index /FID eq {pop pop} {def} ifelse} forall
currentdict end definefont pop
/MFshow {
   { dup 5 get 3 ge
     { 5 get 3 eq {gsave} {grestore} ifelse }
     {dup dup 0 get findfont exch 1 get scalefont setfont
     [ currentpoint ] exch dup 2 get 0 exch R dup 5 get 2 ne {dup dup 6
     get exch 4 get {Gshow} {stringwidth pop 0 R} ifelse }if dup 5 get 0 eq
     {dup 3 get {2 get neg 0 exch R pop} {pop aload pop M} ifelse} {dup 5
     get 1 eq {dup 2 get exch dup 3 get exch 6 get stringwidth pop -2 div
     dup 0 R} {dup 6 get stringwidth pop -2 div 0 R 6 get
     show 2 index {aload pop M neg 3 -1 roll neg R pop pop} {pop pop pop
     pop aload pop M} ifelse }ifelse }ifelse }
     ifelse }
   forall} def
/Gswidth {dup type /stringtype eq {stringwidth} {pop (n) stringwidth} ifelse} def
/MFwidth {0 exch { dup 5 get 3 ge { 5 get 3 eq { 0 } { pop } ifelse }
 {dup 3 get{dup dup 0 get findfont exch 1 get scalefont setfont
     6 get Gswidth pop add} {pop} ifelse} ifelse} forall} def
/MLshow { currentpoint stroke M
  0 exch R
  Blacktext {gsave 0 setgray MFshow grestore} {MFshow} ifelse } bind def
/MRshow { currentpoint stroke M
  exch dup MFwidth neg 3 -1 roll R
  Blacktext {gsave 0 setgray MFshow grestore} {MFshow} ifelse } bind def
/MCshow { currentpoint stroke M
  exch dup MFwidth -2 div 3 -1 roll R
  Blacktext {gsave 0 setgray MFshow grestore} {MFshow} ifelse } bind def
/XYsave    { [( ) 1 2 true false 3 ()] } bind def
/XYrestore { [( ) 1 2 true false 4 ()] } bind def
Level1 SuppressPDFMark or 
{} {
/SDict 10 dict def
systemdict /pdfmark known not {
  userdict /pdfmark systemdict /cleartomark get put
} if
SDict begin [
  /Title (AST30vsMC-Time-v2.eps)
  /Subject (gnuplot plot)
  /Creator (gnuplot 4.6 patchlevel 4)
  /Author (danny)
%  /Producer (gnuplot)
%  /Keywords ()
  /CreationDate (Mon Jun 16 17:01:56 2014)
  /DOCINFO pdfmark
end
} ifelse
end
%%EndProlog
%%Page: 1 1
gnudict begin
gsave
doclip
50 50 translate
0.050 0.050 scale
0 setgray
newpath
(Times-Roman) findfont 200 scalefont setfont
BackgroundColor 0 lt 3 1 roll 0 lt exch 0 lt or or not {BackgroundColor C 1.000 0 0 10080.00 7488.00 BoxColFill} if
gsave % colour palette begin
/maxcolors 0 def
/HSV2RGB {  exch dup 0.0 eq {pop exch pop dup dup} % achromatic gray
  { /HSVs exch def /HSVv exch def 6.0 mul dup floor dup 3 1 roll sub
     /HSVf exch def /HSVi exch cvi def /HSVp HSVv 1.0 HSVs sub mul def
	 /HSVq HSVv 1.0 HSVs HSVf mul sub mul def 
	 /HSVt HSVv 1.0 HSVs 1.0 HSVf sub mul sub mul def
	 /HSVi HSVi 6 mod def 0 HSVi eq {HSVv HSVt HSVp}
	 {1 HSVi eq {HSVq HSVv HSVp}{2 HSVi eq {HSVp HSVv HSVt}
	 {3 HSVi eq {HSVp HSVq HSVv}{4 HSVi eq {HSVt HSVp HSVv}
	 {HSVv HSVp HSVq} ifelse} ifelse} ifelse} ifelse} ifelse
  } ifelse} def
/Constrain {
  dup 0 lt {0 exch pop}{dup 1 gt {1 exch pop} if} ifelse} def
/YIQ2RGB {
  3 copy -1.702 mul exch -1.105 mul add add Constrain 4 1 roll
  3 copy -0.647 mul exch -0.272 mul add add Constrain 5 1 roll
  0.621 mul exch -0.956 mul add add Constrain 3 1 roll } def
/CMY2RGB {  1 exch sub exch 1 exch sub 3 2 roll 1 exch sub 3 1 roll exch } def
/XYZ2RGB {  3 copy -0.9017 mul exch -0.1187 mul add exch 0.0585 mul exch add
  Constrain 4 1 roll 3 copy -0.0279 mul exch 1.999 mul add exch
  -0.9844 mul add Constrain 5 1 roll -0.2891 mul exch -0.5338 mul add
  exch 1.91 mul exch add Constrain 3 1 roll} def
/SelectSpace {ColorSpace (HSV) eq {HSV2RGB}{ColorSpace (XYZ) eq {
  XYZ2RGB}{ColorSpace (CMY) eq {CMY2RGB}{ColorSpace (YIQ) eq {YIQ2RGB}
  if} ifelse} ifelse} ifelse} def
/InterpolatedColor true def
/grayindex {/gidx 0 def
  {GrayA gidx get grayv ge {exit} if /gidx gidx 1 add def} loop} def
/dgdx {grayv GrayA gidx get sub GrayA gidx 1 sub get
  GrayA gidx get sub div} def 
/redvalue {RedA gidx get RedA gidx 1 sub get
  RedA gidx get sub dgdxval mul add} def
/greenvalue {GreenA gidx get GreenA gidx 1 sub get
  GreenA gidx get sub dgdxval mul add} def
/bluevalue {BlueA gidx get BlueA gidx 1 sub get
  BlueA gidx get sub dgdxval mul add} def
/interpolate {
  grayindex grayv GrayA gidx get sub abs 1e-5 le
    {RedA gidx get GreenA gidx get BlueA gidx get}
    {/dgdxval dgdx def redvalue greenvalue bluevalue} ifelse} def
/GrayA [0 1 ] def
/RedA [0 1 ] def
/GreenA [1 0 ] def
/BlueA [0 0 ] def
/pm3dround {maxcolors 0 gt {dup 1 ge
	{pop 1} {maxcolors mul floor maxcolors 1 sub div} ifelse} if} def
/pm3dGamma 1.0 1.5 Gamma mul div def
/ColorSpace (RGB) def
Color InterpolatedColor or { % COLOUR vs. GRAY map
  InterpolatedColor { %% Interpolation vs. RGB-Formula
    /g {stroke pm3dround /grayv exch def interpolate
        SelectSpace setrgbcolor} bind def
  }{
  /g {stroke pm3dround dup cF7 Constrain exch dup cF5 Constrain exch cF15 Constrain 
       SelectSpace setrgbcolor} bind def
  } ifelse
}{
  /g {stroke pm3dround pm3dGamma exp setgray} bind def
} ifelse
1.000 UL
LTb
LCb setrgbcolor
1.000 UL
LTb
LCb setrgbcolor
1726 1588 M
3127 2850 L
stroke
LTb
LCb setrgbcolor
8354 2512 M
3127 2850 L
stroke
LTb
LCb setrgbcolor
1726 1588 M
0 3588 V
stroke
LTb
LCb setrgbcolor
3127 2850 M
0 3588 V
stroke
LTb
LCb setrgbcolor
8354 2512 M
0 3588 V
stroke
LTb
LCb setrgbcolor
1726 5176 M
3127 6438 L
stroke
LTb
LCb setrgbcolor
8354 6100 M
3127 6438 L
stroke
LTa
LCa setrgbcolor
1726 1588 M
3127 2850 L
stroke
LTb
LCb setrgbcolor
1726 1588 M
23 21 V
stroke
LTb
LCb setrgbcolor
1682 1522 M
[ [(Times-Roman) 200.0 0.0 true true 0 ( 0.1)]
] -66.7 MCshow
1.000 UL
LTb
LCb setrgbcolor
1.000 UL
LTb
LCb setrgbcolor
3127 2850 M
-23 -21 V
stroke
LTa
LCa setrgbcolor
2379 1545 M
3780 2807 L
stroke
LTb
LCb setrgbcolor
2379 1545 M
23 21 V
stroke
LTb
LCb setrgbcolor
2335 1479 M
[ [(Times-Roman) 200.0 0.0 true true 0 ( 0.2)]
] -66.7 MCshow
1.000 UL
LTb
LCb setrgbcolor
1.000 UL
LTb
LCb setrgbcolor
3780 2807 M
-23 -20 V
stroke
LTa
LCa setrgbcolor
3033 1503 M
4434 2765 L
stroke
LTb
LCb setrgbcolor
3033 1503 M
23 21 V
stroke
LTb
LCb setrgbcolor
2989 1437 M
[ [(Times-Roman) 200.0 0.0 true true 0 ( 0.3)]
] -66.7 MCshow
1.000 UL
LTb
LCb setrgbcolor
1.000 UL
LTb
LCb setrgbcolor
4434 2765 M
-23 -21 V
stroke
LTa
LCa setrgbcolor
3686 1461 M
5086 2723 L
stroke
LTb
LCb setrgbcolor
3686 1461 M
24 21 V
stroke
LTb
LCb setrgbcolor
3642 1395 M
[ [(Times-Roman) 200.0 0.0 true true 0 ( 0.4)]
] -66.7 MCshow
1.000 UL
LTb
LCb setrgbcolor
1.000 UL
LTb
LCb setrgbcolor
5086 2723 M
-23 -21 V
stroke
LTa
LCa setrgbcolor
4340 1419 M
5740 2681 L
stroke
LTb
LCb setrgbcolor
4340 1419 M
23 21 V
stroke
LTb
LCb setrgbcolor
4296 1353 M
[ [(Times-Roman) 200.0 0.0 true true 0 ( 0.5)]
] -66.7 MCshow
1.000 UL
LTb
LCb setrgbcolor
1.000 UL
LTb
LCb setrgbcolor
5740 2681 M
-23 -21 V
stroke
LTa
LCa setrgbcolor
4994 1376 M
6394 2638 L
stroke
LTb
LCb setrgbcolor
4994 1376 M
23 21 V
stroke
LTb
LCb setrgbcolor
4950 1310 M
[ [(Times-Roman) 200.0 0.0 true true 0 ( 0.6)]
] -66.7 MCshow
1.000 UL
LTb
LCb setrgbcolor
1.000 UL
LTb
LCb setrgbcolor
6394 2638 M
-24 -20 V
stroke
LTa
LCa setrgbcolor
5646 1334 M
7047 2596 L
stroke
LTb
LCb setrgbcolor
5646 1334 M
23 21 V
stroke
LTb
LCb setrgbcolor
5602 1268 M
[ [(Times-Roman) 200.0 0.0 true true 0 ( 0.7)]
] -66.7 MCshow
1.000 UL
LTb
LCb setrgbcolor
1.000 UL
LTb
LCb setrgbcolor
7047 2596 M
-23 -21 V
stroke
LTa
LCa setrgbcolor
6300 1292 M
7701 2554 L
stroke
LTb
LCb setrgbcolor
6300 1292 M
23 21 V
stroke
LTb
LCb setrgbcolor
6256 1226 M
[ [(Times-Roman) 200.0 0.0 true true 0 ( 0.8)]
] -66.7 MCshow
1.000 UL
LTb
LCb setrgbcolor
1.000 UL
LTb
LCb setrgbcolor
7701 2554 M
-23 -21 V
stroke
LTa
LCa setrgbcolor
6953 1250 M
8354 2512 L
stroke
LTb
LCb setrgbcolor
6953 1250 M
23 20 V
stroke
LTb
LCb setrgbcolor
6909 1184 M
[ [(Times-Roman) 200.0 0.0 true true 0 ( 0.9)]
] -66.7 MCshow
1.000 UL
LTb
LCb setrgbcolor
1.000 UL
LTb
LCb setrgbcolor
8354 2512 M
-23 -21 V
stroke
LTa
LCa setrgbcolor
6953 1250 M
1726 1588 L
stroke
LTb
LCb setrgbcolor
6953 1250 M
-61 4 V
stroke
7069 1237 M
[ [(Times-Roman) 200.0 0.0 true true 0 ( 0)]
] -66.7 MLshow
1.000 UL
LTb
LCb setrgbcolor
1.000 UL
LTb
LCb setrgbcolor
1726 1588 M
61 -4 V
stroke
LTa
LCa setrgbcolor
7093 1376 M
1866 1714 L
stroke
LTb
LCb setrgbcolor
7093 1376 M
-60 4 V
stroke
7209 1363 M
[ [(Times-Roman) 200.0 0.0 true true 0 ( 0.1)]
] -66.7 MLshow
1.000 UL
LTb
LCb setrgbcolor
1.000 UL
LTb
LCb setrgbcolor
1866 1714 M
61 -4 V
stroke
LTa
LCa setrgbcolor
7233 1502 M
2006 1840 L
stroke
LTb
LCb setrgbcolor
7233 1502 M
-60 4 V
stroke
7349 1490 M
[ [(Times-Roman) 200.0 0.0 true true 0 ( 0.2)]
] -66.7 MLshow
1.000 UL
LTb
LCb setrgbcolor
1.000 UL
LTb
LCb setrgbcolor
2006 1840 M
61 -4 V
stroke
LTa
LCa setrgbcolor
7374 1628 M
2146 1966 L
stroke
LTb
LCb setrgbcolor
7374 1628 M
-61 4 V
stroke
7489 1616 M
[ [(Times-Roman) 200.0 0.0 true true 0 ( 0.3)]
] -66.7 MLshow
1.000 UL
LTb
LCb setrgbcolor
1.000 UL
LTb
LCb setrgbcolor
2146 1966 M
61 -4 V
stroke
LTa
LCa setrgbcolor
7514 1754 M
2286 2093 L
stroke
LTb
LCb setrgbcolor
7514 1754 M
-61 4 V
stroke
7630 1742 M
[ [(Times-Roman) 200.0 0.0 true true 0 ( 0.4)]
] -66.7 MLshow
1.000 UL
LTb
LCb setrgbcolor
1.000 UL
LTb
LCb setrgbcolor
2286 2093 M
61 -4 V
stroke
LTa
LCa setrgbcolor
7654 1881 M
2426 2219 L
stroke
LTb
LCb setrgbcolor
7654 1881 M
-61 4 V
stroke
7770 1868 M
[ [(Times-Roman) 200.0 0.0 true true 0 ( 0.5)]
] -66.7 MLshow
1.000 UL
LTb
LCb setrgbcolor
1.000 UL
LTb
LCb setrgbcolor
2426 2219 M
61 -4 V
stroke
LTa
LCa setrgbcolor
7794 2007 M
2566 2345 L
stroke
LTb
LCb setrgbcolor
7794 2007 M
-61 4 V
stroke
7910 1994 M
[ [(Times-Roman) 200.0 0.0 true true 0 ( 0.6)]
] -66.7 MLshow
1.000 UL
LTb
LCb setrgbcolor
1.000 UL
LTb
LCb setrgbcolor
2566 2345 M
61 -4 V
stroke
LTa
LCa setrgbcolor
7934 2133 M
2706 2471 L
stroke
LTb
LCb setrgbcolor
7934 2133 M
-61 4 V
stroke
8050 2121 M
[ [(Times-Roman) 200.0 0.0 true true 0 ( 0.7)]
] -66.7 MLshow
1.000 UL
LTb
LCb setrgbcolor
1.000 UL
LTb
LCb setrgbcolor
2706 2471 M
61 -4 V
stroke
LTa
LCa setrgbcolor
8074 2259 M
2847 2597 L
stroke
LTb
LCb setrgbcolor
8074 2259 M
-61 4 V
stroke
8190 2247 M
[ [(Times-Roman) 200.0 0.0 true true 0 ( 0.8)]
] -66.7 MLshow
1.000 UL
LTb
LCb setrgbcolor
1.000 UL
LTb
LCb setrgbcolor
2847 2597 M
60 -4 V
stroke
LTa
LCa setrgbcolor
8214 2385 M
2987 2724 L
stroke
LTb
LCb setrgbcolor
8214 2385 M
-61 4 V
stroke
8330 2373 M
[ [(Times-Roman) 200.0 0.0 true true 0 ( 0.9)]
] -66.7 MLshow
1.000 UL
LTb
LCb setrgbcolor
1.000 UL
LTb
LCb setrgbcolor
2987 2724 M
60 -4 V
stroke
LTa
LCa setrgbcolor
8354 2512 M
3127 2850 L
stroke
LTb
LCb setrgbcolor
8354 2512 M
-61 4 V
stroke
8470 2499 M
[ [(Times-Roman) 200.0 0.0 true true 0 ( 1)]
] -66.7 MLshow
1.000 UL
LTb
LCb setrgbcolor
1.000 UL
LTb
LCb setrgbcolor
3127 2850 M
61 -4 V
stroke
LTa
LCa setrgbcolor
1726 1588 M
3127 2850 L
stroke
LTa
LCa setrgbcolor
3127 2850 M
8354 2512 L
stroke
LTb
LCb setrgbcolor
1726 1588 M
63 0 V
stroke
1600 1588 M
[ [(Times-Roman) 200.0 0.0 true true 0 ( 0)]
] -66.7 MRshow
1.000 UL
LTb
LCb setrgbcolor
1.000 UL
LTa
LCa setrgbcolor
1726 2101 M
3127 3363 L
stroke
LTa
LCa setrgbcolor
3127 3363 M
8354 3024 L
stroke
LTb
LCb setrgbcolor
1726 2101 M
63 0 V
stroke
1600 2101 M
[ [(Times-Roman) 200.0 0.0 true true 0 ( 5)]
] -66.7 MRshow
1.000 UL
LTb
LCb setrgbcolor
1.000 UL
LTa
LCa setrgbcolor
1726 2613 M
3127 3874 L
stroke
LTa
LCa setrgbcolor
3127 3874 M
8354 3537 L
stroke
LTb
LCb setrgbcolor
1726 2613 M
63 0 V
stroke
1600 2613 M
[ [(Times-Roman) 200.0 0.0 true true 0 ( 10)]
] -66.7 MRshow
1.000 UL
LTb
LCb setrgbcolor
1.000 UL
LTa
LCa setrgbcolor
1726 3126 M
3127 4387 L
stroke
LTa
LCa setrgbcolor
3127 4387 M
8354 4049 L
stroke
LTb
LCb setrgbcolor
1726 3126 M
63 0 V
stroke
1600 3126 M
[ [(Times-Roman) 200.0 0.0 true true 0 ( 15)]
] -66.7 MRshow
1.000 UL
LTb
LCb setrgbcolor
1.000 UL
LTa
LCa setrgbcolor
1726 3639 M
3127 4900 L
stroke
LTa
LCa setrgbcolor
3127 4900 M
8354 4562 L
stroke
LTb
LCb setrgbcolor
1726 3639 M
63 0 V
stroke
1600 3639 M
[ [(Times-Roman) 200.0 0.0 true true 0 ( 20)]
] -66.7 MRshow
1.000 UL
LTb
LCb setrgbcolor
1.000 UL
LTa
LCa setrgbcolor
1726 4151 M
3127 5413 L
stroke
LTa
LCa setrgbcolor
3127 5413 M
8354 5075 L
stroke
LTb
LCb setrgbcolor
1726 4151 M
63 0 V
stroke
1600 4151 M
[ [(Times-Roman) 200.0 0.0 true true 0 ( 25)]
] -66.7 MRshow
1.000 UL
LTb
LCb setrgbcolor
1.000 UL
LTa
LCa setrgbcolor
1726 4664 M
3127 5926 L
stroke
LTa
LCa setrgbcolor
3127 5926 M
8354 5587 L
stroke
LTb
LCb setrgbcolor
1726 4664 M
63 0 V
stroke
1600 4664 M
[ [(Times-Roman) 200.0 0.0 true true 0 ( 30)]
] -66.7 MRshow
1.000 UL
LTb
LCb setrgbcolor
1.000 UL
LTa
LCa setrgbcolor
1726 5176 M
3127 6438 L
stroke
LTa
LCa setrgbcolor
3127 6438 M
8354 6100 L
stroke
LTb
LCb setrgbcolor
1726 5176 M
63 0 V
stroke
1600 5176 M
[ [(Times-Roman) 200.0 0.0 true true 0 ( 35)]
] -66.7 MRshow
1.000 UL
LTb
LCb setrgbcolor
LCb setrgbcolor
886 3383 M
currentpoint gsave translate 90 rotate 0 0 moveto
[ [(Times-Roman) 200.0 0.0 true true 0 (Execution time \(ms\))]
] -66.7 MCshow
grestore
LTb
1.000 UP
6720 6719 M
[ [(Times-Roman) 200.0 0.0 true true 0 (MD)]
] -66.7 MLshow
6720 6514 M
[ [(Times-Roman) 200.0 0.0 true true 0 (AS)]
] -66.7 MLshow
0.00 1.00 0.00 C 7178 6740 M
[ [(Times-Roman) 200.0 0.0 true true 0 (-----)]
] -66.7 MLshow
1.00 0.00 0.00 C 7178 6535 M
[ [(Times-Roman) 200.0 0.0 true true 0 (-----)]
] -66.7 MLshow
% Begin plot #1
1.000 UL
LT0
LC0 setrgbcolor
0.250 UL
LT1
0.27 0.27 0.27 C % End plot #1
% Begin plot #2
1.000 UL
LT1
LC1 setrgbcolor
0.250 UL
LT1
0.27 0.27 0.27 C % End plot #2
1 g gsave 3640 2793 N -653 43 V 140 18 V 653 -39 V 0.90 PolyFill
0.250 UL
LT1
0.27 0.27 0.27 C 3640 2793 M
140 22 V
-653 39 V
-140 -18 V
653 -43 V
1 g gsave 4294 2752 N -654 41 V 140 22 V 654 -36 V 0.90 PolyFill
stroke
LT1
0.27 0.27 0.27 C 4294 2752 M
140 27 V
-654 36 V
-140 -22 V
654 -41 V
1 g gsave 4947 2710 N -653 42 V 140 27 V 652 -37 V 0.90 PolyFill
stroke
LT1
0.27 0.27 0.27 C 4947 2710 M
139 32 V
-652 37 V
-140 -27 V
653 -42 V
1 g gsave 5600 2664 N -653 46 V 139 32 V 654 -35 V 0.90 PolyFill
stroke
LT1
0.27 0.27 0.27 C 5600 2664 M
140 43 V
-654 35 V
-139 -32 V
653 -46 V
1 g gsave 3500 2704 N -653 42 V 140 90 V 653 -43 V 0.90 PolyFill
stroke
LT1
0.27 0.27 0.27 C 3500 2704 M
140 89 V
-653 43 V
-140 -90 V
653 -42 V
1 g gsave 6253 2619 N -653 45 V 140 43 V 654 -32 V 0.90 PolyFill
stroke
LT1
0.27 0.27 0.27 C 6253 2619 M
141 56 V
-654 32 V
-140 -43 V
653 -45 V
1 g gsave 4154 2667 N -654 37 V 140 89 V 654 -41 V 0.90 PolyFill
stroke
LT1
0.27 0.27 0.27 C 4154 2667 M
140 85 V
-654 41 V
-140 -89 V
654 -37 V
1 g gsave 6907 2580 N -654 39 V 141 56 V 653 -29 V 0.90 PolyFill
stroke
LT1
0.27 0.27 0.27 C 6907 2580 M
140 66 V
-653 29 V
-141 -56 V
654 -39 V
1 g gsave 4807 2626 N -653 41 V 140 85 V 653 -42 V 0.90 PolyFill
stroke
LT1
0.27 0.27 0.27 C 4807 2626 M
140 84 V
-653 42 V
-140 -85 V
653 -41 V
1 g gsave 5460 2582 N -653 44 V 140 84 V 653 -46 V 0.90 PolyFill
stroke
LT1
0.27 0.27 0.27 C 5460 2582 M
140 82 V
-653 46 V
-140 -84 V
653 -44 V
1 g gsave 7561 2578 N -654 2 V 140 66 V 654 -14 V 0.90 PolyFill
stroke
LT1
0.27 0.27 0.27 C 7561 2578 M
140 54 V
-654 14 V
-140 -66 V
654 -2 V
1 g gsave 3360 2605 N -654 41 V 141 100 V 653 -42 V 0.90 PolyFill
stroke
LT1
0.27 0.27 0.27 C 3360 2605 M
140 99 V
-653 42 V
2706 2646 L
654 -41 V
1 g gsave 6113 2538 N -653 44 V 140 82 V 653 -45 V 0.90 PolyFill
stroke
LT1
0.27 0.27 0.27 C 6113 2538 M
140 81 V
-653 45 V
-140 -82 V
653 -44 V
1 g gsave 4014 2570 N -654 35 V 140 99 V 654 -37 V 0.90 PolyFill
stroke
LT1
0.27 0.27 0.27 C 4014 2570 M
140 97 V
-654 37 V
-140 -99 V
654 -35 V
1 g gsave 6767 2499 N -654 39 V 140 81 V 654 -39 V 0.90 PolyFill
stroke
LT1
0.27 0.27 0.27 C 6767 2499 M
140 81 V
-654 39 V
-140 -81 V
654 -39 V
1 g gsave 4667 2531 N -653 39 V 140 97 V 653 -41 V 0.90 PolyFill
stroke
LT1
0.27 0.27 0.27 C 4667 2531 M
140 95 V
-653 41 V
-140 -97 V
653 -39 V
0 g gsave 3640 5633 N -653 -17 V 140 483 V 653 -330 V 0.90 PolyFill
stroke
LT1
0.27 0.27 0.27 C 3640 5633 M
140 136 V
-653 330 V
2987 5616 L
653 17 V
0 g gsave 4294 5337 N -654 296 V 140 136 V 654 -37 V 0.90 PolyFill
stroke
LT1
0.27 0.27 0.27 C 4294 5337 M
140 395 V
-654 37 V
3640 5633 L
654 -296 V
1 g gsave 5320 2487 N -653 44 V 140 95 V 653 -44 V 0.90 PolyFill
stroke
LT1
0.27 0.27 0.27 C 5320 2487 M
140 95 V
-653 44 V
-140 -95 V
653 -44 V
1 g gsave 3220 2496 N -654 40 V 140 110 V 654 -41 V 0.90 PolyFill
stroke
LT1
0.27 0.27 0.27 C 3220 2496 M
140 109 V
-654 41 V
2566 2536 L
654 -40 V
1 g gsave 7421 2549 N -654 -50 V 140 81 V 654 -2 V 0.90 PolyFill
stroke
LT1
0.27 0.27 0.27 C 7421 2549 M
140 29 V
-654 2 V
-140 -81 V
654 50 V
0 g gsave 5600 4661 N -653 492 V 139 248 V 654 -412 V 0.90 PolyFill
stroke
LT1
0.27 0.27 0.27 C 5600 4661 M
140 328 V
-654 412 V
4947 5153 L
653 -492 V
0 g gsave 4947 5153 N -653 184 V 140 395 V 652 -331 V 0.90 PolyFill
stroke
LT1
0.27 0.27 0.27 C 4947 5153 M
139 248 V
-652 331 V
4294 5337 L
653 -184 V
1 g gsave 8214 3437 N -653 -859 V 140 54 V 653 104 V 0.90 PolyFill
stroke
LT1
0.27 0.27 0.27 C 8214 3437 M
140 -701 V
7701 2632 L
-140 -54 V
653 859 V
1 g gsave 5973 2447 N -653 40 V 140 95 V 653 -44 V 0.90 PolyFill
stroke
LT1
0.27 0.27 0.27 C 5973 2447 M
140 91 V
-653 44 V
-140 -95 V
653 -40 V
1 g gsave 3873 2463 N -653 33 V 140 109 V 654 -35 V 0.90 PolyFill
stroke
LT1
0.27 0.27 0.27 C 3873 2463 M
141 107 V
-654 35 V
3220 2496 L
653 -33 V
1 g gsave 6627 2420 N -654 27 V 140 91 V 654 -39 V 0.90 PolyFill
stroke
LT1
0.27 0.27 0.27 C 6627 2420 M
140 79 V
-654 39 V
-140 -91 V
654 -27 V
1 g gsave 4527 2425 N -654 38 V 141 107 V 653 -39 V 0.90 PolyFill
stroke
LT1
0.27 0.27 0.27 C 4527 2425 M
140 106 V
-653 39 V
3873 2463 L
654 -38 V
0 g gsave 7561 4251 N -654 306 V 140 56 V 654 -251 V 0.90 PolyFill
stroke
LT1
0.27 0.27 0.27 C 7561 4251 M
140 111 V
-654 251 V
-140 -56 V
654 -306 V
0 g gsave 6907 4557 N -654 439 V 141 -106 V 653 -277 V 0.90 PolyFill
stroke
LT1
0.27 0.27 0.27 C 6907 4557 M
140 56 V
-653 277 V
-141 106 V
654 -439 V
0 g gsave 6253 4996 N -653 -335 V 140 328 V 654 -99 V 0.90 PolyFill
stroke
LT1
0.27 0.27 0.27 C 6253 4996 M
141 -106 V
-654 99 V
5600 4661 L
653 335 V
0 g gsave 8214 4103 N -653 148 V 140 111 V 653 -285 V 0.90 PolyFill
stroke
LT1
0.27 0.27 0.27 C 8214 4103 M
140 -26 V
-653 285 V
7561 4251 L
653 -148 V
0 g gsave 3500 5560 N -653 171 V 140 -115 V 653 17 V 0.90 PolyFill
stroke
LT1
0.27 0.27 0.27 C 3500 5560 M
140 73 V
-653 -17 V
-140 115 V
653 -171 V
1 g gsave 3080 2380 N -654 42 V 140 114 V 654 -40 V 0.90 PolyFill
stroke
LT1
0.27 0.27 0.27 C 3080 2380 M
140 116 V
-654 40 V
2426 2422 L
654 -42 V
1 g gsave 5180 2385 N -653 40 V 140 106 V 653 -44 V 0.90 PolyFill
stroke
LT1
0.27 0.27 0.27 C 5180 2385 M
140 102 V
-653 44 V
4527 2425 L
653 -40 V
0 g gsave 4154 5301 N -654 259 V 140 73 V 654 -296 V 0.90 PolyFill
stroke
LT1
0.27 0.27 0.27 C 4154 5301 M
140 36 V
-654 296 V
-140 -73 V
654 -259 V
1 g gsave 7280 2581 N -653 -161 V 140 79 V 654 50 V 0.90 PolyFill
stroke
LT1
0.27 0.27 0.27 C 7280 2581 M
141 -32 V
-654 -50 V
-140 -79 V
653 161 V
1 g gsave 3733 2351 N -653 29 V 140 116 V 653 -33 V 0.90 PolyFill
stroke
LT1
0.27 0.27 0.27 C 3733 2351 M
140 112 V
-653 33 V
3080 2380 L
653 -29 V
1 g gsave 5833 2352 N -653 33 V 140 102 V 653 -40 V 0.90 PolyFill
stroke
LT1
0.27 0.27 0.27 C 5833 2352 M
140 95 V
-653 40 V
5180 2385 L
653 -33 V
0 g gsave 5460 4728 N -653 506 V 140 -81 V 653 -492 V 0.90 PolyFill
stroke
LT1
0.27 0.27 0.27 C 5460 4728 M
140 -67 V
-653 492 V
-140 81 V
653 -506 V
0 g gsave 4807 5234 N -653 67 V 140 36 V 653 -184 V 0.90 PolyFill
stroke
LT1
0.27 0.27 0.27 C 4807 5234 M
140 -81 V
-653 184 V
-140 -36 V
653 -67 V
0 g gsave 6113 4654 N -653 74 V 140 -67 V 653 335 V 0.90 PolyFill
stroke
LT1
0.27 0.27 0.27 C 6113 4654 M
140 342 V
5600 4661 L
-140 67 V
653 -74 V
1 g gsave 4387 2312 N -654 39 V 140 112 V 654 -38 V 0.90 PolyFill
stroke
LT1
0.27 0.27 0.27 C 4387 2312 M
140 113 V
-654 38 V
3733 2351 L
654 -39 V
1 g gsave 6487 2344 N -654 8 V 140 95 V 654 -27 V 0.90 PolyFill
stroke
LT1
0.27 0.27 0.27 C 6487 2344 M
140 76 V
-654 27 V
-140 -95 V
654 -8 V
0 g gsave 6767 4518 N -654 136 V 140 342 V 654 -439 V 0.90 PolyFill
stroke
LT1
0.27 0.27 0.27 C 6767 4518 M
140 39 V
-654 439 V
6113 4654 L
654 -136 V
0 g gsave 7421 4347 N -654 171 V 140 39 V 654 -306 V 0.90 PolyFill
stroke
LT1
0.27 0.27 0.27 C 7421 4347 M
140 -96 V
-654 306 V
-140 -39 V
654 -171 V
1 g gsave 2940 2260 N -654 40 V 140 122 V 654 -42 V 0.90 PolyFill
stroke
LT1
0.27 0.27 0.27 C 2940 2260 M
140 120 V
-654 42 V
2286 2300 L
654 -40 V
1 g gsave 5040 2272 N -653 40 V 140 113 V 653 -40 V 0.90 PolyFill
stroke
LT1
0.27 0.27 0.27 C 5040 2272 M
140 113 V
-653 40 V
4387 2312 L
653 -40 V
0 g gsave 8074 4073 N -653 274 V 140 -96 V 653 -148 V 0.90 PolyFill
stroke
LT1
0.27 0.27 0.27 C 8074 4073 M
140 30 V
-653 148 V
-140 96 V
653 -274 V
0 g gsave 3360 5729 N -654 80 V 141 -78 V 653 -171 V 0.90 PolyFill
stroke
LT1
0.27 0.27 0.27 C 3360 5729 M
140 -169 V
-653 171 V
-141 78 V
654 -80 V
0 g gsave 4014 5377 N -654 352 V 140 -169 V 654 -259 V 0.90 PolyFill
stroke
LT1
0.27 0.27 0.27 C 4014 5377 M
140 -76 V
-654 259 V
-140 169 V
654 -352 V
1 g gsave 3593 2231 N -653 29 V 140 120 V 653 -29 V 0.90 PolyFill
stroke
LT1
0.27 0.27 0.27 C 3593 2231 M
140 120 V
-653 29 V
2940 2260 L
653 -29 V
1 g gsave 5693 2249 N -653 23 V 140 113 V 653 -33 V 0.90 PolyFill
stroke
LT1
0.27 0.27 0.27 C 5693 2249 M
140 103 V
-653 33 V
5040 2272 L
653 -23 V
1 g gsave 7140 2631 N -653 -287 V 140 76 V 653 161 V 0.90 PolyFill
stroke
LT1
0.27 0.27 0.27 C 7140 2631 M
140 -50 V
6627 2420 L
-140 -76 V
653 287 V
0 g gsave 5320 4840 N -653 525 V 140 -131 V 653 -506 V 0.90 PolyFill
stroke
LT1
0.27 0.27 0.27 C 5320 4840 M
140 -112 V
-653 506 V
-140 131 V
653 -525 V
0 g gsave 4667 5365 N -653 12 V 140 -76 V 653 -67 V 0.90 PolyFill
stroke
LT1
0.27 0.27 0.27 C 4667 5365 M
140 -131 V
-653 67 V
-140 76 V
653 -12 V
1 g gsave 8074 4665 N -653 -2116 V 140 29 V 653 859 V 0.90 PolyFill
stroke
LT1
0.27 0.27 0.27 C 8074 4665 M
8214 3437 L
7561 2578 L
-140 -29 V
653 2116 V
1 g gsave 4247 2190 N -654 41 V 140 120 V 654 -39 V 0.90 PolyFill
stroke
LT1
0.27 0.27 0.27 C 4247 2190 M
140 122 V
-654 39 V
3593 2231 L
654 -41 V
0 g gsave 5973 4761 N -653 79 V 140 -112 V 653 -74 V 0.90 PolyFill
stroke
LT1
0.27 0.27 0.27 C 5973 4761 M
140 -107 V
-653 74 V
-140 112 V
653 -79 V
1 g gsave 6347 2249 N -654 0 V 140 103 V 654 -8 V 0.90 PolyFill
stroke
LT1
0.27 0.27 0.27 C 6347 2249 M
140 95 V
-654 8 V
5693 2249 L
654 0 V
0 g gsave 6627 4482 N -654 279 V 140 -107 V 654 -136 V 0.90 PolyFill
stroke
LT1
0.27 0.27 0.27 C 6627 4482 M
140 36 V
-654 136 V
-140 107 V
654 -279 V
0 g gsave 3220 5213 N -654 289 V 140 307 V 654 -80 V 0.90 PolyFill
stroke
LT1
0.27 0.27 0.27 C 3220 5213 M
140 516 V
-654 80 V
2566 5502 L
654 -289 V
0 g gsave 7280 4171 N -653 311 V 140 36 V 654 -171 V 0.90 PolyFill
stroke
LT1
0.27 0.27 0.27 C 7280 4171 M
141 176 V
-654 171 V
-140 -36 V
653 -311 V
1 g gsave 2800 2134 N -654 40 V 140 126 V 654 -40 V 0.90 PolyFill
stroke
LT1
0.27 0.27 0.27 C 2800 2134 M
140 126 V
-654 40 V
2146 2174 L
654 -40 V
0 g gsave 7934 3935 N -654 236 V 141 176 V 653 -274 V 0.90 PolyFill
stroke
LT1
0.27 0.27 0.27 C 7934 3935 M
140 138 V
-653 274 V
7280 4171 L
654 -236 V
1 g gsave 4900 2153 N -653 37 V 140 122 V 653 -40 V 0.90 PolyFill
stroke
LT1
0.27 0.27 0.27 C 4900 2153 M
140 119 V
-653 40 V
4247 2190 L
653 -37 V
0 g gsave 3873 5104 N -653 109 V 140 516 V 654 -352 V 0.90 PolyFill
stroke
LT1
0.27 0.27 0.27 C 3873 5104 M
141 273 V
-654 352 V
3220 5213 L
653 -109 V
0 g gsave 4527 4849 N -654 255 V 141 273 V 653 -12 V 0.90 PolyFill
stroke
LT1
0.27 0.27 0.27 C 4527 4849 M
140 516 V
-653 12 V
3873 5104 L
654 -255 V
0 g gsave 5180 4490 N -653 359 V 140 516 V 653 -525 V 0.90 PolyFill
stroke
LT1
0.27 0.27 0.27 C 5180 4490 M
140 350 V
-653 525 V
4527 4849 L
653 -359 V
1 g gsave 3453 2103 N -653 31 V 140 126 V 653 -29 V 0.90 PolyFill
stroke
LT1
0.27 0.27 0.27 C 3453 2103 M
140 128 V
-653 29 V
2800 2134 L
653 -31 V
1 g gsave 5553 2152 N -653 1 V 140 119 V 653 -23 V 0.90 PolyFill
stroke
LT1
0.27 0.27 0.27 C 5553 2152 M
140 97 V
-653 23 V
4900 2153 L
653 -1 V
0 g gsave 5833 4473 N -653 17 V 140 350 V 653 -79 V 0.90 PolyFill
stroke
LT1
0.27 0.27 0.27 C 5833 4473 M
140 288 V
-653 79 V
5180 4490 L
653 -17 V
1 g gsave 7000 2698 N -653 -449 V 140 95 V 653 287 V 0.90 PolyFill
stroke
LT1
0.27 0.27 0.27 C 7000 2698 M
140 -67 V
6487 2344 L
-140 -95 V
653 449 V
1 g gsave 4107 2066 N -654 37 V 140 128 V 654 -41 V 0.90 PolyFill
stroke
LT1
0.27 0.27 0.27 C 4107 2066 M
140 124 V
-654 41 V
3453 2103 L
654 -37 V
0 g gsave 6487 4252 N -654 221 V 140 288 V 654 -279 V 0.90 PolyFill
stroke
LT1
0.27 0.27 0.27 C 6487 4252 M
140 230 V
-654 279 V
5833 4473 L
654 -221 V
0 g gsave 7140 3963 N -653 289 V 140 230 V 653 -311 V 0.90 PolyFill
stroke
LT1
0.27 0.27 0.27 C 7140 3963 M
140 208 V
-653 311 V
6487 4252 L
653 -289 V
1 g gsave 6207 2201 N -654 -49 V 140 97 V 654 0 V 0.90 PolyFill
stroke
LT1
0.27 0.27 0.27 C 6207 2201 M
140 48 V
-654 0 V
-140 -97 V
654 49 V
0 g gsave 3080 5179 N -654 200 V 140 123 V 654 -289 V 0.90 PolyFill
stroke
LT1
0.27 0.27 0.27 C 3080 5179 M
140 34 V
-654 289 V
2426 5379 L
654 -200 V
1 g gsave 2659 2007 N -653 39 V 140 128 V 654 -40 V 0.90 PolyFill
stroke
LT1
0.27 0.27 0.27 C 2659 2007 M
141 127 V
-654 40 V
2006 2046 L
653 -39 V
1 g gsave 4760 2029 N -653 37 V 140 124 V 653 -37 V 0.90 PolyFill
stroke
LT1
0.27 0.27 0.27 C 4760 2029 M
140 124 V
-653 37 V
4107 2066 L
653 -37 V
1 g gsave 7934 4914 N -654 -2333 V 141 -32 V 653 2116 V 0.90 PolyFill
stroke
LT1
0.27 0.27 0.27 C 7934 4914 M
140 -249 V
7421 2549 L
-141 32 V
654 2333 V
0 g gsave 7794 3991 N -654 -28 V 140 208 V 654 -236 V 0.90 PolyFill
stroke
LT1
0.27 0.27 0.27 C 7794 3991 M
140 -56 V
-654 236 V
7140 3963 L
654 28 V
0 g gsave 3733 5112 N -653 67 V 140 34 V 653 -109 V 0.90 PolyFill
stroke
LT1
0.27 0.27 0.27 C 3733 5112 M
140 -8 V
-653 109 V
-140 -34 V
653 -67 V
1 g gsave 3313 1976 N -654 31 V 141 127 V 653 -31 V 0.90 PolyFill
stroke
LT1
0.27 0.27 0.27 C 3313 1976 M
140 127 V
-653 31 V
2659 2007 L
654 -31 V
1 g gsave 5413 2026 N -653 3 V 140 124 V 653 -1 V 0.90 PolyFill
stroke
LT1
0.27 0.27 0.27 C 5413 2026 M
140 126 V
-653 1 V
4760 2029 L
653 -3 V
0 g gsave 5040 4349 N -653 750 V 140 -250 V 653 -359 V 0.90 PolyFill
stroke
LT1
0.27 0.27 0.27 C 5040 4349 M
140 141 V
-653 359 V
-140 250 V
653 -750 V
0 g gsave 4387 5099 N -654 13 V 140 -8 V 654 -255 V 0.90 PolyFill
stroke
LT1
0.27 0.27 0.27 C 4387 5099 M
140 -250 V
-654 255 V
-140 8 V
654 -13 V
1 g gsave 3967 1941 N -654 35 V 140 127 V 654 -37 V 0.90 PolyFill
stroke
LT1
0.27 0.27 0.27 C 3967 1941 M
140 125 V
-654 37 V
3313 1976 L
654 -35 V
0 g gsave 6347 4134 N -654 393 V 140 -54 V 654 -221 V 0.90 PolyFill
stroke
LT1
0.27 0.27 0.27 C 6347 4134 M
140 118 V
-654 221 V
-140 54 V
654 -393 V
0 g gsave 5693 4527 N -653 -178 V 140 141 V 653 -17 V 0.90 PolyFill
stroke
LT1
0.27 0.27 0.27 C 5693 4527 M
140 -54 V
-653 17 V
5040 4349 L
653 178 V
0 g gsave 7000 3891 N -653 243 V 140 118 V 653 -289 V 0.90 PolyFill
stroke
LT1
0.27 0.27 0.27 C 7000 3891 M
140 72 V
-653 289 V
6347 4134 L
653 -243 V
1 g gsave 6860 2823 N -653 -622 V 140 48 V 653 449 V 0.90 PolyFill
stroke
LT1
0.27 0.27 0.27 C 6860 2823 M
140 -125 V
6347 2249 L
-140 -48 V
653 622 V
1 g gsave 6066 2108 N -653 -82 V 140 126 V 654 49 V 0.90 PolyFill
stroke
LT1
0.27 0.27 0.27 C 6066 2108 M
141 93 V
-654 -49 V
5413 2026 L
653 82 V
0 g gsave 7654 3593 N -654 298 V 140 72 V 654 28 V 0.90 PolyFill
stroke
LT1
0.27 0.27 0.27 C 7654 3593 M
140 398 V
-654 -28 V
-140 -72 V
654 -298 V
0 g gsave 2940 5057 N -654 360 V 140 -38 V 654 -200 V 0.90 PolyFill
stroke
LT1
0.27 0.27 0.27 C 2940 5057 M
140 122 V
-654 200 V
-140 38 V
654 -360 V
1 g gsave 2519 1879 N -653 42 V 140 125 V 653 -39 V 0.90 PolyFill
stroke
LT1
0.27 0.27 0.27 C 2519 1879 M
140 128 V
-653 39 V
1866 1921 L
653 -42 V
1 g gsave 4620 1904 N -653 37 V 140 125 V 653 -37 V 0.90 PolyFill
stroke
LT1
0.27 0.27 0.27 C 4620 1904 M
140 125 V
-653 37 V
3967 1941 L
653 -37 V
1 g gsave 7794 4951 N -654 -2320 V 140 -50 V 654 2333 V 0.90 PolyFill
stroke
LT1
0.27 0.27 0.27 C 7794 4951 M
140 -37 V
7280 2581 L
-140 50 V
654 2320 V
1 g gsave 3173 1853 N -654 26 V 140 128 V 654 -31 V 0.90 PolyFill
stroke
LT1
0.27 0.27 0.27 C 3173 1853 M
140 123 V
-654 31 V
2519 1879 L
654 -26 V
0 g gsave 3593 5094 N -653 -37 V 140 122 V 653 -67 V 0.90 PolyFill
stroke
LT1
0.27 0.27 0.27 C 3593 5094 M
140 18 V
-653 67 V
2940 5057 L
653 37 V
1 g gsave 5273 1894 N -653 10 V 140 125 V 653 -3 V 0.90 PolyFill
stroke
LT1
0.27 0.27 0.27 C 5273 1894 M
140 132 V
-653 3 V
4620 1904 L
653 -10 V
0 g gsave 4900 4289 N -653 516 V 140 294 V 653 -750 V 0.90 PolyFill
stroke
LT1
0.27 0.27 0.27 C 4900 4289 M
140 60 V
-653 750 V
4247 4805 L
653 -516 V
0 g gsave 4247 4805 N -654 289 V 140 18 V 654 -13 V 0.90 PolyFill
stroke
LT1
0.27 0.27 0.27 C 4247 4805 M
140 294 V
-654 13 V
-140 -18 V
654 -289 V
0 g gsave 5553 4302 N -653 -13 V 140 60 V 653 178 V 0.90 PolyFill
stroke
LT1
0.27 0.27 0.27 C 5553 4302 M
140 225 V
5040 4349 L
-140 -60 V
653 13 V
1 g gsave 3827 1813 N -654 40 V 140 123 V 654 -35 V 0.90 PolyFill
stroke
LT1
0.27 0.27 0.27 C 3827 1813 M
140 128 V
-654 35 V
3173 1853 L
654 -40 V
0 g gsave 6860 3553 N -653 458 V 140 123 V 653 -243 V 0.90 PolyFill
stroke
LT1
0.27 0.27 0.27 C 6860 3553 M
140 338 V
-653 243 V
6207 4011 L
653 -458 V
0 g gsave 6207 4011 N -654 291 V 140 225 V 654 -393 V 0.90 PolyFill
stroke
LT1
0.27 0.27 0.27 C 6207 4011 M
140 123 V
-654 393 V
5553 4302 L
654 -291 V
1 g gsave 5926 2040 N -653 -146 V 140 132 V 653 82 V 0.90 PolyFill
stroke
LT1
0.27 0.27 0.27 C 5926 2040 M
140 68 V
-653 -82 V
5273 1894 L
653 146 V
0 g gsave 7514 3475 N -654 78 V 140 338 V 654 -298 V 0.90 PolyFill
stroke
LT1
0.27 0.27 0.27 C 7514 3475 M
140 118 V
-654 298 V
6860 3553 L
654 -78 V
1 g gsave 2379 1752 N -653 43 V 140 126 V 653 -42 V 0.90 PolyFill
stroke
LT1
0.27 0.27 0.27 C 2379 1752 M
140 127 V
-653 42 V
1726 1795 L
653 -43 V
1 g gsave 4480 1778 N -653 35 V 140 128 V 653 -37 V 0.90 PolyFill
stroke
LT1
0.27 0.27 0.27 C 4480 1778 M
140 126 V
-653 37 V
3827 1813 L
653 -35 V
0 g gsave 2800 4982 N -654 401 V 140 34 V 654 -360 V 0.90 PolyFill
stroke
LT1
0.27 0.27 0.27 C 2800 4982 M
140 75 V
-654 360 V
-140 -34 V
654 -401 V
0 g gsave 3453 4726 N -653 256 V 140 75 V 653 37 V 0.90 PolyFill
stroke
LT1
0.27 0.27 0.27 C 3453 4726 M
140 368 V
-653 -37 V
-140 -75 V
653 -256 V
1 g gsave 6720 2931 N -654 -823 V 141 93 V 653 622 V 0.90 PolyFill
stroke
LT1
0.27 0.27 0.27 C 6720 2931 M
140 -108 V
6207 2201 L
-141 -93 V
654 823 V
1 g gsave 7654 4862 N -654 -2164 V 140 -67 V 654 2320 V 0.90 PolyFill
stroke
LT1
0.27 0.27 0.27 C 7654 4862 M
140 89 V
7140 2631 L
-140 67 V
654 2164 V
1 g gsave 3033 1720 N -654 32 V 140 127 V 654 -26 V 0.90 PolyFill
stroke
LT1
0.27 0.27 0.27 C 3033 1720 M
140 133 V
-654 26 V
2379 1752 L
654 -32 V
1 g gsave 5133 1752 N -653 26 V 140 126 V 653 -10 V 0.90 PolyFill
stroke
LT1
0.27 0.27 0.27 C 5133 1752 M
140 142 V
-653 10 V
4480 1778 L
653 -26 V
0 g gsave 4760 4195 N -653 555 V 140 55 V 653 -516 V 0.90 PolyFill
stroke
LT1
0.27 0.27 0.27 C 4760 4195 M
140 94 V
-653 516 V
-140 -55 V
653 -555 V
0 g gsave 4107 4750 N -654 -24 V 140 368 V 654 -289 V 0.90 PolyFill
stroke
LT1
0.27 0.27 0.27 C 4107 4750 M
140 55 V
-654 289 V
3453 4726 L
654 24 V
1 g gsave 3686 1687 N -653 33 V 140 133 V 654 -40 V 0.90 PolyFill
stroke
LT1
0.27 0.27 0.27 C 3686 1687 M
141 126 V
-654 40 V
3033 1720 L
653 -33 V
0 g gsave 6066 3880 N -653 390 V 140 32 V 654 -291 V 0.90 PolyFill
stroke
LT1
0.27 0.27 0.27 C 6066 3880 M
141 131 V
-654 291 V
-140 -32 V
653 -390 V
0 g gsave 5413 4270 N -653 -75 V 140 94 V 653 13 V 0.90 PolyFill
stroke
LT1
0.27 0.27 0.27 C 5413 4270 M
140 32 V
-653 -13 V
-140 -94 V
653 75 V
0 g gsave 7374 3287 N -654 362 V 140 -96 V 654 -78 V 0.90 PolyFill
stroke
LT1
0.27 0.27 0.27 C 7374 3287 M
140 188 V
-654 78 V
-140 96 V
654 -362 V
0 g gsave 6720 3649 N -654 231 V 141 131 V 653 -458 V 0.90 PolyFill
stroke
LT1
0.27 0.27 0.27 C 6720 3649 M
140 -96 V
-653 458 V
6066 3880 L
654 -231 V
1 g gsave 4340 1648 N -654 39 V 141 126 V 653 -35 V 0.90 PolyFill
stroke
LT1
0.27 0.27 0.27 C 4340 1648 M
140 130 V
-653 35 V
3686 1687 L
654 -39 V
1 g gsave 5786 2017 N -653 -265 V 140 142 V 653 146 V 0.90 PolyFill
stroke
LT1
0.27 0.27 0.27 C 5786 2017 M
140 23 V
5273 1894 L
5133 1752 L
653 265 V
0 g gsave 3313 4622 N -654 389 V 141 -29 V 653 -256 V 0.90 PolyFill
stroke
LT1
0.27 0.27 0.27 C 3313 4622 M
140 104 V
-653 256 V
-141 29 V
654 -389 V
0 g gsave 2659 5011 N -653 184 V 140 188 V 654 -401 V 0.90 PolyFill
stroke
LT1
0.27 0.27 0.27 C 2659 5011 M
141 -29 V
-654 401 V
2006 5195 L
653 -184 V
1 g gsave 7514 4766 N -654 -1943 V 140 -125 V 654 2164 V 0.90 PolyFill
stroke
LT1
0.27 0.27 0.27 C 7514 4766 M
140 96 V
7000 2698 L
-140 125 V
654 1943 V
0 g gsave 4620 4061 N -653 431 V 140 258 V 653 -555 V 0.90 PolyFill
stroke
LT1
0.27 0.27 0.27 C 4620 4061 M
140 134 V
-653 555 V
3967 4492 L
653 -431 V
0 g gsave 3967 4492 N -654 130 V 140 104 V 654 24 V 0.90 PolyFill
stroke
LT1
0.27 0.27 0.27 C 3967 4492 M
140 258 V
-654 -24 V
3313 4622 L
654 -130 V
1 g gsave 6580 3095 N -654 -1055 V 140 68 V 654 823 V 0.90 PolyFill
stroke
LT1
0.27 0.27 0.27 C 6580 3095 M
140 -164 V
6066 2108 L
-140 -68 V
654 1055 V
1 g gsave 4994 1716 N -654 -68 V 140 130 V 653 -26 V 0.90 PolyFill
stroke
LT1
0.27 0.27 0.27 C 4994 1716 M
139 36 V
-653 26 V
4340 1648 L
654 68 V
0 g gsave 5273 4078 N -653 -17 V 140 134 V 653 75 V 0.90 PolyFill
stroke
LT1
0.27 0.27 0.27 C 5273 4078 M
140 192 V
-653 -75 V
4620 4061 L
653 17 V
0 g gsave 7233 3065 N -653 175 V 140 409 V 654 -362 V 0.90 PolyFill
stroke
LT1
0.27 0.27 0.27 C 7233 3065 M
141 222 V
-654 362 V
6580 3240 L
653 -175 V
0 g gsave 6580 3240 N -654 644 V 140 -4 V 654 -231 V 0.90 PolyFill
stroke
LT1
0.27 0.27 0.27 C 6580 3240 M
140 409 V
-654 231 V
-140 4 V
654 -644 V
0 g gsave 5926 3884 N -653 194 V 140 192 V 653 -390 V 0.90 PolyFill
stroke
LT1
0.27 0.27 0.27 C 5926 3884 M
140 -4 V
-653 390 V
5273 4078 L
653 -194 V
0 g gsave 2519 4721 N -653 229 V 140 245 V 653 -184 V 0.90 PolyFill
stroke
LT1
0.27 0.27 0.27 C 2519 4721 M
140 290 V
-653 184 V
1866 4950 L
653 -229 V
0 g gsave 3173 4585 N -654 136 V 140 290 V 654 -389 V 0.90 PolyFill
stroke
LT1
0.27 0.27 0.27 C 3173 4585 M
140 37 V
-654 389 V
2519 4721 L
654 -136 V
1 g gsave 5646 2098 N -652 -382 V 139 36 V 653 265 V 0.90 PolyFill
stroke
LT1
0.27 0.27 0.27 C 5646 2098 M
140 -81 V
5133 1752 L
-139 -36 V
652 382 V
1 g gsave 7374 4649 N -654 -1718 V 140 -108 V 654 1943 V 0.90 PolyFill
stroke
LT1
0.27 0.27 0.27 C 7374 4649 M
140 117 V
6860 2823 L
-140 108 V
654 1718 V
0 g gsave 4480 3844 N -653 503 V 140 145 V 653 -431 V 0.90 PolyFill
stroke
LT1
0.27 0.27 0.27 C 4480 3844 M
140 217 V
-653 431 V
3827 4347 L
653 -503 V
0 g gsave 3827 4347 N -654 238 V 140 37 V 654 -130 V 0.90 PolyFill
stroke
LT1
0.27 0.27 0.27 C 3827 4347 M
140 145 V
-654 130 V
-140 -37 V
654 -238 V
0 g gsave 6440 3259 N -654 294 V 140 331 V 654 -644 V 0.90 PolyFill
stroke
LT1
0.27 0.27 0.27 C 6440 3259 M
140 -19 V
-654 644 V
5786 3553 L
654 -294 V
0 g gsave 7093 2926 N -653 333 V 140 -19 V 653 -175 V 0.90 PolyFill
stroke
LT1
0.27 0.27 0.27 C 7093 2926 M
140 139 V
-653 175 V
-140 19 V
653 -333 V
0 g gsave 2379 4431 N -653 262 V 140 257 V 653 -229 V 0.90 PolyFill
stroke
LT1
0.27 0.27 0.27 C 2379 4431 M
140 290 V
-653 229 V
1726 4693 L
653 -262 V
0 g gsave 5786 3553 N -653 513 V 140 12 V 653 -194 V 0.90 PolyFill
stroke
LT1
0.27 0.27 0.27 C 5786 3553 M
140 331 V
-653 194 V
-140 -12 V
653 -513 V
0 g gsave 5133 4066 N -653 -222 V 140 217 V 653 17 V 0.90 PolyFill
stroke
LT1
0.27 0.27 0.27 C 5133 4066 M
140 12 V
-653 -17 V
4480 3844 L
653 222 V
1 g gsave 6440 3373 N -654 -1356 V 140 23 V 654 1055 V 0.90 PolyFill
stroke
LT1
0.27 0.27 0.27 C 6440 3373 M
140 -278 V
5926 2040 L
-140 -23 V
654 1356 V
0 g gsave 3033 4217 N -654 214 V 140 290 V 654 -136 V 0.90 PolyFill
stroke
LT1
0.27 0.27 0.27 C 3033 4217 M
140 368 V
-654 136 V
2379 4431 L
654 -214 V
0 g gsave 4340 3533 N -654 481 V 141 333 V 653 -503 V 0.90 PolyFill
stroke
LT1
0.27 0.27 0.27 C 4340 3533 M
140 311 V
-653 503 V
3686 4014 L
654 -481 V
0 g gsave 3686 4014 N -653 203 V 140 368 V 654 -238 V 0.90 PolyFill
stroke
LT1
0.27 0.27 0.27 C 3686 4014 M
141 333 V
-654 238 V
3033 4217 L
653 -203 V
1 g gsave 7233 4555 N -653 -1460 V 140 -164 V 654 1718 V 0.90 PolyFill
stroke
LT1
0.27 0.27 0.27 C 7233 4555 M
141 94 V
6720 2931 L
-140 164 V
653 1460 V
0 g gsave 4994 3513 N -654 20 V 140 311 V 653 222 V 0.90 PolyFill
stroke
LT1
0.27 0.27 0.27 C 4994 3513 M
139 553 V
4480 3844 L
4340 3533 L
654 -20 V
0 g gsave 6300 2790 N -654 411 V 140 352 V 654 -294 V 0.90 PolyFill
stroke
LT1
0.27 0.27 0.27 C 6300 2790 M
140 469 V
-654 294 V
5646 3201 L
654 -411 V
0 g gsave 5646 3201 N -652 312 V 139 553 V 653 -513 V 0.90 PolyFill
stroke
LT1
0.27 0.27 0.27 C 5646 3201 M
140 352 V
-653 513 V
4994 3513 L
652 -312 V
0 g gsave 6953 2670 N -653 120 V 140 469 V 653 -333 V 0.90 PolyFill
stroke
LT1
0.27 0.27 0.27 C 6953 2670 M
140 256 V
-653 333 V
6300 2790 L
653 -120 V
1 g gsave 6300 3505 N -654 -1407 V 140 -81 V 654 1356 V 0.90 PolyFill
stroke
LT1
0.27 0.27 0.27 C 6300 3505 M
140 -132 V
5786 2017 L
-140 81 V
654 1407 V
1 g gsave 7093 4454 N -653 -1081 V 140 -278 V 653 1460 V 0.90 PolyFill
stroke
LT1
0.27 0.27 0.27 C 7093 4454 M
140 101 V
6580 3095 L
-140 278 V
653 1081 V
1 g gsave 6953 4328 N -653 -823 V 140 -132 V 653 1081 V 0.90 PolyFill
stroke
LT1
0.27 0.27 0.27 C 6953 4328 M
140 126 V
6440 3373 L
-140 132 V
653 823 V
stroke
1.000 UL
LTb
LCb setrgbcolor
8354 2512 M
6953 1250 L
stroke
LTb
LCb setrgbcolor
1726 1588 M
6953 1250 L
stroke
LTb
LCb setrgbcolor
6953 1250 M
0 3078 V
stroke
LCb setrgbcolor
3990 1103 M
[ [(Times-Roman) 200.0 0.0 true true 0 (Probability of incompleteness P1)]
] -66.7 MCshow
LTb
LCb setrgbcolor
8961 1796 M
[ [(Times-Roman) 200.0 0.0 true true 0 (Probability of ties P2)]
] -66.7 MCshow
LTb
LCb setrgbcolor
886 3383 M
currentpoint gsave translate 90 rotate 0 0 moveto
[ [(Times-Roman) 200.0 0.0 true true 0 (Execution time \(ms\))]
] -66.7 MCshow
grestore
LTb
1.000 UP
grestore % colour palette end
stroke
grestore
end
showpage
%%Trailer
%%DocumentFonts: Times-Roman
