%!PS-Adobe-2.0 EPSF-2.0
%%Title: AST40vsMC-3DTime.eps
%%Creator: gnuplot 4.6 patchlevel 5
%%CreationDate: Sun Sep 14 14:54:32 2014
%%DocumentFonts: (atend)
%%BoundingBox: 50 50 302 194
%%EndComments
%%BeginProlog
/gnudict 256 dict def
gnudict begin
%
% The following true/false flags may be edited by hand if desired.
% The unit line width and grayscale image gamma correction may also be changed.
%
/Color false def
/Blacktext false def
/Solid false def
/Dashlength 1 def
/Landscape false def
/Level1 false def
/Rounded false def
/ClipToBoundingBox false def
/SuppressPDFMark false def
/TransparentPatterns false def
/gnulinewidth 5.000 def
/userlinewidth gnulinewidth def
/Gamma 1.0 def
/BackgroundColor {-1.000 -1.000 -1.000} def
%
/vshift -40 def
/dl1 {
  10.0 Dashlength mul mul
  Rounded { currentlinewidth 0.75 mul sub dup 0 le { pop 0.01 } if } if
} def
/dl2 {
  10.0 Dashlength mul mul
  Rounded { currentlinewidth 0.75 mul add } if
} def
/hpt_ 31.5 def
/vpt_ 31.5 def
/hpt hpt_ def
/vpt vpt_ def
/doclip {
  ClipToBoundingBox {
    newpath 50 50 moveto 302 50 lineto 302 194 lineto 50 194 lineto closepath
    clip
  } if
} def
%
% Gnuplot Prolog Version 4.6 (September 2012)
%
%/SuppressPDFMark true def
%
/M {moveto} bind def
/L {lineto} bind def
/R {rmoveto} bind def
/V {rlineto} bind def
/N {newpath moveto} bind def
/Z {closepath} bind def
/C {setrgbcolor} bind def
/f {rlineto fill} bind def
/g {setgray} bind def
/Gshow {show} def   % May be redefined later in the file to support UTF-8
/vpt2 vpt 2 mul def
/hpt2 hpt 2 mul def
/Lshow {currentpoint stroke M 0 vshift R 
	Blacktext {gsave 0 setgray show grestore} {show} ifelse} def
/Rshow {currentpoint stroke M dup stringwidth pop neg vshift R
	Blacktext {gsave 0 setgray show grestore} {show} ifelse} def
/Cshow {currentpoint stroke M dup stringwidth pop -2 div vshift R 
	Blacktext {gsave 0 setgray show grestore} {show} ifelse} def
/UP {dup vpt_ mul /vpt exch def hpt_ mul /hpt exch def
  /hpt2 hpt 2 mul def /vpt2 vpt 2 mul def} def
/DL {Color {setrgbcolor Solid {pop []} if 0 setdash}
 {pop pop pop 0 setgray Solid {pop []} if 0 setdash} ifelse} def
/BL {stroke userlinewidth 2 mul setlinewidth
	Rounded {1 setlinejoin 1 setlinecap} if} def
/AL {stroke userlinewidth 2 div setlinewidth
	Rounded {1 setlinejoin 1 setlinecap} if} def
/UL {dup gnulinewidth mul /userlinewidth exch def
	dup 1 lt {pop 1} if 10 mul /udl exch def} def
/PL {stroke userlinewidth setlinewidth
	Rounded {1 setlinejoin 1 setlinecap} if} def
3.8 setmiterlimit
% Default Line colors
/LCw {1 1 1} def
/LCb {0 0 0} def
/LCa {0 0 0} def
/LC0 {1 0 0} def
/LC1 {0 1 0} def
/LC2 {0 0 1} def
/LC3 {1 0 1} def
/LC4 {0 1 1} def
/LC5 {1 1 0} def
/LC6 {0 0 0} def
/LC7 {1 0.3 0} def
/LC8 {0.5 0.5 0.5} def
% Default Line Types
/LTw {PL [] 1 setgray} def
/LTb {BL [] LCb DL} def
/LTa {AL [1 udl mul 2 udl mul] 0 setdash LCa setrgbcolor} def
/LT0 {PL [] LC0 DL} def
/LT1 {PL [4 dl1 2 dl2] LC1 DL} def
/LT2 {PL [2 dl1 3 dl2] LC2 DL} def
/LT3 {PL [1 dl1 1.5 dl2] LC3 DL} def
/LT4 {PL [6 dl1 2 dl2 1 dl1 2 dl2] LC4 DL} def
/LT5 {PL [3 dl1 3 dl2 1 dl1 3 dl2] LC5 DL} def
/LT6 {PL [2 dl1 2 dl2 2 dl1 6 dl2] LC6 DL} def
/LT7 {PL [1 dl1 2 dl2 6 dl1 2 dl2 1 dl1 2 dl2] LC7 DL} def
/LT8 {PL [2 dl1 2 dl2 2 dl1 2 dl2 2 dl1 2 dl2 2 dl1 4 dl2] LC8 DL} def
/Pnt {stroke [] 0 setdash gsave 1 setlinecap M 0 0 V stroke grestore} def
/Dia {stroke [] 0 setdash 2 copy vpt add M
  hpt neg vpt neg V hpt vpt neg V
  hpt vpt V hpt neg vpt V closepath stroke
  Pnt} def
/Pls {stroke [] 0 setdash vpt sub M 0 vpt2 V
  currentpoint stroke M
  hpt neg vpt neg R hpt2 0 V stroke
 } def
/Box {stroke [] 0 setdash 2 copy exch hpt sub exch vpt add M
  0 vpt2 neg V hpt2 0 V 0 vpt2 V
  hpt2 neg 0 V closepath stroke
  Pnt} def
/Crs {stroke [] 0 setdash exch hpt sub exch vpt add M
  hpt2 vpt2 neg V currentpoint stroke M
  hpt2 neg 0 R hpt2 vpt2 V stroke} def
/TriU {stroke [] 0 setdash 2 copy vpt 1.12 mul add M
  hpt neg vpt -1.62 mul V
  hpt 2 mul 0 V
  hpt neg vpt 1.62 mul V closepath stroke
  Pnt} def
/Star {2 copy Pls Crs} def
/BoxF {stroke [] 0 setdash exch hpt sub exch vpt add M
  0 vpt2 neg V hpt2 0 V 0 vpt2 V
  hpt2 neg 0 V closepath fill} def
/TriUF {stroke [] 0 setdash vpt 1.12 mul add M
  hpt neg vpt -1.62 mul V
  hpt 2 mul 0 V
  hpt neg vpt 1.62 mul V closepath fill} def
/TriD {stroke [] 0 setdash 2 copy vpt 1.12 mul sub M
  hpt neg vpt 1.62 mul V
  hpt 2 mul 0 V
  hpt neg vpt -1.62 mul V closepath stroke
  Pnt} def
/TriDF {stroke [] 0 setdash vpt 1.12 mul sub M
  hpt neg vpt 1.62 mul V
  hpt 2 mul 0 V
  hpt neg vpt -1.62 mul V closepath fill} def
/DiaF {stroke [] 0 setdash vpt add M
  hpt neg vpt neg V hpt vpt neg V
  hpt vpt V hpt neg vpt V closepath fill} def
/Pent {stroke [] 0 setdash 2 copy gsave
  translate 0 hpt M 4 {72 rotate 0 hpt L} repeat
  closepath stroke grestore Pnt} def
/PentF {stroke [] 0 setdash gsave
  translate 0 hpt M 4 {72 rotate 0 hpt L} repeat
  closepath fill grestore} def
/Circle {stroke [] 0 setdash 2 copy
  hpt 0 360 arc stroke Pnt} def
/CircleF {stroke [] 0 setdash hpt 0 360 arc fill} def
/C0 {BL [] 0 setdash 2 copy moveto vpt 90 450 arc} bind def
/C1 {BL [] 0 setdash 2 copy moveto
	2 copy vpt 0 90 arc closepath fill
	vpt 0 360 arc closepath} bind def
/C2 {BL [] 0 setdash 2 copy moveto
	2 copy vpt 90 180 arc closepath fill
	vpt 0 360 arc closepath} bind def
/C3 {BL [] 0 setdash 2 copy moveto
	2 copy vpt 0 180 arc closepath fill
	vpt 0 360 arc closepath} bind def
/C4 {BL [] 0 setdash 2 copy moveto
	2 copy vpt 180 270 arc closepath fill
	vpt 0 360 arc closepath} bind def
/C5 {BL [] 0 setdash 2 copy moveto
	2 copy vpt 0 90 arc
	2 copy moveto
	2 copy vpt 180 270 arc closepath fill
	vpt 0 360 arc} bind def
/C6 {BL [] 0 setdash 2 copy moveto
	2 copy vpt 90 270 arc closepath fill
	vpt 0 360 arc closepath} bind def
/C7 {BL [] 0 setdash 2 copy moveto
	2 copy vpt 0 270 arc closepath fill
	vpt 0 360 arc closepath} bind def
/C8 {BL [] 0 setdash 2 copy moveto
	2 copy vpt 270 360 arc closepath fill
	vpt 0 360 arc closepath} bind def
/C9 {BL [] 0 setdash 2 copy moveto
	2 copy vpt 270 450 arc closepath fill
	vpt 0 360 arc closepath} bind def
/C10 {BL [] 0 setdash 2 copy 2 copy moveto vpt 270 360 arc closepath fill
	2 copy moveto
	2 copy vpt 90 180 arc closepath fill
	vpt 0 360 arc closepath} bind def
/C11 {BL [] 0 setdash 2 copy moveto
	2 copy vpt 0 180 arc closepath fill
	2 copy moveto
	2 copy vpt 270 360 arc closepath fill
	vpt 0 360 arc closepath} bind def
/C12 {BL [] 0 setdash 2 copy moveto
	2 copy vpt 180 360 arc closepath fill
	vpt 0 360 arc closepath} bind def
/C13 {BL [] 0 setdash 2 copy moveto
	2 copy vpt 0 90 arc closepath fill
	2 copy moveto
	2 copy vpt 180 360 arc closepath fill
	vpt 0 360 arc closepath} bind def
/C14 {BL [] 0 setdash 2 copy moveto
	2 copy vpt 90 360 arc closepath fill
	vpt 0 360 arc} bind def
/C15 {BL [] 0 setdash 2 copy vpt 0 360 arc closepath fill
	vpt 0 360 arc closepath} bind def
/Rec {newpath 4 2 roll moveto 1 index 0 rlineto 0 exch rlineto
	neg 0 rlineto closepath} bind def
/Square {dup Rec} bind def
/Bsquare {vpt sub exch vpt sub exch vpt2 Square} bind def
/S0 {BL [] 0 setdash 2 copy moveto 0 vpt rlineto BL Bsquare} bind def
/S1 {BL [] 0 setdash 2 copy vpt Square fill Bsquare} bind def
/S2 {BL [] 0 setdash 2 copy exch vpt sub exch vpt Square fill Bsquare} bind def
/S3 {BL [] 0 setdash 2 copy exch vpt sub exch vpt2 vpt Rec fill Bsquare} bind def
/S4 {BL [] 0 setdash 2 copy exch vpt sub exch vpt sub vpt Square fill Bsquare} bind def
/S5 {BL [] 0 setdash 2 copy 2 copy vpt Square fill
	exch vpt sub exch vpt sub vpt Square fill Bsquare} bind def
/S6 {BL [] 0 setdash 2 copy exch vpt sub exch vpt sub vpt vpt2 Rec fill Bsquare} bind def
/S7 {BL [] 0 setdash 2 copy exch vpt sub exch vpt sub vpt vpt2 Rec fill
	2 copy vpt Square fill Bsquare} bind def
/S8 {BL [] 0 setdash 2 copy vpt sub vpt Square fill Bsquare} bind def
/S9 {BL [] 0 setdash 2 copy vpt sub vpt vpt2 Rec fill Bsquare} bind def
/S10 {BL [] 0 setdash 2 copy vpt sub vpt Square fill 2 copy exch vpt sub exch vpt Square fill
	Bsquare} bind def
/S11 {BL [] 0 setdash 2 copy vpt sub vpt Square fill 2 copy exch vpt sub exch vpt2 vpt Rec fill
	Bsquare} bind def
/S12 {BL [] 0 setdash 2 copy exch vpt sub exch vpt sub vpt2 vpt Rec fill Bsquare} bind def
/S13 {BL [] 0 setdash 2 copy exch vpt sub exch vpt sub vpt2 vpt Rec fill
	2 copy vpt Square fill Bsquare} bind def
/S14 {BL [] 0 setdash 2 copy exch vpt sub exch vpt sub vpt2 vpt Rec fill
	2 copy exch vpt sub exch vpt Square fill Bsquare} bind def
/S15 {BL [] 0 setdash 2 copy Bsquare fill Bsquare} bind def
/D0 {gsave translate 45 rotate 0 0 S0 stroke grestore} bind def
/D1 {gsave translate 45 rotate 0 0 S1 stroke grestore} bind def
/D2 {gsave translate 45 rotate 0 0 S2 stroke grestore} bind def
/D3 {gsave translate 45 rotate 0 0 S3 stroke grestore} bind def
/D4 {gsave translate 45 rotate 0 0 S4 stroke grestore} bind def
/D5 {gsave translate 45 rotate 0 0 S5 stroke grestore} bind def
/D6 {gsave translate 45 rotate 0 0 S6 stroke grestore} bind def
/D7 {gsave translate 45 rotate 0 0 S7 stroke grestore} bind def
/D8 {gsave translate 45 rotate 0 0 S8 stroke grestore} bind def
/D9 {gsave translate 45 rotate 0 0 S9 stroke grestore} bind def
/D10 {gsave translate 45 rotate 0 0 S10 stroke grestore} bind def
/D11 {gsave translate 45 rotate 0 0 S11 stroke grestore} bind def
/D12 {gsave translate 45 rotate 0 0 S12 stroke grestore} bind def
/D13 {gsave translate 45 rotate 0 0 S13 stroke grestore} bind def
/D14 {gsave translate 45 rotate 0 0 S14 stroke grestore} bind def
/D15 {gsave translate 45 rotate 0 0 S15 stroke grestore} bind def
/DiaE {stroke [] 0 setdash vpt add M
  hpt neg vpt neg V hpt vpt neg V
  hpt vpt V hpt neg vpt V closepath stroke} def
/BoxE {stroke [] 0 setdash exch hpt sub exch vpt add M
  0 vpt2 neg V hpt2 0 V 0 vpt2 V
  hpt2 neg 0 V closepath stroke} def
/TriUE {stroke [] 0 setdash vpt 1.12 mul add M
  hpt neg vpt -1.62 mul V
  hpt 2 mul 0 V
  hpt neg vpt 1.62 mul V closepath stroke} def
/TriDE {stroke [] 0 setdash vpt 1.12 mul sub M
  hpt neg vpt 1.62 mul V
  hpt 2 mul 0 V
  hpt neg vpt -1.62 mul V closepath stroke} def
/PentE {stroke [] 0 setdash gsave
  translate 0 hpt M 4 {72 rotate 0 hpt L} repeat
  closepath stroke grestore} def
/CircE {stroke [] 0 setdash 
  hpt 0 360 arc stroke} def
/Opaque {gsave closepath 1 setgray fill grestore 0 setgray closepath} def
/DiaW {stroke [] 0 setdash vpt add M
  hpt neg vpt neg V hpt vpt neg V
  hpt vpt V hpt neg vpt V Opaque stroke} def
/BoxW {stroke [] 0 setdash exch hpt sub exch vpt add M
  0 vpt2 neg V hpt2 0 V 0 vpt2 V
  hpt2 neg 0 V Opaque stroke} def
/TriUW {stroke [] 0 setdash vpt 1.12 mul add M
  hpt neg vpt -1.62 mul V
  hpt 2 mul 0 V
  hpt neg vpt 1.62 mul V Opaque stroke} def
/TriDW {stroke [] 0 setdash vpt 1.12 mul sub M
  hpt neg vpt 1.62 mul V
  hpt 2 mul 0 V
  hpt neg vpt -1.62 mul V Opaque stroke} def
/PentW {stroke [] 0 setdash gsave
  translate 0 hpt M 4 {72 rotate 0 hpt L} repeat
  Opaque stroke grestore} def
/CircW {stroke [] 0 setdash 
  hpt 0 360 arc Opaque stroke} def
/BoxFill {gsave Rec 1 setgray fill grestore} def
/Density {
  /Fillden exch def
  currentrgbcolor
  /ColB exch def /ColG exch def /ColR exch def
  /ColR ColR Fillden mul Fillden sub 1 add def
  /ColG ColG Fillden mul Fillden sub 1 add def
  /ColB ColB Fillden mul Fillden sub 1 add def
  ColR ColG ColB setrgbcolor} def
/BoxColFill {gsave Rec PolyFill} def
/PolyFill {gsave Density fill grestore grestore} def
/h {rlineto rlineto rlineto gsave closepath fill grestore} bind def
%
% PostScript Level 1 Pattern Fill routine for rectangles
% Usage: x y w h s a XX PatternFill
%	x,y = lower left corner of box to be filled
%	w,h = width and height of box
%	  a = angle in degrees between lines and x-axis
%	 XX = 0/1 for no/yes cross-hatch
%
/PatternFill {gsave /PFa [ 9 2 roll ] def
  PFa 0 get PFa 2 get 2 div add PFa 1 get PFa 3 get 2 div add translate
  PFa 2 get -2 div PFa 3 get -2 div PFa 2 get PFa 3 get Rec
  TransparentPatterns {} {gsave 1 setgray fill grestore} ifelse
  clip
  currentlinewidth 0.5 mul setlinewidth
  /PFs PFa 2 get dup mul PFa 3 get dup mul add sqrt def
  0 0 M PFa 5 get rotate PFs -2 div dup translate
  0 1 PFs PFa 4 get div 1 add floor cvi
	{PFa 4 get mul 0 M 0 PFs V} for
  0 PFa 6 get ne {
	0 1 PFs PFa 4 get div 1 add floor cvi
	{PFa 4 get mul 0 2 1 roll M PFs 0 V} for
 } if
  stroke grestore} def
%
/languagelevel where
 {pop languagelevel} {1} ifelse
 2 lt
	{/InterpretLevel1 true def}
	{/InterpretLevel1 Level1 def}
 ifelse
%
% PostScript level 2 pattern fill definitions
%
/Level2PatternFill {
/Tile8x8 {/PaintType 2 /PatternType 1 /TilingType 1 /BBox [0 0 8 8] /XStep 8 /YStep 8}
	bind def
/KeepColor {currentrgbcolor [/Pattern /DeviceRGB] setcolorspace} bind def
<< Tile8x8
 /PaintProc {0.5 setlinewidth pop 0 0 M 8 8 L 0 8 M 8 0 L stroke} 
>> matrix makepattern
/Pat1 exch def
<< Tile8x8
 /PaintProc {0.5 setlinewidth pop 0 0 M 8 8 L 0 8 M 8 0 L stroke
	0 4 M 4 8 L 8 4 L 4 0 L 0 4 L stroke}
>> matrix makepattern
/Pat2 exch def
<< Tile8x8
 /PaintProc {0.5 setlinewidth pop 0 0 M 0 8 L
	8 8 L 8 0 L 0 0 L fill}
>> matrix makepattern
/Pat3 exch def
<< Tile8x8
 /PaintProc {0.5 setlinewidth pop -4 8 M 8 -4 L
	0 12 M 12 0 L stroke}
>> matrix makepattern
/Pat4 exch def
<< Tile8x8
 /PaintProc {0.5 setlinewidth pop -4 0 M 8 12 L
	0 -4 M 12 8 L stroke}
>> matrix makepattern
/Pat5 exch def
<< Tile8x8
 /PaintProc {0.5 setlinewidth pop -2 8 M 4 -4 L
	0 12 M 8 -4 L 4 12 M 10 0 L stroke}
>> matrix makepattern
/Pat6 exch def
<< Tile8x8
 /PaintProc {0.5 setlinewidth pop -2 0 M 4 12 L
	0 -4 M 8 12 L 4 -4 M 10 8 L stroke}
>> matrix makepattern
/Pat7 exch def
<< Tile8x8
 /PaintProc {0.5 setlinewidth pop 8 -2 M -4 4 L
	12 0 M -4 8 L 12 4 M 0 10 L stroke}
>> matrix makepattern
/Pat8 exch def
<< Tile8x8
 /PaintProc {0.5 setlinewidth pop 0 -2 M 12 4 L
	-4 0 M 12 8 L -4 4 M 8 10 L stroke}
>> matrix makepattern
/Pat9 exch def
/Pattern1 {PatternBgnd KeepColor Pat1 setpattern} bind def
/Pattern2 {PatternBgnd KeepColor Pat2 setpattern} bind def
/Pattern3 {PatternBgnd KeepColor Pat3 setpattern} bind def
/Pattern4 {PatternBgnd KeepColor Landscape {Pat5} {Pat4} ifelse setpattern} bind def
/Pattern5 {PatternBgnd KeepColor Landscape {Pat4} {Pat5} ifelse setpattern} bind def
/Pattern6 {PatternBgnd KeepColor Landscape {Pat9} {Pat6} ifelse setpattern} bind def
/Pattern7 {PatternBgnd KeepColor Landscape {Pat8} {Pat7} ifelse setpattern} bind def
} def
%
%
%End of PostScript Level 2 code
%
/PatternBgnd {
  TransparentPatterns {} {gsave 1 setgray fill grestore} ifelse
} def
%
% Substitute for Level 2 pattern fill codes with
% grayscale if Level 2 support is not selected.
%
/Level1PatternFill {
/Pattern1 {0.250 Density} bind def
/Pattern2 {0.500 Density} bind def
/Pattern3 {0.750 Density} bind def
/Pattern4 {0.125 Density} bind def
/Pattern5 {0.375 Density} bind def
/Pattern6 {0.625 Density} bind def
/Pattern7 {0.875 Density} bind def
} def
%
% Now test for support of Level 2 code
%
Level1 {Level1PatternFill} {Level2PatternFill} ifelse
%
/Symbol-Oblique /Symbol findfont [1 0 .167 1 0 0] makefont
dup length dict begin {1 index /FID eq {pop pop} {def} ifelse} forall
currentdict end definefont pop
/MFshow {
   { dup 5 get 3 ge
     { 5 get 3 eq {gsave} {grestore} ifelse }
     {dup dup 0 get findfont exch 1 get scalefont setfont
     [ currentpoint ] exch dup 2 get 0 exch R dup 5 get 2 ne {dup dup 6
     get exch 4 get {Gshow} {stringwidth pop 0 R} ifelse }if dup 5 get 0 eq
     {dup 3 get {2 get neg 0 exch R pop} {pop aload pop M} ifelse} {dup 5
     get 1 eq {dup 2 get exch dup 3 get exch 6 get stringwidth pop -2 div
     dup 0 R} {dup 6 get stringwidth pop -2 div 0 R 6 get
     show 2 index {aload pop M neg 3 -1 roll neg R pop pop} {pop pop pop
     pop aload pop M} ifelse }ifelse }ifelse }
     ifelse }
   forall} def
/Gswidth {dup type /stringtype eq {stringwidth} {pop (n) stringwidth} ifelse} def
/MFwidth {0 exch { dup 5 get 3 ge { 5 get 3 eq { 0 } { pop } ifelse }
 {dup 3 get{dup dup 0 get findfont exch 1 get scalefont setfont
     6 get Gswidth pop add} {pop} ifelse} ifelse} forall} def
/MLshow { currentpoint stroke M
  0 exch R
  Blacktext {gsave 0 setgray MFshow grestore} {MFshow} ifelse } bind def
/MRshow { currentpoint stroke M
  exch dup MFwidth neg 3 -1 roll R
  Blacktext {gsave 0 setgray MFshow grestore} {MFshow} ifelse } bind def
/MCshow { currentpoint stroke M
  exch dup MFwidth -2 div 3 -1 roll R
  Blacktext {gsave 0 setgray MFshow grestore} {MFshow} ifelse } bind def
/XYsave    { [( ) 1 2 true false 3 ()] } bind def
/XYrestore { [( ) 1 2 true false 4 ()] } bind def
Level1 SuppressPDFMark or 
{} {
/SDict 10 dict def
systemdict /pdfmark known not {
  userdict /pdfmark systemdict /cleartomark get put
} if
SDict begin [
  /Title (AST40vsMC-3DTime.eps)
  /Subject (gnuplot plot)
  /Creator (gnuplot 4.6 patchlevel 5)
  /Author (dannymunera)
%  /Producer (gnuplot)
%  /Keywords ()
  /CreationDate (Sun Sep 14 14:54:32 2014)
  /DOCINFO pdfmark
end
} ifelse
end
%%EndProlog
%%Page: 1 1
gnudict begin
gsave
doclip
50 50 translate
0.050 0.050 scale
0 setgray
newpath
(Times-Roman) findfont 120 scalefont setfont
BackgroundColor 0 lt 3 1 roll 0 lt exch 0 lt or or not {BackgroundColor C 1.000 0 0 5040.00 2880.00 BoxColFill} if
gsave % colour palette begin
/maxcolors 0 def
/HSV2RGB {  exch dup 0.0 eq {pop exch pop dup dup} % achromatic gray
  { /HSVs exch def /HSVv exch def 6.0 mul dup floor dup 3 1 roll sub
     /HSVf exch def /HSVi exch cvi def /HSVp HSVv 1.0 HSVs sub mul def
	 /HSVq HSVv 1.0 HSVs HSVf mul sub mul def 
	 /HSVt HSVv 1.0 HSVs 1.0 HSVf sub mul sub mul def
	 /HSVi HSVi 6 mod def 0 HSVi eq {HSVv HSVt HSVp}
	 {1 HSVi eq {HSVq HSVv HSVp}{2 HSVi eq {HSVp HSVv HSVt}
	 {3 HSVi eq {HSVp HSVq HSVv}{4 HSVi eq {HSVt HSVp HSVv}
	 {HSVv HSVp HSVq} ifelse} ifelse} ifelse} ifelse} ifelse
  } ifelse} def
/Constrain {
  dup 0 lt {0 exch pop}{dup 1 gt {1 exch pop} if} ifelse} def
/YIQ2RGB {
  3 copy -1.702 mul exch -1.105 mul add add Constrain 4 1 roll
  3 copy -0.647 mul exch -0.272 mul add add Constrain 5 1 roll
  0.621 mul exch -0.956 mul add add Constrain 3 1 roll } def
/CMY2RGB {  1 exch sub exch 1 exch sub 3 2 roll 1 exch sub 3 1 roll exch } def
/XYZ2RGB {  3 copy -0.9017 mul exch -0.1187 mul add exch 0.0585 mul exch add
  Constrain 4 1 roll 3 copy -0.0279 mul exch 1.999 mul add exch
  -0.9844 mul add Constrain 5 1 roll -0.2891 mul exch -0.5338 mul add
  exch 1.91 mul exch add Constrain 3 1 roll} def
/SelectSpace {ColorSpace (HSV) eq {HSV2RGB}{ColorSpace (XYZ) eq {
  XYZ2RGB}{ColorSpace (CMY) eq {CMY2RGB}{ColorSpace (YIQ) eq {YIQ2RGB}
  if} ifelse} ifelse} ifelse} def
/InterpolatedColor true def
/grayindex {/gidx 0 def
  {GrayA gidx get grayv ge {exit} if /gidx gidx 1 add def} loop} def
/dgdx {grayv GrayA gidx get sub GrayA gidx 1 sub get
  GrayA gidx get sub div} def 
/redvalue {RedA gidx get RedA gidx 1 sub get
  RedA gidx get sub dgdxval mul add} def
/greenvalue {GreenA gidx get GreenA gidx 1 sub get
  GreenA gidx get sub dgdxval mul add} def
/bluevalue {BlueA gidx get BlueA gidx 1 sub get
  BlueA gidx get sub dgdxval mul add} def
/interpolate {
  grayindex grayv GrayA gidx get sub abs 1e-5 le
    {RedA gidx get GreenA gidx get BlueA gidx get}
    {/dgdxval dgdx def redvalue greenvalue bluevalue} ifelse} def
/GrayA [0 1 ] def
/RedA [0 .4667 ] def
/GreenA [0 .4667 ] def
/BlueA [0 .4667 ] def
/pm3dround {maxcolors 0 gt {dup 1 ge
	{pop 1} {maxcolors mul floor maxcolors 1 sub div} ifelse} if} def
/pm3dGamma 1.0 1.5 Gamma mul div def
/ColorSpace (RGB) def
Color InterpolatedColor or { % COLOUR vs. GRAY map
  InterpolatedColor { %% Interpolation vs. RGB-Formula
    /g {stroke pm3dround /grayv exch def interpolate
        SelectSpace setrgbcolor} bind def
  }{
  /g {stroke pm3dround dup cF7 Constrain exch dup cF5 Constrain exch cF15 Constrain 
       SelectSpace setrgbcolor} bind def
  } ifelse
}{
  /g {stroke pm3dround pm3dGamma exp setgray} bind def
} ifelse
1.000 UL
LTb
1.000 UL
LTb
902 691 M
684 453 V
4138 1022 M
1586 1144 L
902 691 M
0 1287 V
684 -834 R
0 1286 V
4138 1022 M
0 1287 V
902 1978 M
684 452 V
4138 2309 M
1586 2430 L
stroke
LTa
902 691 M
684 453 V
stroke
LTb
902 691 M
31 21 V
stroke
866 652 M
[ [(Times-Roman) 120.0 0.0 true true 0 ( 0.1)]
] -40.0 MCshow
1.000 UL
LTb
1.000 UL
LTb
1586 1144 M
-31 -21 V
stroke
LTa
1221 676 M
684 453 V
stroke
LTb
1221 676 M
32 21 V
stroke
1185 636 M
[ [(Times-Roman) 120.0 0.0 true true 0 ( 0.2)]
] -40.0 MCshow
1.000 UL
LTb
1.000 UL
LTb
1905 1129 M
-31 -21 V
stroke
LTa
1540 661 M
684 452 V
stroke
LTb
1540 661 M
32 21 V
stroke
1504 621 M
[ [(Times-Roman) 120.0 0.0 true true 0 ( 0.3)]
] -40.0 MCshow
1.000 UL
LTb
1.000 UL
LTb
2224 1113 M
-31 -20 V
stroke
LTa
1859 646 M
683 452 V
stroke
LTb
1859 646 M
32 20 V
stroke
1823 606 M
[ [(Times-Roman) 120.0 0.0 true true 0 ( 0.4)]
] -40.0 MCshow
1.000 UL
LTb
1.000 UL
LTb
2542 1098 M
-30 -21 V
stroke
LTa
2178 631 M
684 452 V
stroke
LTb
2178 631 M
32 20 V
stroke
2143 591 M
[ [(Times-Roman) 120.0 0.0 true true 0 ( 0.5)]
] -40.0 MCshow
1.000 UL
LTb
1.000 UL
LTb
2862 1083 M
-32 -21 V
stroke
LTa
2498 615 M
683 453 V
stroke
LTb
2498 615 M
30 21 V
stroke
2462 576 M
[ [(Times-Roman) 120.0 0.0 true true 0 ( 0.6)]
] -40.0 MCshow
1.000 UL
LTb
1.000 UL
LTb
3181 1068 M
-32 -21 V
stroke
LTa
2816 600 M
684 453 V
stroke
LTb
2816 600 M
31 21 V
stroke
2780 561 M
[ [(Times-Roman) 120.0 0.0 true true 0 ( 0.7)]
] -40.0 MCshow
1.000 UL
LTb
1.000 UL
LTb
3500 1053 M
-32 -21 V
stroke
LTa
3135 585 M
684 453 V
stroke
LTb
3135 585 M
31 21 V
stroke
3099 545 M
[ [(Times-Roman) 120.0 0.0 true true 0 ( 0.8)]
] -40.0 MCshow
1.000 UL
LTb
1.000 UL
LTb
3819 1038 M
-32 -21 V
stroke
LTa
3454 570 M
684 452 V
stroke
LTb
3454 570 M
31 21 V
stroke
3418 530 M
[ [(Times-Roman) 120.0 0.0 true true 0 ( 0.9)]
] -40.0 MCshow
1.000 UL
LTb
1.000 UL
LTb
4138 1022 M
-31 -20 V
stroke
LTa
3454 570 M
902 691 L
stroke
LTb
3454 570 M
-61 3 V
stroke
3523 564 M
[ [(Times-Roman) 120.0 0.0 true true 0 ( 0)]
] -40.0 MLshow
1.000 UL
LTb
1.000 UL
LTb
902 691 M
61 -3 V
stroke
LTa
3591 660 M
1039 782 L
stroke
LTb
3591 660 M
-61 3 V
stroke
3660 655 M
[ [(Times-Roman) 120.0 0.0 true true 0 ( 0.2)]
] -40.0 MLshow
1.000 UL
LTb
1.000 UL
LTb
1039 782 M
61 -3 V
stroke
LTa
3728 751 M
1176 872 L
stroke
LTb
3728 751 M
-61 3 V
stroke
3797 745 M
[ [(Times-Roman) 120.0 0.0 true true 0 ( 0.4)]
] -40.0 MLshow
1.000 UL
LTb
1.000 UL
LTb
1176 872 M
60 -3 V
stroke
LTa
3864 841 M
1312 963 L
stroke
LTb
3864 841 M
-60 3 V
stroke
3934 836 M
[ [(Times-Roman) 120.0 0.0 true true 0 ( 0.6)]
] -40.0 MLshow
1.000 UL
LTb
1.000 UL
LTb
1312 963 M
61 -3 V
stroke
LTa
4001 932 M
1449 1053 L
stroke
LTb
4001 932 M
-61 3 V
stroke
4071 926 M
[ [(Times-Roman) 120.0 0.0 true true 0 ( 0.8)]
] -40.0 MLshow
1.000 UL
LTb
1.000 UL
LTb
1449 1053 M
61 -3 V
stroke
LTa
4138 1022 M
1586 1144 L
stroke
LTb
4138 1022 M
-61 3 V
stroke
4208 1017 M
[ [(Times-Roman) 120.0 0.0 true true 0 ( 1)]
] -40.0 MLshow
1.000 UL
LTb
1.000 UL
LTb
1586 1144 M
61 -3 V
stroke
LTa
902 691 M
684 453 V
4138 1022 L
stroke
LTb
902 691 M
63 0 V
stroke
776 691 M
[ [(Times-Roman) 120.0 0.0 true true 0 ( 0)]
] -40.0 MRshow
1.000 UL
LTb
1.000 UL
LTa
902 834 M
684 453 V
4138 1166 L
stroke
LTb
902 834 M
63 0 V
stroke
776 834 M
[ [(Times-Roman) 120.0 0.0 true true 0 ( 0.005)]
] -40.0 MRshow
1.000 UL
LTb
1.000 UL
LTa
902 977 M
684 453 V
4138 1309 L
stroke
LTb
902 977 M
63 0 V
stroke
776 977 M
[ [(Times-Roman) 120.0 0.0 true true 0 ( 0.01)]
] -40.0 MRshow
1.000 UL
LTb
1.000 UL
LTa
902 1120 M
684 452 V
4138 1452 L
stroke
LTb
902 1120 M
63 0 V
stroke
776 1120 M
[ [(Times-Roman) 120.0 0.0 true true 0 ( 0.015)]
] -40.0 MRshow
1.000 UL
LTb
1.000 UL
LTa
902 1263 M
684 452 V
4138 1594 L
stroke
LTb
902 1263 M
63 0 V
stroke
776 1263 M
[ [(Times-Roman) 120.0 0.0 true true 0 ( 0.02)]
] -40.0 MRshow
1.000 UL
LTb
1.000 UL
LTa
902 1406 M
684 452 V
4138 1737 L
stroke
LTb
902 1406 M
63 0 V
stroke
776 1406 M
[ [(Times-Roman) 120.0 0.0 true true 0 ( 0.025)]
] -40.0 MRshow
1.000 UL
LTb
1.000 UL
LTa
902 1548 M
684 453 V
4138 1880 L
stroke
LTb
902 1548 M
63 0 V
stroke
776 1548 M
[ [(Times-Roman) 120.0 0.0 true true 0 ( 0.03)]
] -40.0 MRshow
1.000 UL
LTb
1.000 UL
LTa
902 1691 M
684 453 V
4138 2023 L
stroke
LTb
902 1691 M
63 0 V
stroke
776 1691 M
[ [(Times-Roman) 120.0 0.0 true true 0 ( 0.035)]
] -40.0 MRshow
1.000 UL
LTb
1.000 UL
LTa
902 1834 M
684 453 V
4138 2166 L
stroke
LTb
902 1834 M
63 0 V
stroke
776 1834 M
[ [(Times-Roman) 120.0 0.0 true true 0 ( 0.04)]
] -40.0 MRshow
1.000 UL
LTb
1.000 UL
LTa
902 1978 M
684 452 V
4138 2309 L
stroke
LTb
902 1978 M
63 0 V
stroke
776 1978 M
[ [(Times-Roman) 120.0 0.0 true true 0 ( 0.045)]
] -40.0 MRshow
1.000 UL
LTb
LCb setrgbcolor
398 1335 M
currentpoint gsave translate 90 rotate 0 0 moveto
[ [(Times-Roman) 120.0 0.0 true true 0 (Execution time \(s\))]
] -40.0 MCshow
grestore
LTb
1.000 UP
0.00 0.00 0.00 C 3340 2547 M
[ [(Times-Roman) 120.0 0.0 true true 0 (MD)]
] -40.0 MLshow
0.53 0.53 0.53 C 3340 2433 M
[ [(Times-Roman) 120.0 0.0 true true 0 (AS)]
] -40.0 MLshow
0.00 0.00 0.00 C 3564 2551 M
[ [(Times-Roman) 120.0 0.0 true true 0 (-----)]
] -40.0 MLshow
0.53 0.53 0.53 C 3564 2436 M
[ [(Times-Roman) 120.0 0.0 true true 0 (-----)]
] -40.0 MLshow
% Begin plot #1
1.000 UL
LT0
0.250 UL
LT1
0.27 0.27 0.27 C % End plot #1
% Begin plot #2
1.000 UL
LT1
0.250 UL
LT1
0.27 0.27 0.27 C % End plot #2
1 g gsave 1837 1114 N -319 16 V 68 15 V 319 -14 V 0.90 PolyFill
0.250 UL
LT1
0.27 0.27 0.27 C 1837 1114 M
68 17 V
-319 14 V
-68 -15 V
319 -16 V
1 g gsave 2156 1099 N -319 15 V 68 17 V 319 -14 V 0.90 PolyFill
stroke
LT1
0.27 0.27 0.27 C 2156 1099 M
68 18 V
-319 14 V
-68 -17 V
319 -15 V
1 g gsave 2475 1085 N -319 14 V 68 18 V 318 -13 V 0.90 PolyFill
stroke
LT1
0.27 0.27 0.27 C 2475 1085 M
67 19 V
-318 13 V
-68 -18 V
319 -14 V
1 g gsave 2793 1068 N -318 17 V 67 19 V 320 -13 V 0.90 PolyFill
stroke
LT1
0.27 0.27 0.27 C 2793 1068 M
69 23 V
-320 13 V
-67 -19 V
318 -17 V
1 g gsave 1768 1080 N -319 15 V 69 35 V 319 -16 V 0.90 PolyFill
stroke
LT1
0.27 0.27 0.27 C 1768 1080 M
69 34 V
-319 16 V
-69 -35 V
319 -15 V
1 g gsave 3112 1052 N -319 16 V 69 23 V 319 -13 V 0.90 PolyFill
stroke
LT1
0.27 0.27 0.27 C 3112 1052 M
69 26 V
-319 13 V
-69 -23 V
319 -16 V
1 g gsave 2087 1066 N -319 14 V 69 34 V 319 -15 V 0.90 PolyFill
stroke
LT1
0.27 0.27 0.27 C 2087 1066 M
69 33 V
-319 15 V
-69 -34 V
319 -14 V
1 g gsave 3431 1038 N -319 14 V 69 26 V 319 -11 V 0.90 PolyFill
stroke
LT1
0.27 0.27 0.27 C 3431 1038 M
69 29 V
-319 11 V
-69 -26 V
319 -14 V
1 g gsave 2407 1051 N -320 15 V 69 33 V 319 -14 V 0.90 PolyFill
stroke
LT1
0.27 0.27 0.27 C 2407 1051 M
68 34 V
-319 14 V
-69 -33 V
320 -15 V
1 g gsave 2725 1035 N -318 16 V 68 34 V 318 -17 V 0.90 PolyFill
stroke
LT1
0.27 0.27 0.27 C 2725 1035 M
68 33 V
-318 17 V
-68 -34 V
318 -16 V
1 g gsave 3750 1034 N -319 4 V 69 29 V 319 -8 V 0.90 PolyFill
stroke
LT1
0.27 0.27 0.27 C 3750 1034 M
69 25 V
-319 8 V
-69 -29 V
319 -4 V
1 g gsave 1700 1042 N -319 15 V 68 38 V 319 -15 V 0.90 PolyFill
stroke
LT1
0.27 0.27 0.27 C 1700 1042 M
68 38 V
-319 15 V
-68 -38 V
319 -15 V
0 g gsave 1837 1906 N -319 -1 V 68 144 V 319 -95 V 0.90 PolyFill
stroke
LT1
0.27 0.27 0.27 C 1837 1906 M
68 48 V
-319 95 V
-68 -144 V
319 1 V
1 g gsave 3044 1020 N -319 15 V 68 33 V 319 -16 V 0.90 PolyFill
stroke
LT1
0.27 0.27 0.27 C 3044 1020 M
68 32 V
-319 16 V
-68 -33 V
319 -15 V
1 g gsave 2019 1029 N -319 13 V 68 38 V 319 -14 V 0.90 PolyFill
stroke
LT1
0.27 0.27 0.27 C 2019 1029 M
68 37 V
-319 14 V
-68 -38 V
319 -13 V
0 g gsave 2156 1820 N -319 86 V 68 48 V 319 -14 V 0.90 PolyFill
stroke
LT1
0.27 0.27 0.27 C 2156 1820 M
68 120 V
-319 14 V
-68 -48 V
319 -86 V
0 g gsave 2475 1765 N -319 55 V 68 120 V 318 -95 V 0.90 PolyFill
stroke
LT1
0.27 0.27 0.27 C 2475 1765 M
67 80 V
-318 95 V
-68 -120 V
319 -55 V
0 g gsave 2793 1625 N -318 140 V 67 80 V 320 -119 V 0.90 PolyFill
stroke
LT1
0.27 0.27 0.27 C 2793 1625 M
69 101 V
-320 119 V
-67 -80 V
318 -140 V
1 g gsave 3363 1005 N -319 15 V 68 32 V 319 -14 V 0.90 PolyFill
stroke
LT1
0.27 0.27 0.27 C 3363 1005 M
68 33 V
-319 14 V
-68 -32 V
319 -15 V
1 g gsave 2338 1015 N -319 14 V 68 37 V 320 -15 V 0.90 PolyFill
stroke
LT1
0.27 0.27 0.27 C 2338 1015 M
69 36 V
-320 15 V
-68 -37 V
319 -14 V
1 g gsave 2656 999 N -318 16 V 69 36 V 318 -16 V 0.90 PolyFill
stroke
LT1
0.27 0.27 0.27 C 2656 999 M
69 36 V
-318 16 V
-69 -36 V
318 -16 V
1 g gsave 1632 1002 N -320 14 V 69 41 V 319 -15 V 0.90 PolyFill
stroke
LT1
0.27 0.27 0.27 C 1632 1002 M
68 40 V
-319 15 V
-69 -41 V
320 -14 V
1 g gsave 3682 1017 N -319 -12 V 68 33 V 319 -4 V 0.90 PolyFill
stroke
LT1
0.27 0.27 0.27 C 3682 1017 M
68 17 V
-319 4 V
-68 -33 V
319 12 V
1 g gsave 4070 1284 N -320 -250 V 69 25 V 319 26 V 0.90 PolyFill
stroke
LT1
0.27 0.27 0.27 C 4070 1284 M
68 -199 V
-319 -26 V
-69 -25 V
320 250 V
0 g gsave 3112 1715 N -319 -90 V 69 101 V 319 -31 V 0.90 PolyFill
stroke
LT1
0.27 0.27 0.27 C 3112 1715 M
69 -20 V
-319 31 V
-69 -101 V
319 90 V
0 g gsave 3431 1589 N -319 126 V 69 -20 V 319 -80 V 0.90 PolyFill
stroke
LT1
0.27 0.27 0.27 C 3431 1589 M
69 26 V
-319 80 V
-69 20 V
319 -126 V
0 g gsave 1768 1876 N -319 51 V 69 -22 V 319 1 V 0.90 PolyFill
stroke
LT1
0.27 0.27 0.27 C 1768 1876 M
69 30 V
-319 -1 V
-69 22 V
319 -51 V
1 g gsave 2975 984 N -319 15 V 69 36 V 319 -15 V 0.90 PolyFill
stroke
LT1
0.27 0.27 0.27 C 2975 984 M
69 36 V
-319 15 V
-69 -36 V
319 -15 V
0 g gsave 3750 1500 N -319 89 V 69 26 V 319 -74 V 0.90 PolyFill
stroke
LT1
0.27 0.27 0.27 C 3750 1500 M
69 41 V
-319 74 V
-69 -26 V
319 -89 V
1 g gsave 1951 989 N -319 13 V 68 40 V 319 -13 V 0.90 PolyFill
stroke
LT1
0.27 0.27 0.27 C 1951 989 M
68 40 V
-319 13 V
-68 -40 V
319 -13 V
0 g gsave 2087 1800 N -319 76 V 69 30 V 319 -86 V 0.90 PolyFill
stroke
LT1
0.27 0.27 0.27 C 2087 1800 M
69 20 V
-319 86 V
-69 -30 V
319 -76 V
0 g gsave 4070 1457 N -320 43 V 69 41 V 319 -82 V 0.90 PolyFill
stroke
LT1
0.27 0.27 0.27 C 4070 1457 M
68 2 V
-319 82 V
-69 -41 V
320 -43 V
1 g gsave 3295 973 N -320 11 V 69 36 V 319 -15 V 0.90 PolyFill
stroke
LT1
0.27 0.27 0.27 C 3295 973 M
68 32 V
-319 15 V
-69 -36 V
320 -11 V
1 g gsave 2270 975 N -319 14 V 68 40 V 319 -14 V 0.90 PolyFill
stroke
LT1
0.27 0.27 0.27 C 2270 975 M
68 40 V
-319 14 V
-68 -40 V
319 -14 V
0 g gsave 2407 1778 N -320 22 V 69 20 V 319 -55 V 0.90 PolyFill
stroke
LT1
0.27 0.27 0.27 C 2407 1778 M
68 -13 V
-319 55 V
-69 -20 V
320 -22 V
0 g gsave 2725 1633 N -318 145 V 68 -13 V 318 -140 V 0.90 PolyFill
stroke
LT1
0.27 0.27 0.27 C 2725 1633 M
68 -8 V
-318 140 V
-68 13 V
318 -145 V
1 g gsave 1563 959 N -319 15 V 68 42 V 320 -14 V 0.90 PolyFill
stroke
LT1
0.27 0.27 0.27 C 1563 959 M
69 43 V
-320 14 V
-68 -42 V
319 -15 V
1 g gsave 2588 960 N -318 15 V 68 40 V 318 -16 V 0.90 PolyFill
stroke
LT1
0.27 0.27 0.27 C 2588 960 M
68 39 V
-318 16 V
-68 -40 V
318 -15 V
0 g gsave 3044 1609 N -319 24 V 68 -8 V 319 90 V 0.90 PolyFill
stroke
LT1
0.27 0.27 0.27 C 3044 1609 M
68 106 V
-319 -90 V
-68 8 V
319 -24 V
1 g gsave 3614 1017 N -319 -44 V 68 32 V 319 12 V 0.90 PolyFill
stroke
LT1
0.27 0.27 0.27 C 3614 1017 M
68 0 V
-319 -12 V
-68 -32 V
319 44 V
0 g gsave 3363 1568 N -319 41 V 68 106 V 319 -126 V 0.90 PolyFill
stroke
LT1
0.27 0.27 0.27 C 3363 1568 M
68 21 V
-319 126 V
-68 -106 V
319 -41 V
1 g gsave 1882 947 N -319 12 V 69 43 V 319 -13 V 0.90 PolyFill
stroke
LT1
0.27 0.27 0.27 C 1882 947 M
69 42 V
-319 13 V
-69 -43 V
319 -12 V
1 g gsave 2907 948 N -319 12 V 68 39 V 319 -15 V 0.90 PolyFill
stroke
LT1
0.27 0.27 0.27 C 2907 948 M
68 36 V
-319 15 V
-68 -39 V
319 -12 V
0 g gsave 3682 1517 N -319 51 V 68 21 V 319 -89 V 0.90 PolyFill
stroke
LT1
0.27 0.27 0.27 C 3682 1517 M
68 -17 V
-319 89 V
-68 -21 V
319 -51 V
0 g gsave 1700 1913 N -319 25 V 68 -11 V 319 -51 V 0.90 PolyFill
stroke
LT1
0.27 0.27 0.27 C 1700 1913 M
68 -37 V
-319 51 V
-68 11 V
319 -25 V
0 g gsave 2019 1811 N -319 102 V 68 -37 V 319 -76 V 0.90 PolyFill
stroke
LT1
0.27 0.27 0.27 C 2019 1811 M
68 -11 V
-319 76 V
-68 37 V
319 -102 V
0 g gsave 4001 1438 N -319 79 V 68 -17 V 320 -43 V 0.90 PolyFill
stroke
LT1
0.27 0.27 0.27 C 4001 1438 M
69 19 V
-320 43 V
-68 17 V
319 -79 V
1 g gsave 2201 933 N -319 14 V 69 42 V 319 -14 V 0.90 PolyFill
stroke
LT1
0.27 0.27 0.27 C 2201 933 M
69 42 V
-319 14 V
-69 -42 V
319 -14 V
1 g gsave 3226 943 N -319 5 V 68 36 V 320 -11 V 0.90 PolyFill
stroke
LT1
0.27 0.27 0.27 C 3226 943 M
69 30 V
-320 11 V
-68 -36 V
319 -5 V
0 g gsave 2656 1655 N -318 149 V 69 -26 V 318 -145 V 0.90 PolyFill
stroke
LT1
0.27 0.27 0.27 C 2656 1655 M
69 -22 V
-318 145 V
-69 26 V
318 -149 V
0 g gsave 2338 1804 N -319 7 V 68 -11 V 320 -22 V 0.90 PolyFill
stroke
LT1
0.27 0.27 0.27 C 2338 1804 M
69 -26 V
-320 22 V
-68 11 V
319 -7 V
1 g gsave 1495 916 N -319 14 V 68 44 V 319 -15 V 0.90 PolyFill
stroke
LT1
0.27 0.27 0.27 C 1495 916 M
68 43 V
-319 15 V
-68 -44 V
319 -14 V
1 g gsave 2520 918 N -319 15 V 69 42 V 318 -15 V 0.90 PolyFill
stroke
LT1
0.27 0.27 0.27 C 2520 918 M
68 42 V
-318 15 V
-69 -42 V
319 -15 V
0 g gsave 1632 1759 N -320 84 V 69 95 V 319 -25 V 0.90 PolyFill
stroke
LT1
0.27 0.27 0.27 C 1632 1759 M
68 154 V
-319 25 V
-69 -95 V
320 -84 V
0 g gsave 2975 1629 N -319 26 V 69 -22 V 319 -24 V 0.90 PolyFill
stroke
LT1
0.27 0.27 0.27 C 2975 1629 M
69 -20 V
-319 24 V
-69 22 V
319 -26 V
1 g gsave 3545 1027 N -319 -84 V 69 30 V 319 44 V 0.90 PolyFill
stroke
LT1
0.27 0.27 0.27 C 3545 1027 M
69 -10 V
3295 973 L
-69 -30 V
319 84 V
1 g gsave 1814 903 N -319 13 V 68 43 V 319 -12 V 0.90 PolyFill
stroke
LT1
0.27 0.27 0.27 C 1814 903 M
68 44 V
-319 12 V
-68 -43 V
319 -13 V
0 g gsave 3295 1548 N -320 81 V 69 -20 V 319 -41 V 0.90 PolyFill
stroke
LT1
0.27 0.27 0.27 C 3295 1548 M
68 20 V
-319 41 V
-69 20 V
320 -81 V
1 g gsave 2839 910 N -319 8 V 68 42 V 319 -12 V 0.90 PolyFill
stroke
LT1
0.27 0.27 0.27 C 2839 910 M
68 38 V
-319 12 V
-68 -42 V
319 -8 V
0 g gsave 3614 1459 N -319 89 V 68 20 V 319 -51 V 0.90 PolyFill
stroke
LT1
0.27 0.27 0.27 C 3614 1459 M
68 58 V
-319 51 V
-68 -20 V
319 -89 V
0 g gsave 1951 1725 N -319 34 V 68 154 V 319 -102 V 0.90 PolyFill
stroke
LT1
0.27 0.27 0.27 C 1951 1725 M
68 86 V
-319 102 V
-68 -154 V
319 -34 V
1 g gsave 4001 1758 N -319 -741 V 68 17 V 320 250 V 0.90 PolyFill
stroke
LT1
0.27 0.27 0.27 C 4001 1758 M
69 -474 V
3750 1034 L
-68 -17 V
319 741 V
0 g gsave 3933 1390 N -319 69 V 68 58 V 319 -79 V 0.90 PolyFill
stroke
LT1
0.27 0.27 0.27 C 3933 1390 M
68 48 V
-319 79 V
-68 -58 V
319 -69 V
0 g gsave 2270 1650 N -319 75 V 68 86 V 319 -7 V 0.90 PolyFill
stroke
LT1
0.27 0.27 0.27 C 2270 1650 M
68 154 V
-319 7 V
-68 -86 V
319 -75 V
1 g gsave 2133 889 N -319 14 V 68 44 V 319 -14 V 0.90 PolyFill
stroke
LT1
0.27 0.27 0.27 C 2133 889 M
68 44 V
-319 14 V
-68 -44 V
319 -14 V
0 g gsave 2588 1547 N -318 103 V 68 154 V 318 -149 V 0.90 PolyFill
stroke
LT1
0.27 0.27 0.27 C 2588 1547 M
68 108 V
-318 149 V
-68 -154 V
318 -103 V
1 g gsave 3158 907 N -319 3 V 68 38 V 319 -5 V 0.90 PolyFill
stroke
LT1
0.27 0.27 0.27 C 3158 907 M
68 36 V
-319 5 V
-68 -38 V
319 -3 V
1 g gsave 1426 870 N -319 15 V 69 45 V 319 -14 V 0.90 PolyFill
stroke
LT1
0.27 0.27 0.27 C 1426 870 M
69 46 V
-319 14 V
-69 -45 V
319 -15 V
1 g gsave 2452 875 N -319 14 V 68 44 V 319 -15 V 0.90 PolyFill
stroke
LT1
0.27 0.27 0.27 C 2452 875 M
68 43 V
-319 15 V
-68 -44 V
319 -14 V
0 g gsave 2907 1539 N -319 8 V 68 108 V 319 -26 V 0.90 PolyFill
stroke
LT1
0.27 0.27 0.27 C 2907 1539 M
68 90 V
-319 26 V
-68 -108 V
319 -8 V
0 g gsave 3226 1475 N -319 64 V 68 90 V 320 -81 V 0.90 PolyFill
stroke
LT1
0.27 0.27 0.27 C 3226 1475 M
69 73 V
-320 81 V
-68 -90 V
319 -64 V
0 g gsave 1563 1739 N -319 59 V 68 45 V 320 -84 V 0.90 PolyFill
stroke
LT1
0.27 0.27 0.27 C 1563 1739 M
69 20 V
-320 84 V
-68 -45 V
319 -59 V
1 g gsave 1745 859 N -319 11 V 69 46 V 319 -13 V 0.90 PolyFill
stroke
LT1
0.27 0.27 0.27 C 1745 859 M
69 44 V
-319 13 V
-69 -46 V
319 -11 V
1 g gsave 2770 873 N -318 2 V 68 43 V 319 -8 V 0.90 PolyFill
stroke
LT1
0.27 0.27 0.27 C 2770 873 M
69 37 V
-319 8 V
-68 -43 V
318 -2 V
0 g gsave 3545 1391 N -319 84 V 69 73 V 319 -89 V 0.90 PolyFill
stroke
LT1
0.27 0.27 0.27 C 3545 1391 M
69 68 V
-319 89 V
-69 -73 V
319 -84 V
1 g gsave 3477 1045 N -319 -138 V 68 36 V 319 84 V 0.90 PolyFill
stroke
LT1
0.27 0.27 0.27 C 3477 1045 M
68 -18 V
3226 943 L
-68 -36 V
319 138 V
0 g gsave 1882 1717 N -319 22 V 69 20 V 319 -34 V 0.90 PolyFill
stroke
LT1
0.27 0.27 0.27 C 1882 1717 M
69 8 V
-319 34 V
-69 -20 V
319 -22 V
1 g gsave 2065 845 N -320 14 V 69 44 V 319 -14 V 0.90 PolyFill
stroke
LT1
0.27 0.27 0.27 C 2065 845 M
68 44 V
-319 14 V
-69 -44 V
320 -14 V
0 g gsave 3864 1395 N -319 -4 V 69 68 V 319 -69 V 0.90 PolyFill
stroke
LT1
0.27 0.27 0.27 C 3864 1395 M
69 -5 V
-319 69 V
-69 -68 V
319 4 V
1 g gsave 3089 887 N -319 -14 V 69 37 V 319 -3 V 0.90 PolyFill
stroke
LT1
0.27 0.27 0.27 C 3089 887 M
69 20 V
-319 3 V
-69 -37 V
319 14 V
0 g gsave 2520 1498 N -319 212 V 69 -60 V 318 -103 V 0.90 PolyFill
stroke
LT1
0.27 0.27 0.27 C 2520 1498 M
68 49 V
-318 103 V
-69 60 V
319 -212 V
0 g gsave 2201 1710 N -319 7 V 69 8 V 319 -75 V 0.90 PolyFill
stroke
LT1
0.27 0.27 0.27 C 2201 1710 M
69 -60 V
-319 75 V
-69 -8 V
319 -7 V
1 g gsave 1358 825 N -319 15 V 68 45 V 319 -15 V 0.90 PolyFill
stroke
LT1
0.27 0.27 0.27 C 1358 825 M
68 45 V
-319 15 V
-68 -45 V
319 -15 V
1 g gsave 2384 831 N -319 14 V 68 44 V 319 -14 V 0.90 PolyFill
stroke
LT1
0.27 0.27 0.27 C 2384 831 M
68 44 V
-319 14 V
-68 -44 V
319 -14 V
1 g gsave 3933 1890 N -319 -873 V 68 0 V 319 741 V 0.90 PolyFill
stroke
LT1
0.27 0.27 0.27 C 3933 1890 M
68 -132 V
3682 1017 L
-68 0 V
319 873 V
0 g gsave 2839 1544 N -319 -46 V 68 49 V 319 -8 V 0.90 PolyFill
stroke
LT1
0.27 0.27 0.27 C 2839 1544 M
68 -5 V
-319 8 V
-68 -49 V
319 46 V
0 g gsave 3158 1432 N -319 112 V 68 -5 V 319 -64 V 0.90 PolyFill
stroke
LT1
0.27 0.27 0.27 C 3158 1432 M
68 43 V
-319 64 V
-68 5 V
319 -112 V
0 g gsave 1495 1695 N -319 104 V 68 -1 V 319 -59 V 0.90 PolyFill
stroke
LT1
0.27 0.27 0.27 C 1495 1695 M
68 44 V
-319 59 V
-68 1 V
319 -104 V
1 g gsave 1677 813 N -319 12 V 68 45 V 319 -11 V 0.90 PolyFill
stroke
LT1
0.27 0.27 0.27 C 1677 813 M
68 46 V
-319 11 V
-68 -45 V
319 -12 V
1 g gsave 2702 828 N -318 3 V 68 44 V 318 -2 V 0.90 PolyFill
stroke
LT1
0.27 0.27 0.27 C 2702 828 M
68 45 V
-318 2 V
-68 -44 V
318 -3 V
0 g gsave 3477 1361 N -319 71 V 68 43 V 319 -84 V 0.90 PolyFill
stroke
LT1
0.27 0.27 0.27 C 3477 1361 M
68 30 V
-319 84 V
-68 -43 V
319 -71 V
0 g gsave 3796 1274 N -319 87 V 68 30 V 319 4 V 0.90 PolyFill
stroke
LT1
0.27 0.27 0.27 C 3796 1274 M
68 121 V
-319 -4 V
-68 -30 V
319 -87 V
0 g gsave 1814 1702 N -319 -7 V 68 44 V 319 -22 V 0.90 PolyFill
stroke
LT1
0.27 0.27 0.27 C 1814 1702 M
68 15 V
-319 22 V
-68 -44 V
319 7 V
1 g gsave 1996 800 N -319 13 V 68 46 V 320 -14 V 0.90 PolyFill
stroke
LT1
0.27 0.27 0.27 C 1996 800 M
69 45 V
-320 14 V
-68 -46 V
319 -13 V
1 g gsave 3408 1096 N -319 -209 V 69 20 V 319 138 V 0.90 PolyFill
stroke
LT1
0.27 0.27 0.27 C 3408 1096 M
69 -51 V
3158 907 L
-69 -20 V
319 209 V
0 g gsave 2452 1472 N -319 146 V 68 92 V 319 -212 V 0.90 PolyFill
stroke
LT1
0.27 0.27 0.27 C 2452 1472 M
68 26 V
-319 212 V
-68 -92 V
319 -146 V
0 g gsave 2133 1618 N -319 84 V 68 15 V 319 -7 V 0.90 PolyFill
stroke
LT1
0.27 0.27 0.27 C 2133 1618 M
68 92 V
-319 7 V
-68 -15 V
319 -84 V
1 g gsave 3021 856 N -319 -28 V 68 45 V 319 14 V 0.90 PolyFill
stroke
LT1
0.27 0.27 0.27 C 3021 856 M
68 31 V
2770 873 L
-68 -45 V
319 28 V
1 g gsave 1290 779 N -320 15 V 69 46 V 319 -15 V 0.90 PolyFill
stroke
LT1
0.27 0.27 0.27 C 1290 779 M
68 46 V
-319 15 V
970 794 L
320 -15 V
1 g gsave 2315 786 N -319 14 V 69 45 V 319 -14 V 0.90 PolyFill
stroke
LT1
0.27 0.27 0.27 C 2315 786 M
69 45 V
-319 14 V
-69 -45 V
319 -14 V
0 g gsave 2770 1472 N -318 0 V 68 26 V 319 46 V 0.90 PolyFill
stroke
LT1
0.27 0.27 0.27 C 2770 1472 M
69 72 V
-319 -46 V
-68 -26 V
318 0 V
0 g gsave 3408 1256 N -319 131 V 69 45 V 319 -71 V 0.90 PolyFill
stroke
LT1
0.27 0.27 0.27 C 3408 1256 M
69 105 V
-319 71 V
-69 -45 V
319 -131 V
0 g gsave 3089 1387 N -319 85 V 69 72 V 319 -112 V 0.90 PolyFill
stroke
LT1
0.27 0.27 0.27 C 3089 1387 M
69 45 V
-319 112 V
-69 -72 V
319 -85 V
0 g gsave 1426 1664 N -319 115 V 69 20 V 319 -104 V 0.90 PolyFill
stroke
LT1
0.27 0.27 0.27 C 1426 1664 M
69 31 V
-319 104 V
-69 -20 V
319 -115 V
1 g gsave 3864 1920 N -319 -893 V 69 -10 V 319 873 V 0.90 PolyFill
stroke
LT1
0.27 0.27 0.27 C 3864 1920 M
69 -30 V
3614 1017 L
-69 10 V
319 893 V
1 g gsave 1609 768 N -319 11 V 68 46 V 319 -12 V 0.90 PolyFill
stroke
LT1
0.27 0.27 0.27 C 1609 768 M
68 45 V
-319 12 V
-68 -46 V
319 -11 V
1 g gsave 2633 781 N -318 5 V 69 45 V 318 -3 V 0.90 PolyFill
stroke
LT1
0.27 0.27 0.27 C 2633 781 M
69 47 V
-318 3 V
-69 -45 V
318 -5 V
0 g gsave 1745 1589 N -319 75 V 69 31 V 319 7 V 0.90 PolyFill
stroke
LT1
0.27 0.27 0.27 C 1745 1589 M
69 113 V
-319 -7 V
-69 -31 V
319 -75 V
0 g gsave 3728 1231 N -320 25 V 69 105 V 319 -87 V 0.90 PolyFill
stroke
LT1
0.27 0.27 0.27 C 3728 1231 M
68 43 V
-319 87 V
-69 -105 V
320 -25 V
1 g gsave 1928 754 N -319 14 V 68 45 V 319 -13 V 0.90 PolyFill
stroke
LT1
0.27 0.27 0.27 C 1928 754 M
68 46 V
-319 13 V
-68 -45 V
319 -14 V
0 g gsave 2065 1593 N -320 -4 V 69 113 V 319 -84 V 0.90 PolyFill
stroke
LT1
0.27 0.27 0.27 C 2065 1593 M
68 25 V
-319 84 V
-69 -113 V
320 4 V
0 g gsave 2384 1435 N -319 158 V 68 25 V 319 -146 V 0.90 PolyFill
stroke
LT1
0.27 0.27 0.27 C 2384 1435 M
68 37 V
-319 146 V
-68 -25 V
319 -158 V
1 g gsave 2953 832 N -320 -51 V 69 47 V 319 28 V 0.90 PolyFill
stroke
LT1
0.27 0.27 0.27 C 2953 832 M
68 24 V
2702 828 L
-69 -47 V
320 51 V
1 g gsave 1221 734 N -319 15 V 68 45 V 320 -15 V 0.90 PolyFill
stroke
LT1
0.27 0.27 0.27 C 1221 734 M
69 45 V
970 794 L
902 749 L
319 -15 V
1 g gsave 2247 740 N -319 14 V 68 46 V 319 -14 V 0.90 PolyFill
stroke
LT1
0.27 0.27 0.27 C 2247 740 M
68 46 V
-319 14 V
-68 -46 V
319 -14 V
1 g gsave 3340 1139 N -319 -283 V 68 31 V 319 209 V 0.90 PolyFill
stroke
LT1
0.27 0.27 0.27 C 3340 1139 M
68 -43 V
3089 887 L
-68 -31 V
319 283 V
0 g gsave 2702 1453 N -318 -18 V 68 37 V 318 0 V 0.90 PolyFill
stroke
LT1
0.27 0.27 0.27 C 2702 1453 M
68 19 V
-318 0 V
-68 -37 V
318 18 V
0 g gsave 3021 1341 N -319 112 V 68 19 V 319 -85 V 0.90 PolyFill
stroke
LT1
0.27 0.27 0.27 C 3021 1341 M
68 46 V
-319 85 V
-68 -19 V
319 -112 V
1 g gsave 1540 721 N -319 13 V 69 45 V 319 -11 V 0.90 PolyFill
stroke
LT1
0.27 0.27 0.27 C 1540 721 M
69 47 V
-319 11 V
-69 -45 V
319 -13 V
1 g gsave 2565 730 N -318 10 V 68 46 V 318 -5 V 0.90 PolyFill
stroke
LT1
0.27 0.27 0.27 C 2565 730 M
68 51 V
-318 5 V
-68 -46 V
318 -10 V
1 g gsave 3796 1896 N -319 -851 V 68 -18 V 319 893 V 0.90 PolyFill
stroke
LT1
0.27 0.27 0.27 C 3796 1896 M
68 24 V
3545 1027 L
-68 18 V
319 851 V
0 g gsave 1358 1662 N -319 55 V 68 62 V 319 -115 V 0.90 PolyFill
stroke
LT1
0.27 0.27 0.27 C 1358 1662 M
68 2 V
-319 115 V
-68 -62 V
319 -55 V
0 g gsave 3340 1273 N -319 68 V 68 46 V 319 -131 V 0.90 PolyFill
stroke
LT1
0.27 0.27 0.27 C 3340 1273 M
68 -17 V
-319 131 V
-68 -46 V
319 -68 V
0 g gsave 1677 1550 N -319 112 V 68 2 V 319 -75 V 0.90 PolyFill
stroke
LT1
0.27 0.27 0.27 C 1677 1550 M
68 39 V
-319 75 V
-68 -2 V
319 -112 V
0 g gsave 3659 1168 N -319 105 V 68 -17 V 320 -25 V 0.90 PolyFill
stroke
LT1
0.27 0.27 0.27 C 3659 1168 M
69 63 V
-320 25 V
-68 17 V
319 -105 V
1 g gsave 1859 708 N -319 13 V 69 47 V 319 -14 V 0.90 PolyFill
stroke
LT1
0.27 0.27 0.27 C 1859 708 M
69 46 V
-319 14 V
-69 -47 V
319 -13 V
0 g gsave 1996 1510 N -319 40 V 68 39 V 320 4 V 0.90 PolyFill
stroke
LT1
0.27 0.27 0.27 C 1996 1510 M
69 83 V
-320 -4 V
-68 -39 V
319 -40 V
0 g gsave 2315 1388 N -319 122 V 69 83 V 319 -158 V 0.90 PolyFill
stroke
LT1
0.27 0.27 0.27 C 2315 1388 M
69 47 V
-319 158 V
-69 -83 V
319 -122 V
1 g gsave 2178 694 N -319 14 V 69 46 V 319 -14 V 0.90 PolyFill
stroke
LT1
0.27 0.27 0.27 C 2178 694 M
69 46 V
-319 14 V
-69 -46 V
319 -14 V
1 g gsave 2884 829 N -319 -99 V 68 51 V 320 51 V 0.90 PolyFill
stroke
LT1
0.27 0.27 0.27 C 2884 829 M
69 3 V
2633 781 L
-68 -51 V
319 99 V
0 g gsave 2633 1389 N -318 -1 V 69 47 V 318 18 V 0.90 PolyFill
stroke
LT1
0.27 0.27 0.27 C 2633 1389 M
69 64 V
-318 -18 V
-69 -47 V
318 1 V
0 g gsave 1290 1571 N -320 67 V 69 79 V 319 -55 V 0.90 PolyFill
stroke
LT1
0.27 0.27 0.27 C 1290 1571 M
68 91 V
-319 55 V
-69 -79 V
320 -67 V
0 g gsave 2953 1332 N -320 57 V 69 64 V 319 -112 V 0.90 PolyFill
stroke
LT1
0.27 0.27 0.27 C 2953 1332 M
68 9 V
-319 112 V
-69 -64 V
320 -57 V
0 g gsave 3272 1148 N -319 184 V 68 9 V 319 -68 V 0.90 PolyFill
stroke
LT1
0.27 0.27 0.27 C 3272 1148 M
68 125 V
-319 68 V
-68 -9 V
319 -184 V
1 g gsave 3272 1212 N -319 -380 V 68 24 V 319 283 V 0.90 PolyFill
stroke
LT1
0.27 0.27 0.27 C 3272 1212 M
68 -73 V
3021 856 L
-68 -24 V
319 380 V
1 g gsave 3728 1865 N -320 -769 V 69 -51 V 319 851 V 0.90 PolyFill
stroke
LT1
0.27 0.27 0.27 C 3728 1865 M
68 31 V
3477 1045 L
-69 51 V
320 769 V
0 g gsave 3591 1096 N -319 52 V 68 125 V 319 -105 V 0.90 PolyFill
stroke
LT1
0.27 0.27 0.27 C 3591 1096 M
68 72 V
-319 105 V
-68 -125 V
319 -52 V
1 g gsave 2498 721 N -320 -27 V 69 46 V 318 -10 V 0.90 PolyFill
stroke
LT1
0.27 0.27 0.27 C 2498 721 M
67 9 V
-318 10 V
-69 -46 V
320 27 V
0 g gsave 1609 1530 N -319 41 V 68 91 V 319 -112 V 0.90 PolyFill
stroke
LT1
0.27 0.27 0.27 C 1609 1530 M
68 20 V
-319 112 V
-68 -91 V
319 -41 V
0 g gsave 2247 1317 N -319 144 V 68 49 V 319 -122 V 0.90 PolyFill
stroke
LT1
0.27 0.27 0.27 C 2247 1317 M
68 71 V
-319 122 V
-68 -49 V
319 -144 V
0 g gsave 1928 1461 N -319 69 V 68 20 V 319 -40 V 0.90 PolyFill
stroke
LT1
0.27 0.27 0.27 C 1928 1461 M
68 49 V
-319 40 V
-68 -20 V
319 -69 V
0 g gsave 1221 1481 N -319 76 V 68 81 V 320 -67 V 0.90 PolyFill
stroke
LT1
0.27 0.27 0.27 C 1221 1481 M
69 90 V
-320 67 V
-68 -81 V
319 -76 V
0 g gsave 2884 1229 N -319 147 V 68 13 V 320 -57 V 0.90 PolyFill
stroke
LT1
0.27 0.27 0.27 C 2884 1229 M
69 103 V
-320 57 V
-68 -13 V
319 -147 V
0 g gsave 2565 1376 N -318 -59 V 68 71 V 318 1 V 0.90 PolyFill
stroke
LT1
0.27 0.27 0.27 C 2565 1376 M
68 13 V
-318 -1 V
-68 -71 V
318 59 V
1 g gsave 2816 868 N -318 -147 V 67 9 V 319 99 V 0.90 PolyFill
stroke
LT1
0.27 0.27 0.27 C 2816 868 M
68 -39 V
2565 730 L
-67 -9 V
318 147 V
0 g gsave 3203 1144 N -319 85 V 69 103 V 319 -184 V 0.90 PolyFill
stroke
LT1
0.27 0.27 0.27 C 3203 1144 M
69 4 V
-319 184 V
-69 -103 V
319 -85 V
0 g gsave 1540 1418 N -319 63 V 69 90 V 319 -41 V 0.90 PolyFill
stroke
LT1
0.27 0.27 0.27 C 1540 1418 M
69 112 V
-319 41 V
-69 -90 V
319 -63 V
0 g gsave 3522 1047 N -319 97 V 69 4 V 319 -52 V 0.90 PolyFill
stroke
LT1
0.27 0.27 0.27 C 3522 1047 M
69 49 V
-319 52 V
-69 -4 V
319 -97 V
1 g gsave 3659 1824 N -319 -685 V 68 -43 V 320 769 V 0.90 PolyFill
stroke
LT1
0.27 0.27 0.27 C 3659 1824 M
69 41 V
3408 1096 L
-68 43 V
319 685 V
0 g gsave 1859 1358 N -319 60 V 69 112 V 319 -69 V 0.90 PolyFill
stroke
LT1
0.27 0.27 0.27 C 1859 1358 M
69 103 V
-319 69 V
-69 -112 V
319 -60 V
0 g gsave 2178 1220 N -319 138 V 69 103 V 319 -144 V 0.90 PolyFill
stroke
LT1
0.27 0.27 0.27 C 2178 1220 M
69 97 V
-319 144 V
-69 -103 V
319 -138 V
1 g gsave 3203 1334 N -319 -505 V 69 3 V 319 380 V 0.90 PolyFill
stroke
LT1
0.27 0.27 0.27 C 3203 1334 M
69 -122 V
2953 832 L
-69 -3 V
319 505 V
0 g gsave 2498 1211 N -320 9 V 69 97 V 318 59 V 0.90 PolyFill
stroke
LT1
0.27 0.27 0.27 C 2498 1211 M
67 165 V
-318 -59 V
-69 -97 V
320 -9 V
0 g gsave 2816 1121 N -318 90 V 67 165 V 319 -147 V 0.90 PolyFill
stroke
LT1
0.27 0.27 0.27 C 2816 1121 M
68 108 V
-319 147 V
-67 -165 V
318 -90 V
0 g gsave 3135 1003 N -319 118 V 68 108 V 319 -85 V 0.90 PolyFill
stroke
LT1
0.27 0.27 0.27 C 3135 1003 M
68 141 V
-319 85 V
-68 -108 V
319 -118 V
0 g gsave 3454 966 N -319 37 V 68 141 V 319 -97 V 0.90 PolyFill
stroke
LT1
0.27 0.27 0.27 C 3454 966 M
68 81 V
-319 97 V
-68 -141 V
319 -37 V
1 g gsave 3591 1795 N -319 -583 V 68 -73 V 319 685 V 0.90 PolyFill
stroke
LT1
0.27 0.27 0.27 C 3591 1795 M
68 29 V
3340 1139 L
-68 73 V
319 583 V
1 g gsave 3135 1403 N -319 -535 V 68 -39 V 319 505 V 0.90 PolyFill
stroke
LT1
0.27 0.27 0.27 C 3135 1403 M
68 -69 V
2884 829 L
-68 39 V
319 535 V
1 g gsave 3522 1759 N -319 -425 V 69 -122 V 319 583 V 0.90 PolyFill
stroke
LT1
0.27 0.27 0.27 C 3522 1759 M
69 36 V
3272 1212 L
-69 122 V
319 425 V
1 g gsave 3454 1714 N -319 -311 V 68 -69 V 319 425 V 0.90 PolyFill
stroke
LT1
0.27 0.27 0.27 C 3454 1714 M
68 45 V
3203 1334 L
-68 69 V
319 311 V
stroke
1.000 UL
LTb
4138 1022 M
3454 570 L
902 691 M
3454 570 L
0 1144 V
stroke
LCb setrgbcolor
2007 397 M
[ [(Times-Roman) 120.0 0.0 true true 0 (Probability of incompleteness p1)]
] -40.0 MCshow
LTb
LCb setrgbcolor
4434 646 M
[ [(Times-Roman) 120.0 0.0 true true 0 (Probability of ties p2)]
] -40.0 MCshow
LTb
LCb setrgbcolor
398 1335 M
currentpoint gsave translate 90 rotate 0 0 moveto
[ [(Times-Roman) 120.0 0.0 true true 0 (Execution time \(s\))]
] -40.0 MCshow
grestore
LTb
1.000 UP
grestore % colour palette end
stroke
grestore
end
showpage
%%Trailer
%%DocumentFonts: Times-Roman
