%!PS-Adobe-2.0 EPSF-2.0
%%Title: AST50vsMC-3DTime.eps
%%Creator: gnuplot 4.6 patchlevel 4
%%CreationDate: Mon Sep  8 12:00:47 2014
%%DocumentFonts: (atend)
%%BoundingBox: 50 50 554 338
%%EndComments
%%BeginProlog
/gnudict 256 dict def
gnudict begin
%
% The following true/false flags may be edited by hand if desired.
% The unit line width and grayscale image gamma correction may also be changed.
%
/Color true def
/Blacktext false def
/Solid false def
/Dashlength 1 def
/Landscape false def
/Level1 false def
/Rounded false def
/ClipToBoundingBox false def
/SuppressPDFMark false def
/TransparentPatterns false def
/gnulinewidth 5.000 def
/userlinewidth gnulinewidth def
/Gamma 1.0 def
/BackgroundColor {-1.000 -1.000 -1.000} def
%
/vshift -66 def
/dl1 {
  10.0 Dashlength mul mul
  Rounded { currentlinewidth 0.75 mul sub dup 0 le { pop 0.01 } if } if
} def
/dl2 {
  10.0 Dashlength mul mul
  Rounded { currentlinewidth 0.75 mul add } if
} def
/hpt_ 31.5 def
/vpt_ 31.5 def
/hpt hpt_ def
/vpt vpt_ def
/doclip {
  ClipToBoundingBox {
    newpath 50 50 moveto 554 50 lineto 554 338 lineto 50 338 lineto closepath
    clip
  } if
} def
%
% Gnuplot Prolog Version 4.6 (September 2012)
%
%/SuppressPDFMark true def
%
/M {moveto} bind def
/L {lineto} bind def
/R {rmoveto} bind def
/V {rlineto} bind def
/N {newpath moveto} bind def
/Z {closepath} bind def
/C {setrgbcolor} bind def
/f {rlineto fill} bind def
/g {setgray} bind def
/Gshow {show} def   % May be redefined later in the file to support UTF-8
/vpt2 vpt 2 mul def
/hpt2 hpt 2 mul def
/Lshow {currentpoint stroke M 0 vshift R 
	Blacktext {gsave 0 setgray show grestore} {show} ifelse} def
/Rshow {currentpoint stroke M dup stringwidth pop neg vshift R
	Blacktext {gsave 0 setgray show grestore} {show} ifelse} def
/Cshow {currentpoint stroke M dup stringwidth pop -2 div vshift R 
	Blacktext {gsave 0 setgray show grestore} {show} ifelse} def
/UP {dup vpt_ mul /vpt exch def hpt_ mul /hpt exch def
  /hpt2 hpt 2 mul def /vpt2 vpt 2 mul def} def
/DL {Color {setrgbcolor Solid {pop []} if 0 setdash}
 {pop pop pop 0 setgray Solid {pop []} if 0 setdash} ifelse} def
/BL {stroke userlinewidth 2 mul setlinewidth
	Rounded {1 setlinejoin 1 setlinecap} if} def
/AL {stroke userlinewidth 2 div setlinewidth
	Rounded {1 setlinejoin 1 setlinecap} if} def
/UL {dup gnulinewidth mul /userlinewidth exch def
	dup 1 lt {pop 1} if 10 mul /udl exch def} def
/PL {stroke userlinewidth setlinewidth
	Rounded {1 setlinejoin 1 setlinecap} if} def
3.8 setmiterlimit
% Default Line colors
/LCw {1 1 1} def
/LCb {0 0 0} def
/LCa {0 0 0} def
/LC0 {1 0 0} def
/LC1 {0 1 0} def
/LC2 {0 0 1} def
/LC3 {1 0 1} def
/LC4 {0 1 1} def
/LC5 {1 1 0} def
/LC6 {0 0 0} def
/LC7 {1 0.3 0} def
/LC8 {0.5 0.5 0.5} def
% Default Line Types
/LTw {PL [] 1 setgray} def
/LTb {BL [] LCb DL} def
/LTa {AL [1 udl mul 2 udl mul] 0 setdash LCa setrgbcolor} def
/LT0 {PL [] LC0 DL} def
/LT1 {PL [4 dl1 2 dl2] LC1 DL} def
/LT2 {PL [2 dl1 3 dl2] LC2 DL} def
/LT3 {PL [1 dl1 1.5 dl2] LC3 DL} def
/LT4 {PL [6 dl1 2 dl2 1 dl1 2 dl2] LC4 DL} def
/LT5 {PL [3 dl1 3 dl2 1 dl1 3 dl2] LC5 DL} def
/LT6 {PL [2 dl1 2 dl2 2 dl1 6 dl2] LC6 DL} def
/LT7 {PL [1 dl1 2 dl2 6 dl1 2 dl2 1 dl1 2 dl2] LC7 DL} def
/LT8 {PL [2 dl1 2 dl2 2 dl1 2 dl2 2 dl1 2 dl2 2 dl1 4 dl2] LC8 DL} def
/Pnt {stroke [] 0 setdash gsave 1 setlinecap M 0 0 V stroke grestore} def
/Dia {stroke [] 0 setdash 2 copy vpt add M
  hpt neg vpt neg V hpt vpt neg V
  hpt vpt V hpt neg vpt V closepath stroke
  Pnt} def
/Pls {stroke [] 0 setdash vpt sub M 0 vpt2 V
  currentpoint stroke M
  hpt neg vpt neg R hpt2 0 V stroke
 } def
/Box {stroke [] 0 setdash 2 copy exch hpt sub exch vpt add M
  0 vpt2 neg V hpt2 0 V 0 vpt2 V
  hpt2 neg 0 V closepath stroke
  Pnt} def
/Crs {stroke [] 0 setdash exch hpt sub exch vpt add M
  hpt2 vpt2 neg V currentpoint stroke M
  hpt2 neg 0 R hpt2 vpt2 V stroke} def
/TriU {stroke [] 0 setdash 2 copy vpt 1.12 mul add M
  hpt neg vpt -1.62 mul V
  hpt 2 mul 0 V
  hpt neg vpt 1.62 mul V closepath stroke
  Pnt} def
/Star {2 copy Pls Crs} def
/BoxF {stroke [] 0 setdash exch hpt sub exch vpt add M
  0 vpt2 neg V hpt2 0 V 0 vpt2 V
  hpt2 neg 0 V closepath fill} def
/TriUF {stroke [] 0 setdash vpt 1.12 mul add M
  hpt neg vpt -1.62 mul V
  hpt 2 mul 0 V
  hpt neg vpt 1.62 mul V closepath fill} def
/TriD {stroke [] 0 setdash 2 copy vpt 1.12 mul sub M
  hpt neg vpt 1.62 mul V
  hpt 2 mul 0 V
  hpt neg vpt -1.62 mul V closepath stroke
  Pnt} def
/TriDF {stroke [] 0 setdash vpt 1.12 mul sub M
  hpt neg vpt 1.62 mul V
  hpt 2 mul 0 V
  hpt neg vpt -1.62 mul V closepath fill} def
/DiaF {stroke [] 0 setdash vpt add M
  hpt neg vpt neg V hpt vpt neg V
  hpt vpt V hpt neg vpt V closepath fill} def
/Pent {stroke [] 0 setdash 2 copy gsave
  translate 0 hpt M 4 {72 rotate 0 hpt L} repeat
  closepath stroke grestore Pnt} def
/PentF {stroke [] 0 setdash gsave
  translate 0 hpt M 4 {72 rotate 0 hpt L} repeat
  closepath fill grestore} def
/Circle {stroke [] 0 setdash 2 copy
  hpt 0 360 arc stroke Pnt} def
/CircleF {stroke [] 0 setdash hpt 0 360 arc fill} def
/C0 {BL [] 0 setdash 2 copy moveto vpt 90 450 arc} bind def
/C1 {BL [] 0 setdash 2 copy moveto
	2 copy vpt 0 90 arc closepath fill
	vpt 0 360 arc closepath} bind def
/C2 {BL [] 0 setdash 2 copy moveto
	2 copy vpt 90 180 arc closepath fill
	vpt 0 360 arc closepath} bind def
/C3 {BL [] 0 setdash 2 copy moveto
	2 copy vpt 0 180 arc closepath fill
	vpt 0 360 arc closepath} bind def
/C4 {BL [] 0 setdash 2 copy moveto
	2 copy vpt 180 270 arc closepath fill
	vpt 0 360 arc closepath} bind def
/C5 {BL [] 0 setdash 2 copy moveto
	2 copy vpt 0 90 arc
	2 copy moveto
	2 copy vpt 180 270 arc closepath fill
	vpt 0 360 arc} bind def
/C6 {BL [] 0 setdash 2 copy moveto
	2 copy vpt 90 270 arc closepath fill
	vpt 0 360 arc closepath} bind def
/C7 {BL [] 0 setdash 2 copy moveto
	2 copy vpt 0 270 arc closepath fill
	vpt 0 360 arc closepath} bind def
/C8 {BL [] 0 setdash 2 copy moveto
	2 copy vpt 270 360 arc closepath fill
	vpt 0 360 arc closepath} bind def
/C9 {BL [] 0 setdash 2 copy moveto
	2 copy vpt 270 450 arc closepath fill
	vpt 0 360 arc closepath} bind def
/C10 {BL [] 0 setdash 2 copy 2 copy moveto vpt 270 360 arc closepath fill
	2 copy moveto
	2 copy vpt 90 180 arc closepath fill
	vpt 0 360 arc closepath} bind def
/C11 {BL [] 0 setdash 2 copy moveto
	2 copy vpt 0 180 arc closepath fill
	2 copy moveto
	2 copy vpt 270 360 arc closepath fill
	vpt 0 360 arc closepath} bind def
/C12 {BL [] 0 setdash 2 copy moveto
	2 copy vpt 180 360 arc closepath fill
	vpt 0 360 arc closepath} bind def
/C13 {BL [] 0 setdash 2 copy moveto
	2 copy vpt 0 90 arc closepath fill
	2 copy moveto
	2 copy vpt 180 360 arc closepath fill
	vpt 0 360 arc closepath} bind def
/C14 {BL [] 0 setdash 2 copy moveto
	2 copy vpt 90 360 arc closepath fill
	vpt 0 360 arc} bind def
/C15 {BL [] 0 setdash 2 copy vpt 0 360 arc closepath fill
	vpt 0 360 arc closepath} bind def
/Rec {newpath 4 2 roll moveto 1 index 0 rlineto 0 exch rlineto
	neg 0 rlineto closepath} bind def
/Square {dup Rec} bind def
/Bsquare {vpt sub exch vpt sub exch vpt2 Square} bind def
/S0 {BL [] 0 setdash 2 copy moveto 0 vpt rlineto BL Bsquare} bind def
/S1 {BL [] 0 setdash 2 copy vpt Square fill Bsquare} bind def
/S2 {BL [] 0 setdash 2 copy exch vpt sub exch vpt Square fill Bsquare} bind def
/S3 {BL [] 0 setdash 2 copy exch vpt sub exch vpt2 vpt Rec fill Bsquare} bind def
/S4 {BL [] 0 setdash 2 copy exch vpt sub exch vpt sub vpt Square fill Bsquare} bind def
/S5 {BL [] 0 setdash 2 copy 2 copy vpt Square fill
	exch vpt sub exch vpt sub vpt Square fill Bsquare} bind def
/S6 {BL [] 0 setdash 2 copy exch vpt sub exch vpt sub vpt vpt2 Rec fill Bsquare} bind def
/S7 {BL [] 0 setdash 2 copy exch vpt sub exch vpt sub vpt vpt2 Rec fill
	2 copy vpt Square fill Bsquare} bind def
/S8 {BL [] 0 setdash 2 copy vpt sub vpt Square fill Bsquare} bind def
/S9 {BL [] 0 setdash 2 copy vpt sub vpt vpt2 Rec fill Bsquare} bind def
/S10 {BL [] 0 setdash 2 copy vpt sub vpt Square fill 2 copy exch vpt sub exch vpt Square fill
	Bsquare} bind def
/S11 {BL [] 0 setdash 2 copy vpt sub vpt Square fill 2 copy exch vpt sub exch vpt2 vpt Rec fill
	Bsquare} bind def
/S12 {BL [] 0 setdash 2 copy exch vpt sub exch vpt sub vpt2 vpt Rec fill Bsquare} bind def
/S13 {BL [] 0 setdash 2 copy exch vpt sub exch vpt sub vpt2 vpt Rec fill
	2 copy vpt Square fill Bsquare} bind def
/S14 {BL [] 0 setdash 2 copy exch vpt sub exch vpt sub vpt2 vpt Rec fill
	2 copy exch vpt sub exch vpt Square fill Bsquare} bind def
/S15 {BL [] 0 setdash 2 copy Bsquare fill Bsquare} bind def
/D0 {gsave translate 45 rotate 0 0 S0 stroke grestore} bind def
/D1 {gsave translate 45 rotate 0 0 S1 stroke grestore} bind def
/D2 {gsave translate 45 rotate 0 0 S2 stroke grestore} bind def
/D3 {gsave translate 45 rotate 0 0 S3 stroke grestore} bind def
/D4 {gsave translate 45 rotate 0 0 S4 stroke grestore} bind def
/D5 {gsave translate 45 rotate 0 0 S5 stroke grestore} bind def
/D6 {gsave translate 45 rotate 0 0 S6 stroke grestore} bind def
/D7 {gsave translate 45 rotate 0 0 S7 stroke grestore} bind def
/D8 {gsave translate 45 rotate 0 0 S8 stroke grestore} bind def
/D9 {gsave translate 45 rotate 0 0 S9 stroke grestore} bind def
/D10 {gsave translate 45 rotate 0 0 S10 stroke grestore} bind def
/D11 {gsave translate 45 rotate 0 0 S11 stroke grestore} bind def
/D12 {gsave translate 45 rotate 0 0 S12 stroke grestore} bind def
/D13 {gsave translate 45 rotate 0 0 S13 stroke grestore} bind def
/D14 {gsave translate 45 rotate 0 0 S14 stroke grestore} bind def
/D15 {gsave translate 45 rotate 0 0 S15 stroke grestore} bind def
/DiaE {stroke [] 0 setdash vpt add M
  hpt neg vpt neg V hpt vpt neg V
  hpt vpt V hpt neg vpt V closepath stroke} def
/BoxE {stroke [] 0 setdash exch hpt sub exch vpt add M
  0 vpt2 neg V hpt2 0 V 0 vpt2 V
  hpt2 neg 0 V closepath stroke} def
/TriUE {stroke [] 0 setdash vpt 1.12 mul add M
  hpt neg vpt -1.62 mul V
  hpt 2 mul 0 V
  hpt neg vpt 1.62 mul V closepath stroke} def
/TriDE {stroke [] 0 setdash vpt 1.12 mul sub M
  hpt neg vpt 1.62 mul V
  hpt 2 mul 0 V
  hpt neg vpt -1.62 mul V closepath stroke} def
/PentE {stroke [] 0 setdash gsave
  translate 0 hpt M 4 {72 rotate 0 hpt L} repeat
  closepath stroke grestore} def
/CircE {stroke [] 0 setdash 
  hpt 0 360 arc stroke} def
/Opaque {gsave closepath 1 setgray fill grestore 0 setgray closepath} def
/DiaW {stroke [] 0 setdash vpt add M
  hpt neg vpt neg V hpt vpt neg V
  hpt vpt V hpt neg vpt V Opaque stroke} def
/BoxW {stroke [] 0 setdash exch hpt sub exch vpt add M
  0 vpt2 neg V hpt2 0 V 0 vpt2 V
  hpt2 neg 0 V Opaque stroke} def
/TriUW {stroke [] 0 setdash vpt 1.12 mul add M
  hpt neg vpt -1.62 mul V
  hpt 2 mul 0 V
  hpt neg vpt 1.62 mul V Opaque stroke} def
/TriDW {stroke [] 0 setdash vpt 1.12 mul sub M
  hpt neg vpt 1.62 mul V
  hpt 2 mul 0 V
  hpt neg vpt -1.62 mul V Opaque stroke} def
/PentW {stroke [] 0 setdash gsave
  translate 0 hpt M 4 {72 rotate 0 hpt L} repeat
  Opaque stroke grestore} def
/CircW {stroke [] 0 setdash 
  hpt 0 360 arc Opaque stroke} def
/BoxFill {gsave Rec 1 setgray fill grestore} def
/Density {
  /Fillden exch def
  currentrgbcolor
  /ColB exch def /ColG exch def /ColR exch def
  /ColR ColR Fillden mul Fillden sub 1 add def
  /ColG ColG Fillden mul Fillden sub 1 add def
  /ColB ColB Fillden mul Fillden sub 1 add def
  ColR ColG ColB setrgbcolor} def
/BoxColFill {gsave Rec PolyFill} def
/PolyFill {gsave Density fill grestore grestore} def
/h {rlineto rlineto rlineto gsave closepath fill grestore} bind def
%
% PostScript Level 1 Pattern Fill routine for rectangles
% Usage: x y w h s a XX PatternFill
%	x,y = lower left corner of box to be filled
%	w,h = width and height of box
%	  a = angle in degrees between lines and x-axis
%	 XX = 0/1 for no/yes cross-hatch
%
/PatternFill {gsave /PFa [ 9 2 roll ] def
  PFa 0 get PFa 2 get 2 div add PFa 1 get PFa 3 get 2 div add translate
  PFa 2 get -2 div PFa 3 get -2 div PFa 2 get PFa 3 get Rec
  TransparentPatterns {} {gsave 1 setgray fill grestore} ifelse
  clip
  currentlinewidth 0.5 mul setlinewidth
  /PFs PFa 2 get dup mul PFa 3 get dup mul add sqrt def
  0 0 M PFa 5 get rotate PFs -2 div dup translate
  0 1 PFs PFa 4 get div 1 add floor cvi
	{PFa 4 get mul 0 M 0 PFs V} for
  0 PFa 6 get ne {
	0 1 PFs PFa 4 get div 1 add floor cvi
	{PFa 4 get mul 0 2 1 roll M PFs 0 V} for
 } if
  stroke grestore} def
%
/languagelevel where
 {pop languagelevel} {1} ifelse
 2 lt
	{/InterpretLevel1 true def}
	{/InterpretLevel1 Level1 def}
 ifelse
%
% PostScript level 2 pattern fill definitions
%
/Level2PatternFill {
/Tile8x8 {/PaintType 2 /PatternType 1 /TilingType 1 /BBox [0 0 8 8] /XStep 8 /YStep 8}
	bind def
/KeepColor {currentrgbcolor [/Pattern /DeviceRGB] setcolorspace} bind def
<< Tile8x8
 /PaintProc {0.5 setlinewidth pop 0 0 M 8 8 L 0 8 M 8 0 L stroke} 
>> matrix makepattern
/Pat1 exch def
<< Tile8x8
 /PaintProc {0.5 setlinewidth pop 0 0 M 8 8 L 0 8 M 8 0 L stroke
	0 4 M 4 8 L 8 4 L 4 0 L 0 4 L stroke}
>> matrix makepattern
/Pat2 exch def
<< Tile8x8
 /PaintProc {0.5 setlinewidth pop 0 0 M 0 8 L
	8 8 L 8 0 L 0 0 L fill}
>> matrix makepattern
/Pat3 exch def
<< Tile8x8
 /PaintProc {0.5 setlinewidth pop -4 8 M 8 -4 L
	0 12 M 12 0 L stroke}
>> matrix makepattern
/Pat4 exch def
<< Tile8x8
 /PaintProc {0.5 setlinewidth pop -4 0 M 8 12 L
	0 -4 M 12 8 L stroke}
>> matrix makepattern
/Pat5 exch def
<< Tile8x8
 /PaintProc {0.5 setlinewidth pop -2 8 M 4 -4 L
	0 12 M 8 -4 L 4 12 M 10 0 L stroke}
>> matrix makepattern
/Pat6 exch def
<< Tile8x8
 /PaintProc {0.5 setlinewidth pop -2 0 M 4 12 L
	0 -4 M 8 12 L 4 -4 M 10 8 L stroke}
>> matrix makepattern
/Pat7 exch def
<< Tile8x8
 /PaintProc {0.5 setlinewidth pop 8 -2 M -4 4 L
	12 0 M -4 8 L 12 4 M 0 10 L stroke}
>> matrix makepattern
/Pat8 exch def
<< Tile8x8
 /PaintProc {0.5 setlinewidth pop 0 -2 M 12 4 L
	-4 0 M 12 8 L -4 4 M 8 10 L stroke}
>> matrix makepattern
/Pat9 exch def
/Pattern1 {PatternBgnd KeepColor Pat1 setpattern} bind def
/Pattern2 {PatternBgnd KeepColor Pat2 setpattern} bind def
/Pattern3 {PatternBgnd KeepColor Pat3 setpattern} bind def
/Pattern4 {PatternBgnd KeepColor Landscape {Pat5} {Pat4} ifelse setpattern} bind def
/Pattern5 {PatternBgnd KeepColor Landscape {Pat4} {Pat5} ifelse setpattern} bind def
/Pattern6 {PatternBgnd KeepColor Landscape {Pat9} {Pat6} ifelse setpattern} bind def
/Pattern7 {PatternBgnd KeepColor Landscape {Pat8} {Pat7} ifelse setpattern} bind def
} def
%
%
%End of PostScript Level 2 code
%
/PatternBgnd {
  TransparentPatterns {} {gsave 1 setgray fill grestore} ifelse
} def
%
% Substitute for Level 2 pattern fill codes with
% grayscale if Level 2 support is not selected.
%
/Level1PatternFill {
/Pattern1 {0.250 Density} bind def
/Pattern2 {0.500 Density} bind def
/Pattern3 {0.750 Density} bind def
/Pattern4 {0.125 Density} bind def
/Pattern5 {0.375 Density} bind def
/Pattern6 {0.625 Density} bind def
/Pattern7 {0.875 Density} bind def
} def
%
% Now test for support of Level 2 code
%
Level1 {Level1PatternFill} {Level2PatternFill} ifelse
%
/Symbol-Oblique /Symbol findfont [1 0 .167 1 0 0] makefont
dup length dict begin {1 index /FID eq {pop pop} {def} ifelse} forall
currentdict end definefont pop
/MFshow {
   { dup 5 get 3 ge
     { 5 get 3 eq {gsave} {grestore} ifelse }
     {dup dup 0 get findfont exch 1 get scalefont setfont
     [ currentpoint ] exch dup 2 get 0 exch R dup 5 get 2 ne {dup dup 6
     get exch 4 get {Gshow} {stringwidth pop 0 R} ifelse }if dup 5 get 0 eq
     {dup 3 get {2 get neg 0 exch R pop} {pop aload pop M} ifelse} {dup 5
     get 1 eq {dup 2 get exch dup 3 get exch 6 get stringwidth pop -2 div
     dup 0 R} {dup 6 get stringwidth pop -2 div 0 R 6 get
     show 2 index {aload pop M neg 3 -1 roll neg R pop pop} {pop pop pop
     pop aload pop M} ifelse }ifelse }ifelse }
     ifelse }
   forall} def
/Gswidth {dup type /stringtype eq {stringwidth} {pop (n) stringwidth} ifelse} def
/MFwidth {0 exch { dup 5 get 3 ge { 5 get 3 eq { 0 } { pop } ifelse }
 {dup 3 get{dup dup 0 get findfont exch 1 get scalefont setfont
     6 get Gswidth pop add} {pop} ifelse} ifelse} forall} def
/MLshow { currentpoint stroke M
  0 exch R
  Blacktext {gsave 0 setgray MFshow grestore} {MFshow} ifelse } bind def
/MRshow { currentpoint stroke M
  exch dup MFwidth neg 3 -1 roll R
  Blacktext {gsave 0 setgray MFshow grestore} {MFshow} ifelse } bind def
/MCshow { currentpoint stroke M
  exch dup MFwidth -2 div 3 -1 roll R
  Blacktext {gsave 0 setgray MFshow grestore} {MFshow} ifelse } bind def
/XYsave    { [( ) 1 2 true false 3 ()] } bind def
/XYrestore { [( ) 1 2 true false 4 ()] } bind def
Level1 SuppressPDFMark or 
{} {
/SDict 10 dict def
systemdict /pdfmark known not {
  userdict /pdfmark systemdict /cleartomark get put
} if
SDict begin [
  /Title (AST50vsMC-3DTime.eps)
  /Subject (gnuplot plot)
  /Creator (gnuplot 4.6 patchlevel 4)
  /Author (danny)
%  /Producer (gnuplot)
%  /Keywords ()
  /CreationDate (Mon Sep  8 12:00:47 2014)
  /DOCINFO pdfmark
end
} ifelse
end
%%EndProlog
%%Page: 1 1
gnudict begin
gsave
doclip
50 50 translate
0.050 0.050 scale
0 setgray
newpath
(Times-Roman) findfont 200 scalefont setfont
BackgroundColor 0 lt 3 1 roll 0 lt exch 0 lt or or not {BackgroundColor C 1.000 0 0 10080.00 5760.00 BoxColFill} if
gsave % colour palette begin
/maxcolors 0 def
/HSV2RGB {  exch dup 0.0 eq {pop exch pop dup dup} % achromatic gray
  { /HSVs exch def /HSVv exch def 6.0 mul dup floor dup 3 1 roll sub
     /HSVf exch def /HSVi exch cvi def /HSVp HSVv 1.0 HSVs sub mul def
	 /HSVq HSVv 1.0 HSVs HSVf mul sub mul def 
	 /HSVt HSVv 1.0 HSVs 1.0 HSVf sub mul sub mul def
	 /HSVi HSVi 6 mod def 0 HSVi eq {HSVv HSVt HSVp}
	 {1 HSVi eq {HSVq HSVv HSVp}{2 HSVi eq {HSVp HSVv HSVt}
	 {3 HSVi eq {HSVp HSVq HSVv}{4 HSVi eq {HSVt HSVp HSVv}
	 {HSVv HSVp HSVq} ifelse} ifelse} ifelse} ifelse} ifelse
  } ifelse} def
/Constrain {
  dup 0 lt {0 exch pop}{dup 1 gt {1 exch pop} if} ifelse} def
/YIQ2RGB {
  3 copy -1.702 mul exch -1.105 mul add add Constrain 4 1 roll
  3 copy -0.647 mul exch -0.272 mul add add Constrain 5 1 roll
  0.621 mul exch -0.956 mul add add Constrain 3 1 roll } def
/CMY2RGB {  1 exch sub exch 1 exch sub 3 2 roll 1 exch sub 3 1 roll exch } def
/XYZ2RGB {  3 copy -0.9017 mul exch -0.1187 mul add exch 0.0585 mul exch add
  Constrain 4 1 roll 3 copy -0.0279 mul exch 1.999 mul add exch
  -0.9844 mul add Constrain 5 1 roll -0.2891 mul exch -0.5338 mul add
  exch 1.91 mul exch add Constrain 3 1 roll} def
/SelectSpace {ColorSpace (HSV) eq {HSV2RGB}{ColorSpace (XYZ) eq {
  XYZ2RGB}{ColorSpace (CMY) eq {CMY2RGB}{ColorSpace (YIQ) eq {YIQ2RGB}
  if} ifelse} ifelse} ifelse} def
/InterpolatedColor true def
/grayindex {/gidx 0 def
  {GrayA gidx get grayv ge {exit} if /gidx gidx 1 add def} loop} def
/dgdx {grayv GrayA gidx get sub GrayA gidx 1 sub get
  GrayA gidx get sub div} def 
/redvalue {RedA gidx get RedA gidx 1 sub get
  RedA gidx get sub dgdxval mul add} def
/greenvalue {GreenA gidx get GreenA gidx 1 sub get
  GreenA gidx get sub dgdxval mul add} def
/bluevalue {BlueA gidx get BlueA gidx 1 sub get
  BlueA gidx get sub dgdxval mul add} def
/interpolate {
  grayindex grayv GrayA gidx get sub abs 1e-5 le
    {RedA gidx get GreenA gidx get BlueA gidx get}
    {/dgdxval dgdx def redvalue greenvalue bluevalue} ifelse} def
/GrayA [0 1 ] def
/RedA [0 1 ] def
/GreenA [1 0 ] def
/BlueA [0 0 ] def
/pm3dround {maxcolors 0 gt {dup 1 ge
	{pop 1} {maxcolors mul floor maxcolors 1 sub div} ifelse} if} def
/pm3dGamma 1.0 1.5 Gamma mul div def
/ColorSpace (RGB) def
Color InterpolatedColor or { % COLOUR vs. GRAY map
  InterpolatedColor { %% Interpolation vs. RGB-Formula
    /g {stroke pm3dround /grayv exch def interpolate
        SelectSpace setrgbcolor} bind def
  }{
  /g {stroke pm3dround dup cF7 Constrain exch dup cF5 Constrain exch cF15 Constrain 
       SelectSpace setrgbcolor} bind def
  } ifelse
}{
  /g {stroke pm3dround pm3dGamma exp setgray} bind def
} ifelse
1.000 UL
LTb
LCb setrgbcolor
1.000 UL
LTb
LCb setrgbcolor
1726 1307 M
1401 936 V
stroke
LTb
LCb setrgbcolor
8354 1992 M
3127 2243 L
stroke
LTb
LCb setrgbcolor
1726 1307 M
0 2661 V
stroke
LTb
LCb setrgbcolor
3127 2243 M
0 2661 V
stroke
LTb
LCb setrgbcolor
8354 1992 M
0 2661 V
stroke
LTb
LCb setrgbcolor
1726 3968 M
1401 936 V
stroke
LTb
LCb setrgbcolor
8354 4653 M
3127 4904 L
stroke
LTa
LCa setrgbcolor
1726 1307 M
1401 936 V
stroke
LTb
LCb setrgbcolor
1726 1307 M
31 21 V
stroke
LTb
LCb setrgbcolor
1666 1241 M
[ [(Times-Roman) 200.0 0.0 true true 0 ( 0.1)]
] -66.7 MCshow
1.000 UL
LTb
LCb setrgbcolor
1.000 UL
LTb
LCb setrgbcolor
3127 2243 M
-31 -21 V
stroke
LTa
LCa setrgbcolor
2379 1276 M
1401 935 V
stroke
LTb
LCb setrgbcolor
2379 1276 M
31 20 V
stroke
LTb
LCb setrgbcolor
2320 1209 M
[ [(Times-Roman) 200.0 0.0 true true 0 ( 0.2)]
] -66.7 MCshow
1.000 UL
LTb
LCb setrgbcolor
1.000 UL
LTb
LCb setrgbcolor
3780 2211 M
-31 -20 V
stroke
LTa
LCa setrgbcolor
3033 1244 M
1401 936 V
stroke
LTb
LCb setrgbcolor
3033 1244 M
31 21 V
stroke
LTb
LCb setrgbcolor
2974 1178 M
[ [(Times-Roman) 200.0 0.0 true true 0 ( 0.3)]
] -66.7 MCshow
1.000 UL
LTb
LCb setrgbcolor
1.000 UL
LTb
LCb setrgbcolor
4434 2180 M
-31 -21 V
stroke
LTa
LCa setrgbcolor
3686 1213 M
1400 936 V
stroke
LTb
LCb setrgbcolor
3686 1213 M
32 21 V
stroke
LTb
LCb setrgbcolor
3627 1147 M
[ [(Times-Roman) 200.0 0.0 true true 0 ( 0.4)]
] -66.7 MCshow
1.000 UL
LTb
LCb setrgbcolor
1.000 UL
LTb
LCb setrgbcolor
5086 2149 M
-31 -21 V
stroke
LTa
LCa setrgbcolor
4340 1181 M
1400 936 V
stroke
LTb
LCb setrgbcolor
4340 1181 M
31 21 V
stroke
LTb
LCb setrgbcolor
4281 1115 M
[ [(Times-Roman) 200.0 0.0 true true 0 ( 0.5)]
] -66.7 MCshow
1.000 UL
LTb
LCb setrgbcolor
1.000 UL
LTb
LCb setrgbcolor
5740 2117 M
-31 -20 V
stroke
LTa
LCa setrgbcolor
4994 1150 M
1400 936 V
stroke
LTb
LCb setrgbcolor
4994 1150 M
31 21 V
stroke
LTb
LCb setrgbcolor
4934 1084 M
[ [(Times-Roman) 200.0 0.0 true true 0 ( 0.6)]
] -66.7 MCshow
1.000 UL
LTb
LCb setrgbcolor
1.000 UL
LTb
LCb setrgbcolor
6394 2086 M
-32 -21 V
stroke
LTa
LCa setrgbcolor
5646 1119 M
1401 936 V
stroke
LTb
LCb setrgbcolor
5646 1119 M
31 21 V
stroke
LTb
LCb setrgbcolor
5587 1053 M
[ [(Times-Roman) 200.0 0.0 true true 0 ( 0.7)]
] -66.7 MCshow
1.000 UL
LTb
LCb setrgbcolor
1.000 UL
LTb
LCb setrgbcolor
7047 2055 M
-31 -21 V
stroke
LTa
LCa setrgbcolor
6300 1087 M
1401 936 V
stroke
LTb
LCb setrgbcolor
6300 1087 M
31 21 V
stroke
LTb
LCb setrgbcolor
6240 1021 M
[ [(Times-Roman) 200.0 0.0 true true 0 ( 0.8)]
] -66.7 MCshow
1.000 UL
LTb
LCb setrgbcolor
1.000 UL
LTb
LCb setrgbcolor
7701 2023 M
-31 -20 V
stroke
LTa
LCa setrgbcolor
6953 1056 M
1401 936 V
stroke
LTb
LCb setrgbcolor
6953 1056 M
31 21 V
stroke
LTb
LCb setrgbcolor
6894 990 M
[ [(Times-Roman) 200.0 0.0 true true 0 ( 0.9)]
] -66.7 MCshow
1.000 UL
LTb
LCb setrgbcolor
1.000 UL
LTb
LCb setrgbcolor
8354 1992 M
-31 -21 V
stroke
LTa
LCa setrgbcolor
6953 1056 M
1726 1307 L
stroke
LTb
LCb setrgbcolor
6953 1056 M
-61 3 V
stroke
7069 1047 M
[ [(Times-Roman) 200.0 0.0 true true 0 ( 0)]
] -66.7 MLshow
1.000 UL
LTb
LCb setrgbcolor
1.000 UL
LTb
LCb setrgbcolor
1726 1307 M
61 -3 V
stroke
LTa
LCa setrgbcolor
7093 1150 M
1866 1400 L
stroke
LTb
LCb setrgbcolor
7093 1150 M
-60 3 V
stroke
7209 1140 M
[ [(Times-Roman) 200.0 0.0 true true 0 ( 0.1)]
] -66.7 MLshow
1.000 UL
LTb
LCb setrgbcolor
1.000 UL
LTb
LCb setrgbcolor
1866 1400 M
61 -2 V
stroke
LTa
LCa setrgbcolor
7233 1243 M
2006 1494 L
stroke
LTb
LCb setrgbcolor
7233 1243 M
-60 3 V
stroke
7349 1234 M
[ [(Times-Roman) 200.0 0.0 true true 0 ( 0.2)]
] -66.7 MLshow
1.000 UL
LTb
LCb setrgbcolor
1.000 UL
LTb
LCb setrgbcolor
2006 1494 M
61 -3 V
stroke
LTa
LCa setrgbcolor
7374 1337 M
2146 1588 L
stroke
LTb
LCb setrgbcolor
7374 1337 M
-61 3 V
stroke
7489 1328 M
[ [(Times-Roman) 200.0 0.0 true true 0 ( 0.3)]
] -66.7 MLshow
1.000 UL
LTb
LCb setrgbcolor
1.000 UL
LTb
LCb setrgbcolor
2146 1588 M
61 -3 V
stroke
LTa
LCa setrgbcolor
7514 1430 M
2286 1681 L
stroke
LTb
LCb setrgbcolor
7514 1430 M
-61 3 V
stroke
7630 1421 M
[ [(Times-Roman) 200.0 0.0 true true 0 ( 0.4)]
] -66.7 MLshow
1.000 UL
LTb
LCb setrgbcolor
1.000 UL
LTb
LCb setrgbcolor
2286 1681 M
61 -3 V
stroke
LTa
LCa setrgbcolor
7654 1524 M
2426 1775 L
stroke
LTb
LCb setrgbcolor
7654 1524 M
-61 3 V
stroke
7770 1515 M
[ [(Times-Roman) 200.0 0.0 true true 0 ( 0.5)]
] -66.7 MLshow
1.000 UL
LTb
LCb setrgbcolor
1.000 UL
LTb
LCb setrgbcolor
2426 1775 M
61 -3 V
stroke
LTa
LCa setrgbcolor
7794 1618 M
2566 1868 L
stroke
LTb
LCb setrgbcolor
7794 1618 M
-61 3 V
stroke
7910 1608 M
[ [(Times-Roman) 200.0 0.0 true true 0 ( 0.6)]
] -66.7 MLshow
1.000 UL
LTb
LCb setrgbcolor
1.000 UL
LTb
LCb setrgbcolor
2566 1868 M
61 -3 V
stroke
LTa
LCa setrgbcolor
7934 1711 M
2706 1962 L
stroke
LTb
LCb setrgbcolor
7934 1711 M
-61 3 V
stroke
8050 1702 M
[ [(Times-Roman) 200.0 0.0 true true 0 ( 0.7)]
] -66.7 MLshow
1.000 UL
LTb
LCb setrgbcolor
1.000 UL
LTb
LCb setrgbcolor
2706 1962 M
61 -3 V
stroke
LTa
LCa setrgbcolor
8074 1805 M
2847 2056 L
stroke
LTb
LCb setrgbcolor
8074 1805 M
-61 3 V
stroke
8190 1796 M
[ [(Times-Roman) 200.0 0.0 true true 0 ( 0.8)]
] -66.7 MLshow
1.000 UL
LTb
LCb setrgbcolor
1.000 UL
LTb
LCb setrgbcolor
2847 2056 M
60 -3 V
stroke
LTa
LCa setrgbcolor
8214 1898 M
2987 2149 L
stroke
LTb
LCb setrgbcolor
8214 1898 M
-61 3 V
stroke
8330 1889 M
[ [(Times-Roman) 200.0 0.0 true true 0 ( 0.9)]
] -66.7 MLshow
1.000 UL
LTb
LCb setrgbcolor
1.000 UL
LTb
LCb setrgbcolor
2987 2149 M
60 -3 V
stroke
LTa
LCa setrgbcolor
8354 1992 M
3127 2243 L
stroke
LTb
LCb setrgbcolor
8354 1992 M
-61 3 V
stroke
8470 1983 M
[ [(Times-Roman) 200.0 0.0 true true 0 ( 1)]
] -66.7 MLshow
1.000 UL
LTb
LCb setrgbcolor
1.000 UL
LTb
LCb setrgbcolor
3127 2243 M
61 -3 V
stroke
LTa
LCa setrgbcolor
1726 1307 M
1401 936 V
stroke
LTa
LCa setrgbcolor
3127 2243 M
8354 1992 L
stroke
LTb
LCb setrgbcolor
1726 1307 M
63 0 V
stroke
1600 1307 M
[ [(Times-Roman) 200.0 0.0 true true 0 ( 0)]
] -66.7 MRshow
1.000 UL
LTb
LCb setrgbcolor
1.000 UL
LTa
LCa setrgbcolor
1726 1549 M
1401 936 V
stroke
LTa
LCa setrgbcolor
3127 2485 M
8354 2234 L
stroke
LTb
LCb setrgbcolor
1726 1549 M
63 0 V
stroke
1600 1549 M
[ [(Times-Roman) 200.0 0.0 true true 0 ( 0.005)]
] -66.7 MRshow
1.000 UL
LTb
LCb setrgbcolor
1.000 UL
LTa
LCa setrgbcolor
1726 1791 M
1401 936 V
stroke
LTa
LCa setrgbcolor
3127 2727 M
8354 2476 L
stroke
LTb
LCb setrgbcolor
1726 1791 M
63 0 V
stroke
1600 1791 M
[ [(Times-Roman) 200.0 0.0 true true 0 ( 0.01)]
] -66.7 MRshow
1.000 UL
LTb
LCb setrgbcolor
1.000 UL
LTa
LCa setrgbcolor
1726 2033 M
1401 936 V
stroke
LTa
LCa setrgbcolor
3127 2969 M
8354 2718 L
stroke
LTb
LCb setrgbcolor
1726 2033 M
63 0 V
stroke
1600 2033 M
[ [(Times-Roman) 200.0 0.0 true true 0 ( 0.015)]
] -66.7 MRshow
1.000 UL
LTb
LCb setrgbcolor
1.000 UL
LTa
LCa setrgbcolor
1726 2275 M
1401 935 V
stroke
LTa
LCa setrgbcolor
3127 3210 M
8354 2960 L
stroke
LTb
LCb setrgbcolor
1726 2275 M
63 0 V
stroke
1600 2275 M
[ [(Times-Roman) 200.0 0.0 true true 0 ( 0.02)]
] -66.7 MRshow
1.000 UL
LTb
LCb setrgbcolor
1.000 UL
LTa
LCa setrgbcolor
1726 2517 M
1401 935 V
stroke
LTa
LCa setrgbcolor
3127 3452 M
8354 3201 L
stroke
LTb
LCb setrgbcolor
1726 2517 M
63 0 V
stroke
1600 2517 M
[ [(Times-Roman) 200.0 0.0 true true 0 ( 0.025)]
] -66.7 MRshow
1.000 UL
LTb
LCb setrgbcolor
1.000 UL
LTa
LCa setrgbcolor
1726 2759 M
1401 935 V
stroke
LTa
LCa setrgbcolor
3127 3694 M
8354 3443 L
stroke
LTb
LCb setrgbcolor
1726 2759 M
63 0 V
stroke
1600 2759 M
[ [(Times-Roman) 200.0 0.0 true true 0 ( 0.03)]
] -66.7 MRshow
1.000 UL
LTb
LCb setrgbcolor
1.000 UL
LTa
LCa setrgbcolor
1726 3000 M
1401 936 V
stroke
LTa
LCa setrgbcolor
3127 3936 M
8354 3685 L
stroke
LTb
LCb setrgbcolor
1726 3000 M
63 0 V
stroke
1600 3000 M
[ [(Times-Roman) 200.0 0.0 true true 0 ( 0.035)]
] -66.7 MRshow
1.000 UL
LTb
LCb setrgbcolor
1.000 UL
LTa
LCa setrgbcolor
1726 3242 M
1401 936 V
stroke
LTa
LCa setrgbcolor
3127 4178 M
8354 3927 L
stroke
LTb
LCb setrgbcolor
1726 3242 M
63 0 V
stroke
1600 3242 M
[ [(Times-Roman) 200.0 0.0 true true 0 ( 0.04)]
] -66.7 MRshow
1.000 UL
LTb
LCb setrgbcolor
1.000 UL
LTa
LCa setrgbcolor
1726 3484 M
1401 936 V
stroke
LTa
LCa setrgbcolor
3127 4420 M
8354 4169 L
stroke
LTb
LCb setrgbcolor
1726 3484 M
63 0 V
stroke
1600 3484 M
[ [(Times-Roman) 200.0 0.0 true true 0 ( 0.045)]
] -66.7 MRshow
1.000 UL
LTb
LCb setrgbcolor
1.000 UL
LTa
LCa setrgbcolor
1726 3726 M
1401 936 V
stroke
LTa
LCa setrgbcolor
3127 4662 M
8354 4411 L
stroke
LTb
LCb setrgbcolor
1726 3726 M
63 0 V
stroke
1600 3726 M
[ [(Times-Roman) 200.0 0.0 true true 0 ( 0.05)]
] -66.7 MRshow
1.000 UL
LTb
LCb setrgbcolor
1.000 UL
LTa
LCa setrgbcolor
1726 3968 M
1401 936 V
stroke
LTa
LCa setrgbcolor
3127 4904 M
8354 4653 L
stroke
LTb
LCb setrgbcolor
1726 3968 M
63 0 V
stroke
1600 3968 M
[ [(Times-Roman) 200.0 0.0 true true 0 ( 0.055)]
] -66.7 MRshow
1.000 UL
LTb
LCb setrgbcolor
LCb setrgbcolor
886 2638 M
currentpoint gsave translate 90 rotate 0 0 moveto
[ [(Times-Roman) 200.0 0.0 true true 0 (Execution time \(s\))]
] -66.7 MCshow
grestore
LTb
1.000 UP
6720 4005 M
[ [(Times-Roman) 200.0 0.0 true true 0 (MD)]
] -66.7 MLshow
6720 3909 M
[ [(Times-Roman) 200.0 0.0 true true 0 (AS)]
] -66.7 MLshow
0.00 1.00 0.00 C 7178 4008 M
[ [(Times-Roman) 200.0 0.0 true true 0 (-----)]
] -66.7 MLshow
1.00 0.00 0.00 C 7178 3911 M
[ [(Times-Roman) 200.0 0.0 true true 0 (-----)]
] -66.7 MLshow
% Begin plot #1
1.000 UL
LT0
LC0 setrgbcolor
0.250 UL
LT1
0.27 0.27 0.27 C % End plot #1
% Begin plot #2
1.000 UL
LT1
LC1 setrgbcolor
0.250 UL
LT1
0.27 0.27 0.27 C % End plot #2
1 g gsave 3640 2171 N -653 31 V 140 43 V 653 -30 V 0.90 PolyFill
0.250 UL
LT1
0.27 0.27 0.27 C 3640 2171 M
140 44 V
-653 30 V
-140 -43 V
653 -31 V
1 g gsave 4294 2139 N -654 32 V 140 44 V 654 -29 V 0.90 PolyFill
stroke
LT1
0.27 0.27 0.27 C 4294 2139 M
140 47 V
-654 29 V
-140 -44 V
654 -32 V
1 g gsave 4947 2108 N -653 31 V 140 47 V 652 -28 V 0.90 PolyFill
stroke
LT1
0.27 0.27 0.27 C 4947 2108 M
139 50 V
-652 28 V
-140 -47 V
653 -31 V
1 g gsave 5600 2075 N -653 33 V 139 50 V 654 -28 V 0.90 PolyFill
stroke
LT1
0.27 0.27 0.27 C 5600 2075 M
140 55 V
-654 28 V
-139 -50 V
653 -33 V
1 g gsave 3500 2095 N -653 31 V 140 76 V 653 -31 V 0.90 PolyFill
stroke
LT1
0.27 0.27 0.27 C 3500 2095 M
140 76 V
-653 31 V
-140 -76 V
653 -31 V
1 g gsave 6253 2043 N -653 32 V 140 55 V 654 -27 V 0.90 PolyFill
stroke
LT1
0.27 0.27 0.27 C 6253 2043 M
141 60 V
-654 27 V
-140 -55 V
653 -32 V
1 g gsave 4154 2066 N -654 29 V 140 76 V 654 -32 V 0.90 PolyFill
stroke
LT1
0.27 0.27 0.27 C 4154 2066 M
140 73 V
-654 32 V
-140 -76 V
654 -29 V
1 g gsave 6907 2012 N -654 31 V 141 60 V 653 -24 V 0.90 PolyFill
stroke
LT1
0.27 0.27 0.27 C 6907 2012 M
140 67 V
-653 24 V
-141 -60 V
654 -31 V
1 g gsave 4807 2035 N -653 31 V 140 73 V 653 -31 V 0.90 PolyFill
stroke
LT1
0.27 0.27 0.27 C 4807 2035 M
140 73 V
-653 31 V
-140 -73 V
653 -31 V
0 g gsave 3640 3510 N -653 4 V 140 262 V 653 -167 V 0.90 PolyFill
stroke
LT1
0.27 0.27 0.27 C 3640 3510 M
140 99 V
-653 167 V
2987 3514 L
653 -4 V
1 g gsave 5460 2003 N -653 32 V 140 73 V 653 -33 V 0.90 PolyFill
stroke
LT1
0.27 0.27 0.27 C 5460 2003 M
140 72 V
-653 33 V
-140 -73 V
653 -32 V
1 g gsave 7561 2001 N -654 11 V 140 67 V 654 -19 V 0.90 PolyFill
stroke
LT1
0.27 0.27 0.27 C 7561 2001 M
140 59 V
-654 19 V
-140 -67 V
654 -11 V
1 g gsave 3360 2013 N -654 32 V 141 81 V 653 -31 V 0.90 PolyFill
stroke
LT1
0.27 0.27 0.27 C 3360 2013 M
140 82 V
-653 31 V
-141 -81 V
654 -32 V
0 g gsave 4294 3359 N -654 151 V 140 99 V 654 -29 V 0.90 PolyFill
stroke
LT1
0.27 0.27 0.27 C 4294 3359 M
140 221 V
-654 29 V
-140 -99 V
654 -151 V
0 g gsave 4947 3261 N -653 98 V 140 221 V 652 -168 V 0.90 PolyFill
stroke
LT1
0.27 0.27 0.27 C 4947 3261 M
139 151 V
-652 168 V
4294 3359 L
653 -98 V
0 g gsave 5600 3017 N -653 244 V 139 151 V 654 -206 V 0.90 PolyFill
stroke
LT1
0.27 0.27 0.27 C 5600 3017 M
140 189 V
-654 206 V
4947 3261 L
653 -244 V
1 g gsave 6113 1971 N -653 32 V 140 72 V 653 -32 V 0.90 PolyFill
stroke
LT1
0.27 0.27 0.27 C 6113 1971 M
140 72 V
-653 32 V
-140 -72 V
653 -32 V
1 g gsave 4014 1987 N -654 26 V 140 82 V 654 -29 V 0.90 PolyFill
stroke
LT1
0.27 0.27 0.27 C 4014 1987 M
140 79 V
-654 29 V
-140 -82 V
654 -26 V
1 g gsave 6767 1941 N -654 30 V 140 72 V 654 -31 V 0.90 PolyFill
stroke
LT1
0.27 0.27 0.27 C 6767 1941 M
140 71 V
-654 31 V
-140 -72 V
654 -30 V
1 g gsave 4667 1956 N -653 31 V 140 79 V 653 -31 V 0.90 PolyFill
stroke
LT1
0.27 0.27 0.27 C 4667 1956 M
140 79 V
-653 31 V
-140 -79 V
653 -31 V
0 g gsave 6253 3164 N -653 -147 V 140 189 V 654 -58 V 0.90 PolyFill
stroke
LT1
0.27 0.27 0.27 C 6253 3164 M
141 -16 V
-654 58 V
5600 3017 L
653 147 V
0 g gsave 3500 3442 N -653 92 V 140 -20 V 653 -4 V 0.90 PolyFill
stroke
LT1
0.27 0.27 0.27 C 3500 3442 M
140 68 V
-653 4 V
-140 20 V
653 -92 V
0 g gsave 6907 2947 N -654 217 V 141 -16 V 653 -142 V 0.90 PolyFill
stroke
LT1
0.27 0.27 0.27 C 6907 2947 M
140 59 V
-653 142 V
-141 16 V
654 -217 V
1 g gsave 8214 2433 N -653 -432 V 140 59 V 653 38 V 0.90 PolyFill
stroke
LT1
0.27 0.27 0.27 C 8214 2433 M
140 -335 V
-653 -38 V
-140 -59 V
653 432 V
1 g gsave 5320 1924 N -653 32 V 140 79 V 653 -32 V 0.90 PolyFill
stroke
LT1
0.27 0.27 0.27 C 5320 1924 M
140 79 V
-653 32 V
-140 -79 V
653 -32 V
1 g gsave 3220 1929 N -654 30 V 140 86 V 654 -32 V 0.90 PolyFill
stroke
LT1
0.27 0.27 0.27 C 3220 1929 M
140 84 V
-654 32 V
-140 -86 V
654 -30 V
1 g gsave 7421 1953 N -654 -12 V 140 71 V 654 -11 V 0.90 PolyFill
stroke
LT1
0.27 0.27 0.27 C 7421 1953 M
140 48 V
-654 11 V
-140 -71 V
654 12 V
0 g gsave 4154 3308 N -654 134 V 140 68 V 654 -151 V 0.90 PolyFill
stroke
LT1
0.27 0.27 0.27 C 4154 3308 M
140 51 V
-654 151 V
-140 -68 V
654 -134 V
0 g gsave 7561 2791 N -654 156 V 140 59 V 654 -129 V 0.90 PolyFill
stroke
LT1
0.27 0.27 0.27 C 7561 2791 M
140 86 V
-654 129 V
-140 -59 V
654 -156 V
1 g gsave 5973 1893 N -653 31 V 140 79 V 653 -32 V 0.90 PolyFill
stroke
LT1
0.27 0.27 0.27 C 5973 1893 M
140 78 V
-653 32 V
-140 -79 V
653 -31 V
1 g gsave 3873 1902 N -653 27 V 140 84 V 654 -26 V 0.90 PolyFill
stroke
LT1
0.27 0.27 0.27 C 3873 1902 M
141 85 V
-654 26 V
-140 -84 V
653 -27 V
0 g gsave 8214 2710 N -653 81 V 140 86 V 653 -146 V 0.90 PolyFill
stroke
LT1
0.27 0.27 0.27 C 8214 2710 M
140 21 V
-653 146 V
-140 -86 V
653 -81 V
0 g gsave 4807 3265 N -653 43 V 140 51 V 653 -98 V 0.90 PolyFill
stroke
LT1
0.27 0.27 0.27 C 4807 3265 M
140 -4 V
-653 98 V
-140 -51 V
653 -43 V
0 g gsave 5460 3015 N -653 250 V 140 -4 V 653 -244 V 0.90 PolyFill
stroke
LT1
0.27 0.27 0.27 C 5460 3015 M
140 2 V
-653 244 V
-140 4 V
653 -250 V
1 g gsave 4527 1872 N -654 30 V 141 85 V 653 -31 V 0.90 PolyFill
stroke
LT1
0.27 0.27 0.27 C 4527 1872 M
140 84 V
-653 31 V
-141 -85 V
654 -30 V
1 g gsave 6627 1869 N -654 24 V 140 78 V 654 -30 V 0.90 PolyFill
stroke
LT1
0.27 0.27 0.27 C 6627 1869 M
140 72 V
-654 30 V
-140 -78 V
654 -24 V
0 g gsave 6113 2970 N -653 45 V 140 2 V 653 147 V 0.90 PolyFill
stroke
LT1
0.27 0.27 0.27 C 6113 2970 M
140 194 V
5600 3017 L
-140 -2 V
653 -45 V
0 g gsave 6767 2894 N -654 76 V 140 194 V 654 -217 V 0.90 PolyFill
stroke
LT1
0.27 0.27 0.27 C 6767 2894 M
140 53 V
-654 217 V
6113 2970 L
654 -76 V
1 g gsave 3080 1840 N -654 30 V 140 89 V 654 -30 V 0.90 PolyFill
stroke
LT1
0.27 0.27 0.27 C 3080 1840 M
140 89 V
-654 30 V
-140 -89 V
654 -30 V
1 g gsave 5180 1841 N -653 31 V 140 84 V 653 -32 V 0.90 PolyFill
stroke
LT1
0.27 0.27 0.27 C 5180 1841 M
140 83 V
-653 32 V
-140 -84 V
653 -31 V
0 g gsave 3360 3488 N -654 49 V 141 -3 V 653 -92 V 0.90 PolyFill
stroke
LT1
0.27 0.27 0.27 C 3360 3488 M
140 -46 V
-653 92 V
-141 3 V
654 -49 V
1 g gsave 7280 1938 N -653 -69 V 140 72 V 654 12 V 0.90 PolyFill
stroke
LT1
0.27 0.27 0.27 C 7280 1938 M
141 15 V
-654 -12 V
-140 -72 V
653 69 V
0 g gsave 4014 3310 N -654 178 V 140 -46 V 654 -134 V 0.90 PolyFill
stroke
LT1
0.27 0.27 0.27 C 4014 3310 M
140 -2 V
-654 134 V
-140 46 V
654 -178 V
0 g gsave 7421 2802 N -654 92 V 140 53 V 654 -156 V 0.90 PolyFill
stroke
LT1
0.27 0.27 0.27 C 7421 2802 M
140 -11 V
-654 156 V
-140 -53 V
654 -92 V
1 g gsave 3733 1814 N -653 26 V 140 89 V 653 -27 V 0.90 PolyFill
stroke
LT1
0.27 0.27 0.27 C 3733 1814 M
140 88 V
-653 27 V
-140 -89 V
653 -26 V
1 g gsave 5833 1814 N -653 27 V 140 83 V 653 -31 V 0.90 PolyFill
stroke
LT1
0.27 0.27 0.27 C 5833 1814 M
140 79 V
-653 31 V
-140 -83 V
653 -27 V
0 g gsave 8074 2661 N -653 141 V 140 -11 V 653 -81 V 0.90 PolyFill
stroke
LT1
0.27 0.27 0.27 C 8074 2661 M
140 49 V
-653 81 V
-140 11 V
653 -141 V
0 g gsave 4667 3293 N -653 17 V 140 -2 V 653 -43 V 0.90 PolyFill
stroke
LT1
0.27 0.27 0.27 C 4667 3293 M
140 -28 V
-653 43 V
-140 2 V
653 -17 V
0 g gsave 5320 3034 N -653 259 V 140 -28 V 653 -250 V 0.90 PolyFill
stroke
LT1
0.27 0.27 0.27 C 5320 3034 M
140 -19 V
-653 250 V
-140 28 V
653 -259 V
1 g gsave 4387 1785 N -654 29 V 140 88 V 654 -30 V 0.90 PolyFill
stroke
LT1
0.27 0.27 0.27 C 4387 1785 M
140 87 V
-654 30 V
-140 -88 V
654 -29 V
1 g gsave 6487 1802 N -654 12 V 140 79 V 654 -24 V 0.90 PolyFill
stroke
LT1
0.27 0.27 0.27 C 6487 1802 M
140 67 V
-654 24 V
-140 -79 V
654 -12 V
0 g gsave 3220 3210 N -654 148 V 140 179 V 654 -49 V 0.90 PolyFill
stroke
LT1
0.27 0.27 0.27 C 3220 3210 M
140 278 V
-654 49 V
2566 3358 L
654 -148 V
0 g gsave 5973 2985 N -653 49 V 140 -19 V 653 -45 V 0.90 PolyFill
stroke
LT1
0.27 0.27 0.27 C 5973 2985 M
140 -15 V
-653 45 V
-140 19 V
653 -49 V
1 g gsave 2940 1749 N -654 31 V 140 90 V 654 -30 V 0.90 PolyFill
stroke
LT1
0.27 0.27 0.27 C 2940 1749 M
140 91 V
-654 30 V
-140 -90 V
654 -31 V
1 g gsave 5040 1755 N -653 30 V 140 87 V 653 -31 V 0.90 PolyFill
stroke
LT1
0.27 0.27 0.27 C 5040 1755 M
140 86 V
-653 31 V
-140 -87 V
653 -30 V
0 g gsave 6627 2843 N -654 142 V 140 -15 V 654 -76 V 0.90 PolyFill
stroke
LT1
0.27 0.27 0.27 C 6627 2843 M
140 51 V
-654 76 V
-140 15 V
654 -142 V
0 g gsave 3873 3147 N -653 63 V 140 278 V 654 -178 V 0.90 PolyFill
stroke
LT1
0.27 0.27 0.27 C 3873 3147 M
141 163 V
-654 178 V
3220 3210 L
653 -63 V
0 g gsave 7280 2685 N -653 158 V 140 51 V 654 -92 V 0.90 PolyFill
stroke
LT1
0.27 0.27 0.27 C 7280 2685 M
141 117 V
-654 92 V
-140 -51 V
653 -158 V
0 g gsave 4527 3015 N -654 132 V 141 163 V 653 -17 V 0.90 PolyFill
stroke
LT1
0.27 0.27 0.27 C 4527 3015 M
140 278 V
-653 17 V
3873 3147 L
654 -132 V
1 g gsave 7140 1947 N -653 -145 V 140 67 V 653 69 V 0.90 PolyFill
stroke
LT1
0.27 0.27 0.27 C 7140 1947 M
140 -9 V
-653 -69 V
-140 -67 V
653 145 V
1 g gsave 3593 1722 N -653 27 V 140 91 V 653 -26 V 0.90 PolyFill
stroke
LT1
0.27 0.27 0.27 C 3593 1722 M
140 92 V
-653 26 V
-140 -91 V
653 -27 V
1 g gsave 5693 1734 N -653 21 V 140 86 V 653 -27 V 0.90 PolyFill
stroke
LT1
0.27 0.27 0.27 C 5693 1734 M
140 80 V
-653 27 V
-140 -86 V
653 -21 V
0 g gsave 7934 2562 N -654 123 V 141 117 V 653 -141 V 0.90 PolyFill
stroke
LT1
0.27 0.27 0.27 C 7934 2562 M
140 99 V
-653 141 V
7280 2685 L
654 -123 V
0 g gsave 5180 2835 N -653 180 V 140 278 V 653 -259 V 0.90 PolyFill
stroke
LT1
0.27 0.27 0.27 C 5180 2835 M
140 199 V
-653 259 V
4527 3015 L
653 -180 V
1 g gsave 8074 3437 N -653 -1484 V 140 48 V 653 432 V 0.90 PolyFill
stroke
LT1
0.27 0.27 0.27 C 8074 3437 M
8214 2433 L
7561 2001 L
-140 -48 V
653 1484 V
1 g gsave 4247 1692 N -654 30 V 140 92 V 654 -29 V 0.90 PolyFill
stroke
LT1
0.27 0.27 0.27 C 4247 1692 M
140 93 V
-654 29 V
-140 -92 V
654 -30 V
1 g gsave 6347 1724 N -654 10 V 140 80 V 654 -12 V 0.90 PolyFill
stroke
LT1
0.27 0.27 0.27 C 6347 1724 M
140 78 V
-654 12 V
-140 -80 V
654 -10 V
0 g gsave 5833 2816 N -653 19 V 140 199 V 653 -49 V 0.90 PolyFill
stroke
LT1
0.27 0.27 0.27 C 5833 2816 M
140 169 V
-653 49 V
5180 2835 L
653 -19 V
0 g gsave 3080 3160 N -654 106 V 140 92 V 654 -148 V 0.90 PolyFill
stroke
LT1
0.27 0.27 0.27 C 3080 3160 M
140 50 V
-654 148 V
-140 -92 V
654 -106 V
0 g gsave 6487 2701 N -654 115 V 140 169 V 654 -142 V 0.90 PolyFill
stroke
LT1
0.27 0.27 0.27 C 6487 2701 M
140 142 V
-654 142 V
5833 2816 L
654 -115 V
1 g gsave 2800 1655 N -654 31 V 140 94 V 654 -31 V 0.90 PolyFill
stroke
LT1
0.27 0.27 0.27 C 2800 1655 M
140 94 V
-654 31 V
-140 -94 V
654 -31 V
1 g gsave 4900 1664 N -653 28 V 140 93 V 653 -30 V 0.90 PolyFill
stroke
LT1
0.27 0.27 0.27 C 4900 1664 M
140 91 V
-653 30 V
-140 -93 V
653 -28 V
0 g gsave 7140 2553 N -653 148 V 140 142 V 653 -158 V 0.90 PolyFill
stroke
LT1
0.27 0.27 0.27 C 7140 2553 M
140 132 V
-653 158 V
6487 2701 L
653 -148 V
0 g gsave 3733 3117 N -653 43 V 140 50 V 653 -63 V 0.90 PolyFill
stroke
LT1
0.27 0.27 0.27 C 3733 3117 M
140 30 V
-653 63 V
-140 -50 V
653 -43 V
1 g gsave 3453 1630 N -653 25 V 140 94 V 653 -27 V 0.90 PolyFill
stroke
LT1
0.27 0.27 0.27 C 3453 1630 M
140 92 V
-653 27 V
-140 -94 V
653 -25 V
1 g gsave 5553 1655 N -653 9 V 140 91 V 653 -21 V 0.90 PolyFill
stroke
LT1
0.27 0.27 0.27 C 5553 1655 M
140 79 V
-653 21 V
-140 -91 V
653 -9 V
1 g gsave 7000 1974 N -653 -250 V 140 78 V 653 145 V 0.90 PolyFill
stroke
LT1
0.27 0.27 0.27 C 7000 1974 M
140 -27 V
6487 1802 L
-140 -78 V
653 250 V
0 g gsave 7794 2555 N -654 -2 V 140 132 V 654 -123 V 0.90 PolyFill
stroke
LT1
0.27 0.27 0.27 C 7794 2555 M
140 7 V
-654 123 V
7140 2553 L
654 2 V
0 g gsave 5040 2735 N -653 364 V 140 -84 V 653 -180 V 0.90 PolyFill
stroke
LT1
0.27 0.27 0.27 C 5040 2735 M
140 100 V
-653 180 V
-140 84 V
653 -364 V
0 g gsave 4387 3099 N -654 18 V 140 30 V 654 -132 V 0.90 PolyFill
stroke
LT1
0.27 0.27 0.27 C 4387 3099 M
140 -84 V
-654 132 V
-140 -30 V
654 -18 V
1 g gsave 4107 1600 N -654 30 V 140 92 V 654 -30 V 0.90 PolyFill
stroke
LT1
0.27 0.27 0.27 C 4107 1600 M
140 92 V
-654 30 V
-140 -92 V
654 -30 V
1 g gsave 6207 1677 N -654 -22 V 140 79 V 654 -10 V 0.90 PolyFill
stroke
LT1
0.27 0.27 0.27 C 6207 1677 M
140 47 V
-654 10 V
-140 -79 V
654 22 V
0 g gsave 2940 3069 N -654 180 V 140 17 V 654 -106 V 0.90 PolyFill
stroke
LT1
0.27 0.27 0.27 C 2940 3069 M
140 91 V
-654 106 V
-140 -17 V
654 -180 V
0 g gsave 5693 2808 N -653 -73 V 140 100 V 653 -19 V 0.90 PolyFill
stroke
LT1
0.27 0.27 0.27 C 5693 2808 M
140 8 V
-653 19 V
5040 2735 L
653 73 V
0 g gsave 6347 2611 N -654 197 V 140 8 V 654 -115 V 0.90 PolyFill
stroke
LT1
0.27 0.27 0.27 C 6347 2611 M
140 90 V
-654 115 V
-140 -8 V
654 -197 V
1 g gsave 2659 1561 N -653 30 V 140 95 V 654 -31 V 0.90 PolyFill
stroke
LT1
0.27 0.27 0.27 C 2659 1561 M
141 94 V
-654 31 V
-140 -95 V
653 -30 V
1 g gsave 4760 1572 N -653 28 V 140 92 V 653 -28 V 0.90 PolyFill
stroke
LT1
0.27 0.27 0.27 C 4760 1572 M
140 92 V
-653 28 V
-140 -92 V
653 -28 V
1 g gsave 7934 3779 N -654 -1841 V 141 15 V 653 1484 V 0.90 PolyFill
stroke
LT1
0.27 0.27 0.27 C 7934 3779 M
140 -342 V
7421 1953 L
-141 -15 V
654 1841 V
0 g gsave 7000 2485 N -653 126 V 140 90 V 653 -148 V 0.90 PolyFill
stroke
LT1
0.27 0.27 0.27 C 7000 2485 M
140 68 V
-653 148 V
-140 -90 V
653 -126 V
0 g gsave 3593 3074 N -653 -5 V 140 91 V 653 -43 V 0.90 PolyFill
stroke
LT1
0.27 0.27 0.27 C 3593 3074 M
140 43 V
-653 43 V
-140 -91 V
653 5 V
1 g gsave 3313 1535 N -654 26 V 141 94 V 653 -25 V 0.90 PolyFill
stroke
LT1
0.27 0.27 0.27 C 3313 1535 M
140 95 V
-653 25 V
-141 -94 V
654 -26 V
0 g gsave 7654 2332 N -654 153 V 140 68 V 654 2 V 0.90 PolyFill
stroke
LT1
0.27 0.27 0.27 C 7654 2332 M
140 223 V
-654 -2 V
-140 -68 V
654 -153 V
1 g gsave 5413 1562 N -653 10 V 140 92 V 653 -9 V 0.90 PolyFill
stroke
LT1
0.27 0.27 0.27 C 5413 1562 M
140 93 V
-653 9 V
-140 -92 V
653 -10 V
0 g gsave 4247 2927 N -654 147 V 140 43 V 654 -18 V 0.90 PolyFill
stroke
LT1
0.27 0.27 0.27 C 4247 2927 M
140 172 V
-654 18 V
-140 -43 V
654 -147 V
0 g gsave 4900 2672 N -653 255 V 140 172 V 653 -364 V 0.90 PolyFill
stroke
LT1
0.27 0.27 0.27 C 4900 2672 M
140 63 V
-653 364 V
4247 2927 L
653 -255 V
1 g gsave 3967 1508 N -654 27 V 140 95 V 654 -30 V 0.90 PolyFill
stroke
LT1
0.27 0.27 0.27 C 3967 1508 M
140 92 V
-654 30 V
-140 -95 V
654 -27 V
1 g gsave 6860 2083 N -653 -406 V 140 47 V 653 250 V 0.90 PolyFill
stroke
LT1
0.27 0.27 0.27 C 6860 2083 M
140 -109 V
6347 1724 L
-140 -47 V
653 406 V
0 g gsave 5553 2667 N -653 5 V 140 63 V 653 73 V 0.90 PolyFill
stroke
LT1
0.27 0.27 0.27 C 5553 2667 M
140 141 V
-653 -73 V
-140 -63 V
653 -5 V
1 g gsave 6066 1615 N -653 -53 V 140 93 V 654 22 V 0.90 PolyFill
stroke
LT1
0.27 0.27 0.27 C 6066 1615 M
141 62 V
-654 -22 V
-140 -93 V
653 53 V
0 g gsave 2800 2999 N -654 200 V 140 50 V 654 -180 V 0.90 PolyFill
stroke
LT1
0.27 0.27 0.27 C 2800 2999 M
140 70 V
-654 180 V
-140 -50 V
654 -200 V
0 g gsave 6207 2519 N -654 148 V 140 141 V 654 -197 V 0.90 PolyFill
stroke
LT1
0.27 0.27 0.27 C 6207 2519 M
140 92 V
-654 197 V
5553 2667 L
654 -148 V
1 g gsave 2519 1467 N -653 31 V 140 93 V 653 -30 V 0.90 PolyFill
stroke
LT1
0.27 0.27 0.27 C 2519 1467 M
140 94 V
-653 30 V
-140 -93 V
653 -31 V
1 g gsave 4620 1479 N -653 29 V 140 92 V 653 -28 V 0.90 PolyFill
stroke
LT1
0.27 0.27 0.27 C 4620 1479 M
140 93 V
-653 28 V
-140 -92 V
653 -29 V
0 g gsave 6860 2290 N -653 229 V 140 92 V 653 -126 V 0.90 PolyFill
stroke
LT1
0.27 0.27 0.27 C 6860 2290 M
140 195 V
-653 126 V
-140 -92 V
653 -229 V
0 g gsave 3453 2868 N -653 131 V 140 70 V 653 5 V 0.90 PolyFill
stroke
LT1
0.27 0.27 0.27 C 3453 2868 M
140 206 V
-653 -5 V
-140 -70 V
653 -131 V
1 g gsave 3173 1443 N -654 24 V 140 94 V 654 -26 V 0.90 PolyFill
stroke
LT1
0.27 0.27 0.27 C 3173 1443 M
140 92 V
-654 26 V
-140 -94 V
654 -24 V
0 g gsave 7514 2243 N -654 47 V 140 195 V 654 -153 V 0.90 PolyFill
stroke
LT1
0.27 0.27 0.27 C 7514 2243 M
140 89 V
-654 153 V
6860 2290 L
654 -47 V
1 g gsave 5273 1463 N -653 16 V 140 93 V 653 -10 V 0.90 PolyFill
stroke
LT1
0.27 0.27 0.27 C 5273 1463 M
140 99 V
-653 10 V
-140 -93 V
653 -16 V
1 g gsave 7794 3867 N -654 -1920 V 140 -9 V 654 1841 V 0.90 PolyFill
stroke
LT1
0.27 0.27 0.27 C 7794 3867 M
140 -88 V
7280 1938 L
-140 9 V
654 1920 V
0 g gsave 4760 2594 N -653 274 V 140 59 V 653 -255 V 0.90 PolyFill
stroke
LT1
0.27 0.27 0.27 C 4760 2594 M
140 78 V
-653 255 V
-140 -59 V
653 -274 V
0 g gsave 4107 2868 N -654 0 V 140 206 V 654 -147 V 0.90 PolyFill
stroke
LT1
0.27 0.27 0.27 C 4107 2868 M
140 59 V
-654 147 V
3453 2868 L
654 0 V
1 g gsave 3827 1413 N -654 30 V 140 92 V 654 -27 V 0.90 PolyFill
stroke
LT1
0.27 0.27 0.27 C 3827 1413 M
140 95 V
-654 27 V
-140 -92 V
654 -30 V
0 g gsave 5413 2618 N -653 -24 V 140 78 V 653 -5 V 0.90 PolyFill
stroke
LT1
0.27 0.27 0.27 C 5413 2618 M
140 49 V
-653 5 V
-140 -78 V
653 24 V
1 g gsave 5926 1569 N -653 -106 V 140 99 V 653 53 V 0.90 PolyFill
stroke
LT1
0.27 0.27 0.27 C 5926 1569 M
140 46 V
-653 -53 V
-140 -99 V
653 106 V
0 g gsave 6066 2423 N -653 195 V 140 49 V 654 -148 V 0.90 PolyFill
stroke
LT1
0.27 0.27 0.27 C 6066 2423 M
141 96 V
-654 148 V
-140 -49 V
653 -195 V
1 g gsave 2379 1372 N -653 32 V 140 94 V 653 -31 V 0.90 PolyFill
stroke
LT1
0.27 0.27 0.27 C 2379 1372 M
140 95 V
-653 31 V
-140 -94 V
653 -32 V
0 g gsave 2659 2980 N -653 97 V 140 122 V 654 -200 V 0.90 PolyFill
stroke
LT1
0.27 0.27 0.27 C 2659 2980 M
141 19 V
-654 200 V
2006 3077 L
653 -97 V
1 g gsave 6720 2174 N -654 -559 V 141 62 V 653 406 V 0.90 PolyFill
stroke
LT1
0.27 0.27 0.27 C 6720 2174 M
140 -91 V
6207 1677 L
-141 -62 V
654 559 V
1 g gsave 4480 1384 N -653 29 V 140 95 V 653 -29 V 0.90 PolyFill
stroke
LT1
0.27 0.27 0.27 C 4480 1384 M
140 95 V
-653 29 V
-140 -95 V
653 -29 V
0 g gsave 3313 2785 N -654 195 V 141 19 V 653 -131 V 0.90 PolyFill
stroke
LT1
0.27 0.27 0.27 C 3313 2785 M
140 83 V
-653 131 V
-141 -19 V
654 -195 V
0 g gsave 6720 2302 N -654 121 V 141 96 V 653 -229 V 0.90 PolyFill
stroke
LT1
0.27 0.27 0.27 C 6720 2302 M
140 -12 V
-653 229 V
-141 -96 V
654 -121 V
0 g gsave 7374 2120 N -654 182 V 140 -12 V 654 -47 V 0.90 PolyFill
stroke
LT1
0.27 0.27 0.27 C 7374 2120 M
140 123 V
-654 47 V
-140 12 V
654 -182 V
1 g gsave 3033 1347 N -654 25 V 140 95 V 654 -24 V 0.90 PolyFill
stroke
LT1
0.27 0.27 0.27 C 3033 1347 M
140 96 V
-654 24 V
-140 -95 V
654 -25 V
1 g gsave 5133 1361 N -653 23 V 140 95 V 653 -16 V 0.90 PolyFill
stroke
LT1
0.27 0.27 0.27 C 5133 1361 M
140 102 V
-653 16 V
-140 -95 V
653 -23 V
0 g gsave 3967 2712 N -654 73 V 140 83 V 654 0 V 0.90 PolyFill
stroke
LT1
0.27 0.27 0.27 C 3967 2712 M
140 156 V
-654 0 V
-140 -83 V
654 -73 V
0 g gsave 4620 2497 N -653 215 V 140 156 V 653 -274 V 0.90 PolyFill
stroke
LT1
0.27 0.27 0.27 C 4620 2497 M
140 97 V
-653 274 V
3967 2712 L
653 -215 V
1 g gsave 7654 3834 N -654 -1860 V 140 -27 V 654 1920 V 0.90 PolyFill
stroke
LT1
0.27 0.27 0.27 C 7654 3834 M
140 33 V
7140 1947 L
-140 27 V
654 1860 V
1 g gsave 3686 1318 N -653 29 V 140 96 V 654 -30 V 0.90 PolyFill
stroke
LT1
0.27 0.27 0.27 C 3686 1318 M
141 95 V
-654 30 V
-140 -96 V
653 -29 V
0 g gsave 5273 2494 N -653 3 V 140 97 V 653 24 V 0.90 PolyFill
stroke
LT1
0.27 0.27 0.27 C 5273 2494 M
140 124 V
-653 -24 V
-140 -97 V
653 -3 V
0 g gsave 2519 2809 N -653 119 V 140 149 V 653 -97 V 0.90 PolyFill
stroke
LT1
0.27 0.27 0.27 C 2519 2809 M
140 171 V
-653 97 V
1866 2928 L
653 -119 V
1 g gsave 4340 1289 N -654 29 V 141 95 V 653 -29 V 0.90 PolyFill
stroke
LT1
0.27 0.27 0.27 C 4340 1289 M
140 95 V
-653 29 V
-141 -95 V
654 -29 V
1 g gsave 5786 1568 N -653 -207 V 140 102 V 653 106 V 0.90 PolyFill
stroke
LT1
0.27 0.27 0.27 C 5786 1568 M
140 1 V
5273 1463 L
5133 1361 L
653 207 V
0 g gsave 6580 2075 N -654 316 V 140 32 V 654 -121 V 0.90 PolyFill
stroke
LT1
0.27 0.27 0.27 C 6580 2075 M
140 227 V
-654 121 V
-140 -32 V
654 -316 V
0 g gsave 5926 2391 N -653 103 V 140 124 V 653 -195 V 0.90 PolyFill
stroke
LT1
0.27 0.27 0.27 C 5926 2391 M
140 32 V
-653 195 V
5273 2494 L
653 -103 V
0 g gsave 3173 2733 N -654 76 V 140 171 V 654 -195 V 0.90 PolyFill
stroke
LT1
0.27 0.27 0.27 C 3173 2733 M
140 52 V
-654 195 V
2519 2809 L
654 -76 V
0 g gsave 7233 1981 N -653 94 V 140 227 V 654 -182 V 0.90 PolyFill
stroke
LT1
0.27 0.27 0.27 C 7233 1981 M
141 139 V
-654 182 V
6580 2075 L
653 -94 V
0 g gsave 3827 2609 N -654 124 V 140 52 V 654 -73 V 0.90 PolyFill
stroke
LT1
0.27 0.27 0.27 C 3827 2609 M
140 103 V
-654 73 V
-140 -52 V
654 -124 V
1 g gsave 6580 2349 N -654 -780 V 140 46 V 654 559 V 0.90 PolyFill
stroke
LT1
0.27 0.27 0.27 C 6580 2349 M
140 -175 V
6066 1615 L
-140 -46 V
654 780 V
0 g gsave 4480 2360 N -653 249 V 140 103 V 653 -215 V 0.90 PolyFill
stroke
LT1
0.27 0.27 0.27 C 4480 2360 M
140 137 V
-653 215 V
3827 2609 L
653 -249 V
1 g gsave 4994 1349 N -654 -60 V 140 95 V 653 -23 V 0.90 PolyFill
stroke
LT1
0.27 0.27 0.27 C 4994 1349 M
139 12 V
-653 23 V
-140 -95 V
654 60 V
1 g gsave 7514 3780 N -654 -1697 V 140 -109 V 654 1860 V 0.90 PolyFill
stroke
LT1
0.27 0.27 0.27 C 7514 3780 M
140 54 V
7000 1974 L
-140 109 V
654 1697 V
0 g gsave 2379 2638 N -653 135 V 140 155 V 653 -119 V 0.90 PolyFill
stroke
LT1
0.27 0.27 0.27 C 2379 2638 M
140 171 V
-653 119 V
1726 2773 L
653 -135 V
0 g gsave 5133 2454 N -653 -94 V 140 137 V 653 -3 V 0.90 PolyFill
stroke
LT1
0.27 0.27 0.27 C 5133 2454 M
140 40 V
-653 3 V
4480 2360 L
653 94 V
0 g gsave 5786 2200 N -653 254 V 140 40 V 653 -103 V 0.90 PolyFill
stroke
LT1
0.27 0.27 0.27 C 5786 2200 M
140 191 V
-653 103 V
-140 -40 V
653 -254 V
0 g gsave 3033 2525 N -654 113 V 140 171 V 654 -76 V 0.90 PolyFill
stroke
LT1
0.27 0.27 0.27 C 3033 2525 M
140 208 V
-654 76 V
2379 2638 L
654 -113 V
0 g gsave 6440 2050 N -654 150 V 140 191 V 654 -316 V 0.90 PolyFill
stroke
LT1
0.27 0.27 0.27 C 6440 2050 M
140 25 V
-654 316 V
5786 2200 L
654 -150 V
0 g gsave 3686 2418 N -653 107 V 140 208 V 654 -124 V 0.90 PolyFill
stroke
LT1
0.27 0.27 0.27 C 3686 2418 M
141 191 V
-654 124 V
3033 2525 L
653 -107 V
0 g gsave 7093 1881 N -653 169 V 140 25 V 653 -94 V 0.90 PolyFill
stroke
LT1
0.27 0.27 0.27 C 7093 1881 M
140 100 V
-653 94 V
-140 -25 V
653 -169 V
0 g gsave 4340 2180 N -654 238 V 141 191 V 653 -249 V 0.90 PolyFill
stroke
LT1
0.27 0.27 0.27 C 4340 2180 M
140 180 V
-653 249 V
3686 2418 L
654 -238 V
1 g gsave 5646 1663 N -652 -314 V 139 12 V 653 207 V 0.90 PolyFill
stroke
LT1
0.27 0.27 0.27 C 5646 1663 M
140 -95 V
5133 1361 L
-139 -12 V
652 314 V
1 g gsave 7374 3694 N -654 -1520 V 140 -91 V 654 1697 V 0.90 PolyFill
stroke
LT1
0.27 0.27 0.27 C 7374 3694 M
140 86 V
6860 2083 L
-140 91 V
654 1520 V
0 g gsave 4994 2158 N -654 22 V 140 180 V 653 94 V 0.90 PolyFill
stroke
LT1
0.27 0.27 0.27 C 4994 2158 M
139 296 V
-653 -94 V
4340 2180 L
654 -22 V
0 g gsave 5646 2000 N -652 158 V 139 296 V 653 -254 V 0.90 PolyFill
stroke
LT1
0.27 0.27 0.27 C 5646 2000 M
140 200 V
-653 254 V
4994 2158 L
652 -158 V
0 g gsave 6300 1795 N -654 205 V 140 200 V 654 -150 V 0.90 PolyFill
stroke
LT1
0.27 0.27 0.27 C 6300 1795 M
140 255 V
-654 150 V
5646 2000 L
654 -205 V
1 g gsave 6440 2635 N -654 -1067 V 140 1 V 654 780 V 0.90 PolyFill
stroke
LT1
0.27 0.27 0.27 C 6440 2635 M
140 -286 V
5926 1569 L
-140 -1 V
654 1067 V
0 g gsave 6953 1726 N -653 69 V 140 255 V 653 -169 V 0.90 PolyFill
stroke
LT1
0.27 0.27 0.27 C 6953 1726 M
140 155 V
-653 169 V
6300 1795 L
653 -69 V
1 g gsave 7233 3642 N -653 -1293 V 140 -175 V 654 1520 V 0.90 PolyFill
stroke
LT1
0.27 0.27 0.27 C 7233 3642 M
141 52 V
6720 2174 L
-140 175 V
653 1293 V
1 g gsave 6300 2809 N -654 -1146 V 140 -95 V 654 1067 V 0.90 PolyFill
stroke
LT1
0.27 0.27 0.27 C 6300 2809 M
140 -174 V
5786 1568 L
-140 95 V
654 1146 V
1 g gsave 7093 3570 N -653 -935 V 140 -286 V 653 1293 V 0.90 PolyFill
stroke
LT1
0.27 0.27 0.27 C 7093 3570 M
140 72 V
6580 2349 L
-140 286 V
653 935 V
1 g gsave 6953 3477 N -653 -668 V 140 -174 V 653 935 V 0.90 PolyFill
stroke
LT1
0.27 0.27 0.27 C 6953 3477 M
140 93 V
6440 2635 L
-140 174 V
653 668 V
stroke
1.000 UL
LTb
LCb setrgbcolor
8354 1992 M
6953 1056 L
stroke
LTb
LCb setrgbcolor
1726 1307 M
6953 1056 L
stroke
LTb
LCb setrgbcolor
6953 1056 M
0 2421 V
stroke
LCb setrgbcolor
3990 947 M
[ [(Times-Roman) 200.0 0.0 true true 0 (Probability of incompleteness p1)]
] -66.7 MCshow
LTb
LCb setrgbcolor
8961 1461 M
[ [(Times-Roman) 200.0 0.0 true true 0 (Probability of ties p2)]
] -66.7 MCshow
LTb
LCb setrgbcolor
886 2638 M
currentpoint gsave translate 90 rotate 0 0 moveto
[ [(Times-Roman) 200.0 0.0 true true 0 (Execution time \(s\))]
] -66.7 MCshow
grestore
LTb
1.000 UP
grestore % colour palette end
stroke
grestore
end
showpage
%%Trailer
%%DocumentFonts: Times-Roman
