%!PS-Adobe-2.0 EPSF-2.0
%%Title: AST50vsMC-Time.eps
%%Creator: gnuplot 4.6 patchlevel 4
%%CreationDate: Thu Jun 19 11:29:36 2014
%%DocumentFonts: (atend)
%%BoundingBox: 50 50 554 424
%%EndComments
%%BeginProlog
/gnudict 256 dict def
gnudict begin
%
% The following true/false flags may be edited by hand if desired.
% The unit line width and grayscale image gamma correction may also be changed.
%
/Color true def
/Blacktext false def
/Solid false def
/Dashlength 1 def
/Landscape false def
/Level1 false def
/Rounded false def
/ClipToBoundingBox false def
/SuppressPDFMark false def
/TransparentPatterns false def
/gnulinewidth 5.000 def
/userlinewidth gnulinewidth def
/Gamma 1.0 def
/BackgroundColor {-1.000 -1.000 -1.000} def
%
/vshift -66 def
/dl1 {
  10.0 Dashlength mul mul
  Rounded { currentlinewidth 0.75 mul sub dup 0 le { pop 0.01 } if } if
} def
/dl2 {
  10.0 Dashlength mul mul
  Rounded { currentlinewidth 0.75 mul add } if
} def
/hpt_ 31.5 def
/vpt_ 31.5 def
/hpt hpt_ def
/vpt vpt_ def
/doclip {
  ClipToBoundingBox {
    newpath 50 50 moveto 554 50 lineto 554 424 lineto 50 424 lineto closepath
    clip
  } if
} def
%
% Gnuplot Prolog Version 4.6 (September 2012)
%
%/SuppressPDFMark true def
%
/M {moveto} bind def
/L {lineto} bind def
/R {rmoveto} bind def
/V {rlineto} bind def
/N {newpath moveto} bind def
/Z {closepath} bind def
/C {setrgbcolor} bind def
/f {rlineto fill} bind def
/g {setgray} bind def
/Gshow {show} def   % May be redefined later in the file to support UTF-8
/vpt2 vpt 2 mul def
/hpt2 hpt 2 mul def
/Lshow {currentpoint stroke M 0 vshift R 
	Blacktext {gsave 0 setgray show grestore} {show} ifelse} def
/Rshow {currentpoint stroke M dup stringwidth pop neg vshift R
	Blacktext {gsave 0 setgray show grestore} {show} ifelse} def
/Cshow {currentpoint stroke M dup stringwidth pop -2 div vshift R 
	Blacktext {gsave 0 setgray show grestore} {show} ifelse} def
/UP {dup vpt_ mul /vpt exch def hpt_ mul /hpt exch def
  /hpt2 hpt 2 mul def /vpt2 vpt 2 mul def} def
/DL {Color {setrgbcolor Solid {pop []} if 0 setdash}
 {pop pop pop 0 setgray Solid {pop []} if 0 setdash} ifelse} def
/BL {stroke userlinewidth 2 mul setlinewidth
	Rounded {1 setlinejoin 1 setlinecap} if} def
/AL {stroke userlinewidth 2 div setlinewidth
	Rounded {1 setlinejoin 1 setlinecap} if} def
/UL {dup gnulinewidth mul /userlinewidth exch def
	dup 1 lt {pop 1} if 10 mul /udl exch def} def
/PL {stroke userlinewidth setlinewidth
	Rounded {1 setlinejoin 1 setlinecap} if} def
3.8 setmiterlimit
% Default Line colors
/LCw {1 1 1} def
/LCb {0 0 0} def
/LCa {0 0 0} def
/LC0 {1 0 0} def
/LC1 {0 1 0} def
/LC2 {0 0 1} def
/LC3 {1 0 1} def
/LC4 {0 1 1} def
/LC5 {1 1 0} def
/LC6 {0 0 0} def
/LC7 {1 0.3 0} def
/LC8 {0.5 0.5 0.5} def
% Default Line Types
/LTw {PL [] 1 setgray} def
/LTb {BL [] LCb DL} def
/LTa {AL [1 udl mul 2 udl mul] 0 setdash LCa setrgbcolor} def
/LT0 {PL [] LC0 DL} def
/LT1 {PL [4 dl1 2 dl2] LC1 DL} def
/LT2 {PL [2 dl1 3 dl2] LC2 DL} def
/LT3 {PL [1 dl1 1.5 dl2] LC3 DL} def
/LT4 {PL [6 dl1 2 dl2 1 dl1 2 dl2] LC4 DL} def
/LT5 {PL [3 dl1 3 dl2 1 dl1 3 dl2] LC5 DL} def
/LT6 {PL [2 dl1 2 dl2 2 dl1 6 dl2] LC6 DL} def
/LT7 {PL [1 dl1 2 dl2 6 dl1 2 dl2 1 dl1 2 dl2] LC7 DL} def
/LT8 {PL [2 dl1 2 dl2 2 dl1 2 dl2 2 dl1 2 dl2 2 dl1 4 dl2] LC8 DL} def
/Pnt {stroke [] 0 setdash gsave 1 setlinecap M 0 0 V stroke grestore} def
/Dia {stroke [] 0 setdash 2 copy vpt add M
  hpt neg vpt neg V hpt vpt neg V
  hpt vpt V hpt neg vpt V closepath stroke
  Pnt} def
/Pls {stroke [] 0 setdash vpt sub M 0 vpt2 V
  currentpoint stroke M
  hpt neg vpt neg R hpt2 0 V stroke
 } def
/Box {stroke [] 0 setdash 2 copy exch hpt sub exch vpt add M
  0 vpt2 neg V hpt2 0 V 0 vpt2 V
  hpt2 neg 0 V closepath stroke
  Pnt} def
/Crs {stroke [] 0 setdash exch hpt sub exch vpt add M
  hpt2 vpt2 neg V currentpoint stroke M
  hpt2 neg 0 R hpt2 vpt2 V stroke} def
/TriU {stroke [] 0 setdash 2 copy vpt 1.12 mul add M
  hpt neg vpt -1.62 mul V
  hpt 2 mul 0 V
  hpt neg vpt 1.62 mul V closepath stroke
  Pnt} def
/Star {2 copy Pls Crs} def
/BoxF {stroke [] 0 setdash exch hpt sub exch vpt add M
  0 vpt2 neg V hpt2 0 V 0 vpt2 V
  hpt2 neg 0 V closepath fill} def
/TriUF {stroke [] 0 setdash vpt 1.12 mul add M
  hpt neg vpt -1.62 mul V
  hpt 2 mul 0 V
  hpt neg vpt 1.62 mul V closepath fill} def
/TriD {stroke [] 0 setdash 2 copy vpt 1.12 mul sub M
  hpt neg vpt 1.62 mul V
  hpt 2 mul 0 V
  hpt neg vpt -1.62 mul V closepath stroke
  Pnt} def
/TriDF {stroke [] 0 setdash vpt 1.12 mul sub M
  hpt neg vpt 1.62 mul V
  hpt 2 mul 0 V
  hpt neg vpt -1.62 mul V closepath fill} def
/DiaF {stroke [] 0 setdash vpt add M
  hpt neg vpt neg V hpt vpt neg V
  hpt vpt V hpt neg vpt V closepath fill} def
/Pent {stroke [] 0 setdash 2 copy gsave
  translate 0 hpt M 4 {72 rotate 0 hpt L} repeat
  closepath stroke grestore Pnt} def
/PentF {stroke [] 0 setdash gsave
  translate 0 hpt M 4 {72 rotate 0 hpt L} repeat
  closepath fill grestore} def
/Circle {stroke [] 0 setdash 2 copy
  hpt 0 360 arc stroke Pnt} def
/CircleF {stroke [] 0 setdash hpt 0 360 arc fill} def
/C0 {BL [] 0 setdash 2 copy moveto vpt 90 450 arc} bind def
/C1 {BL [] 0 setdash 2 copy moveto
	2 copy vpt 0 90 arc closepath fill
	vpt 0 360 arc closepath} bind def
/C2 {BL [] 0 setdash 2 copy moveto
	2 copy vpt 90 180 arc closepath fill
	vpt 0 360 arc closepath} bind def
/C3 {BL [] 0 setdash 2 copy moveto
	2 copy vpt 0 180 arc closepath fill
	vpt 0 360 arc closepath} bind def
/C4 {BL [] 0 setdash 2 copy moveto
	2 copy vpt 180 270 arc closepath fill
	vpt 0 360 arc closepath} bind def
/C5 {BL [] 0 setdash 2 copy moveto
	2 copy vpt 0 90 arc
	2 copy moveto
	2 copy vpt 180 270 arc closepath fill
	vpt 0 360 arc} bind def
/C6 {BL [] 0 setdash 2 copy moveto
	2 copy vpt 90 270 arc closepath fill
	vpt 0 360 arc closepath} bind def
/C7 {BL [] 0 setdash 2 copy moveto
	2 copy vpt 0 270 arc closepath fill
	vpt 0 360 arc closepath} bind def
/C8 {BL [] 0 setdash 2 copy moveto
	2 copy vpt 270 360 arc closepath fill
	vpt 0 360 arc closepath} bind def
/C9 {BL [] 0 setdash 2 copy moveto
	2 copy vpt 270 450 arc closepath fill
	vpt 0 360 arc closepath} bind def
/C10 {BL [] 0 setdash 2 copy 2 copy moveto vpt 270 360 arc closepath fill
	2 copy moveto
	2 copy vpt 90 180 arc closepath fill
	vpt 0 360 arc closepath} bind def
/C11 {BL [] 0 setdash 2 copy moveto
	2 copy vpt 0 180 arc closepath fill
	2 copy moveto
	2 copy vpt 270 360 arc closepath fill
	vpt 0 360 arc closepath} bind def
/C12 {BL [] 0 setdash 2 copy moveto
	2 copy vpt 180 360 arc closepath fill
	vpt 0 360 arc closepath} bind def
/C13 {BL [] 0 setdash 2 copy moveto
	2 copy vpt 0 90 arc closepath fill
	2 copy moveto
	2 copy vpt 180 360 arc closepath fill
	vpt 0 360 arc closepath} bind def
/C14 {BL [] 0 setdash 2 copy moveto
	2 copy vpt 90 360 arc closepath fill
	vpt 0 360 arc} bind def
/C15 {BL [] 0 setdash 2 copy vpt 0 360 arc closepath fill
	vpt 0 360 arc closepath} bind def
/Rec {newpath 4 2 roll moveto 1 index 0 rlineto 0 exch rlineto
	neg 0 rlineto closepath} bind def
/Square {dup Rec} bind def
/Bsquare {vpt sub exch vpt sub exch vpt2 Square} bind def
/S0 {BL [] 0 setdash 2 copy moveto 0 vpt rlineto BL Bsquare} bind def
/S1 {BL [] 0 setdash 2 copy vpt Square fill Bsquare} bind def
/S2 {BL [] 0 setdash 2 copy exch vpt sub exch vpt Square fill Bsquare} bind def
/S3 {BL [] 0 setdash 2 copy exch vpt sub exch vpt2 vpt Rec fill Bsquare} bind def
/S4 {BL [] 0 setdash 2 copy exch vpt sub exch vpt sub vpt Square fill Bsquare} bind def
/S5 {BL [] 0 setdash 2 copy 2 copy vpt Square fill
	exch vpt sub exch vpt sub vpt Square fill Bsquare} bind def
/S6 {BL [] 0 setdash 2 copy exch vpt sub exch vpt sub vpt vpt2 Rec fill Bsquare} bind def
/S7 {BL [] 0 setdash 2 copy exch vpt sub exch vpt sub vpt vpt2 Rec fill
	2 copy vpt Square fill Bsquare} bind def
/S8 {BL [] 0 setdash 2 copy vpt sub vpt Square fill Bsquare} bind def
/S9 {BL [] 0 setdash 2 copy vpt sub vpt vpt2 Rec fill Bsquare} bind def
/S10 {BL [] 0 setdash 2 copy vpt sub vpt Square fill 2 copy exch vpt sub exch vpt Square fill
	Bsquare} bind def
/S11 {BL [] 0 setdash 2 copy vpt sub vpt Square fill 2 copy exch vpt sub exch vpt2 vpt Rec fill
	Bsquare} bind def
/S12 {BL [] 0 setdash 2 copy exch vpt sub exch vpt sub vpt2 vpt Rec fill Bsquare} bind def
/S13 {BL [] 0 setdash 2 copy exch vpt sub exch vpt sub vpt2 vpt Rec fill
	2 copy vpt Square fill Bsquare} bind def
/S14 {BL [] 0 setdash 2 copy exch vpt sub exch vpt sub vpt2 vpt Rec fill
	2 copy exch vpt sub exch vpt Square fill Bsquare} bind def
/S15 {BL [] 0 setdash 2 copy Bsquare fill Bsquare} bind def
/D0 {gsave translate 45 rotate 0 0 S0 stroke grestore} bind def
/D1 {gsave translate 45 rotate 0 0 S1 stroke grestore} bind def
/D2 {gsave translate 45 rotate 0 0 S2 stroke grestore} bind def
/D3 {gsave translate 45 rotate 0 0 S3 stroke grestore} bind def
/D4 {gsave translate 45 rotate 0 0 S4 stroke grestore} bind def
/D5 {gsave translate 45 rotate 0 0 S5 stroke grestore} bind def
/D6 {gsave translate 45 rotate 0 0 S6 stroke grestore} bind def
/D7 {gsave translate 45 rotate 0 0 S7 stroke grestore} bind def
/D8 {gsave translate 45 rotate 0 0 S8 stroke grestore} bind def
/D9 {gsave translate 45 rotate 0 0 S9 stroke grestore} bind def
/D10 {gsave translate 45 rotate 0 0 S10 stroke grestore} bind def
/D11 {gsave translate 45 rotate 0 0 S11 stroke grestore} bind def
/D12 {gsave translate 45 rotate 0 0 S12 stroke grestore} bind def
/D13 {gsave translate 45 rotate 0 0 S13 stroke grestore} bind def
/D14 {gsave translate 45 rotate 0 0 S14 stroke grestore} bind def
/D15 {gsave translate 45 rotate 0 0 S15 stroke grestore} bind def
/DiaE {stroke [] 0 setdash vpt add M
  hpt neg vpt neg V hpt vpt neg V
  hpt vpt V hpt neg vpt V closepath stroke} def
/BoxE {stroke [] 0 setdash exch hpt sub exch vpt add M
  0 vpt2 neg V hpt2 0 V 0 vpt2 V
  hpt2 neg 0 V closepath stroke} def
/TriUE {stroke [] 0 setdash vpt 1.12 mul add M
  hpt neg vpt -1.62 mul V
  hpt 2 mul 0 V
  hpt neg vpt 1.62 mul V closepath stroke} def
/TriDE {stroke [] 0 setdash vpt 1.12 mul sub M
  hpt neg vpt 1.62 mul V
  hpt 2 mul 0 V
  hpt neg vpt -1.62 mul V closepath stroke} def
/PentE {stroke [] 0 setdash gsave
  translate 0 hpt M 4 {72 rotate 0 hpt L} repeat
  closepath stroke grestore} def
/CircE {stroke [] 0 setdash 
  hpt 0 360 arc stroke} def
/Opaque {gsave closepath 1 setgray fill grestore 0 setgray closepath} def
/DiaW {stroke [] 0 setdash vpt add M
  hpt neg vpt neg V hpt vpt neg V
  hpt vpt V hpt neg vpt V Opaque stroke} def
/BoxW {stroke [] 0 setdash exch hpt sub exch vpt add M
  0 vpt2 neg V hpt2 0 V 0 vpt2 V
  hpt2 neg 0 V Opaque stroke} def
/TriUW {stroke [] 0 setdash vpt 1.12 mul add M
  hpt neg vpt -1.62 mul V
  hpt 2 mul 0 V
  hpt neg vpt 1.62 mul V Opaque stroke} def
/TriDW {stroke [] 0 setdash vpt 1.12 mul sub M
  hpt neg vpt 1.62 mul V
  hpt 2 mul 0 V
  hpt neg vpt -1.62 mul V Opaque stroke} def
/PentW {stroke [] 0 setdash gsave
  translate 0 hpt M 4 {72 rotate 0 hpt L} repeat
  Opaque stroke grestore} def
/CircW {stroke [] 0 setdash 
  hpt 0 360 arc Opaque stroke} def
/BoxFill {gsave Rec 1 setgray fill grestore} def
/Density {
  /Fillden exch def
  currentrgbcolor
  /ColB exch def /ColG exch def /ColR exch def
  /ColR ColR Fillden mul Fillden sub 1 add def
  /ColG ColG Fillden mul Fillden sub 1 add def
  /ColB ColB Fillden mul Fillden sub 1 add def
  ColR ColG ColB setrgbcolor} def
/BoxColFill {gsave Rec PolyFill} def
/PolyFill {gsave Density fill grestore grestore} def
/h {rlineto rlineto rlineto gsave closepath fill grestore} bind def
%
% PostScript Level 1 Pattern Fill routine for rectangles
% Usage: x y w h s a XX PatternFill
%	x,y = lower left corner of box to be filled
%	w,h = width and height of box
%	  a = angle in degrees between lines and x-axis
%	 XX = 0/1 for no/yes cross-hatch
%
/PatternFill {gsave /PFa [ 9 2 roll ] def
  PFa 0 get PFa 2 get 2 div add PFa 1 get PFa 3 get 2 div add translate
  PFa 2 get -2 div PFa 3 get -2 div PFa 2 get PFa 3 get Rec
  TransparentPatterns {} {gsave 1 setgray fill grestore} ifelse
  clip
  currentlinewidth 0.5 mul setlinewidth
  /PFs PFa 2 get dup mul PFa 3 get dup mul add sqrt def
  0 0 M PFa 5 get rotate PFs -2 div dup translate
  0 1 PFs PFa 4 get div 1 add floor cvi
	{PFa 4 get mul 0 M 0 PFs V} for
  0 PFa 6 get ne {
	0 1 PFs PFa 4 get div 1 add floor cvi
	{PFa 4 get mul 0 2 1 roll M PFs 0 V} for
 } if
  stroke grestore} def
%
/languagelevel where
 {pop languagelevel} {1} ifelse
 2 lt
	{/InterpretLevel1 true def}
	{/InterpretLevel1 Level1 def}
 ifelse
%
% PostScript level 2 pattern fill definitions
%
/Level2PatternFill {
/Tile8x8 {/PaintType 2 /PatternType 1 /TilingType 1 /BBox [0 0 8 8] /XStep 8 /YStep 8}
	bind def
/KeepColor {currentrgbcolor [/Pattern /DeviceRGB] setcolorspace} bind def
<< Tile8x8
 /PaintProc {0.5 setlinewidth pop 0 0 M 8 8 L 0 8 M 8 0 L stroke} 
>> matrix makepattern
/Pat1 exch def
<< Tile8x8
 /PaintProc {0.5 setlinewidth pop 0 0 M 8 8 L 0 8 M 8 0 L stroke
	0 4 M 4 8 L 8 4 L 4 0 L 0 4 L stroke}
>> matrix makepattern
/Pat2 exch def
<< Tile8x8
 /PaintProc {0.5 setlinewidth pop 0 0 M 0 8 L
	8 8 L 8 0 L 0 0 L fill}
>> matrix makepattern
/Pat3 exch def
<< Tile8x8
 /PaintProc {0.5 setlinewidth pop -4 8 M 8 -4 L
	0 12 M 12 0 L stroke}
>> matrix makepattern
/Pat4 exch def
<< Tile8x8
 /PaintProc {0.5 setlinewidth pop -4 0 M 8 12 L
	0 -4 M 12 8 L stroke}
>> matrix makepattern
/Pat5 exch def
<< Tile8x8
 /PaintProc {0.5 setlinewidth pop -2 8 M 4 -4 L
	0 12 M 8 -4 L 4 12 M 10 0 L stroke}
>> matrix makepattern
/Pat6 exch def
<< Tile8x8
 /PaintProc {0.5 setlinewidth pop -2 0 M 4 12 L
	0 -4 M 8 12 L 4 -4 M 10 8 L stroke}
>> matrix makepattern
/Pat7 exch def
<< Tile8x8
 /PaintProc {0.5 setlinewidth pop 8 -2 M -4 4 L
	12 0 M -4 8 L 12 4 M 0 10 L stroke}
>> matrix makepattern
/Pat8 exch def
<< Tile8x8
 /PaintProc {0.5 setlinewidth pop 0 -2 M 12 4 L
	-4 0 M 12 8 L -4 4 M 8 10 L stroke}
>> matrix makepattern
/Pat9 exch def
/Pattern1 {PatternBgnd KeepColor Pat1 setpattern} bind def
/Pattern2 {PatternBgnd KeepColor Pat2 setpattern} bind def
/Pattern3 {PatternBgnd KeepColor Pat3 setpattern} bind def
/Pattern4 {PatternBgnd KeepColor Landscape {Pat5} {Pat4} ifelse setpattern} bind def
/Pattern5 {PatternBgnd KeepColor Landscape {Pat4} {Pat5} ifelse setpattern} bind def
/Pattern6 {PatternBgnd KeepColor Landscape {Pat9} {Pat6} ifelse setpattern} bind def
/Pattern7 {PatternBgnd KeepColor Landscape {Pat8} {Pat7} ifelse setpattern} bind def
} def
%
%
%End of PostScript Level 2 code
%
/PatternBgnd {
  TransparentPatterns {} {gsave 1 setgray fill grestore} ifelse
} def
%
% Substitute for Level 2 pattern fill codes with
% grayscale if Level 2 support is not selected.
%
/Level1PatternFill {
/Pattern1 {0.250 Density} bind def
/Pattern2 {0.500 Density} bind def
/Pattern3 {0.750 Density} bind def
/Pattern4 {0.125 Density} bind def
/Pattern5 {0.375 Density} bind def
/Pattern6 {0.625 Density} bind def
/Pattern7 {0.875 Density} bind def
} def
%
% Now test for support of Level 2 code
%
Level1 {Level1PatternFill} {Level2PatternFill} ifelse
%
/Symbol-Oblique /Symbol findfont [1 0 .167 1 0 0] makefont
dup length dict begin {1 index /FID eq {pop pop} {def} ifelse} forall
currentdict end definefont pop
/MFshow {
   { dup 5 get 3 ge
     { 5 get 3 eq {gsave} {grestore} ifelse }
     {dup dup 0 get findfont exch 1 get scalefont setfont
     [ currentpoint ] exch dup 2 get 0 exch R dup 5 get 2 ne {dup dup 6
     get exch 4 get {Gshow} {stringwidth pop 0 R} ifelse }if dup 5 get 0 eq
     {dup 3 get {2 get neg 0 exch R pop} {pop aload pop M} ifelse} {dup 5
     get 1 eq {dup 2 get exch dup 3 get exch 6 get stringwidth pop -2 div
     dup 0 R} {dup 6 get stringwidth pop -2 div 0 R 6 get
     show 2 index {aload pop M neg 3 -1 roll neg R pop pop} {pop pop pop
     pop aload pop M} ifelse }ifelse }ifelse }
     ifelse }
   forall} def
/Gswidth {dup type /stringtype eq {stringwidth} {pop (n) stringwidth} ifelse} def
/MFwidth {0 exch { dup 5 get 3 ge { 5 get 3 eq { 0 } { pop } ifelse }
 {dup 3 get{dup dup 0 get findfont exch 1 get scalefont setfont
     6 get Gswidth pop add} {pop} ifelse} ifelse} forall} def
/MLshow { currentpoint stroke M
  0 exch R
  Blacktext {gsave 0 setgray MFshow grestore} {MFshow} ifelse } bind def
/MRshow { currentpoint stroke M
  exch dup MFwidth neg 3 -1 roll R
  Blacktext {gsave 0 setgray MFshow grestore} {MFshow} ifelse } bind def
/MCshow { currentpoint stroke M
  exch dup MFwidth -2 div 3 -1 roll R
  Blacktext {gsave 0 setgray MFshow grestore} {MFshow} ifelse } bind def
/XYsave    { [( ) 1 2 true false 3 ()] } bind def
/XYrestore { [( ) 1 2 true false 4 ()] } bind def
Level1 SuppressPDFMark or 
{} {
/SDict 10 dict def
systemdict /pdfmark known not {
  userdict /pdfmark systemdict /cleartomark get put
} if
SDict begin [
  /Title (AST50vsMC-Time.eps)
  /Subject (gnuplot plot)
  /Creator (gnuplot 4.6 patchlevel 4)
  /Author (danny)
%  /Producer (gnuplot)
%  /Keywords ()
  /CreationDate (Thu Jun 19 11:29:36 2014)
  /DOCINFO pdfmark
end
} ifelse
end
%%EndProlog
%%Page: 1 1
gnudict begin
gsave
doclip
50 50 translate
0.050 0.050 scale
0 setgray
newpath
(Times-Roman) findfont 200 scalefont setfont
BackgroundColor 0 lt 3 1 roll 0 lt exch 0 lt or or not {BackgroundColor C 1.000 0 0 10080.00 7488.00 BoxColFill} if
gsave % colour palette begin
/maxcolors 0 def
/HSV2RGB {  exch dup 0.0 eq {pop exch pop dup dup} % achromatic gray
  { /HSVs exch def /HSVv exch def 6.0 mul dup floor dup 3 1 roll sub
     /HSVf exch def /HSVi exch cvi def /HSVp HSVv 1.0 HSVs sub mul def
	 /HSVq HSVv 1.0 HSVs HSVf mul sub mul def 
	 /HSVt HSVv 1.0 HSVs 1.0 HSVf sub mul sub mul def
	 /HSVi HSVi 6 mod def 0 HSVi eq {HSVv HSVt HSVp}
	 {1 HSVi eq {HSVq HSVv HSVp}{2 HSVi eq {HSVp HSVv HSVt}
	 {3 HSVi eq {HSVp HSVq HSVv}{4 HSVi eq {HSVt HSVp HSVv}
	 {HSVv HSVp HSVq} ifelse} ifelse} ifelse} ifelse} ifelse
  } ifelse} def
/Constrain {
  dup 0 lt {0 exch pop}{dup 1 gt {1 exch pop} if} ifelse} def
/YIQ2RGB {
  3 copy -1.702 mul exch -1.105 mul add add Constrain 4 1 roll
  3 copy -0.647 mul exch -0.272 mul add add Constrain 5 1 roll
  0.621 mul exch -0.956 mul add add Constrain 3 1 roll } def
/CMY2RGB {  1 exch sub exch 1 exch sub 3 2 roll 1 exch sub 3 1 roll exch } def
/XYZ2RGB {  3 copy -0.9017 mul exch -0.1187 mul add exch 0.0585 mul exch add
  Constrain 4 1 roll 3 copy -0.0279 mul exch 1.999 mul add exch
  -0.9844 mul add Constrain 5 1 roll -0.2891 mul exch -0.5338 mul add
  exch 1.91 mul exch add Constrain 3 1 roll} def
/SelectSpace {ColorSpace (HSV) eq {HSV2RGB}{ColorSpace (XYZ) eq {
  XYZ2RGB}{ColorSpace (CMY) eq {CMY2RGB}{ColorSpace (YIQ) eq {YIQ2RGB}
  if} ifelse} ifelse} ifelse} def
/InterpolatedColor true def
/grayindex {/gidx 0 def
  {GrayA gidx get grayv ge {exit} if /gidx gidx 1 add def} loop} def
/dgdx {grayv GrayA gidx get sub GrayA gidx 1 sub get
  GrayA gidx get sub div} def 
/redvalue {RedA gidx get RedA gidx 1 sub get
  RedA gidx get sub dgdxval mul add} def
/greenvalue {GreenA gidx get GreenA gidx 1 sub get
  GreenA gidx get sub dgdxval mul add} def
/bluevalue {BlueA gidx get BlueA gidx 1 sub get
  BlueA gidx get sub dgdxval mul add} def
/interpolate {
  grayindex grayv GrayA gidx get sub abs 1e-5 le
    {RedA gidx get GreenA gidx get BlueA gidx get}
    {/dgdxval dgdx def redvalue greenvalue bluevalue} ifelse} def
/GrayA [0 1 ] def
/RedA [0 1 ] def
/GreenA [1 0 ] def
/BlueA [0 0 ] def
/pm3dround {maxcolors 0 gt {dup 1 ge
	{pop 1} {maxcolors mul floor maxcolors 1 sub div} ifelse} if} def
/pm3dGamma 1.0 1.5 Gamma mul div def
/ColorSpace (RGB) def
Color InterpolatedColor or { % COLOUR vs. GRAY map
  InterpolatedColor { %% Interpolation vs. RGB-Formula
    /g {stroke pm3dround /grayv exch def interpolate
        SelectSpace setrgbcolor} bind def
  }{
  /g {stroke pm3dround dup cF7 Constrain exch dup cF5 Constrain exch cF15 Constrain 
       SelectSpace setrgbcolor} bind def
  } ifelse
}{
  /g {stroke pm3dround pm3dGamma exp setgray} bind def
} ifelse
1.000 UL
LTb
LCb setrgbcolor
1.000 UL
LTb
LCb setrgbcolor
1726 1588 M
3127 2850 L
stroke
LTb
LCb setrgbcolor
8354 2512 M
3127 2850 L
stroke
LTb
LCb setrgbcolor
1726 1588 M
0 3588 V
stroke
LTb
LCb setrgbcolor
3127 2850 M
0 3588 V
stroke
LTb
LCb setrgbcolor
8354 2512 M
0 3588 V
stroke
LTb
LCb setrgbcolor
1726 5176 M
3127 6438 L
stroke
LTb
LCb setrgbcolor
8354 6100 M
3127 6438 L
stroke
LTa
LCa setrgbcolor
1726 1588 M
3127 2850 L
stroke
LTb
LCb setrgbcolor
1726 1588 M
23 21 V
stroke
LTb
LCb setrgbcolor
1682 1522 M
[ [(Times-Roman) 200.0 0.0 true true 0 ( 0.1)]
] -66.7 MCshow
1.000 UL
LTb
LCb setrgbcolor
1.000 UL
LTb
LCb setrgbcolor
3127 2850 M
-23 -21 V
stroke
LTa
LCa setrgbcolor
2379 1545 M
3780 2807 L
stroke
LTb
LCb setrgbcolor
2379 1545 M
23 21 V
stroke
LTb
LCb setrgbcolor
2335 1479 M
[ [(Times-Roman) 200.0 0.0 true true 0 ( 0.2)]
] -66.7 MCshow
1.000 UL
LTb
LCb setrgbcolor
1.000 UL
LTb
LCb setrgbcolor
3780 2807 M
-23 -20 V
stroke
LTa
LCa setrgbcolor
3033 1503 M
4434 2765 L
stroke
LTb
LCb setrgbcolor
3033 1503 M
23 21 V
stroke
LTb
LCb setrgbcolor
2989 1437 M
[ [(Times-Roman) 200.0 0.0 true true 0 ( 0.3)]
] -66.7 MCshow
1.000 UL
LTb
LCb setrgbcolor
1.000 UL
LTb
LCb setrgbcolor
4434 2765 M
-23 -21 V
stroke
LTa
LCa setrgbcolor
3686 1461 M
5086 2723 L
stroke
LTb
LCb setrgbcolor
3686 1461 M
24 21 V
stroke
LTb
LCb setrgbcolor
3642 1395 M
[ [(Times-Roman) 200.0 0.0 true true 0 ( 0.4)]
] -66.7 MCshow
1.000 UL
LTb
LCb setrgbcolor
1.000 UL
LTb
LCb setrgbcolor
5086 2723 M
-23 -21 V
stroke
LTa
LCa setrgbcolor
4340 1419 M
5740 2681 L
stroke
LTb
LCb setrgbcolor
4340 1419 M
23 21 V
stroke
LTb
LCb setrgbcolor
4296 1353 M
[ [(Times-Roman) 200.0 0.0 true true 0 ( 0.5)]
] -66.7 MCshow
1.000 UL
LTb
LCb setrgbcolor
1.000 UL
LTb
LCb setrgbcolor
5740 2681 M
-23 -21 V
stroke
LTa
LCa setrgbcolor
4994 1376 M
6394 2638 L
stroke
LTb
LCb setrgbcolor
4994 1376 M
23 21 V
stroke
LTb
LCb setrgbcolor
4950 1310 M
[ [(Times-Roman) 200.0 0.0 true true 0 ( 0.6)]
] -66.7 MCshow
1.000 UL
LTb
LCb setrgbcolor
1.000 UL
LTb
LCb setrgbcolor
6394 2638 M
-24 -20 V
stroke
LTa
LCa setrgbcolor
5646 1334 M
7047 2596 L
stroke
LTb
LCb setrgbcolor
5646 1334 M
23 21 V
stroke
LTb
LCb setrgbcolor
5602 1268 M
[ [(Times-Roman) 200.0 0.0 true true 0 ( 0.7)]
] -66.7 MCshow
1.000 UL
LTb
LCb setrgbcolor
1.000 UL
LTb
LCb setrgbcolor
7047 2596 M
-23 -21 V
stroke
LTa
LCa setrgbcolor
6300 1292 M
7701 2554 L
stroke
LTb
LCb setrgbcolor
6300 1292 M
23 21 V
stroke
LTb
LCb setrgbcolor
6256 1226 M
[ [(Times-Roman) 200.0 0.0 true true 0 ( 0.8)]
] -66.7 MCshow
1.000 UL
LTb
LCb setrgbcolor
1.000 UL
LTb
LCb setrgbcolor
7701 2554 M
-23 -21 V
stroke
LTa
LCa setrgbcolor
6953 1250 M
8354 2512 L
stroke
LTb
LCb setrgbcolor
6953 1250 M
23 20 V
stroke
LTb
LCb setrgbcolor
6909 1184 M
[ [(Times-Roman) 200.0 0.0 true true 0 ( 0.9)]
] -66.7 MCshow
1.000 UL
LTb
LCb setrgbcolor
1.000 UL
LTb
LCb setrgbcolor
8354 2512 M
-23 -21 V
stroke
LTa
LCa setrgbcolor
6953 1250 M
1726 1588 L
stroke
LTb
LCb setrgbcolor
6953 1250 M
-61 4 V
stroke
7069 1237 M
[ [(Times-Roman) 200.0 0.0 true true 0 ( 0)]
] -66.7 MLshow
1.000 UL
LTb
LCb setrgbcolor
1.000 UL
LTb
LCb setrgbcolor
1726 1588 M
61 -4 V
stroke
LTa
LCa setrgbcolor
7093 1376 M
1866 1714 L
stroke
LTb
LCb setrgbcolor
7093 1376 M
-60 4 V
stroke
7209 1363 M
[ [(Times-Roman) 200.0 0.0 true true 0 ( 0.1)]
] -66.7 MLshow
1.000 UL
LTb
LCb setrgbcolor
1.000 UL
LTb
LCb setrgbcolor
1866 1714 M
61 -4 V
stroke
LTa
LCa setrgbcolor
7233 1502 M
2006 1840 L
stroke
LTb
LCb setrgbcolor
7233 1502 M
-60 4 V
stroke
7349 1490 M
[ [(Times-Roman) 200.0 0.0 true true 0 ( 0.2)]
] -66.7 MLshow
1.000 UL
LTb
LCb setrgbcolor
1.000 UL
LTb
LCb setrgbcolor
2006 1840 M
61 -4 V
stroke
LTa
LCa setrgbcolor
7374 1628 M
2146 1966 L
stroke
LTb
LCb setrgbcolor
7374 1628 M
-61 4 V
stroke
7489 1616 M
[ [(Times-Roman) 200.0 0.0 true true 0 ( 0.3)]
] -66.7 MLshow
1.000 UL
LTb
LCb setrgbcolor
1.000 UL
LTb
LCb setrgbcolor
2146 1966 M
61 -4 V
stroke
LTa
LCa setrgbcolor
7514 1754 M
2286 2093 L
stroke
LTb
LCb setrgbcolor
7514 1754 M
-61 4 V
stroke
7630 1742 M
[ [(Times-Roman) 200.0 0.0 true true 0 ( 0.4)]
] -66.7 MLshow
1.000 UL
LTb
LCb setrgbcolor
1.000 UL
LTb
LCb setrgbcolor
2286 2093 M
61 -4 V
stroke
LTa
LCa setrgbcolor
7654 1881 M
2426 2219 L
stroke
LTb
LCb setrgbcolor
7654 1881 M
-61 4 V
stroke
7770 1868 M
[ [(Times-Roman) 200.0 0.0 true true 0 ( 0.5)]
] -66.7 MLshow
1.000 UL
LTb
LCb setrgbcolor
1.000 UL
LTb
LCb setrgbcolor
2426 2219 M
61 -4 V
stroke
LTa
LCa setrgbcolor
7794 2007 M
2566 2345 L
stroke
LTb
LCb setrgbcolor
7794 2007 M
-61 4 V
stroke
7910 1994 M
[ [(Times-Roman) 200.0 0.0 true true 0 ( 0.6)]
] -66.7 MLshow
1.000 UL
LTb
LCb setrgbcolor
1.000 UL
LTb
LCb setrgbcolor
2566 2345 M
61 -4 V
stroke
LTa
LCa setrgbcolor
7934 2133 M
2706 2471 L
stroke
LTb
LCb setrgbcolor
7934 2133 M
-61 4 V
stroke
8050 2121 M
[ [(Times-Roman) 200.0 0.0 true true 0 ( 0.7)]
] -66.7 MLshow
1.000 UL
LTb
LCb setrgbcolor
1.000 UL
LTb
LCb setrgbcolor
2706 2471 M
61 -4 V
stroke
LTa
LCa setrgbcolor
8074 2259 M
2847 2597 L
stroke
LTb
LCb setrgbcolor
8074 2259 M
-61 4 V
stroke
8190 2247 M
[ [(Times-Roman) 200.0 0.0 true true 0 ( 0.8)]
] -66.7 MLshow
1.000 UL
LTb
LCb setrgbcolor
1.000 UL
LTb
LCb setrgbcolor
2847 2597 M
60 -4 V
stroke
LTa
LCa setrgbcolor
8214 2385 M
2987 2724 L
stroke
LTb
LCb setrgbcolor
8214 2385 M
-61 4 V
stroke
8330 2373 M
[ [(Times-Roman) 200.0 0.0 true true 0 ( 0.9)]
] -66.7 MLshow
1.000 UL
LTb
LCb setrgbcolor
1.000 UL
LTb
LCb setrgbcolor
2987 2724 M
60 -4 V
stroke
LTa
LCa setrgbcolor
8354 2512 M
3127 2850 L
stroke
LTb
LCb setrgbcolor
8354 2512 M
-61 4 V
stroke
8470 2499 M
[ [(Times-Roman) 200.0 0.0 true true 0 ( 1)]
] -66.7 MLshow
1.000 UL
LTb
LCb setrgbcolor
1.000 UL
LTb
LCb setrgbcolor
3127 2850 M
61 -4 V
stroke
LTa
LCa setrgbcolor
1726 1588 M
3127 2850 L
stroke
LTa
LCa setrgbcolor
3127 2850 M
8354 2512 L
stroke
LTb
LCb setrgbcolor
1726 1588 M
63 0 V
stroke
1600 1588 M
[ [(Times-Roman) 200.0 0.0 true true 0 ( 0)]
] -66.7 MRshow
1.000 UL
LTb
LCb setrgbcolor
1.000 UL
LTa
LCa setrgbcolor
1726 1914 M
3127 3176 L
stroke
LTa
LCa setrgbcolor
3127 3176 M
8354 2838 L
stroke
LTb
LCb setrgbcolor
1726 1914 M
63 0 V
stroke
1600 1914 M
[ [(Times-Roman) 200.0 0.0 true true 0 ( 0.005)]
] -66.7 MRshow
1.000 UL
LTb
LCb setrgbcolor
1.000 UL
LTa
LCa setrgbcolor
1726 2240 M
3127 3502 L
stroke
LTa
LCa setrgbcolor
3127 3502 M
8354 3164 L
stroke
LTb
LCb setrgbcolor
1726 2240 M
63 0 V
stroke
1600 2240 M
[ [(Times-Roman) 200.0 0.0 true true 0 ( 0.01)]
] -66.7 MRshow
1.000 UL
LTb
LCb setrgbcolor
1.000 UL
LTa
LCa setrgbcolor
1726 2567 M
3127 3829 L
stroke
LTa
LCa setrgbcolor
3127 3829 M
8354 3491 L
stroke
LTb
LCb setrgbcolor
1726 2567 M
63 0 V
stroke
1600 2567 M
[ [(Times-Roman) 200.0 0.0 true true 0 ( 0.015)]
] -66.7 MRshow
1.000 UL
LTb
LCb setrgbcolor
1.000 UL
LTa
LCa setrgbcolor
1726 2893 M
3127 4154 L
stroke
LTa
LCa setrgbcolor
3127 4154 M
8354 3817 L
stroke
LTb
LCb setrgbcolor
1726 2893 M
63 0 V
stroke
1600 2893 M
[ [(Times-Roman) 200.0 0.0 true true 0 ( 0.02)]
] -66.7 MRshow
1.000 UL
LTb
LCb setrgbcolor
1.000 UL
LTa
LCa setrgbcolor
1726 3219 M
3127 4480 L
stroke
LTa
LCa setrgbcolor
3127 4480 M
8354 4142 L
stroke
LTb
LCb setrgbcolor
1726 3219 M
63 0 V
stroke
1600 3219 M
[ [(Times-Roman) 200.0 0.0 true true 0 ( 0.025)]
] -66.7 MRshow
1.000 UL
LTb
LCb setrgbcolor
1.000 UL
LTa
LCa setrgbcolor
1726 3546 M
3127 4807 L
stroke
LTa
LCa setrgbcolor
3127 4807 M
8354 4469 L
stroke
LTb
LCb setrgbcolor
1726 3546 M
63 0 V
stroke
1600 3546 M
[ [(Times-Roman) 200.0 0.0 true true 0 ( 0.03)]
] -66.7 MRshow
1.000 UL
LTb
LCb setrgbcolor
1.000 UL
LTa
LCa setrgbcolor
1726 3871 M
3127 5133 L
stroke
LTa
LCa setrgbcolor
3127 5133 M
8354 4795 L
stroke
LTb
LCb setrgbcolor
1726 3871 M
63 0 V
stroke
1600 3871 M
[ [(Times-Roman) 200.0 0.0 true true 0 ( 0.035)]
] -66.7 MRshow
1.000 UL
LTb
LCb setrgbcolor
1.000 UL
LTa
LCa setrgbcolor
1726 4197 M
3127 5459 L
stroke
LTa
LCa setrgbcolor
3127 5459 M
8354 5121 L
stroke
LTb
LCb setrgbcolor
1726 4197 M
63 0 V
stroke
1600 4197 M
[ [(Times-Roman) 200.0 0.0 true true 0 ( 0.04)]
] -66.7 MRshow
1.000 UL
LTb
LCb setrgbcolor
1.000 UL
LTa
LCa setrgbcolor
1726 4524 M
3127 5786 L
stroke
LTa
LCa setrgbcolor
3127 5786 M
8354 5448 L
stroke
LTb
LCb setrgbcolor
1726 4524 M
63 0 V
stroke
1600 4524 M
[ [(Times-Roman) 200.0 0.0 true true 0 ( 0.045)]
] -66.7 MRshow
1.000 UL
LTb
LCb setrgbcolor
1.000 UL
LTa
LCa setrgbcolor
1726 4850 M
3127 6112 L
stroke
LTa
LCa setrgbcolor
3127 6112 M
8354 5774 L
stroke
LTb
LCb setrgbcolor
1726 4850 M
63 0 V
stroke
1600 4850 M
[ [(Times-Roman) 200.0 0.0 true true 0 ( 0.05)]
] -66.7 MRshow
1.000 UL
LTb
LCb setrgbcolor
1.000 UL
LTa
LCa setrgbcolor
1726 5176 M
3127 6438 L
stroke
LTa
LCa setrgbcolor
3127 6438 M
8354 6100 L
stroke
LTb
LCb setrgbcolor
1726 5176 M
63 0 V
stroke
1600 5176 M
[ [(Times-Roman) 200.0 0.0 true true 0 ( 0.055)]
] -66.7 MRshow
1.000 UL
LTb
LCb setrgbcolor
LCb setrgbcolor
886 3383 M
currentpoint gsave translate 90 rotate 0 0 moveto
[ [(Times-Roman) 200.0 0.0 true true 0 (Execution time \(s\))]
] -66.7 MCshow
grestore
LTb
1.000 UP
6720 2613253 M
[ [(Times-Roman) 200.0 0.0 true true 0 (MD)]
] -66.7 MLshow
6720 2482721 M
[ [(Times-Roman) 200.0 0.0 true true 0 (AS)]
] -66.7 MLshow
0.00 1.00 0.00 C 7178 2645857 M
[ [(Times-Roman) 200.0 0.0 true true 0 (-----)]
] -66.7 MLshow
1.00 0.00 0.00 C 7178 2515325 M
[ [(Times-Roman) 200.0 0.0 true true 0 (-----)]
] -66.7 MLshow
% Begin plot #1
1.000 UL
LT0
LC0 setrgbcolor
0.250 UL
LT1
0.27 0.27 0.27 C % End plot #1
% Begin plot #2
1.000 UL
LT1
LC1 setrgbcolor
0.250 UL
LT1
0.27 0.27 0.27 C % End plot #2
1 g gsave 3640 2752 N -653 43 V 140 57 V 653 -40 V 0.90 PolyFill
0.250 UL
LT1
0.27 0.27 0.27 C 3640 2752 M
140 60 V
-653 40 V
-140 -57 V
653 -43 V
1 g gsave 4294 2710 N -654 42 V 140 60 V 654 -38 V 0.90 PolyFill
stroke
LT1
0.27 0.27 0.27 C 4294 2710 M
140 64 V
-654 38 V
-140 -60 V
654 -42 V
1 g gsave 4947 2668 N -653 42 V 140 64 V 652 -39 V 0.90 PolyFill
stroke
LT1
0.27 0.27 0.27 C 4947 2668 M
139 67 V
-652 39 V
-140 -64 V
653 -42 V
1 g gsave 5600 2624 N -653 44 V 139 67 V 654 -37 V 0.90 PolyFill
stroke
LT1
0.27 0.27 0.27 C 5600 2624 M
140 74 V
-654 37 V
-139 -67 V
653 -44 V
1 g gsave 3500 2650 N -653 42 V 140 103 V 653 -43 V 0.90 PolyFill
stroke
LT1
0.27 0.27 0.27 C 3500 2650 M
140 102 V
-653 43 V
2847 2692 L
653 -42 V
1 g gsave 6253 2580 N -653 44 V 140 74 V 654 -36 V 0.90 PolyFill
stroke
LT1
0.27 0.27 0.27 C 6253 2580 M
141 82 V
-654 36 V
-140 -74 V
653 -44 V
1 g gsave 4154 2612 N -654 38 V 140 102 V 654 -42 V 0.90 PolyFill
stroke
LT1
0.27 0.27 0.27 C 4154 2612 M
140 98 V
-654 42 V
3500 2650 L
654 -38 V
1 g gsave 6907 2539 N -654 41 V 141 82 V 653 -33 V 0.90 PolyFill
stroke
LT1
0.27 0.27 0.27 C 6907 2539 M
140 90 V
-653 33 V
-141 -82 V
654 -41 V
1 g gsave 4807 2570 N -653 42 V 140 98 V 653 -42 V 0.90 PolyFill
stroke
LT1
0.27 0.27 0.27 C 4807 2570 M
140 98 V
-653 42 V
-140 -98 V
653 -42 V
0 g gsave 3640 4559 N -653 5 V 140 353 V 653 -225 V 0.90 PolyFill
stroke
LT1
0.27 0.27 0.27 C 3640 4559 M
140 133 V
-653 225 V
2987 4564 L
653 -5 V
1 g gsave 5460 2527 N -653 43 V 140 98 V 653 -44 V 0.90 PolyFill
stroke
LT1
0.27 0.27 0.27 C 5460 2527 M
140 97 V
-653 44 V
-140 -98 V
653 -43 V
1 g gsave 7561 2524 N -654 15 V 140 90 V 654 -26 V 0.90 PolyFill
stroke
LT1
0.27 0.27 0.27 C 7561 2524 M
140 79 V
-654 26 V
-140 -90 V
654 -15 V
1 g gsave 3360 2541 N -654 42 V 141 109 V 653 -42 V 0.90 PolyFill
stroke
LT1
0.27 0.27 0.27 C 3360 2541 M
140 109 V
-653 42 V
2706 2583 L
654 -42 V
0 g gsave 4294 4356 N -654 203 V 140 133 V 654 -39 V 0.90 PolyFill
stroke
LT1
0.27 0.27 0.27 C 4294 4356 M
140 297 V
-654 39 V
3640 4559 L
654 -203 V
0 g gsave 4947 4223 N -653 133 V 140 297 V 652 -226 V 0.90 PolyFill
stroke
LT1
0.27 0.27 0.27 C 4947 4223 M
139 204 V
-652 226 V
4294 4356 L
653 -133 V
0 g gsave 5600 3895 N -653 328 V 139 204 V 654 -278 V 0.90 PolyFill
stroke
LT1
0.27 0.27 0.27 C 5600 3895 M
140 254 V
-654 278 V
4947 4223 L
653 -328 V
1 g gsave 6113 2483 N -653 44 V 140 97 V 653 -44 V 0.90 PolyFill
stroke
LT1
0.27 0.27 0.27 C 6113 2483 M
140 97 V
-653 44 V
-140 -97 V
653 -44 V
1 g gsave 4014 2505 N -654 36 V 140 109 V 654 -38 V 0.90 PolyFill
stroke
LT1
0.27 0.27 0.27 C 4014 2505 M
140 107 V
-654 38 V
3360 2541 L
654 -36 V
1 g gsave 6767 2443 N -654 40 V 140 97 V 654 -41 V 0.90 PolyFill
stroke
LT1
0.27 0.27 0.27 C 6767 2443 M
140 96 V
-654 41 V
-140 -97 V
654 -40 V
1 g gsave 4667 2463 N -653 42 V 140 107 V 653 -42 V 0.90 PolyFill
stroke
LT1
0.27 0.27 0.27 C 4667 2463 M
140 107 V
-653 42 V
4014 2505 L
653 -42 V
0 g gsave 6253 4093 N -653 -198 V 140 254 V 654 -78 V 0.90 PolyFill
stroke
LT1
0.27 0.27 0.27 C 6253 4093 M
141 -22 V
-654 78 V
5600 3895 L
653 198 V
0 g gsave 3500 4467 N -653 124 V 140 -27 V 653 -5 V 0.90 PolyFill
stroke
LT1
0.27 0.27 0.27 C 3500 4467 M
140 92 V
-653 5 V
-140 27 V
653 -124 V
0 g gsave 6907 3799 N -654 294 V 141 -22 V 653 -192 V 0.90 PolyFill
stroke
LT1
0.27 0.27 0.27 C 6907 3799 M
140 80 V
-653 192 V
-141 22 V
654 -294 V
1 g gsave 8214 3106 N -653 -582 V 140 79 V 653 51 V 0.90 PolyFill
stroke
LT1
0.27 0.27 0.27 C 8214 3106 M
140 -452 V
-653 -51 V
-140 -79 V
653 582 V
1 g gsave 5320 2420 N -653 43 V 140 107 V 653 -43 V 0.90 PolyFill
stroke
LT1
0.27 0.27 0.27 C 5320 2420 M
140 107 V
-653 43 V
4667 2463 L
653 -43 V
1 g gsave 3220 2426 N -654 41 V 140 116 V 654 -42 V 0.90 PolyFill
stroke
LT1
0.27 0.27 0.27 C 3220 2426 M
140 115 V
-654 42 V
2566 2467 L
654 -41 V
1 g gsave 7421 2459 N -654 -16 V 140 96 V 654 -15 V 0.90 PolyFill
stroke
LT1
0.27 0.27 0.27 C 7421 2459 M
140 65 V
-654 15 V
-140 -96 V
654 16 V
0 g gsave 4154 4287 N -654 180 V 140 92 V 654 -203 V 0.90 PolyFill
stroke
LT1
0.27 0.27 0.27 C 4154 4287 M
140 69 V
-654 203 V
-140 -92 V
654 -180 V
0 g gsave 7561 3589 N -654 210 V 140 80 V 654 -174 V 0.90 PolyFill
stroke
LT1
0.27 0.27 0.27 C 7561 3589 M
140 116 V
-654 174 V
-140 -80 V
654 -210 V
1 g gsave 5973 2378 N -653 42 V 140 107 V 653 -44 V 0.90 PolyFill
stroke
LT1
0.27 0.27 0.27 C 5973 2378 M
140 105 V
-653 44 V
5320 2420 L
653 -42 V
1 g gsave 3873 2391 N -653 35 V 140 115 V 654 -36 V 0.90 PolyFill
stroke
LT1
0.27 0.27 0.27 C 3873 2391 M
141 114 V
-654 36 V
3220 2426 L
653 -35 V
0 g gsave 8214 3479 N -653 110 V 140 116 V 653 -197 V 0.90 PolyFill
stroke
LT1
0.27 0.27 0.27 C 8214 3479 M
140 29 V
-653 197 V
7561 3589 L
653 -110 V
0 g gsave 4807 4228 N -653 59 V 140 69 V 653 -133 V 0.90 PolyFill
stroke
LT1
0.27 0.27 0.27 C 4807 4228 M
140 -5 V
-653 133 V
-140 -69 V
653 -59 V
0 g gsave 5460 3891 N -653 337 V 140 -5 V 653 -328 V 0.90 PolyFill
stroke
LT1
0.27 0.27 0.27 C 5460 3891 M
140 4 V
-653 328 V
-140 5 V
653 -337 V
1 g gsave 4527 2350 N -654 41 V 141 114 V 653 -42 V 0.90 PolyFill
stroke
LT1
0.27 0.27 0.27 C 4527 2350 M
140 113 V
-653 42 V
3873 2391 L
654 -41 V
1 g gsave 6627 2345 N -654 33 V 140 105 V 654 -40 V 0.90 PolyFill
stroke
LT1
0.27 0.27 0.27 C 6627 2345 M
140 98 V
-654 40 V
5973 2378 L
654 -33 V
0 g gsave 6113 3830 N -653 61 V 140 4 V 653 198 V 0.90 PolyFill
stroke
LT1
0.27 0.27 0.27 C 6113 3830 M
140 263 V
5600 3895 L
-140 -4 V
653 -61 V
0 g gsave 6767 3728 N -654 102 V 140 263 V 654 -294 V 0.90 PolyFill
stroke
LT1
0.27 0.27 0.27 C 6767 3728 M
140 71 V
-654 294 V
6113 3830 L
654 -102 V
1 g gsave 3080 2306 N -654 42 V 140 119 V 654 -41 V 0.90 PolyFill
stroke
LT1
0.27 0.27 0.27 C 3080 2306 M
140 120 V
-654 41 V
2426 2348 L
654 -42 V
1 g gsave 5180 2308 N -653 42 V 140 113 V 653 -43 V 0.90 PolyFill
stroke
LT1
0.27 0.27 0.27 C 5180 2308 M
140 112 V
-653 43 V
4527 2350 L
653 -42 V
0 g gsave 3360 4529 N -654 66 V 141 -4 V 653 -124 V 0.90 PolyFill
stroke
LT1
0.27 0.27 0.27 C 3360 4529 M
140 -62 V
-653 124 V
-141 4 V
654 -66 V
1 g gsave 7280 2439 N -653 -94 V 140 98 V 654 16 V 0.90 PolyFill
stroke
LT1
0.27 0.27 0.27 C 7280 2439 M
141 20 V
-654 -16 V
-140 -98 V
653 94 V
0 g gsave 4014 4289 N -654 240 V 140 -62 V 654 -180 V 0.90 PolyFill
stroke
LT1
0.27 0.27 0.27 C 4014 4289 M
140 -2 V
-654 180 V
-140 62 V
654 -240 V
0 g gsave 7421 3604 N -654 124 V 140 71 V 654 -210 V 0.90 PolyFill
stroke
LT1
0.27 0.27 0.27 C 7421 3604 M
140 -15 V
-654 210 V
-140 -71 V
654 -124 V
1 g gsave 3733 2271 N -653 35 V 140 120 V 653 -35 V 0.90 PolyFill
stroke
LT1
0.27 0.27 0.27 C 3733 2271 M
140 120 V
-653 35 V
3080 2306 L
653 -35 V
1 g gsave 5833 2272 N -653 36 V 140 112 V 653 -42 V 0.90 PolyFill
stroke
LT1
0.27 0.27 0.27 C 5833 2272 M
140 106 V
-653 42 V
5180 2308 L
653 -36 V
0 g gsave 8074 3414 N -653 190 V 140 -15 V 653 -110 V 0.90 PolyFill
stroke
LT1
0.27 0.27 0.27 C 8074 3414 M
140 65 V
-653 110 V
-140 15 V
653 -190 V
0 g gsave 4667 4266 N -653 23 V 140 -2 V 653 -59 V 0.90 PolyFill
stroke
LT1
0.27 0.27 0.27 C 4667 4266 M
140 -38 V
-653 59 V
-140 2 V
653 -23 V
0 g gsave 5320 3917 N -653 349 V 140 -38 V 653 -337 V 0.90 PolyFill
stroke
LT1
0.27 0.27 0.27 C 5320 3917 M
140 -26 V
-653 337 V
-140 38 V
653 -349 V
1 g gsave 4387 2232 N -654 39 V 140 120 V 654 -41 V 0.90 PolyFill
stroke
LT1
0.27 0.27 0.27 C 4387 2232 M
140 118 V
-654 41 V
3733 2271 L
654 -39 V
1 g gsave 6487 2255 N -654 17 V 140 106 V 654 -33 V 0.90 PolyFill
stroke
LT1
0.27 0.27 0.27 C 6487 2255 M
140 90 V
-654 33 V
5833 2272 L
654 -17 V
0 g gsave 3220 4155 N -654 199 V 140 241 V 654 -66 V 0.90 PolyFill
stroke
LT1
0.27 0.27 0.27 C 3220 4155 M
140 374 V
-654 66 V
2566 4354 L
654 -199 V
0 g gsave 5973 3851 N -653 66 V 140 -26 V 653 -61 V 0.90 PolyFill
stroke
LT1
0.27 0.27 0.27 C 5973 3851 M
140 -21 V
-653 61 V
-140 26 V
653 -66 V
1 g gsave 2940 2184 N -654 42 V 140 122 V 654 -42 V 0.90 PolyFill
stroke
LT1
0.27 0.27 0.27 C 2940 2184 M
140 122 V
-654 42 V
2286 2226 L
654 -42 V
1 g gsave 5040 2192 N -653 40 V 140 118 V 653 -42 V 0.90 PolyFill
stroke
LT1
0.27 0.27 0.27 C 5040 2192 M
140 116 V
-653 42 V
4387 2232 L
653 -40 V
0 g gsave 6627 3659 N -654 192 V 140 -21 V 654 -102 V 0.90 PolyFill
stroke
LT1
0.27 0.27 0.27 C 6627 3659 M
140 69 V
-654 102 V
-140 21 V
654 -192 V
0 g gsave 3873 4070 N -653 85 V 140 374 V 654 -240 V 0.90 PolyFill
stroke
LT1
0.27 0.27 0.27 C 3873 4070 M
141 219 V
-654 240 V
3220 4155 L
653 -85 V
0 g gsave 7280 3446 N -653 213 V 140 69 V 654 -124 V 0.90 PolyFill
stroke
LT1
0.27 0.27 0.27 C 7280 3446 M
141 158 V
-654 124 V
-140 -69 V
653 -213 V
0 g gsave 4527 3892 N -654 178 V 141 219 V 653 -23 V 0.90 PolyFill
stroke
LT1
0.27 0.27 0.27 C 4527 3892 M
140 374 V
-653 23 V
3873 4070 L
654 -178 V
1 g gsave 7140 2451 N -653 -196 V 140 90 V 653 94 V 0.90 PolyFill
stroke
LT1
0.27 0.27 0.27 C 7140 2451 M
140 -12 V
-653 -94 V
-140 -90 V
653 196 V
1 g gsave 3593 2148 N -653 36 V 140 122 V 653 -35 V 0.90 PolyFill
stroke
LT1
0.27 0.27 0.27 C 3593 2148 M
140 123 V
-653 35 V
2940 2184 L
653 -36 V
1 g gsave 5693 2164 N -653 28 V 140 116 V 653 -36 V 0.90 PolyFill
stroke
LT1
0.27 0.27 0.27 C 5693 2164 M
140 108 V
-653 36 V
5040 2192 L
653 -28 V
0 g gsave 7934 3280 N -654 166 V 141 158 V 653 -190 V 0.90 PolyFill
stroke
LT1
0.27 0.27 0.27 C 7934 3280 M
140 134 V
-653 190 V
7280 3446 L
654 -166 V
0 g gsave 5180 3649 N -653 243 V 140 374 V 653 -349 V 0.90 PolyFill
stroke
LT1
0.27 0.27 0.27 C 5180 3649 M
140 268 V
-653 349 V
4527 3892 L
653 -243 V
1 g gsave 8074 4461 N -653 -2002 V 140 65 V 653 582 V 0.90 PolyFill
stroke
LT1
0.27 0.27 0.27 C 8074 4461 M
8214 3106 L
7561 2524 L
-140 -65 V
653 2002 V
1 g gsave 4247 2108 N -654 40 V 140 123 V 654 -39 V 0.90 PolyFill
stroke
LT1
0.27 0.27 0.27 C 4247 2108 M
140 124 V
-654 39 V
3593 2148 L
654 -40 V
1 g gsave 6347 2150 N -654 14 V 140 108 V 654 -17 V 0.90 PolyFill
stroke
LT1
0.27 0.27 0.27 C 6347 2150 M
140 105 V
-654 17 V
5693 2164 L
654 -14 V
0 g gsave 5833 3623 N -653 26 V 140 268 V 653 -66 V 0.90 PolyFill
stroke
LT1
0.27 0.27 0.27 C 5833 3623 M
140 228 V
-653 66 V
5180 3649 L
653 -26 V
0 g gsave 3080 4087 N -654 142 V 140 125 V 654 -199 V 0.90 PolyFill
stroke
LT1
0.27 0.27 0.27 C 3080 4087 M
140 68 V
-654 199 V
2426 4229 L
654 -142 V
0 g gsave 6487 3467 N -654 156 V 140 228 V 654 -192 V 0.90 PolyFill
stroke
LT1
0.27 0.27 0.27 C 6487 3467 M
140 192 V
-654 192 V
5833 3623 L
654 -156 V
1 g gsave 2800 2057 N -654 42 V 140 127 V 654 -42 V 0.90 PolyFill
stroke
LT1
0.27 0.27 0.27 C 2800 2057 M
140 127 V
-654 42 V
2146 2099 L
654 -42 V
1 g gsave 4900 2070 N -653 38 V 140 124 V 653 -40 V 0.90 PolyFill
stroke
LT1
0.27 0.27 0.27 C 4900 2070 M
140 122 V
-653 40 V
4247 2108 L
653 -38 V
0 g gsave 7140 3268 N -653 199 V 140 192 V 653 -213 V 0.90 PolyFill
stroke
LT1
0.27 0.27 0.27 C 7140 3268 M
140 178 V
-653 213 V
6487 3467 L
653 -199 V
0 g gsave 3733 4029 N -653 58 V 140 68 V 653 -85 V 0.90 PolyFill
stroke
LT1
0.27 0.27 0.27 C 3733 4029 M
140 41 V
-653 85 V
-140 -68 V
653 -58 V
1 g gsave 3453 2023 N -653 34 V 140 127 V 653 -36 V 0.90 PolyFill
stroke
LT1
0.27 0.27 0.27 C 3453 2023 M
140 125 V
-653 36 V
2800 2057 L
653 -34 V
1 g gsave 5553 2057 N -653 13 V 140 122 V 653 -28 V 0.90 PolyFill
stroke
LT1
0.27 0.27 0.27 C 5553 2057 M
140 107 V
-653 28 V
4900 2070 L
653 -13 V
1 g gsave 7000 2488 N -653 -338 V 140 105 V 653 196 V 0.90 PolyFill
stroke
LT1
0.27 0.27 0.27 C 7000 2488 M
140 -37 V
6487 2255 L
6347 2150 L
653 338 V
0 g gsave 7794 3270 N -654 -2 V 140 178 V 654 -166 V 0.90 PolyFill
stroke
LT1
0.27 0.27 0.27 C 7794 3270 M
140 10 V
-654 166 V
7140 3268 L
654 2 V
0 g gsave 5040 3514 N -653 491 V 140 -113 V 653 -243 V 0.90 PolyFill
stroke
LT1
0.27 0.27 0.27 C 5040 3514 M
140 135 V
-653 243 V
-140 113 V
653 -491 V
0 g gsave 4387 4005 N -654 24 V 140 41 V 654 -178 V 0.90 PolyFill
stroke
LT1
0.27 0.27 0.27 C 4387 4005 M
140 -113 V
-654 178 V
-140 -41 V
654 -24 V
1 g gsave 4107 1983 N -654 40 V 140 125 V 654 -40 V 0.90 PolyFill
stroke
LT1
0.27 0.27 0.27 C 4107 1983 M
140 125 V
-654 40 V
3453 2023 L
654 -40 V
1 g gsave 6207 2087 N -654 -30 V 140 107 V 654 -14 V 0.90 PolyFill
stroke
LT1
0.27 0.27 0.27 C 6207 2087 M
140 63 V
-654 14 V
5553 2057 L
654 30 V
0 g gsave 2940 3964 N -654 243 V 140 22 V 654 -142 V 0.90 PolyFill
stroke
LT1
0.27 0.27 0.27 C 2940 3964 M
140 123 V
-654 142 V
-140 -22 V
654 -243 V
0 g gsave 5693 3612 N -653 -98 V 140 135 V 653 -26 V 0.90 PolyFill
stroke
LT1
0.27 0.27 0.27 C 5693 3612 M
140 11 V
-653 26 V
5040 3514 L
653 98 V
0 g gsave 6347 3346 N -654 266 V 140 11 V 654 -156 V 0.90 PolyFill
stroke
LT1
0.27 0.27 0.27 C 6347 3346 M
140 121 V
-654 156 V
-140 -11 V
654 -266 V
1 g gsave 2659 1931 N -653 40 V 140 128 V 654 -42 V 0.90 PolyFill
stroke
LT1
0.27 0.27 0.27 C 2659 1931 M
141 126 V
-654 42 V
2006 1971 L
653 -40 V
1 g gsave 4760 1945 N -653 38 V 140 125 V 653 -38 V 0.90 PolyFill
stroke
LT1
0.27 0.27 0.27 C 4760 1945 M
140 125 V
-653 38 V
4107 1983 L
653 -38 V
1 g gsave 7934 4922 N -654 -2483 V 141 20 V 653 2002 V 0.90 PolyFill
stroke
LT1
0.27 0.27 0.27 C 7934 4922 M
140 -461 V
7421 2459 L
-141 -20 V
654 2483 V
0 g gsave 7000 3176 N -653 170 V 140 121 V 653 -199 V 0.90 PolyFill
stroke
LT1
0.27 0.27 0.27 C 7000 3176 M
140 92 V
-653 199 V
6347 3346 L
653 -170 V
0 g gsave 3593 3972 N -653 -8 V 140 123 V 653 -58 V 0.90 PolyFill
stroke
LT1
0.27 0.27 0.27 C 3593 3972 M
140 57 V
-653 58 V
2940 3964 L
653 8 V
1 g gsave 3313 1896 N -654 35 V 141 126 V 653 -34 V 0.90 PolyFill
stroke
LT1
0.27 0.27 0.27 C 3313 1896 M
140 127 V
-653 34 V
2659 1931 L
654 -35 V
0 g gsave 7654 2971 N -654 205 V 140 92 V 654 2 V 0.90 PolyFill
stroke
LT1
0.27 0.27 0.27 C 7654 2971 M
140 299 V
-654 -2 V
-140 -92 V
654 -205 V
1 g gsave 5413 1932 N -653 13 V 140 125 V 653 -13 V 0.90 PolyFill
stroke
LT1
0.27 0.27 0.27 C 5413 1932 M
140 125 V
-653 13 V
4760 1945 L
653 -13 V
0 g gsave 4247 3773 N -654 199 V 140 57 V 654 -24 V 0.90 PolyFill
stroke
LT1
0.27 0.27 0.27 C 4247 3773 M
140 232 V
-654 24 V
-140 -57 V
654 -199 V
0 g gsave 4900 3429 N -653 344 V 140 232 V 653 -491 V 0.90 PolyFill
stroke
LT1
0.27 0.27 0.27 C 4900 3429 M
140 85 V
-653 491 V
4247 3773 L
653 -344 V
1 g gsave 3967 1858 N -654 38 V 140 127 V 654 -40 V 0.90 PolyFill
stroke
LT1
0.27 0.27 0.27 C 3967 1858 M
140 125 V
-654 40 V
3313 1896 L
654 -38 V
1 g gsave 6860 2635 N -653 -548 V 140 63 V 653 338 V 0.90 PolyFill
stroke
LT1
0.27 0.27 0.27 C 6860 2635 M
140 -147 V
6347 2150 L
-140 -63 V
653 548 V
0 g gsave 5553 3422 N -653 7 V 140 85 V 653 98 V 0.90 PolyFill
stroke
LT1
0.27 0.27 0.27 C 5553 3422 M
140 190 V
-653 -98 V
-140 -85 V
653 -7 V
1 g gsave 6066 2003 N -653 -71 V 140 125 V 654 30 V 0.90 PolyFill
stroke
LT1
0.27 0.27 0.27 C 6066 2003 M
141 84 V
-654 -30 V
5413 1932 L
653 71 V
0 g gsave 2800 3870 N -654 270 V 140 67 V 654 -243 V 0.90 PolyFill
stroke
LT1
0.27 0.27 0.27 C 2800 3870 M
140 94 V
-654 243 V
-140 -67 V
654 -270 V
0 g gsave 6207 3222 N -654 200 V 140 190 V 654 -266 V 0.90 PolyFill
stroke
LT1
0.27 0.27 0.27 C 6207 3222 M
140 124 V
-654 266 V
5553 3422 L
654 -200 V
1 g gsave 2519 1804 N -653 42 V 140 125 V 653 -40 V 0.90 PolyFill
stroke
LT1
0.27 0.27 0.27 C 2519 1804 M
140 127 V
-653 40 V
1866 1846 L
653 -42 V
1 g gsave 4620 1820 N -653 38 V 140 125 V 653 -38 V 0.90 PolyFill
stroke
LT1
0.27 0.27 0.27 C 4620 1820 M
140 125 V
-653 38 V
3967 1858 L
653 -38 V
0 g gsave 6860 2914 N -653 308 V 140 124 V 653 -170 V 0.90 PolyFill
stroke
LT1
0.27 0.27 0.27 C 6860 2914 M
140 262 V
-653 170 V
6207 3222 L
653 -308 V
0 g gsave 3453 3692 N -653 178 V 140 94 V 653 8 V 0.90 PolyFill
stroke
LT1
0.27 0.27 0.27 C 3453 3692 M
140 280 V
-653 -8 V
-140 -94 V
653 -178 V
1 g gsave 3173 1771 N -654 33 V 140 127 V 654 -35 V 0.90 PolyFill
stroke
LT1
0.27 0.27 0.27 C 3173 1771 M
140 125 V
-654 35 V
2519 1804 L
654 -33 V
0 g gsave 7514 2850 N -654 64 V 140 262 V 654 -205 V 0.90 PolyFill
stroke
LT1
0.27 0.27 0.27 C 7514 2850 M
140 121 V
-654 205 V
6860 2914 L
654 -64 V
1 g gsave 5273 1799 N -653 21 V 140 125 V 653 -13 V 0.90 PolyFill
stroke
LT1
0.27 0.27 0.27 C 5273 1799 M
140 133 V
-653 13 V
4620 1820 L
653 -21 V
1 g gsave 7794 5040 N -654 -2589 V 140 -12 V 654 2483 V 0.90 PolyFill
stroke
LT1
0.27 0.27 0.27 C 7794 5040 M
140 -118 V
7280 2439 L
-140 12 V
654 2589 V
0 g gsave 4760 3324 N -653 368 V 140 81 V 653 -344 V 0.90 PolyFill
stroke
LT1
0.27 0.27 0.27 C 4760 3324 M
140 105 V
-653 344 V
-140 -81 V
653 -368 V
0 g gsave 4107 3692 N -654 0 V 140 280 V 654 -199 V 0.90 PolyFill
stroke
LT1
0.27 0.27 0.27 C 4107 3692 M
140 81 V
-654 199 V
3453 3692 L
654 0 V
1 g gsave 3827 1731 N -654 40 V 140 125 V 654 -38 V 0.90 PolyFill
stroke
LT1
0.27 0.27 0.27 C 3827 1731 M
140 127 V
-654 38 V
3173 1771 L
654 -40 V
0 g gsave 5413 3356 N -653 -32 V 140 105 V 653 -7 V 0.90 PolyFill
stroke
LT1
0.27 0.27 0.27 C 5413 3356 M
140 66 V
-653 7 V
4760 3324 L
653 32 V
1 g gsave 5926 1941 N -653 -142 V 140 133 V 653 71 V 0.90 PolyFill
stroke
LT1
0.27 0.27 0.27 C 5926 1941 M
140 62 V
-653 -71 V
5273 1799 L
653 142 V
0 g gsave 6066 3092 N -653 264 V 140 66 V 654 -200 V 0.90 PolyFill
stroke
LT1
0.27 0.27 0.27 C 6066 3092 M
141 130 V
-654 200 V
-140 -66 V
653 -264 V
1 g gsave 2379 1676 N -653 43 V 140 127 V 653 -42 V 0.90 PolyFill
stroke
LT1
0.27 0.27 0.27 C 2379 1676 M
140 128 V
-653 42 V
1726 1719 L
653 -43 V
0 g gsave 2659 3843 N -653 132 V 140 165 V 654 -270 V 0.90 PolyFill
stroke
LT1
0.27 0.27 0.27 C 2659 3843 M
141 27 V
-654 270 V
2006 3975 L
653 -132 V
1 g gsave 6720 2757 N -654 -754 V 141 84 V 653 548 V 0.90 PolyFill
stroke
LT1
0.27 0.27 0.27 C 6720 2757 M
140 -122 V
6207 2087 L
-141 -84 V
654 754 V
1 g gsave 4480 1692 N -653 39 V 140 127 V 653 -38 V 0.90 PolyFill
stroke
LT1
0.27 0.27 0.27 C 4480 1692 M
140 128 V
-653 38 V
3827 1731 L
653 -39 V
0 g gsave 3313 3580 N -654 263 V 141 27 V 653 -178 V 0.90 PolyFill
stroke
LT1
0.27 0.27 0.27 C 3313 3580 M
140 112 V
-653 178 V
-141 -27 V
654 -263 V
0 g gsave 6720 2929 N -654 163 V 141 130 V 653 -308 V 0.90 PolyFill
stroke
LT1
0.27 0.27 0.27 C 6720 2929 M
140 -15 V
-653 308 V
6066 3092 L
654 -163 V
0 g gsave 7374 2684 N -654 245 V 140 -15 V 654 -64 V 0.90 PolyFill
stroke
LT1
0.27 0.27 0.27 C 7374 2684 M
140 166 V
-654 64 V
-140 15 V
654 -245 V
1 g gsave 3033 1641 N -654 35 V 140 128 V 654 -33 V 0.90 PolyFill
stroke
LT1
0.27 0.27 0.27 C 3033 1641 M
140 130 V
-654 33 V
2379 1676 L
654 -35 V
1 g gsave 5133 1661 N -653 31 V 140 128 V 653 -21 V 0.90 PolyFill
stroke
LT1
0.27 0.27 0.27 C 5133 1661 M
140 138 V
-653 21 V
4480 1692 L
653 -31 V
0 g gsave 3967 3482 N -654 98 V 140 112 V 654 0 V 0.90 PolyFill
stroke
LT1
0.27 0.27 0.27 C 3967 3482 M
140 210 V
-654 0 V
3313 3580 L
654 -98 V
0 g gsave 4620 3192 N -653 290 V 140 210 V 653 -368 V 0.90 PolyFill
stroke
LT1
0.27 0.27 0.27 C 4620 3192 M
140 132 V
-653 368 V
3967 3482 L
653 -290 V
1 g gsave 7654 4995 N -654 -2507 V 140 -37 V 654 2589 V 0.90 PolyFill
stroke
LT1
0.27 0.27 0.27 C 7654 4995 M
140 45 V
7140 2451 L
-140 37 V
654 2507 V
1 g gsave 3686 1603 N -653 38 V 140 130 V 654 -40 V 0.90 PolyFill
stroke
LT1
0.27 0.27 0.27 C 3686 1603 M
141 128 V
-654 40 V
3033 1641 L
653 -38 V
0 g gsave 5273 3188 N -653 4 V 140 132 V 653 32 V 0.90 PolyFill
stroke
LT1
0.27 0.27 0.27 C 5273 3188 M
140 168 V
-653 -32 V
4620 3192 L
653 -4 V
0 g gsave 2519 3613 N -653 161 V 140 201 V 653 -132 V 0.90 PolyFill
stroke
LT1
0.27 0.27 0.27 C 2519 3613 M
140 230 V
-653 132 V
1866 3774 L
653 -161 V
1 g gsave 4340 1564 N -654 39 V 141 128 V 653 -39 V 0.90 PolyFill
stroke
LT1
0.27 0.27 0.27 C 4340 1564 M
140 128 V
-653 39 V
3686 1603 L
654 -39 V
1 g gsave 5786 1939 N -653 -278 V 140 138 V 653 142 V 0.90 PolyFill
stroke
LT1
0.27 0.27 0.27 C 5786 1939 M
140 2 V
5273 1799 L
5133 1661 L
653 278 V
0 g gsave 6580 2623 N -654 426 V 140 43 V 654 -163 V 0.90 PolyFill
stroke
LT1
0.27 0.27 0.27 C 6580 2623 M
140 306 V
-654 163 V
-140 -43 V
654 -426 V
0 g gsave 5926 3049 N -653 139 V 140 168 V 653 -264 V 0.90 PolyFill
stroke
LT1
0.27 0.27 0.27 C 5926 3049 M
140 43 V
-653 264 V
5273 3188 L
653 -139 V
0 g gsave 3173 3511 N -654 102 V 140 230 V 654 -263 V 0.90 PolyFill
stroke
LT1
0.27 0.27 0.27 C 3173 3511 M
140 69 V
-654 263 V
2519 3613 L
654 -102 V
0 g gsave 7233 2497 N -653 126 V 140 306 V 654 -245 V 0.90 PolyFill
stroke
LT1
0.27 0.27 0.27 C 7233 2497 M
141 187 V
-654 245 V
6580 2623 L
653 -126 V
0 g gsave 3827 3344 N -654 167 V 140 69 V 654 -98 V 0.90 PolyFill
stroke
LT1
0.27 0.27 0.27 C 3827 3344 M
140 138 V
-654 98 V
-140 -69 V
654 -167 V
1 g gsave 6580 2994 N -654 -1053 V 140 62 V 654 754 V 0.90 PolyFill
stroke
LT1
0.27 0.27 0.27 C 6580 2994 M
140 -237 V
6066 2003 L
-140 -62 V
654 1053 V
0 g gsave 4480 3008 N -653 336 V 140 138 V 653 -290 V 0.90 PolyFill
stroke
LT1
0.27 0.27 0.27 C 4480 3008 M
140 184 V
-653 290 V
3827 3344 L
653 -336 V
1 g gsave 4994 1644 N -654 -80 V 140 128 V 653 -31 V 0.90 PolyFill
stroke
LT1
0.27 0.27 0.27 C 4994 1644 M
139 17 V
-653 31 V
4340 1564 L
654 80 V
1 g gsave 7514 4923 N -654 -2288 V 140 -147 V 654 2507 V 0.90 PolyFill
stroke
LT1
0.27 0.27 0.27 C 7514 4923 M
140 72 V
7000 2488 L
-140 147 V
654 2288 V
0 g gsave 2379 3382 N -653 183 V 140 209 V 653 -161 V 0.90 PolyFill
stroke
LT1
0.27 0.27 0.27 C 2379 3382 M
140 231 V
-653 161 V
1726 3565 L
653 -183 V
0 g gsave 5133 3134 N -653 -126 V 140 184 V 653 -4 V 0.90 PolyFill
stroke
LT1
0.27 0.27 0.27 C 5133 3134 M
140 54 V
-653 4 V
4480 3008 L
653 126 V
0 g gsave 5786 2792 N -653 342 V 140 54 V 653 -139 V 0.90 PolyFill
stroke
LT1
0.27 0.27 0.27 C 5786 2792 M
140 257 V
-653 139 V
-140 -54 V
653 -342 V
0 g gsave 3033 3231 N -654 151 V 140 231 V 654 -102 V 0.90 PolyFill
stroke
LT1
0.27 0.27 0.27 C 3033 3231 M
140 280 V
-654 102 V
2379 3382 L
654 -151 V
0 g gsave 6440 2590 N -654 202 V 140 257 V 654 -426 V 0.90 PolyFill
stroke
LT1
0.27 0.27 0.27 C 6440 2590 M
140 33 V
-654 426 V
5786 2792 L
654 -202 V
0 g gsave 3686 3086 N -653 145 V 140 280 V 654 -167 V 0.90 PolyFill
stroke
LT1
0.27 0.27 0.27 C 3686 3086 M
141 258 V
-654 167 V
3033 3231 L
653 -145 V
0 g gsave 7093 2362 N -653 228 V 140 33 V 653 -126 V 0.90 PolyFill
stroke
LT1
0.27 0.27 0.27 C 7093 2362 M
140 135 V
-653 126 V
-140 -33 V
653 -228 V
0 g gsave 4340 2764 N -654 322 V 141 258 V 653 -336 V 0.90 PolyFill
stroke
LT1
0.27 0.27 0.27 C 4340 2764 M
140 244 V
-653 336 V
3686 3086 L
654 -322 V
1 g gsave 5646 2068 N -652 -424 V 139 17 V 653 278 V 0.90 PolyFill
stroke
LT1
0.27 0.27 0.27 C 5646 2068 M
140 -129 V
5133 1661 L
-139 -17 V
652 424 V
1 g gsave 7374 4807 N -654 -2050 V 140 -122 V 654 2288 V 0.90 PolyFill
stroke
LT1
0.27 0.27 0.27 C 7374 4807 M
140 116 V
6860 2635 L
-140 122 V
654 2050 V
0 g gsave 4994 2736 N -654 28 V 140 244 V 653 126 V 0.90 PolyFill
stroke
LT1
0.27 0.27 0.27 C 4994 2736 M
139 398 V
4480 3008 L
4340 2764 L
654 -28 V
0 g gsave 5646 2522 N -652 214 V 139 398 V 653 -342 V 0.90 PolyFill
stroke
LT1
0.27 0.27 0.27 C 5646 2522 M
140 270 V
-653 342 V
4994 2736 L
652 -214 V
0 g gsave 6300 2245 N -654 277 V 140 270 V 654 -202 V 0.90 PolyFill
stroke
LT1
0.27 0.27 0.27 C 6300 2245 M
140 345 V
-654 202 V
5646 2522 L
654 -277 V
1 g gsave 6440 3378 N -654 -1439 V 140 2 V 654 1053 V 0.90 PolyFill
stroke
LT1
0.27 0.27 0.27 C 6440 3378 M
140 -384 V
5926 1941 L
-140 -2 V
654 1439 V
0 g gsave 6953 2154 N -653 91 V 140 345 V 653 -228 V 0.90 PolyFill
stroke
LT1
0.27 0.27 0.27 C 6953 2154 M
140 208 V
-653 228 V
6300 2245 L
653 -91 V
1 g gsave 7233 4737 N -653 -1743 V 140 -237 V 654 2050 V 0.90 PolyFill
stroke
LT1
0.27 0.27 0.27 C 7233 4737 M
141 70 V
6720 2757 L
-140 237 V
653 1743 V
1 g gsave 6300 3614 N -654 -1546 V 140 -129 V 654 1439 V 0.90 PolyFill
stroke
LT1
0.27 0.27 0.27 C 6300 3614 M
140 -236 V
5786 1939 L
-140 129 V
654 1546 V
1 g gsave 7093 4640 N -653 -1262 V 140 -384 V 653 1743 V 0.90 PolyFill
stroke
LT1
0.27 0.27 0.27 C 7093 4640 M
140 97 V
6580 2994 L
-140 384 V
653 1262 V
1 g gsave 6953 4514 N -653 -900 V 140 -236 V 653 1262 V 0.90 PolyFill
stroke
LT1
0.27 0.27 0.27 C 6953 4514 M
140 126 V
6440 3378 L
-140 236 V
653 900 V
stroke
1.000 UL
LTb
LCb setrgbcolor
8354 2512 M
6953 1250 L
stroke
LTb
LCb setrgbcolor
1726 1588 M
6953 1250 L
stroke
LTb
LCb setrgbcolor
6953 1250 M
0 3264 V
stroke
LCb setrgbcolor
3990 1103 M
[ [(Times-Roman) 200.0 0.0 true true 0 (Probability of incompleteness p1)]
] -66.7 MCshow
LTb
LCb setrgbcolor
8961 1796 M
[ [(Times-Roman) 200.0 0.0 true true 0 (Probability of ties p2)]
] -66.7 MCshow
LTb
LCb setrgbcolor
886 3383 M
currentpoint gsave translate 90 rotate 0 0 moveto
[ [(Times-Roman) 200.0 0.0 true true 0 (Execution time \(s\))]
] -66.7 MCshow
grestore
LTb
1.000 UP
grestore % colour palette end
stroke
grestore
end
showpage
%%Trailer
%%DocumentFonts: Times-Roman
