%!PS-Adobe-2.0 EPSF-2.0
%%Title: ASvsMC-Time-3d-S1000.eps
%%Creator: gnuplot 4.6 patchlevel 4
%%CreationDate: Thu Jun 19 12:28:40 2014
%%DocumentFonts: (atend)
%%BoundingBox: 50 50 554 424
%%EndComments
%%BeginProlog
/gnudict 256 dict def
gnudict begin
%
% The following true/false flags may be edited by hand if desired.
% The unit line width and grayscale image gamma correction may also be changed.
%
/Color true def
/Blacktext false def
/Solid false def
/Dashlength 1 def
/Landscape false def
/Level1 false def
/Rounded false def
/ClipToBoundingBox false def
/SuppressPDFMark false def
/TransparentPatterns false def
/gnulinewidth 5.000 def
/userlinewidth gnulinewidth def
/Gamma 1.0 def
/BackgroundColor {-1.000 -1.000 -1.000} def
%
/vshift -66 def
/dl1 {
  10.0 Dashlength mul mul
  Rounded { currentlinewidth 0.75 mul sub dup 0 le { pop 0.01 } if } if
} def
/dl2 {
  10.0 Dashlength mul mul
  Rounded { currentlinewidth 0.75 mul add } if
} def
/hpt_ 31.5 def
/vpt_ 31.5 def
/hpt hpt_ def
/vpt vpt_ def
/doclip {
  ClipToBoundingBox {
    newpath 50 50 moveto 554 50 lineto 554 424 lineto 50 424 lineto closepath
    clip
  } if
} def
%
% Gnuplot Prolog Version 4.6 (September 2012)
%
%/SuppressPDFMark true def
%
/M {moveto} bind def
/L {lineto} bind def
/R {rmoveto} bind def
/V {rlineto} bind def
/N {newpath moveto} bind def
/Z {closepath} bind def
/C {setrgbcolor} bind def
/f {rlineto fill} bind def
/g {setgray} bind def
/Gshow {show} def   % May be redefined later in the file to support UTF-8
/vpt2 vpt 2 mul def
/hpt2 hpt 2 mul def
/Lshow {currentpoint stroke M 0 vshift R 
	Blacktext {gsave 0 setgray show grestore} {show} ifelse} def
/Rshow {currentpoint stroke M dup stringwidth pop neg vshift R
	Blacktext {gsave 0 setgray show grestore} {show} ifelse} def
/Cshow {currentpoint stroke M dup stringwidth pop -2 div vshift R 
	Blacktext {gsave 0 setgray show grestore} {show} ifelse} def
/UP {dup vpt_ mul /vpt exch def hpt_ mul /hpt exch def
  /hpt2 hpt 2 mul def /vpt2 vpt 2 mul def} def
/DL {Color {setrgbcolor Solid {pop []} if 0 setdash}
 {pop pop pop 0 setgray Solid {pop []} if 0 setdash} ifelse} def
/BL {stroke userlinewidth 2 mul setlinewidth
	Rounded {1 setlinejoin 1 setlinecap} if} def
/AL {stroke userlinewidth 2 div setlinewidth
	Rounded {1 setlinejoin 1 setlinecap} if} def
/UL {dup gnulinewidth mul /userlinewidth exch def
	dup 1 lt {pop 1} if 10 mul /udl exch def} def
/PL {stroke userlinewidth setlinewidth
	Rounded {1 setlinejoin 1 setlinecap} if} def
3.8 setmiterlimit
% Default Line colors
/LCw {1 1 1} def
/LCb {0 0 0} def
/LCa {0 0 0} def
/LC0 {1 0 0} def
/LC1 {0 1 0} def
/LC2 {0 0 1} def
/LC3 {1 0 1} def
/LC4 {0 1 1} def
/LC5 {1 1 0} def
/LC6 {0 0 0} def
/LC7 {1 0.3 0} def
/LC8 {0.5 0.5 0.5} def
% Default Line Types
/LTw {PL [] 1 setgray} def
/LTb {BL [] LCb DL} def
/LTa {AL [1 udl mul 2 udl mul] 0 setdash LCa setrgbcolor} def
/LT0 {PL [] LC0 DL} def
/LT1 {PL [4 dl1 2 dl2] LC1 DL} def
/LT2 {PL [2 dl1 3 dl2] LC2 DL} def
/LT3 {PL [1 dl1 1.5 dl2] LC3 DL} def
/LT4 {PL [6 dl1 2 dl2 1 dl1 2 dl2] LC4 DL} def
/LT5 {PL [3 dl1 3 dl2 1 dl1 3 dl2] LC5 DL} def
/LT6 {PL [2 dl1 2 dl2 2 dl1 6 dl2] LC6 DL} def
/LT7 {PL [1 dl1 2 dl2 6 dl1 2 dl2 1 dl1 2 dl2] LC7 DL} def
/LT8 {PL [2 dl1 2 dl2 2 dl1 2 dl2 2 dl1 2 dl2 2 dl1 4 dl2] LC8 DL} def
/Pnt {stroke [] 0 setdash gsave 1 setlinecap M 0 0 V stroke grestore} def
/Dia {stroke [] 0 setdash 2 copy vpt add M
  hpt neg vpt neg V hpt vpt neg V
  hpt vpt V hpt neg vpt V closepath stroke
  Pnt} def
/Pls {stroke [] 0 setdash vpt sub M 0 vpt2 V
  currentpoint stroke M
  hpt neg vpt neg R hpt2 0 V stroke
 } def
/Box {stroke [] 0 setdash 2 copy exch hpt sub exch vpt add M
  0 vpt2 neg V hpt2 0 V 0 vpt2 V
  hpt2 neg 0 V closepath stroke
  Pnt} def
/Crs {stroke [] 0 setdash exch hpt sub exch vpt add M
  hpt2 vpt2 neg V currentpoint stroke M
  hpt2 neg 0 R hpt2 vpt2 V stroke} def
/TriU {stroke [] 0 setdash 2 copy vpt 1.12 mul add M
  hpt neg vpt -1.62 mul V
  hpt 2 mul 0 V
  hpt neg vpt 1.62 mul V closepath stroke
  Pnt} def
/Star {2 copy Pls Crs} def
/BoxF {stroke [] 0 setdash exch hpt sub exch vpt add M
  0 vpt2 neg V hpt2 0 V 0 vpt2 V
  hpt2 neg 0 V closepath fill} def
/TriUF {stroke [] 0 setdash vpt 1.12 mul add M
  hpt neg vpt -1.62 mul V
  hpt 2 mul 0 V
  hpt neg vpt 1.62 mul V closepath fill} def
/TriD {stroke [] 0 setdash 2 copy vpt 1.12 mul sub M
  hpt neg vpt 1.62 mul V
  hpt 2 mul 0 V
  hpt neg vpt -1.62 mul V closepath stroke
  Pnt} def
/TriDF {stroke [] 0 setdash vpt 1.12 mul sub M
  hpt neg vpt 1.62 mul V
  hpt 2 mul 0 V
  hpt neg vpt -1.62 mul V closepath fill} def
/DiaF {stroke [] 0 setdash vpt add M
  hpt neg vpt neg V hpt vpt neg V
  hpt vpt V hpt neg vpt V closepath fill} def
/Pent {stroke [] 0 setdash 2 copy gsave
  translate 0 hpt M 4 {72 rotate 0 hpt L} repeat
  closepath stroke grestore Pnt} def
/PentF {stroke [] 0 setdash gsave
  translate 0 hpt M 4 {72 rotate 0 hpt L} repeat
  closepath fill grestore} def
/Circle {stroke [] 0 setdash 2 copy
  hpt 0 360 arc stroke Pnt} def
/CircleF {stroke [] 0 setdash hpt 0 360 arc fill} def
/C0 {BL [] 0 setdash 2 copy moveto vpt 90 450 arc} bind def
/C1 {BL [] 0 setdash 2 copy moveto
	2 copy vpt 0 90 arc closepath fill
	vpt 0 360 arc closepath} bind def
/C2 {BL [] 0 setdash 2 copy moveto
	2 copy vpt 90 180 arc closepath fill
	vpt 0 360 arc closepath} bind def
/C3 {BL [] 0 setdash 2 copy moveto
	2 copy vpt 0 180 arc closepath fill
	vpt 0 360 arc closepath} bind def
/C4 {BL [] 0 setdash 2 copy moveto
	2 copy vpt 180 270 arc closepath fill
	vpt 0 360 arc closepath} bind def
/C5 {BL [] 0 setdash 2 copy moveto
	2 copy vpt 0 90 arc
	2 copy moveto
	2 copy vpt 180 270 arc closepath fill
	vpt 0 360 arc} bind def
/C6 {BL [] 0 setdash 2 copy moveto
	2 copy vpt 90 270 arc closepath fill
	vpt 0 360 arc closepath} bind def
/C7 {BL [] 0 setdash 2 copy moveto
	2 copy vpt 0 270 arc closepath fill
	vpt 0 360 arc closepath} bind def
/C8 {BL [] 0 setdash 2 copy moveto
	2 copy vpt 270 360 arc closepath fill
	vpt 0 360 arc closepath} bind def
/C9 {BL [] 0 setdash 2 copy moveto
	2 copy vpt 270 450 arc closepath fill
	vpt 0 360 arc closepath} bind def
/C10 {BL [] 0 setdash 2 copy 2 copy moveto vpt 270 360 arc closepath fill
	2 copy moveto
	2 copy vpt 90 180 arc closepath fill
	vpt 0 360 arc closepath} bind def
/C11 {BL [] 0 setdash 2 copy moveto
	2 copy vpt 0 180 arc closepath fill
	2 copy moveto
	2 copy vpt 270 360 arc closepath fill
	vpt 0 360 arc closepath} bind def
/C12 {BL [] 0 setdash 2 copy moveto
	2 copy vpt 180 360 arc closepath fill
	vpt 0 360 arc closepath} bind def
/C13 {BL [] 0 setdash 2 copy moveto
	2 copy vpt 0 90 arc closepath fill
	2 copy moveto
	2 copy vpt 180 360 arc closepath fill
	vpt 0 360 arc closepath} bind def
/C14 {BL [] 0 setdash 2 copy moveto
	2 copy vpt 90 360 arc closepath fill
	vpt 0 360 arc} bind def
/C15 {BL [] 0 setdash 2 copy vpt 0 360 arc closepath fill
	vpt 0 360 arc closepath} bind def
/Rec {newpath 4 2 roll moveto 1 index 0 rlineto 0 exch rlineto
	neg 0 rlineto closepath} bind def
/Square {dup Rec} bind def
/Bsquare {vpt sub exch vpt sub exch vpt2 Square} bind def
/S0 {BL [] 0 setdash 2 copy moveto 0 vpt rlineto BL Bsquare} bind def
/S1 {BL [] 0 setdash 2 copy vpt Square fill Bsquare} bind def
/S2 {BL [] 0 setdash 2 copy exch vpt sub exch vpt Square fill Bsquare} bind def
/S3 {BL [] 0 setdash 2 copy exch vpt sub exch vpt2 vpt Rec fill Bsquare} bind def
/S4 {BL [] 0 setdash 2 copy exch vpt sub exch vpt sub vpt Square fill Bsquare} bind def
/S5 {BL [] 0 setdash 2 copy 2 copy vpt Square fill
	exch vpt sub exch vpt sub vpt Square fill Bsquare} bind def
/S6 {BL [] 0 setdash 2 copy exch vpt sub exch vpt sub vpt vpt2 Rec fill Bsquare} bind def
/S7 {BL [] 0 setdash 2 copy exch vpt sub exch vpt sub vpt vpt2 Rec fill
	2 copy vpt Square fill Bsquare} bind def
/S8 {BL [] 0 setdash 2 copy vpt sub vpt Square fill Bsquare} bind def
/S9 {BL [] 0 setdash 2 copy vpt sub vpt vpt2 Rec fill Bsquare} bind def
/S10 {BL [] 0 setdash 2 copy vpt sub vpt Square fill 2 copy exch vpt sub exch vpt Square fill
	Bsquare} bind def
/S11 {BL [] 0 setdash 2 copy vpt sub vpt Square fill 2 copy exch vpt sub exch vpt2 vpt Rec fill
	Bsquare} bind def
/S12 {BL [] 0 setdash 2 copy exch vpt sub exch vpt sub vpt2 vpt Rec fill Bsquare} bind def
/S13 {BL [] 0 setdash 2 copy exch vpt sub exch vpt sub vpt2 vpt Rec fill
	2 copy vpt Square fill Bsquare} bind def
/S14 {BL [] 0 setdash 2 copy exch vpt sub exch vpt sub vpt2 vpt Rec fill
	2 copy exch vpt sub exch vpt Square fill Bsquare} bind def
/S15 {BL [] 0 setdash 2 copy Bsquare fill Bsquare} bind def
/D0 {gsave translate 45 rotate 0 0 S0 stroke grestore} bind def
/D1 {gsave translate 45 rotate 0 0 S1 stroke grestore} bind def
/D2 {gsave translate 45 rotate 0 0 S2 stroke grestore} bind def
/D3 {gsave translate 45 rotate 0 0 S3 stroke grestore} bind def
/D4 {gsave translate 45 rotate 0 0 S4 stroke grestore} bind def
/D5 {gsave translate 45 rotate 0 0 S5 stroke grestore} bind def
/D6 {gsave translate 45 rotate 0 0 S6 stroke grestore} bind def
/D7 {gsave translate 45 rotate 0 0 S7 stroke grestore} bind def
/D8 {gsave translate 45 rotate 0 0 S8 stroke grestore} bind def
/D9 {gsave translate 45 rotate 0 0 S9 stroke grestore} bind def
/D10 {gsave translate 45 rotate 0 0 S10 stroke grestore} bind def
/D11 {gsave translate 45 rotate 0 0 S11 stroke grestore} bind def
/D12 {gsave translate 45 rotate 0 0 S12 stroke grestore} bind def
/D13 {gsave translate 45 rotate 0 0 S13 stroke grestore} bind def
/D14 {gsave translate 45 rotate 0 0 S14 stroke grestore} bind def
/D15 {gsave translate 45 rotate 0 0 S15 stroke grestore} bind def
/DiaE {stroke [] 0 setdash vpt add M
  hpt neg vpt neg V hpt vpt neg V
  hpt vpt V hpt neg vpt V closepath stroke} def
/BoxE {stroke [] 0 setdash exch hpt sub exch vpt add M
  0 vpt2 neg V hpt2 0 V 0 vpt2 V
  hpt2 neg 0 V closepath stroke} def
/TriUE {stroke [] 0 setdash vpt 1.12 mul add M
  hpt neg vpt -1.62 mul V
  hpt 2 mul 0 V
  hpt neg vpt 1.62 mul V closepath stroke} def
/TriDE {stroke [] 0 setdash vpt 1.12 mul sub M
  hpt neg vpt 1.62 mul V
  hpt 2 mul 0 V
  hpt neg vpt -1.62 mul V closepath stroke} def
/PentE {stroke [] 0 setdash gsave
  translate 0 hpt M 4 {72 rotate 0 hpt L} repeat
  closepath stroke grestore} def
/CircE {stroke [] 0 setdash 
  hpt 0 360 arc stroke} def
/Opaque {gsave closepath 1 setgray fill grestore 0 setgray closepath} def
/DiaW {stroke [] 0 setdash vpt add M
  hpt neg vpt neg V hpt vpt neg V
  hpt vpt V hpt neg vpt V Opaque stroke} def
/BoxW {stroke [] 0 setdash exch hpt sub exch vpt add M
  0 vpt2 neg V hpt2 0 V 0 vpt2 V
  hpt2 neg 0 V Opaque stroke} def
/TriUW {stroke [] 0 setdash vpt 1.12 mul add M
  hpt neg vpt -1.62 mul V
  hpt 2 mul 0 V
  hpt neg vpt 1.62 mul V Opaque stroke} def
/TriDW {stroke [] 0 setdash vpt 1.12 mul sub M
  hpt neg vpt 1.62 mul V
  hpt 2 mul 0 V
  hpt neg vpt -1.62 mul V Opaque stroke} def
/PentW {stroke [] 0 setdash gsave
  translate 0 hpt M 4 {72 rotate 0 hpt L} repeat
  Opaque stroke grestore} def
/CircW {stroke [] 0 setdash 
  hpt 0 360 arc Opaque stroke} def
/BoxFill {gsave Rec 1 setgray fill grestore} def
/Density {
  /Fillden exch def
  currentrgbcolor
  /ColB exch def /ColG exch def /ColR exch def
  /ColR ColR Fillden mul Fillden sub 1 add def
  /ColG ColG Fillden mul Fillden sub 1 add def
  /ColB ColB Fillden mul Fillden sub 1 add def
  ColR ColG ColB setrgbcolor} def
/BoxColFill {gsave Rec PolyFill} def
/PolyFill {gsave Density fill grestore grestore} def
/h {rlineto rlineto rlineto gsave closepath fill grestore} bind def
%
% PostScript Level 1 Pattern Fill routine for rectangles
% Usage: x y w h s a XX PatternFill
%	x,y = lower left corner of box to be filled
%	w,h = width and height of box
%	  a = angle in degrees between lines and x-axis
%	 XX = 0/1 for no/yes cross-hatch
%
/PatternFill {gsave /PFa [ 9 2 roll ] def
  PFa 0 get PFa 2 get 2 div add PFa 1 get PFa 3 get 2 div add translate
  PFa 2 get -2 div PFa 3 get -2 div PFa 2 get PFa 3 get Rec
  TransparentPatterns {} {gsave 1 setgray fill grestore} ifelse
  clip
  currentlinewidth 0.5 mul setlinewidth
  /PFs PFa 2 get dup mul PFa 3 get dup mul add sqrt def
  0 0 M PFa 5 get rotate PFs -2 div dup translate
  0 1 PFs PFa 4 get div 1 add floor cvi
	{PFa 4 get mul 0 M 0 PFs V} for
  0 PFa 6 get ne {
	0 1 PFs PFa 4 get div 1 add floor cvi
	{PFa 4 get mul 0 2 1 roll M PFs 0 V} for
 } if
  stroke grestore} def
%
/languagelevel where
 {pop languagelevel} {1} ifelse
 2 lt
	{/InterpretLevel1 true def}
	{/InterpretLevel1 Level1 def}
 ifelse
%
% PostScript level 2 pattern fill definitions
%
/Level2PatternFill {
/Tile8x8 {/PaintType 2 /PatternType 1 /TilingType 1 /BBox [0 0 8 8] /XStep 8 /YStep 8}
	bind def
/KeepColor {currentrgbcolor [/Pattern /DeviceRGB] setcolorspace} bind def
<< Tile8x8
 /PaintProc {0.5 setlinewidth pop 0 0 M 8 8 L 0 8 M 8 0 L stroke} 
>> matrix makepattern
/Pat1 exch def
<< Tile8x8
 /PaintProc {0.5 setlinewidth pop 0 0 M 8 8 L 0 8 M 8 0 L stroke
	0 4 M 4 8 L 8 4 L 4 0 L 0 4 L stroke}
>> matrix makepattern
/Pat2 exch def
<< Tile8x8
 /PaintProc {0.5 setlinewidth pop 0 0 M 0 8 L
	8 8 L 8 0 L 0 0 L fill}
>> matrix makepattern
/Pat3 exch def
<< Tile8x8
 /PaintProc {0.5 setlinewidth pop -4 8 M 8 -4 L
	0 12 M 12 0 L stroke}
>> matrix makepattern
/Pat4 exch def
<< Tile8x8
 /PaintProc {0.5 setlinewidth pop -4 0 M 8 12 L
	0 -4 M 12 8 L stroke}
>> matrix makepattern
/Pat5 exch def
<< Tile8x8
 /PaintProc {0.5 setlinewidth pop -2 8 M 4 -4 L
	0 12 M 8 -4 L 4 12 M 10 0 L stroke}
>> matrix makepattern
/Pat6 exch def
<< Tile8x8
 /PaintProc {0.5 setlinewidth pop -2 0 M 4 12 L
	0 -4 M 8 12 L 4 -4 M 10 8 L stroke}
>> matrix makepattern
/Pat7 exch def
<< Tile8x8
 /PaintProc {0.5 setlinewidth pop 8 -2 M -4 4 L
	12 0 M -4 8 L 12 4 M 0 10 L stroke}
>> matrix makepattern
/Pat8 exch def
<< Tile8x8
 /PaintProc {0.5 setlinewidth pop 0 -2 M 12 4 L
	-4 0 M 12 8 L -4 4 M 8 10 L stroke}
>> matrix makepattern
/Pat9 exch def
/Pattern1 {PatternBgnd KeepColor Pat1 setpattern} bind def
/Pattern2 {PatternBgnd KeepColor Pat2 setpattern} bind def
/Pattern3 {PatternBgnd KeepColor Pat3 setpattern} bind def
/Pattern4 {PatternBgnd KeepColor Landscape {Pat5} {Pat4} ifelse setpattern} bind def
/Pattern5 {PatternBgnd KeepColor Landscape {Pat4} {Pat5} ifelse setpattern} bind def
/Pattern6 {PatternBgnd KeepColor Landscape {Pat9} {Pat6} ifelse setpattern} bind def
/Pattern7 {PatternBgnd KeepColor Landscape {Pat8} {Pat7} ifelse setpattern} bind def
} def
%
%
%End of PostScript Level 2 code
%
/PatternBgnd {
  TransparentPatterns {} {gsave 1 setgray fill grestore} ifelse
} def
%
% Substitute for Level 2 pattern fill codes with
% grayscale if Level 2 support is not selected.
%
/Level1PatternFill {
/Pattern1 {0.250 Density} bind def
/Pattern2 {0.500 Density} bind def
/Pattern3 {0.750 Density} bind def
/Pattern4 {0.125 Density} bind def
/Pattern5 {0.375 Density} bind def
/Pattern6 {0.625 Density} bind def
/Pattern7 {0.875 Density} bind def
} def
%
% Now test for support of Level 2 code
%
Level1 {Level1PatternFill} {Level2PatternFill} ifelse
%
/Symbol-Oblique /Symbol findfont [1 0 .167 1 0 0] makefont
dup length dict begin {1 index /FID eq {pop pop} {def} ifelse} forall
currentdict end definefont pop
/MFshow {
   { dup 5 get 3 ge
     { 5 get 3 eq {gsave} {grestore} ifelse }
     {dup dup 0 get findfont exch 1 get scalefont setfont
     [ currentpoint ] exch dup 2 get 0 exch R dup 5 get 2 ne {dup dup 6
     get exch 4 get {Gshow} {stringwidth pop 0 R} ifelse }if dup 5 get 0 eq
     {dup 3 get {2 get neg 0 exch R pop} {pop aload pop M} ifelse} {dup 5
     get 1 eq {dup 2 get exch dup 3 get exch 6 get stringwidth pop -2 div
     dup 0 R} {dup 6 get stringwidth pop -2 div 0 R 6 get
     show 2 index {aload pop M neg 3 -1 roll neg R pop pop} {pop pop pop
     pop aload pop M} ifelse }ifelse }ifelse }
     ifelse }
   forall} def
/Gswidth {dup type /stringtype eq {stringwidth} {pop (n) stringwidth} ifelse} def
/MFwidth {0 exch { dup 5 get 3 ge { 5 get 3 eq { 0 } { pop } ifelse }
 {dup 3 get{dup dup 0 get findfont exch 1 get scalefont setfont
     6 get Gswidth pop add} {pop} ifelse} ifelse} forall} def
/MLshow { currentpoint stroke M
  0 exch R
  Blacktext {gsave 0 setgray MFshow grestore} {MFshow} ifelse } bind def
/MRshow { currentpoint stroke M
  exch dup MFwidth neg 3 -1 roll R
  Blacktext {gsave 0 setgray MFshow grestore} {MFshow} ifelse } bind def
/MCshow { currentpoint stroke M
  exch dup MFwidth -2 div 3 -1 roll R
  Blacktext {gsave 0 setgray MFshow grestore} {MFshow} ifelse } bind def
/XYsave    { [( ) 1 2 true false 3 ()] } bind def
/XYrestore { [( ) 1 2 true false 4 ()] } bind def
Level1 SuppressPDFMark or 
{} {
/SDict 10 dict def
systemdict /pdfmark known not {
  userdict /pdfmark systemdict /cleartomark get put
} if
SDict begin [
  /Title (ASvsMC-Time-3d-S1000.eps)
  /Subject (gnuplot plot)
  /Creator (gnuplot 4.6 patchlevel 4)
  /Author (danny)
%  /Producer (gnuplot)
%  /Keywords ()
  /CreationDate (Thu Jun 19 12:28:40 2014)
  /DOCINFO pdfmark
end
} ifelse
end
%%EndProlog
%%Page: 1 1
gnudict begin
gsave
doclip
50 50 translate
0.050 0.050 scale
0 setgray
newpath
(Times-Roman) findfont 200 scalefont setfont
BackgroundColor 0 lt 3 1 roll 0 lt exch 0 lt or or not {BackgroundColor C 1.000 0 0 10080.00 7488.00 BoxColFill} if
gsave % colour palette begin
/maxcolors 0 def
/HSV2RGB {  exch dup 0.0 eq {pop exch pop dup dup} % achromatic gray
  { /HSVs exch def /HSVv exch def 6.0 mul dup floor dup 3 1 roll sub
     /HSVf exch def /HSVi exch cvi def /HSVp HSVv 1.0 HSVs sub mul def
	 /HSVq HSVv 1.0 HSVs HSVf mul sub mul def 
	 /HSVt HSVv 1.0 HSVs 1.0 HSVf sub mul sub mul def
	 /HSVi HSVi 6 mod def 0 HSVi eq {HSVv HSVt HSVp}
	 {1 HSVi eq {HSVq HSVv HSVp}{2 HSVi eq {HSVp HSVv HSVt}
	 {3 HSVi eq {HSVp HSVq HSVv}{4 HSVi eq {HSVt HSVp HSVv}
	 {HSVv HSVp HSVq} ifelse} ifelse} ifelse} ifelse} ifelse
  } ifelse} def
/Constrain {
  dup 0 lt {0 exch pop}{dup 1 gt {1 exch pop} if} ifelse} def
/YIQ2RGB {
  3 copy -1.702 mul exch -1.105 mul add add Constrain 4 1 roll
  3 copy -0.647 mul exch -0.272 mul add add Constrain 5 1 roll
  0.621 mul exch -0.956 mul add add Constrain 3 1 roll } def
/CMY2RGB {  1 exch sub exch 1 exch sub 3 2 roll 1 exch sub 3 1 roll exch } def
/XYZ2RGB {  3 copy -0.9017 mul exch -0.1187 mul add exch 0.0585 mul exch add
  Constrain 4 1 roll 3 copy -0.0279 mul exch 1.999 mul add exch
  -0.9844 mul add Constrain 5 1 roll -0.2891 mul exch -0.5338 mul add
  exch 1.91 mul exch add Constrain 3 1 roll} def
/SelectSpace {ColorSpace (HSV) eq {HSV2RGB}{ColorSpace (XYZ) eq {
  XYZ2RGB}{ColorSpace (CMY) eq {CMY2RGB}{ColorSpace (YIQ) eq {YIQ2RGB}
  if} ifelse} ifelse} ifelse} def
/InterpolatedColor true def
/grayindex {/gidx 0 def
  {GrayA gidx get grayv ge {exit} if /gidx gidx 1 add def} loop} def
/dgdx {grayv GrayA gidx get sub GrayA gidx 1 sub get
  GrayA gidx get sub div} def 
/redvalue {RedA gidx get RedA gidx 1 sub get
  RedA gidx get sub dgdxval mul add} def
/greenvalue {GreenA gidx get GreenA gidx 1 sub get
  GreenA gidx get sub dgdxval mul add} def
/bluevalue {BlueA gidx get BlueA gidx 1 sub get
  BlueA gidx get sub dgdxval mul add} def
/interpolate {
  grayindex grayv GrayA gidx get sub abs 1e-5 le
    {RedA gidx get GreenA gidx get BlueA gidx get}
    {/dgdxval dgdx def redvalue greenvalue bluevalue} ifelse} def
/GrayA [0 1 ] def
/RedA [0 1 ] def
/GreenA [1 0 ] def
/BlueA [0 0 ] def
/pm3dround {maxcolors 0 gt {dup 1 ge
	{pop 1} {maxcolors mul floor maxcolors 1 sub div} ifelse} if} def
/pm3dGamma 1.0 1.5 Gamma mul div def
/ColorSpace (RGB) def
Color InterpolatedColor or { % COLOUR vs. GRAY map
  InterpolatedColor { %% Interpolation vs. RGB-Formula
    /g {stroke pm3dround /grayv exch def interpolate
        SelectSpace setrgbcolor} bind def
  }{
  /g {stroke pm3dround dup cF7 Constrain exch dup cF5 Constrain exch cF15 Constrain 
       SelectSpace setrgbcolor} bind def
  } ifelse
}{
  /g {stroke pm3dround pm3dGamma exp setgray} bind def
} ifelse
1.000 UL
LTb
LCb setrgbcolor
1.000 UL
LTb
LCb setrgbcolor
1467 1709 M
3669 3506 L
stroke
LTb
LCb setrgbcolor
8613 2706 M
3669 3506 L
stroke
LTb
LCb setrgbcolor
1467 1709 M
0 3273 V
stroke
LTb
LCb setrgbcolor
3669 3506 M
0 3273 V
stroke
LTb
LCb setrgbcolor
8613 2706 M
0 3273 V
stroke
LTb
LCb setrgbcolor
1467 4982 M
3669 6779 L
stroke
LTb
LCb setrgbcolor
8613 5979 M
3669 6779 L
stroke
LTa
LCa setrgbcolor
1467 1709 M
3669 3506 L
stroke
LTb
LCb setrgbcolor
1467 1709 M
36 29 V
stroke
LTb
LCb setrgbcolor
1398 1615 M
[ [(Times-Roman) 200.0 0.0 true true 0 ( 0.1)]
] -66.7 MCshow
1.000 UL
LTb
LCb setrgbcolor
1.000 UL
LTb
LCb setrgbcolor
3669 3506 M
-36 -30 V
stroke
LTa
LCa setrgbcolor
2085 1609 M
4287 3406 L
stroke
LTb
LCb setrgbcolor
2085 1609 M
37 29 V
stroke
LTb
LCb setrgbcolor
2016 1515 M
[ [(Times-Roman) 200.0 0.0 true true 0 ( 0.2)]
] -66.7 MCshow
1.000 UL
LTb
LCb setrgbcolor
1.000 UL
LTb
LCb setrgbcolor
4287 3406 M
-36 -30 V
stroke
LTa
LCa setrgbcolor
2703 1509 M
4905 3306 L
stroke
LTb
LCb setrgbcolor
2703 1509 M
37 29 V
stroke
LTb
LCb setrgbcolor
2634 1415 M
[ [(Times-Roman) 200.0 0.0 true true 0 ( 0.3)]
] -66.7 MCshow
1.000 UL
LTb
LCb setrgbcolor
1.000 UL
LTb
LCb setrgbcolor
4905 3306 M
-36 -30 V
stroke
LTa
LCa setrgbcolor
3322 1409 M
5522 3206 L
stroke
LTb
LCb setrgbcolor
3322 1409 M
36 29 V
stroke
LTb
LCb setrgbcolor
3252 1315 M
[ [(Times-Roman) 200.0 0.0 true true 0 ( 0.4)]
] -66.7 MCshow
1.000 UL
LTb
LCb setrgbcolor
1.000 UL
LTb
LCb setrgbcolor
5522 3206 M
-36 -30 V
stroke
LTa
LCa setrgbcolor
3940 1309 M
6140 3106 L
stroke
LTb
LCb setrgbcolor
3940 1309 M
36 29 V
stroke
LTb
LCb setrgbcolor
3871 1215 M
[ [(Times-Roman) 200.0 0.0 true true 0 ( 0.5)]
] -66.7 MCshow
1.000 UL
LTb
LCb setrgbcolor
1.000 UL
LTb
LCb setrgbcolor
6140 3106 M
-36 -30 V
stroke
LTa
LCa setrgbcolor
4558 1209 M
6758 3006 L
stroke
LTb
LCb setrgbcolor
4558 1209 M
36 29 V
stroke
LTb
LCb setrgbcolor
4489 1115 M
[ [(Times-Roman) 200.0 0.0 true true 0 ( 0.6)]
] -66.7 MCshow
1.000 UL
LTb
LCb setrgbcolor
1.000 UL
LTb
LCb setrgbcolor
6758 3006 M
-36 -30 V
stroke
LTa
LCa setrgbcolor
5175 1109 M
7377 2906 L
stroke
LTb
LCb setrgbcolor
5175 1109 M
36 29 V
stroke
LTb
LCb setrgbcolor
5106 1014 M
[ [(Times-Roman) 200.0 0.0 true true 0 ( 0.7)]
] -66.7 MCshow
1.000 UL
LTb
LCb setrgbcolor
1.000 UL
LTb
LCb setrgbcolor
7377 2906 M
-37 -30 V
stroke
LTa
LCa setrgbcolor
5793 1009 M
7995 2806 L
stroke
LTb
LCb setrgbcolor
5793 1009 M
36 29 V
stroke
LTb
LCb setrgbcolor
5724 914 M
[ [(Times-Roman) 200.0 0.0 true true 0 ( 0.8)]
] -66.7 MCshow
1.000 UL
LTb
LCb setrgbcolor
1.000 UL
LTb
LCb setrgbcolor
7995 2806 M
-37 -30 V
stroke
LTa
LCa setrgbcolor
6411 909 M
8613 2706 L
stroke
LTb
LCb setrgbcolor
6411 909 M
36 29 V
stroke
LTb
LCb setrgbcolor
6342 814 M
[ [(Times-Roman) 200.0 0.0 true true 0 ( 0.9)]
] -66.7 MCshow
1.000 UL
LTb
LCb setrgbcolor
1.000 UL
LTb
LCb setrgbcolor
8613 2706 M
-36 -30 V
stroke
LTa
LCa setrgbcolor
6411 909 M
1467 1709 L
stroke
LTb
LCb setrgbcolor
6411 909 M
-57 9 V
stroke
6521 879 M
[ [(Times-Roman) 200.0 0.0 true true 0 ( 0)]
] -66.7 MLshow
1.000 UL
LTb
LCb setrgbcolor
1.000 UL
LTb
LCb setrgbcolor
1467 1709 M
58 -10 V
stroke
LTa
LCa setrgbcolor
6852 1268 M
1907 2068 L
stroke
LTb
LCb setrgbcolor
6852 1268 M
-58 9 V
stroke
6961 1238 M
[ [(Times-Roman) 200.0 0.0 true true 0 ( 0.2)]
] -66.7 MLshow
1.000 UL
LTb
LCb setrgbcolor
1.000 UL
LTb
LCb setrgbcolor
1907 2068 M
58 -9 V
stroke
LTa
LCa setrgbcolor
7292 1627 M
2348 2428 L
stroke
LTb
LCb setrgbcolor
7292 1627 M
-58 10 V
stroke
7401 1598 M
[ [(Times-Roman) 200.0 0.0 true true 0 ( 0.4)]
] -66.7 MLshow
1.000 UL
LTb
LCb setrgbcolor
1.000 UL
LTb
LCb setrgbcolor
2348 2428 M
57 -10 V
stroke
LTa
LCa setrgbcolor
7732 1987 M
2788 2787 L
stroke
LTb
LCb setrgbcolor
7732 1987 M
-57 9 V
stroke
7842 1957 M
[ [(Times-Roman) 200.0 0.0 true true 0 ( 0.6)]
] -66.7 MLshow
1.000 UL
LTb
LCb setrgbcolor
1.000 UL
LTb
LCb setrgbcolor
2788 2787 M
58 -9 V
stroke
LTa
LCa setrgbcolor
8173 2346 M
3228 3147 L
stroke
LTb
LCb setrgbcolor
8173 2346 M
-58 10 V
stroke
8282 2317 M
[ [(Times-Roman) 200.0 0.0 true true 0 ( 0.8)]
] -66.7 MLshow
1.000 UL
LTb
LCb setrgbcolor
1.000 UL
LTb
LCb setrgbcolor
3228 3147 M
58 -10 V
stroke
LTa
LCa setrgbcolor
8613 2706 M
3669 3506 L
stroke
LTb
LCb setrgbcolor
8613 2706 M
-58 9 V
stroke
8722 2676 M
[ [(Times-Roman) 200.0 0.0 true true 0 ( 1)]
] -66.7 MLshow
1.000 UL
LTb
LCb setrgbcolor
1.000 UL
LTb
LCb setrgbcolor
3669 3506 M
57 -9 V
stroke
LTa
LCa setrgbcolor
1467 1709 M
3669 3506 L
stroke
LTa
LCa setrgbcolor
3669 3506 M
8613 2706 L
stroke
LTb
LCb setrgbcolor
1467 1709 M
63 0 V
stroke
1341 1709 M
[ [(Times-Roman) 200.0 0.0 true true 0 ( 0)]
] -66.7 MRshow
1.000 UL
LTb
LCb setrgbcolor
1.000 UL
LTa
LCa setrgbcolor
1467 2254 M
3669 4051 L
stroke
LTa
LCa setrgbcolor
3669 4051 M
8613 3252 L
stroke
LTb
LCb setrgbcolor
1467 2254 M
63 0 V
stroke
1341 2254 M
[ [(Times-Roman) 200.0 0.0 true true 0 ( 0.5)]
] -66.7 MRshow
1.000 UL
LTb
LCb setrgbcolor
1.000 UL
LTa
LCa setrgbcolor
1467 2800 M
3669 4597 L
stroke
LTa
LCa setrgbcolor
3669 4597 M
8613 3797 L
stroke
LTb
LCb setrgbcolor
1467 2800 M
63 0 V
stroke
1341 2800 M
[ [(Times-Roman) 200.0 0.0 true true 0 ( 1)]
] -66.7 MRshow
1.000 UL
LTb
LCb setrgbcolor
1.000 UL
LTa
LCa setrgbcolor
1467 3346 M
3669 5142 L
stroke
LTa
LCa setrgbcolor
3669 5142 M
8613 4342 L
stroke
LTb
LCb setrgbcolor
1467 3346 M
63 0 V
stroke
1341 3346 M
[ [(Times-Roman) 200.0 0.0 true true 0 ( 1.5)]
] -66.7 MRshow
1.000 UL
LTb
LCb setrgbcolor
1.000 UL
LTa
LCa setrgbcolor
1467 3891 M
3669 5688 L
stroke
LTa
LCa setrgbcolor
3669 5688 M
8613 4888 L
stroke
LTb
LCb setrgbcolor
1467 3891 M
63 0 V
stroke
1341 3891 M
[ [(Times-Roman) 200.0 0.0 true true 0 ( 2)]
] -66.7 MRshow
1.000 UL
LTb
LCb setrgbcolor
1.000 UL
LTa
LCa setrgbcolor
1467 4436 M
3669 6234 L
stroke
LTa
LCa setrgbcolor
3669 6234 M
8613 5434 L
stroke
LTb
LCb setrgbcolor
1467 4436 M
63 0 V
stroke
1341 4436 M
[ [(Times-Roman) 200.0 0.0 true true 0 ( 2.5)]
] -66.7 MRshow
1.000 UL
LTb
LCb setrgbcolor
1.000 UL
LTa
LCa setrgbcolor
1467 4982 M
3669 6779 L
stroke
LTa
LCa setrgbcolor
3669 6779 M
8613 5979 L
stroke
LTb
LCb setrgbcolor
1467 4982 M
63 0 V
stroke
1341 4982 M
[ [(Times-Roman) 200.0 0.0 true true 0 ( 3)]
] -66.7 MRshow
1.000 UL
LTb
LCb setrgbcolor
LCb setrgbcolor
627 3346 M
currentpoint gsave translate 90 rotate 0 0 moveto
[ [(Times-Roman) 200.0 0.0 true true 0 (Execution time \(s\))]
] -66.7 MCshow
grestore
LTb
1.000 UP
7068 6666 M
[ [(Times-Roman) 200.0 0.0 true true 0 (MD)]
] -66.7 MLshow
7068 6448 M
[ [(Times-Roman) 200.0 0.0 true true 0 (AS)]
] -66.7 MLshow
0.00 1.00 0.00 C 7500 6705 M
[ [(Times-Roman) 200.0 0.0 true true 0 (-----)]
] -66.7 MLshow
1.00 0.00 0.00 C 7500 6487 M
[ [(Times-Roman) 200.0 0.0 true true 0 (-----)]
] -66.7 MLshow
% Begin plot #1
1.000 UL
LT0
LC0 setrgbcolor
0.250 UL
LT1
0.27 0.27 0.27 C % End plot #1
% Begin plot #2
1.000 UL
LT0
LC0 setrgbcolor
0.250 UL
LT1
0.27 0.27 0.27 C % End plot #2
1 g gsave 3847 3410 N -619 36 V 441 65 V 618 -94 V 0.90 PolyFill
0.250 UL
LT1
0.27 0.27 0.27 C 3847 3410 M
440 7 V
-618 94 V
-441 -65 V
619 -36 V
1 g gsave 4465 3313 N -618 97 V 440 7 V 618 -93 V 0.90 PolyFill
stroke
LT1
0.27 0.27 0.27 C 4465 3313 M
440 11 V
-618 93 V
-440 -7 V
618 -97 V
1 g gsave 5082 3208 N -617 105 V 440 11 V 617 -91 V 0.90 PolyFill
stroke
LT1
0.27 0.27 0.27 C 5082 3208 M
440 25 V
-617 91 V
-440 -11 V
617 -105 V
1 g gsave 5700 3109 N -618 99 V 440 25 V 618 -89 V 0.90 PolyFill
stroke
LT1
0.27 0.27 0.27 C 5700 3109 M
440 35 V
-618 89 V
-440 -25 V
618 -99 V
1 g gsave 3406 3153 N -618 105 V 440 188 V 619 -36 V 0.90 PolyFill
stroke
LT1
0.27 0.27 0.27 C 3406 3153 M
441 257 V
-619 36 V
2788 3258 L
618 -105 V
1 g gsave 6318 3017 N -618 92 V 440 35 V 618 -87 V 0.90 PolyFill
stroke
LT1
0.27 0.27 0.27 C 6318 3017 M
440 40 V
-618 87 V
-440 -35 V
618 -92 V
1 g gsave 4024 3051 N -618 102 V 441 257 V 618 -97 V 0.90 PolyFill
stroke
LT1
0.27 0.27 0.27 C 4024 3051 M
441 262 V
-618 97 V
3406 3153 L
618 -102 V
1 g gsave 6936 2939 N -618 78 V 440 40 V 619 -84 V 0.90 PolyFill
stroke
LT1
0.27 0.27 0.27 C 6936 2939 M
441 34 V
-619 84 V
-440 -40 V
618 -78 V
0 g gsave 3847 4901 N -619 258 V 441 500 V 618 -270 V 0.90 PolyFill
stroke
LT1
0.27 0.27 0.27 C 3847 4901 M
440 488 V
-618 270 V
3228 5159 L
619 -258 V
0 g gsave 4465 4587 N -618 314 V 440 488 V 618 -493 V 0.90 PolyFill
stroke
LT1
0.27 0.27 0.27 C 4465 4587 M
440 309 V
-618 493 V
3847 4901 L
618 -314 V
1 g gsave 4643 2945 N -619 106 V 441 262 V 617 -105 V 0.90 PolyFill
stroke
LT1
0.27 0.27 0.27 C 4643 2945 M
439 263 V
-617 105 V
4024 3051 L
619 -106 V
0 g gsave 5082 4349 N -617 238 V 440 309 V 617 -238 V 0.90 PolyFill
stroke
LT1
0.27 0.27 0.27 C 5082 4349 M
440 309 V
-617 238 V
4465 4587 L
617 -238 V
0 g gsave 5700 4012 N -618 337 V 440 309 V 618 -298 V 0.90 PolyFill
stroke
LT1
0.27 0.27 0.27 C 5700 4012 M
440 348 V
-618 298 V
5082 4349 L
618 -337 V
1 g gsave 7554 2963 N -618 -24 V 441 34 V 618 -80 V 0.90 PolyFill
stroke
LT1
0.27 0.27 0.27 C 7554 2963 M
441 -70 V
-618 80 V
-441 -34 V
618 24 V
0 g gsave 6318 3795 N -618 217 V 440 348 V 618 -207 V 0.90 PolyFill
stroke
LT1
0.27 0.27 0.27 C 6318 3795 M
440 358 V
-618 207 V
5700 4012 L
618 -217 V
1 g gsave 5260 2844 N -617 101 V 439 263 V 618 -99 V 0.90 PolyFill
stroke
LT1
0.27 0.27 0.27 C 5260 2844 M
440 265 V
-618 99 V
4643 2945 L
617 -101 V
0 g gsave 6936 3472 N -618 323 V 440 358 V 619 -393 V 0.90 PolyFill
stroke
LT1
0.27 0.27 0.27 C 6936 3472 M
441 288 V
-619 393 V
6318 3795 L
618 -323 V
0 g gsave 7554 3239 N -618 233 V 441 288 V 618 -218 V 0.90 PolyFill
stroke
LT1
0.27 0.27 0.27 C 7554 3239 M
441 303 V
-618 218 V
6936 3472 L
618 -233 V
1 g gsave 2966 2827 N -618 97 V 440 334 V 618 -105 V 0.90 PolyFill
stroke
LT1
0.27 0.27 0.27 C 2966 2827 M
440 326 V
-618 105 V
2348 2924 L
618 -97 V
0 g gsave 8173 2907 N -619 332 V 441 303 V 618 -353 V 0.90 PolyFill
stroke
LT1
0.27 0.27 0.27 C 8173 2907 M
440 282 V
-618 353 V
7554 3239 L
619 -332 V
1 g gsave 5878 2747 N -618 97 V 440 265 V 618 -92 V 0.90 PolyFill
stroke
LT1
0.27 0.27 0.27 C 5878 2747 M
440 270 V
-618 92 V
5260 2844 L
618 -97 V
1 g gsave 3584 2722 N -618 105 V 440 326 V 618 -102 V 0.90 PolyFill
stroke
LT1
0.27 0.27 0.27 C 3584 2722 M
440 329 V
-618 102 V
2966 2827 L
618 -105 V
1 g gsave 6496 2657 N -618 90 V 440 270 V 618 -78 V 0.90 PolyFill
stroke
LT1
0.27 0.27 0.27 C 6496 2657 M
440 282 V
-618 78 V
5878 2747 L
618 -90 V
1 g gsave 8173 3386 N -619 -423 V 441 -70 V 618 -68 V 0.90 PolyFill
stroke
LT1
0.27 0.27 0.27 C 8173 3386 M
440 -561 V
-618 68 V
-441 70 V
619 423 V
1 g gsave 4202 2613 N -618 109 V 440 329 V 619 -106 V 0.90 PolyFill
stroke
LT1
0.27 0.27 0.27 C 4202 2613 M
441 332 V
-619 106 V
3584 2722 L
618 -109 V
0 g gsave 3406 4861 N -618 250 V 440 48 V 619 -258 V 0.90 PolyFill
stroke
LT1
0.27 0.27 0.27 C 3406 4861 M
441 40 V
-619 258 V
-440 -48 V
618 -250 V
1 g gsave 7114 2618 N -618 39 V 440 282 V 618 24 V 0.90 PolyFill
stroke
LT1
0.27 0.27 0.27 C 7114 2618 M
440 345 V
-618 -24 V
6496 2657 L
618 -39 V
0 g gsave 4024 4529 N -618 332 V 441 40 V 618 -314 V 0.90 PolyFill
stroke
LT1
0.27 0.27 0.27 C 4024 4529 M
441 58 V
-618 314 V
-441 -40 V
618 -332 V
0 g gsave 5260 3827 N -617 398 V 439 124 V 618 -337 V 0.90 PolyFill
stroke
LT1
0.27 0.27 0.27 C 5260 3827 M
440 185 V
-618 337 V
4643 4225 L
617 -398 V
0 g gsave 4643 4225 N -619 304 V 441 58 V 617 -238 V 0.90 PolyFill
stroke
LT1
0.27 0.27 0.27 C 4643 4225 M
439 124 V
-617 238 V
-441 -58 V
619 -304 V
1 g gsave 4820 2515 N -618 98 V 441 332 V 617 -101 V 0.90 PolyFill
stroke
LT1
0.27 0.27 0.27 C 4820 2515 M
440 329 V
-617 101 V
4202 2613 L
618 -98 V
0 g gsave 5878 3574 N -618 253 V 440 185 V 618 -217 V 0.90 PolyFill
stroke
LT1
0.27 0.27 0.27 C 5878 3574 M
440 221 V
-618 217 V
5260 3827 L
618 -253 V
0 g gsave 6496 3234 N -618 340 V 440 221 V 618 -323 V 0.90 PolyFill
stroke
LT1
0.27 0.27 0.27 C 6496 3234 M
440 238 V
-618 323 V
5878 3574 L
618 -340 V
1 g gsave 2526 2477 N -619 95 V 441 352 V 618 -97 V 0.90 PolyFill
stroke
LT1
0.27 0.27 0.27 C 2526 2477 M
440 350 V
-618 97 V
1907 2572 L
619 -95 V
1 g gsave 5437 2413 N -617 102 V 440 329 V 618 -97 V 0.90 PolyFill
stroke
LT1
0.27 0.27 0.27 C 5437 2413 M
441 334 V
-618 97 V
4820 2515 L
617 -102 V
0 g gsave 7732 2631 N -618 385 V 440 223 V 619 -332 V 0.90 PolyFill
stroke
LT1
0.27 0.27 0.27 C 7732 2631 M
441 276 V
-619 332 V
7114 3016 L
618 -385 V
0 g gsave 7114 3016 N -618 218 V 440 238 V 618 -233 V 0.90 PolyFill
stroke
LT1
0.27 0.27 0.27 C 7114 3016 M
440 223 V
-618 233 V
6496 3234 L
618 -218 V
1 g gsave 3144 2369 N -618 108 V 440 350 V 618 -105 V 0.90 PolyFill
stroke
LT1
0.27 0.27 0.27 C 3144 2369 M
440 353 V
-618 105 V
2526 2477 L
618 -108 V
1 g gsave 7732 2896 N -618 -278 V 440 345 V 619 423 V 0.90 PolyFill
stroke
LT1
0.27 0.27 0.27 C 7732 2896 M
441 490 V
7554 2963 L
7114 2618 L
618 278 V
1 g gsave 6056 2325 N -619 88 V 441 334 V 618 -90 V 0.90 PolyFill
stroke
LT1
0.27 0.27 0.27 C 6056 2325 M
440 332 V
-618 90 V
5437 2413 L
619 -88 V
1 g gsave 3762 2262 N -618 107 V 440 353 V 618 -109 V 0.90 PolyFill
stroke
LT1
0.27 0.27 0.27 C 3762 2262 M
440 351 V
-618 109 V
3144 2369 L
618 -107 V
1 g gsave 6674 2247 N -618 78 V 440 332 V 618 -39 V 0.90 PolyFill
stroke
LT1
0.27 0.27 0.27 C 6674 2247 M
440 371 V
-618 39 V
6056 2325 L
618 -78 V
0 g gsave 3584 4196 N -618 441 V 440 224 V 618 -332 V 0.90 PolyFill
stroke
LT1
0.27 0.27 0.27 C 3584 4196 M
440 333 V
-618 332 V
2966 4637 L
618 -441 V
0 g gsave 2966 4637 N -618 297 V 440 177 V 618 -250 V 0.90 PolyFill
stroke
LT1
0.27 0.27 0.27 C 2966 4637 M
440 224 V
-618 250 V
2348 4934 L
618 -297 V
1 g gsave 4380 2163 N -618 99 V 440 351 V 618 -98 V 0.90 PolyFill
stroke
LT1
0.27 0.27 0.27 C 4380 2163 M
440 352 V
-618 98 V
3762 2262 L
618 -99 V
0 g gsave 4820 3517 N -618 404 V 441 304 V 617 -398 V 0.90 PolyFill
stroke
LT1
0.27 0.27 0.27 C 4820 3517 M
440 310 V
-617 398 V
4202 3921 L
618 -404 V
0 g gsave 4202 3921 N -618 275 V 440 333 V 619 -304 V 0.90 PolyFill
stroke
LT1
0.27 0.27 0.27 C 4202 3921 M
441 304 V
-619 304 V
3584 4196 L
618 -275 V
0 g gsave 5437 3263 N -617 254 V 440 310 V 618 -253 V 0.90 PolyFill
stroke
LT1
0.27 0.27 0.27 C 5437 3263 M
441 311 V
-618 253 V
4820 3517 L
617 -254 V
0 g gsave 6056 2914 N -619 349 V 441 311 V 618 -340 V 0.90 PolyFill
stroke
LT1
0.27 0.27 0.27 C 6056 2914 M
440 320 V
-618 340 V
5437 3263 L
619 -349 V
1 g gsave 2085 2118 N -618 110 V 440 344 V 619 -95 V 0.90 PolyFill
stroke
LT1
0.27 0.27 0.27 C 2085 2118 M
441 359 V
-619 95 V
1467 2228 L
618 -110 V
0 g gsave 7292 2259 N -618 391 V 440 366 V 618 -385 V 0.90 PolyFill
stroke
LT1
0.27 0.27 0.27 C 7292 2259 M
440 372 V
-618 385 V
6674 2650 L
618 -391 V
0 g gsave 6674 2650 N -618 264 V 440 320 V 618 -218 V 0.90 PolyFill
stroke
LT1
0.27 0.27 0.27 C 6674 2650 M
440 366 V
-618 218 V
6056 2914 L
618 -264 V
1 g gsave 4998 2066 N -618 97 V 440 352 V 617 -102 V 0.90 PolyFill
stroke
LT1
0.27 0.27 0.27 C 4998 2066 M
439 347 V
-617 102 V
4380 2163 L
618 -97 V
1 g gsave 7292 2367 N -618 -120 V 440 371 V 618 278 V 0.90 PolyFill
stroke
LT1
0.27 0.27 0.27 C 7292 2367 M
440 529 V
7114 2618 L
6674 2247 L
618 120 V
1 g gsave 2703 2016 N -618 102 V 441 359 V 618 -108 V 0.90 PolyFill
stroke
LT1
0.27 0.27 0.27 C 2703 2016 M
441 353 V
-618 108 V
2085 2118 L
618 -102 V
1 g gsave 5615 1964 N -617 102 V 439 347 V 619 -88 V 0.90 PolyFill
stroke
LT1
0.27 0.27 0.27 C 5615 1964 M
441 361 V
-619 88 V
4998 2066 L
617 -102 V
1 g gsave 3322 1922 N -619 94 V 441 353 V 618 -107 V 0.90 PolyFill
stroke
LT1
0.27 0.27 0.27 C 3322 1922 M
440 340 V
-618 107 V
2703 2016 L
619 -94 V
1 g gsave 6233 1877 N -618 87 V 441 361 V 618 -78 V 0.90 PolyFill
stroke
LT1
0.27 0.27 0.27 C 6233 1877 M
441 370 V
-618 78 V
5615 1964 L
618 -87 V
1 g gsave 3940 1805 N -618 117 V 440 340 V 618 -99 V 0.90 PolyFill
stroke
LT1
0.27 0.27 0.27 C 3940 1805 M
440 358 V
-618 99 V
3322 1922 L
618 -117 V
0 g gsave 4380 3175 N -618 417 V 440 329 V 618 -404 V 0.90 PolyFill
stroke
LT1
0.27 0.27 0.27 C 4380 3175 M
440 342 V
-618 404 V
3762 3592 L
618 -417 V
0 g gsave 3762 3592 N -618 365 V 440 239 V 618 -275 V 0.90 PolyFill
stroke
LT1
0.27 0.27 0.27 C 3762 3592 M
440 329 V
-618 275 V
3144 3957 L
618 -365 V
0 g gsave 3144 3957 N -618 456 V 440 224 V 618 -441 V 0.90 PolyFill
stroke
LT1
0.27 0.27 0.27 C 3144 3957 M
440 239 V
-618 441 V
2526 4413 L
618 -456 V
0 g gsave 5615 2514 N -617 399 V 439 350 V 619 -349 V 0.90 PolyFill
stroke
LT1
0.27 0.27 0.27 C 5615 2514 M
441 400 V
-619 349 V
4998 2913 L
617 -399 V
0 g gsave 4998 2913 N -618 262 V 440 342 V 617 -254 V 0.90 PolyFill
stroke
LT1
0.27 0.27 0.27 C 4998 2913 M
439 350 V
-617 254 V
4380 3175 L
618 -262 V
0 g gsave 2526 4413 N -619 470 V 441 51 V 618 -297 V 0.90 PolyFill
stroke
LT1
0.27 0.27 0.27 C 2526 4413 M
440 224 V
-618 297 V
-441 -51 V
619 -470 V
0 g gsave 6852 1879 N -619 390 V 441 381 V 618 -391 V 0.90 PolyFill
stroke
LT1
0.27 0.27 0.27 C 6852 1879 M
440 380 V
-618 391 V
6233 2269 L
619 -390 V
0 g gsave 6233 2269 N -618 245 V 441 400 V 618 -264 V 0.90 PolyFill
stroke
LT1
0.27 0.27 0.27 C 6233 2269 M
441 381 V
-618 264 V
5615 2514 L
618 -245 V
1 g gsave 6852 1893 N -619 -16 V 441 370 V 618 120 V 0.90 PolyFill
stroke
LT1
0.27 0.27 0.27 C 6852 1893 M
440 474 V
6674 2247 L
6233 1877 L
619 16 V
1 g gsave 4558 1704 N -618 101 V 440 358 V 618 -97 V 0.90 PolyFill
stroke
LT1
0.27 0.27 0.27 C 4558 1704 M
440 362 V
-618 97 V
3940 1805 L
618 -101 V
1 g gsave 5175 1608 N -617 96 V 440 362 V 617 -102 V 0.90 PolyFill
stroke
LT1
0.27 0.27 0.27 C 5175 1608 M
440 356 V
-617 102 V
4558 1704 L
617 -96 V
1 g gsave 5793 1500 N -618 108 V 440 356 V 618 -87 V 0.90 PolyFill
stroke
LT1
0.27 0.27 0.27 C 5793 1500 M
440 377 V
-618 87 V
5175 1608 L
618 -108 V
0 g gsave 3940 2610 N -618 413 V 440 569 V 618 -417 V 0.90 PolyFill
stroke
LT1
0.27 0.27 0.27 C 3940 2610 M
440 565 V
-618 417 V
3322 3023 L
618 -413 V
0 g gsave 3322 3023 N -619 332 V 441 602 V 618 -365 V 0.90 PolyFill
stroke
LT1
0.27 0.27 0.27 C 3322 3023 M
440 569 V
-618 365 V
2703 3355 L
619 -332 V
0 g gsave 4558 2301 N -618 309 V 440 565 V 618 -262 V 0.90 PolyFill
stroke
LT1
0.27 0.27 0.27 C 4558 2301 M
440 612 V
-618 262 V
3940 2610 L
618 -309 V
0 g gsave 5175 1992 N -617 309 V 440 612 V 617 -399 V 0.90 PolyFill
stroke
LT1
0.27 0.27 0.27 C 5175 1992 M
440 522 V
-617 399 V
4558 2301 L
617 -309 V
0 g gsave 2703 3355 N -618 612 V 441 446 V 618 -456 V 0.90 PolyFill
stroke
LT1
0.27 0.27 0.27 C 2703 3355 M
441 602 V
-618 456 V
2085 3967 L
618 -612 V
0 g gsave 2085 3967 N -618 312 V 440 604 V 619 -470 V 0.90 PolyFill
stroke
LT1
0.27 0.27 0.27 C 2085 3967 M
441 446 V
-619 470 V
1467 4279 L
618 -312 V
0 g gsave 5793 1756 N -618 236 V 440 522 V 618 -245 V 0.90 PolyFill
stroke
LT1
0.27 0.27 0.27 C 5793 1756 M
440 513 V
-618 245 V
5175 1992 L
618 -236 V
0 g gsave 6411 1416 N -618 340 V 440 513 V 619 -390 V 0.90 PolyFill
stroke
LT1
0.27 0.27 0.27 C 6411 1416 M
441 463 V
-619 390 V
5793 1756 L
618 -340 V
1 g gsave 6411 1476 N -618 24 V 440 377 V 619 16 V 0.90 PolyFill
stroke
LT1
0.27 0.27 0.27 C 6411 1476 M
441 417 V
-619 -16 V
5793 1500 L
618 -24 V
stroke
1.000 UL
LTb
LCb setrgbcolor
8613 2706 M
6411 909 L
stroke
LTb
LCb setrgbcolor
1467 1709 M
6411 909 L
stroke
LTb
LCb setrgbcolor
6411 909 M
0 567 V
stroke
LCb setrgbcolor
3389 859 M
[ [(Times-Roman) 200.0 0.0 true true 0 (Probability of incompleteness p1)]
] -66.7 MCshow
LTb
LCb setrgbcolor
8748 1607 M
[ [(Times-Roman) 200.0 0.0 true true 0 (Probability of ties p2)]
] -66.7 MCshow
LTb
LCb setrgbcolor
627 3346 M
currentpoint gsave translate 90 rotate 0 0 moveto
[ [(Times-Roman) 200.0 0.0 true true 0 (Execution time \(s\))]
] -66.7 MCshow
grestore
LTb
1.000 UP
grestore % colour palette end
stroke
grestore
end
showpage
%%Trailer
%%DocumentFonts: Times-Roman
