%!PS-Adobe-2.0 EPSF-2.0
%%Title: AS-3D-Sg-vp2-p190.eps
%%Creator: gnuplot 4.6 patchlevel 4
%%CreationDate: Wed Sep 24 14:40:56 2014
%%DocumentFonts: (atend)
%%BoundingBox: 50 50 302 194
%%EndComments
%%BeginProlog
/gnudict 256 dict def
gnudict begin
%
% The following true/false flags may be edited by hand if desired.
% The unit line width and grayscale image gamma correction may also be changed.
%
/Color true def
/Blacktext false def
/Solid false def
/Dashlength 1 def
/Landscape false def
/Level1 false def
/Rounded false def
/ClipToBoundingBox false def
/SuppressPDFMark false def
/TransparentPatterns false def
/gnulinewidth 4.000 def
/userlinewidth gnulinewidth def
/Gamma 1.0 def
/BackgroundColor {-1.000 -1.000 -1.000} def
%
/vshift -40 def
/dl1 {
  10.0 Dashlength mul mul
  Rounded { currentlinewidth 0.75 mul sub dup 0 le { pop 0.01 } if } if
} def
/dl2 {
  10.0 Dashlength mul mul
  Rounded { currentlinewidth 0.75 mul add } if
} def
/hpt_ 31.5 def
/vpt_ 31.5 def
/hpt hpt_ def
/vpt vpt_ def
/doclip {
  ClipToBoundingBox {
    newpath 50 50 moveto 302 50 lineto 302 194 lineto 50 194 lineto closepath
    clip
  } if
} def
%
% Gnuplot Prolog Version 4.6 (September 2012)
%
%/SuppressPDFMark true def
%
/M {moveto} bind def
/L {lineto} bind def
/R {rmoveto} bind def
/V {rlineto} bind def
/N {newpath moveto} bind def
/Z {closepath} bind def
/C {setrgbcolor} bind def
/f {rlineto fill} bind def
/g {setgray} bind def
/Gshow {show} def   % May be redefined later in the file to support UTF-8
/vpt2 vpt 2 mul def
/hpt2 hpt 2 mul def
/Lshow {currentpoint stroke M 0 vshift R 
	Blacktext {gsave 0 setgray show grestore} {show} ifelse} def
/Rshow {currentpoint stroke M dup stringwidth pop neg vshift R
	Blacktext {gsave 0 setgray show grestore} {show} ifelse} def
/Cshow {currentpoint stroke M dup stringwidth pop -2 div vshift R 
	Blacktext {gsave 0 setgray show grestore} {show} ifelse} def
/UP {dup vpt_ mul /vpt exch def hpt_ mul /hpt exch def
  /hpt2 hpt 2 mul def /vpt2 vpt 2 mul def} def
/DL {Color {setrgbcolor Solid {pop []} if 0 setdash}
 {pop pop pop 0 setgray Solid {pop []} if 0 setdash} ifelse} def
/BL {stroke userlinewidth 2 mul setlinewidth
	Rounded {1 setlinejoin 1 setlinecap} if} def
/AL {stroke userlinewidth 2 div setlinewidth
	Rounded {1 setlinejoin 1 setlinecap} if} def
/UL {dup gnulinewidth mul /userlinewidth exch def
	dup 1 lt {pop 1} if 10 mul /udl exch def} def
/PL {stroke userlinewidth setlinewidth
	Rounded {1 setlinejoin 1 setlinecap} if} def
3.8 setmiterlimit
% Default Line colors
/LCw {1 1 1} def
/LCb {0 0 0} def
/LCa {0 0 0} def
/LC0 {1 0 0} def
/LC1 {0 1 0} def
/LC2 {0 0 1} def
/LC3 {1 0 1} def
/LC4 {0 1 1} def
/LC5 {1 1 0} def
/LC6 {0 0 0} def
/LC7 {1 0.3 0} def
/LC8 {0.5 0.5 0.5} def
% Default Line Types
/LTw {PL [] 1 setgray} def
/LTb {BL [] LCb DL} def
/LTa {AL [1 udl mul 2 udl mul] 0 setdash LCa setrgbcolor} def
/LT0 {PL [] LC0 DL} def
/LT1 {PL [4 dl1 2 dl2] LC1 DL} def
/LT2 {PL [2 dl1 3 dl2] LC2 DL} def
/LT3 {PL [1 dl1 1.5 dl2] LC3 DL} def
/LT4 {PL [6 dl1 2 dl2 1 dl1 2 dl2] LC4 DL} def
/LT5 {PL [3 dl1 3 dl2 1 dl1 3 dl2] LC5 DL} def
/LT6 {PL [2 dl1 2 dl2 2 dl1 6 dl2] LC6 DL} def
/LT7 {PL [1 dl1 2 dl2 6 dl1 2 dl2 1 dl1 2 dl2] LC7 DL} def
/LT8 {PL [2 dl1 2 dl2 2 dl1 2 dl2 2 dl1 2 dl2 2 dl1 4 dl2] LC8 DL} def
/Pnt {stroke [] 0 setdash gsave 1 setlinecap M 0 0 V stroke grestore} def
/Dia {stroke [] 0 setdash 2 copy vpt add M
  hpt neg vpt neg V hpt vpt neg V
  hpt vpt V hpt neg vpt V closepath stroke
  Pnt} def
/Pls {stroke [] 0 setdash vpt sub M 0 vpt2 V
  currentpoint stroke M
  hpt neg vpt neg R hpt2 0 V stroke
 } def
/Box {stroke [] 0 setdash 2 copy exch hpt sub exch vpt add M
  0 vpt2 neg V hpt2 0 V 0 vpt2 V
  hpt2 neg 0 V closepath stroke
  Pnt} def
/Crs {stroke [] 0 setdash exch hpt sub exch vpt add M
  hpt2 vpt2 neg V currentpoint stroke M
  hpt2 neg 0 R hpt2 vpt2 V stroke} def
/TriU {stroke [] 0 setdash 2 copy vpt 1.12 mul add M
  hpt neg vpt -1.62 mul V
  hpt 2 mul 0 V
  hpt neg vpt 1.62 mul V closepath stroke
  Pnt} def
/Star {2 copy Pls Crs} def
/BoxF {stroke [] 0 setdash exch hpt sub exch vpt add M
  0 vpt2 neg V hpt2 0 V 0 vpt2 V
  hpt2 neg 0 V closepath fill} def
/TriUF {stroke [] 0 setdash vpt 1.12 mul add M
  hpt neg vpt -1.62 mul V
  hpt 2 mul 0 V
  hpt neg vpt 1.62 mul V closepath fill} def
/TriD {stroke [] 0 setdash 2 copy vpt 1.12 mul sub M
  hpt neg vpt 1.62 mul V
  hpt 2 mul 0 V
  hpt neg vpt -1.62 mul V closepath stroke
  Pnt} def
/TriDF {stroke [] 0 setdash vpt 1.12 mul sub M
  hpt neg vpt 1.62 mul V
  hpt 2 mul 0 V
  hpt neg vpt -1.62 mul V closepath fill} def
/DiaF {stroke [] 0 setdash vpt add M
  hpt neg vpt neg V hpt vpt neg V
  hpt vpt V hpt neg vpt V closepath fill} def
/Pent {stroke [] 0 setdash 2 copy gsave
  translate 0 hpt M 4 {72 rotate 0 hpt L} repeat
  closepath stroke grestore Pnt} def
/PentF {stroke [] 0 setdash gsave
  translate 0 hpt M 4 {72 rotate 0 hpt L} repeat
  closepath fill grestore} def
/Circle {stroke [] 0 setdash 2 copy
  hpt 0 360 arc stroke Pnt} def
/CircleF {stroke [] 0 setdash hpt 0 360 arc fill} def
/C0 {BL [] 0 setdash 2 copy moveto vpt 90 450 arc} bind def
/C1 {BL [] 0 setdash 2 copy moveto
	2 copy vpt 0 90 arc closepath fill
	vpt 0 360 arc closepath} bind def
/C2 {BL [] 0 setdash 2 copy moveto
	2 copy vpt 90 180 arc closepath fill
	vpt 0 360 arc closepath} bind def
/C3 {BL [] 0 setdash 2 copy moveto
	2 copy vpt 0 180 arc closepath fill
	vpt 0 360 arc closepath} bind def
/C4 {BL [] 0 setdash 2 copy moveto
	2 copy vpt 180 270 arc closepath fill
	vpt 0 360 arc closepath} bind def
/C5 {BL [] 0 setdash 2 copy moveto
	2 copy vpt 0 90 arc
	2 copy moveto
	2 copy vpt 180 270 arc closepath fill
	vpt 0 360 arc} bind def
/C6 {BL [] 0 setdash 2 copy moveto
	2 copy vpt 90 270 arc closepath fill
	vpt 0 360 arc closepath} bind def
/C7 {BL [] 0 setdash 2 copy moveto
	2 copy vpt 0 270 arc closepath fill
	vpt 0 360 arc closepath} bind def
/C8 {BL [] 0 setdash 2 copy moveto
	2 copy vpt 270 360 arc closepath fill
	vpt 0 360 arc closepath} bind def
/C9 {BL [] 0 setdash 2 copy moveto
	2 copy vpt 270 450 arc closepath fill
	vpt 0 360 arc closepath} bind def
/C10 {BL [] 0 setdash 2 copy 2 copy moveto vpt 270 360 arc closepath fill
	2 copy moveto
	2 copy vpt 90 180 arc closepath fill
	vpt 0 360 arc closepath} bind def
/C11 {BL [] 0 setdash 2 copy moveto
	2 copy vpt 0 180 arc closepath fill
	2 copy moveto
	2 copy vpt 270 360 arc closepath fill
	vpt 0 360 arc closepath} bind def
/C12 {BL [] 0 setdash 2 copy moveto
	2 copy vpt 180 360 arc closepath fill
	vpt 0 360 arc closepath} bind def
/C13 {BL [] 0 setdash 2 copy moveto
	2 copy vpt 0 90 arc closepath fill
	2 copy moveto
	2 copy vpt 180 360 arc closepath fill
	vpt 0 360 arc closepath} bind def
/C14 {BL [] 0 setdash 2 copy moveto
	2 copy vpt 90 360 arc closepath fill
	vpt 0 360 arc} bind def
/C15 {BL [] 0 setdash 2 copy vpt 0 360 arc closepath fill
	vpt 0 360 arc closepath} bind def
/Rec {newpath 4 2 roll moveto 1 index 0 rlineto 0 exch rlineto
	neg 0 rlineto closepath} bind def
/Square {dup Rec} bind def
/Bsquare {vpt sub exch vpt sub exch vpt2 Square} bind def
/S0 {BL [] 0 setdash 2 copy moveto 0 vpt rlineto BL Bsquare} bind def
/S1 {BL [] 0 setdash 2 copy vpt Square fill Bsquare} bind def
/S2 {BL [] 0 setdash 2 copy exch vpt sub exch vpt Square fill Bsquare} bind def
/S3 {BL [] 0 setdash 2 copy exch vpt sub exch vpt2 vpt Rec fill Bsquare} bind def
/S4 {BL [] 0 setdash 2 copy exch vpt sub exch vpt sub vpt Square fill Bsquare} bind def
/S5 {BL [] 0 setdash 2 copy 2 copy vpt Square fill
	exch vpt sub exch vpt sub vpt Square fill Bsquare} bind def
/S6 {BL [] 0 setdash 2 copy exch vpt sub exch vpt sub vpt vpt2 Rec fill Bsquare} bind def
/S7 {BL [] 0 setdash 2 copy exch vpt sub exch vpt sub vpt vpt2 Rec fill
	2 copy vpt Square fill Bsquare} bind def
/S8 {BL [] 0 setdash 2 copy vpt sub vpt Square fill Bsquare} bind def
/S9 {BL [] 0 setdash 2 copy vpt sub vpt vpt2 Rec fill Bsquare} bind def
/S10 {BL [] 0 setdash 2 copy vpt sub vpt Square fill 2 copy exch vpt sub exch vpt Square fill
	Bsquare} bind def
/S11 {BL [] 0 setdash 2 copy vpt sub vpt Square fill 2 copy exch vpt sub exch vpt2 vpt Rec fill
	Bsquare} bind def
/S12 {BL [] 0 setdash 2 copy exch vpt sub exch vpt sub vpt2 vpt Rec fill Bsquare} bind def
/S13 {BL [] 0 setdash 2 copy exch vpt sub exch vpt sub vpt2 vpt Rec fill
	2 copy vpt Square fill Bsquare} bind def
/S14 {BL [] 0 setdash 2 copy exch vpt sub exch vpt sub vpt2 vpt Rec fill
	2 copy exch vpt sub exch vpt Square fill Bsquare} bind def
/S15 {BL [] 0 setdash 2 copy Bsquare fill Bsquare} bind def
/D0 {gsave translate 45 rotate 0 0 S0 stroke grestore} bind def
/D1 {gsave translate 45 rotate 0 0 S1 stroke grestore} bind def
/D2 {gsave translate 45 rotate 0 0 S2 stroke grestore} bind def
/D3 {gsave translate 45 rotate 0 0 S3 stroke grestore} bind def
/D4 {gsave translate 45 rotate 0 0 S4 stroke grestore} bind def
/D5 {gsave translate 45 rotate 0 0 S5 stroke grestore} bind def
/D6 {gsave translate 45 rotate 0 0 S6 stroke grestore} bind def
/D7 {gsave translate 45 rotate 0 0 S7 stroke grestore} bind def
/D8 {gsave translate 45 rotate 0 0 S8 stroke grestore} bind def
/D9 {gsave translate 45 rotate 0 0 S9 stroke grestore} bind def
/D10 {gsave translate 45 rotate 0 0 S10 stroke grestore} bind def
/D11 {gsave translate 45 rotate 0 0 S11 stroke grestore} bind def
/D12 {gsave translate 45 rotate 0 0 S12 stroke grestore} bind def
/D13 {gsave translate 45 rotate 0 0 S13 stroke grestore} bind def
/D14 {gsave translate 45 rotate 0 0 S14 stroke grestore} bind def
/D15 {gsave translate 45 rotate 0 0 S15 stroke grestore} bind def
/DiaE {stroke [] 0 setdash vpt add M
  hpt neg vpt neg V hpt vpt neg V
  hpt vpt V hpt neg vpt V closepath stroke} def
/BoxE {stroke [] 0 setdash exch hpt sub exch vpt add M
  0 vpt2 neg V hpt2 0 V 0 vpt2 V
  hpt2 neg 0 V closepath stroke} def
/TriUE {stroke [] 0 setdash vpt 1.12 mul add M
  hpt neg vpt -1.62 mul V
  hpt 2 mul 0 V
  hpt neg vpt 1.62 mul V closepath stroke} def
/TriDE {stroke [] 0 setdash vpt 1.12 mul sub M
  hpt neg vpt 1.62 mul V
  hpt 2 mul 0 V
  hpt neg vpt -1.62 mul V closepath stroke} def
/PentE {stroke [] 0 setdash gsave
  translate 0 hpt M 4 {72 rotate 0 hpt L} repeat
  closepath stroke grestore} def
/CircE {stroke [] 0 setdash 
  hpt 0 360 arc stroke} def
/Opaque {gsave closepath 1 setgray fill grestore 0 setgray closepath} def
/DiaW {stroke [] 0 setdash vpt add M
  hpt neg vpt neg V hpt vpt neg V
  hpt vpt V hpt neg vpt V Opaque stroke} def
/BoxW {stroke [] 0 setdash exch hpt sub exch vpt add M
  0 vpt2 neg V hpt2 0 V 0 vpt2 V
  hpt2 neg 0 V Opaque stroke} def
/TriUW {stroke [] 0 setdash vpt 1.12 mul add M
  hpt neg vpt -1.62 mul V
  hpt 2 mul 0 V
  hpt neg vpt 1.62 mul V Opaque stroke} def
/TriDW {stroke [] 0 setdash vpt 1.12 mul sub M
  hpt neg vpt 1.62 mul V
  hpt 2 mul 0 V
  hpt neg vpt -1.62 mul V Opaque stroke} def
/PentW {stroke [] 0 setdash gsave
  translate 0 hpt M 4 {72 rotate 0 hpt L} repeat
  Opaque stroke grestore} def
/CircW {stroke [] 0 setdash 
  hpt 0 360 arc Opaque stroke} def
/BoxFill {gsave Rec 1 setgray fill grestore} def
/Density {
  /Fillden exch def
  currentrgbcolor
  /ColB exch def /ColG exch def /ColR exch def
  /ColR ColR Fillden mul Fillden sub 1 add def
  /ColG ColG Fillden mul Fillden sub 1 add def
  /ColB ColB Fillden mul Fillden sub 1 add def
  ColR ColG ColB setrgbcolor} def
/BoxColFill {gsave Rec PolyFill} def
/PolyFill {gsave Density fill grestore grestore} def
/h {rlineto rlineto rlineto gsave closepath fill grestore} bind def
%
% PostScript Level 1 Pattern Fill routine for rectangles
% Usage: x y w h s a XX PatternFill
%	x,y = lower left corner of box to be filled
%	w,h = width and height of box
%	  a = angle in degrees between lines and x-axis
%	 XX = 0/1 for no/yes cross-hatch
%
/PatternFill {gsave /PFa [ 9 2 roll ] def
  PFa 0 get PFa 2 get 2 div add PFa 1 get PFa 3 get 2 div add translate
  PFa 2 get -2 div PFa 3 get -2 div PFa 2 get PFa 3 get Rec
  TransparentPatterns {} {gsave 1 setgray fill grestore} ifelse
  clip
  currentlinewidth 0.5 mul setlinewidth
  /PFs PFa 2 get dup mul PFa 3 get dup mul add sqrt def
  0 0 M PFa 5 get rotate PFs -2 div dup translate
  0 1 PFs PFa 4 get div 1 add floor cvi
	{PFa 4 get mul 0 M 0 PFs V} for
  0 PFa 6 get ne {
	0 1 PFs PFa 4 get div 1 add floor cvi
	{PFa 4 get mul 0 2 1 roll M PFs 0 V} for
 } if
  stroke grestore} def
%
/languagelevel where
 {pop languagelevel} {1} ifelse
 2 lt
	{/InterpretLevel1 true def}
	{/InterpretLevel1 Level1 def}
 ifelse
%
% PostScript level 2 pattern fill definitions
%
/Level2PatternFill {
/Tile8x8 {/PaintType 2 /PatternType 1 /TilingType 1 /BBox [0 0 8 8] /XStep 8 /YStep 8}
	bind def
/KeepColor {currentrgbcolor [/Pattern /DeviceRGB] setcolorspace} bind def
<< Tile8x8
 /PaintProc {0.5 setlinewidth pop 0 0 M 8 8 L 0 8 M 8 0 L stroke} 
>> matrix makepattern
/Pat1 exch def
<< Tile8x8
 /PaintProc {0.5 setlinewidth pop 0 0 M 8 8 L 0 8 M 8 0 L stroke
	0 4 M 4 8 L 8 4 L 4 0 L 0 4 L stroke}
>> matrix makepattern
/Pat2 exch def
<< Tile8x8
 /PaintProc {0.5 setlinewidth pop 0 0 M 0 8 L
	8 8 L 8 0 L 0 0 L fill}
>> matrix makepattern
/Pat3 exch def
<< Tile8x8
 /PaintProc {0.5 setlinewidth pop -4 8 M 8 -4 L
	0 12 M 12 0 L stroke}
>> matrix makepattern
/Pat4 exch def
<< Tile8x8
 /PaintProc {0.5 setlinewidth pop -4 0 M 8 12 L
	0 -4 M 12 8 L stroke}
>> matrix makepattern
/Pat5 exch def
<< Tile8x8
 /PaintProc {0.5 setlinewidth pop -2 8 M 4 -4 L
	0 12 M 8 -4 L 4 12 M 10 0 L stroke}
>> matrix makepattern
/Pat6 exch def
<< Tile8x8
 /PaintProc {0.5 setlinewidth pop -2 0 M 4 12 L
	0 -4 M 8 12 L 4 -4 M 10 8 L stroke}
>> matrix makepattern
/Pat7 exch def
<< Tile8x8
 /PaintProc {0.5 setlinewidth pop 8 -2 M -4 4 L
	12 0 M -4 8 L 12 4 M 0 10 L stroke}
>> matrix makepattern
/Pat8 exch def
<< Tile8x8
 /PaintProc {0.5 setlinewidth pop 0 -2 M 12 4 L
	-4 0 M 12 8 L -4 4 M 8 10 L stroke}
>> matrix makepattern
/Pat9 exch def
/Pattern1 {PatternBgnd KeepColor Pat1 setpattern} bind def
/Pattern2 {PatternBgnd KeepColor Pat2 setpattern} bind def
/Pattern3 {PatternBgnd KeepColor Pat3 setpattern} bind def
/Pattern4 {PatternBgnd KeepColor Landscape {Pat5} {Pat4} ifelse setpattern} bind def
/Pattern5 {PatternBgnd KeepColor Landscape {Pat4} {Pat5} ifelse setpattern} bind def
/Pattern6 {PatternBgnd KeepColor Landscape {Pat9} {Pat6} ifelse setpattern} bind def
/Pattern7 {PatternBgnd KeepColor Landscape {Pat8} {Pat7} ifelse setpattern} bind def
} def
%
%
%End of PostScript Level 2 code
%
/PatternBgnd {
  TransparentPatterns {} {gsave 1 setgray fill grestore} ifelse
} def
%
% Substitute for Level 2 pattern fill codes with
% grayscale if Level 2 support is not selected.
%
/Level1PatternFill {
/Pattern1 {0.250 Density} bind def
/Pattern2 {0.500 Density} bind def
/Pattern3 {0.750 Density} bind def
/Pattern4 {0.125 Density} bind def
/Pattern5 {0.375 Density} bind def
/Pattern6 {0.625 Density} bind def
/Pattern7 {0.875 Density} bind def
} def
%
% Now test for support of Level 2 code
%
Level1 {Level1PatternFill} {Level2PatternFill} ifelse
%
/Symbol-Oblique /Symbol findfont [1 0 .167 1 0 0] makefont
dup length dict begin {1 index /FID eq {pop pop} {def} ifelse} forall
currentdict end definefont pop
/MFshow {
   { dup 5 get 3 ge
     { 5 get 3 eq {gsave} {grestore} ifelse }
     {dup dup 0 get findfont exch 1 get scalefont setfont
     [ currentpoint ] exch dup 2 get 0 exch R dup 5 get 2 ne {dup dup 6
     get exch 4 get {Gshow} {stringwidth pop 0 R} ifelse }if dup 5 get 0 eq
     {dup 3 get {2 get neg 0 exch R pop} {pop aload pop M} ifelse} {dup 5
     get 1 eq {dup 2 get exch dup 3 get exch 6 get stringwidth pop -2 div
     dup 0 R} {dup 6 get stringwidth pop -2 div 0 R 6 get
     show 2 index {aload pop M neg 3 -1 roll neg R pop pop} {pop pop pop
     pop aload pop M} ifelse }ifelse }ifelse }
     ifelse }
   forall} def
/Gswidth {dup type /stringtype eq {stringwidth} {pop (n) stringwidth} ifelse} def
/MFwidth {0 exch { dup 5 get 3 ge { 5 get 3 eq { 0 } { pop } ifelse }
 {dup 3 get{dup dup 0 get findfont exch 1 get scalefont setfont
     6 get Gswidth pop add} {pop} ifelse} ifelse} forall} def
/MLshow { currentpoint stroke M
  0 exch R
  Blacktext {gsave 0 setgray MFshow grestore} {MFshow} ifelse } bind def
/MRshow { currentpoint stroke M
  exch dup MFwidth neg 3 -1 roll R
  Blacktext {gsave 0 setgray MFshow grestore} {MFshow} ifelse } bind def
/MCshow { currentpoint stroke M
  exch dup MFwidth -2 div 3 -1 roll R
  Blacktext {gsave 0 setgray MFshow grestore} {MFshow} ifelse } bind def
/XYsave    { [( ) 1 2 true false 3 ()] } bind def
/XYrestore { [( ) 1 2 true false 4 ()] } bind def
Level1 SuppressPDFMark or 
{} {
/SDict 10 dict def
systemdict /pdfmark known not {
  userdict /pdfmark systemdict /cleartomark get put
} if
SDict begin [
  /Title (AS-3D-Sg-vp2-p190.eps)
  /Subject (gnuplot plot)
  /Creator (gnuplot 4.6 patchlevel 4)
  /Author (danny)
%  /Producer (gnuplot)
%  /Keywords ()
  /CreationDate (Wed Sep 24 14:40:56 2014)
  /DOCINFO pdfmark
end
} ifelse
end
%%EndProlog
%%Page: 1 1
gnudict begin
gsave
doclip
50 50 translate
0.050 0.050 scale
0 setgray
newpath
(Times-Roman) findfont 120 scalefont setfont
BackgroundColor 0 lt 3 1 roll 0 lt exch 0 lt or or not {BackgroundColor C 1.000 0 0 5040.00 2880.00 BoxColFill} if
gsave % colour palette begin
/maxcolors 0 def
/HSV2RGB {  exch dup 0.0 eq {pop exch pop dup dup} % achromatic gray
  { /HSVs exch def /HSVv exch def 6.0 mul dup floor dup 3 1 roll sub
     /HSVf exch def /HSVi exch cvi def /HSVp HSVv 1.0 HSVs sub mul def
	 /HSVq HSVv 1.0 HSVs HSVf mul sub mul def 
	 /HSVt HSVv 1.0 HSVs 1.0 HSVf sub mul sub mul def
	 /HSVi HSVi 6 mod def 0 HSVi eq {HSVv HSVt HSVp}
	 {1 HSVi eq {HSVq HSVv HSVp}{2 HSVi eq {HSVp HSVv HSVt}
	 {3 HSVi eq {HSVp HSVq HSVv}{4 HSVi eq {HSVt HSVp HSVv}
	 {HSVv HSVp HSVq} ifelse} ifelse} ifelse} ifelse} ifelse
  } ifelse} def
/Constrain {
  dup 0 lt {0 exch pop}{dup 1 gt {1 exch pop} if} ifelse} def
/YIQ2RGB {
  3 copy -1.702 mul exch -1.105 mul add add Constrain 4 1 roll
  3 copy -0.647 mul exch -0.272 mul add add Constrain 5 1 roll
  0.621 mul exch -0.956 mul add add Constrain 3 1 roll } def
/CMY2RGB {  1 exch sub exch 1 exch sub 3 2 roll 1 exch sub 3 1 roll exch } def
/XYZ2RGB {  3 copy -0.9017 mul exch -0.1187 mul add exch 0.0585 mul exch add
  Constrain 4 1 roll 3 copy -0.0279 mul exch 1.999 mul add exch
  -0.9844 mul add Constrain 5 1 roll -0.2891 mul exch -0.5338 mul add
  exch 1.91 mul exch add Constrain 3 1 roll} def
/SelectSpace {ColorSpace (HSV) eq {HSV2RGB}{ColorSpace (XYZ) eq {
  XYZ2RGB}{ColorSpace (CMY) eq {CMY2RGB}{ColorSpace (YIQ) eq {YIQ2RGB}
  if} ifelse} ifelse} ifelse} def
/InterpolatedColor false def
/pm3dround {maxcolors 0 gt {dup 1 ge
	{pop 1} {maxcolors mul floor maxcolors 1 sub div} ifelse} if} def
/pm3dGamma 1.0 1.5 Gamma mul div def
/ColorSpace (RGB) def
false { % COLOUR vs. GRAY map
  InterpolatedColor { %% Interpolation vs. RGB-Formula
    /g {stroke pm3dround /grayv exch def interpolate
        SelectSpace setrgbcolor} bind def
  }{
  /g {stroke pm3dround dup cF7 Constrain exch dup cF5 Constrain exch cF15 Constrain 
       SelectSpace setrgbcolor} bind def
  } ifelse
}{
  /g {stroke pm3dround pm3dGamma exp setgray} bind def
} ifelse
1.000 UL
LTb
LCb setrgbcolor
1.000 UP
% Begin plot #1
% End plot #1
% Begin plot #2
1.000 UL
LT0
0.75 0.75 0.75 C 1.000 UL
LT0
0.75 0.75 0.75 C % End plot #2
.0463 g 2491 1371 N 132 52 228 -49 -132 -59 h
1.000 UL
LT0
0.75 0.75 0.75 C 2491 1371 M
228 -56 V
-132 -52 V
-228 49 V
132 59 V
.034 g 2719 1315 N 133 48 229 -43 -132 -52 h
stroke
LT0
0.75 0.75 0.75 C 2719 1315 M
230 -47 V
-133 -48 V
-229 43 V
132 52 V
.048 g 2359 1312 N 131 58 229 -47 -132 -60 h
stroke
LT0
0.75 0.75 0.75 C 2359 1312 M
228 -49 V
-131 -58 V
-229 47 V
132 60 V
.0267 g 2949 1268 N 132 46 230 -40 -133 -48 h
stroke
LT0
0.75 0.75 0.75 C 2949 1268 M
229 -42 V
-132 -46 V
-230 40 V
133 48 V
.2174 g 2262 1770 N 132 59 230 -443 -133 -15 h
stroke
LT0
0.75 0.75 0.75 C 2262 1770 M
229 -399 V
-132 -59 V
-230 443 V
133 15 V
.039 g 2587 1263 N 132 56 228 -41 -131 -58 h
stroke
LT0
0.75 0.75 0.75 C 2587 1263 M
229 -43 V
-132 -56 V
-228 41 V
131 58 V
.0219 g 3178 1226 N 132 45 229 -39 -132 -46 h
stroke
LT0
0.75 0.75 0.75 C 3178 1226 M
229 -40 V
-132 -45 V
-229 39 V
132 46 V
.0488 g 2227 1252 N 132 59 230 -50 -133 -56 h
stroke
LT0
0.75 0.75 0.75 C 2227 1252 M
229 -47 V
-132 -59 V
-230 50 V
133 56 V
.0336 g 2816 1220 N 132 55 230 -39 -132 -56 h
stroke
LT0
0.75 0.75 0.75 C 2816 1220 M
230 -40 V
-132 -55 V
-230 39 V
132 56 V
.0184 g 3407 1186 N 132 44 230 -37 -132 -45 h
stroke
LT0
0.75 0.75 0.75 C 3407 1186 M
230 -38 V
-132 -44 V
-230 37 V
132 45 V
.2335 g 2129 1755 N 132 60 230 -477 -132 -26 h
stroke
LT0
0.75 0.75 0.75 C 2129 1755 M
230 -443 V
-132 -60 V
-230 477 V
132 26 V
.0405 g 2456 1205 N 132 58 228 -40 -132 -59 h
stroke
LT0
0.75 0.75 0.75 C 2456 1205 M
228 -41 V
-132 -58 V
-228 40 V
132 59 V
.0297 g 3046 1180 N 132 54 229 -38 -132 -55 h
stroke
LT0
0.75 0.75 0.75 C 3046 1180 M
229 -39 V
-132 -54 V
-229 38 V
132 55 V
.0159 g 3637 1148 N 132 44 229 -37 -132 -44 h
stroke
LT0
0.75 0.75 0.75 C 3637 1148 M
229 -37 V
-132 -44 V
-229 37 V
132 44 V
.0518 g 2094 1196 N 132 59 230 -60 -132 -49 h
stroke
LT0
0.75 0.75 0.75 C 2094 1196 M
230 -50 V
-132 -59 V
-230 60 V
132 49 V
.0361 g 2684 1164 N 132 57 230 -38 -132 -58 h
stroke
LT0
0.75 0.75 0.75 C 2684 1164 M
230 -39 V
-132 -57 V
-230 38 V
132 58 V
.0269 g 3275 1141 N 133 54 229 -37 -132 -54 h
stroke
LT0
0.75 0.75 0.75 C 3275 1141 M
230 -37 V
-133 -54 V
-229 37 V
132 54 V
.0139 g 3866 1111 N 132 45 229 -37 -132 -44 h
stroke
LT0
0.75 0.75 0.75 C 3866 1111 M
229 -36 V
-132 -45 V
-229 37 V
132 44 V
.2457 g 1997 1729 N 133 56 229 -496 -132 -37 h
stroke
LT0
0.75 0.75 0.75 C 1997 1729 M
230 -477 V
-133 -56 V
-229 496 V
132 37 V
.041 g 2324 1146 N 131 58 229 -39 -132 -59 h
stroke
LT0
0.75 0.75 0.75 C 2324 1146 M
228 -40 V
-131 -58 V
-229 39 V
132 59 V
.033 g 2914 1125 N 132 56 229 -37 -132 -57 h
stroke
LT0
0.75 0.75 0.75 C 2914 1125 M
229 -38 V
-132 -56 V
-229 37 V
132 57 V
.0246 g 3505 1104 N 132 53 230 -36 -133 -54 h
stroke
LT0
0.75 0.75 0.75 C 3505 1104 M
229 -37 V
-132 -53 V
-230 36 V
133 54 V
.0123 g 4095 1075 N 132 45 230 -36 -132 -45 h
stroke
LT0
0.75 0.75 0.75 C 4095 1075 M
230 -36 V
4193 994 L
-230 36 V
132 45 V
.6405 g 2037 2443 N 133 15 224 -628 -132 -60 h
stroke
LT0
0.75 0.75 0.75 C 2037 2443 M
225 -673 V
-133 -15 V
-224 628 V
132 60 V
.0577 g 1962 1147 N 132 59 230 -77 -132 -42 h
stroke
LT0
0.75 0.75 0.75 C 1962 1147 M
230 -60 V
-132 -59 V
-230 77 V
132 42 V
.0373 g 2552 1106 N 133 58 228 -38 -131 -58 h
stroke
LT0
0.75 0.75 0.75 C 2552 1106 M
230 -38 V
-133 -58 V
-228 38 V
131 58 V
.0306 g 3143 1087 N 132 56 229 -37 -132 -56 h
stroke
LT0
0.75 0.75 0.75 C 3143 1087 M
229 -37 V
3240 994 L
-229 37 V
132 56 V
.0228 g 3734 1067 N 132 52 229 -36 -132 -53 h
stroke
LT0
0.75 0.75 0.75 C 3734 1067 M
229 -37 V
3831 978 L
-229 36 V
132 53 V
.0413 g 2192 1087 N 132 59 229 -39 -132 -59 h
stroke
LT0
0.75 0.75 0.75 C 2192 1087 M
229 -39 V
2289 989 L
-229 39 V
132 59 V
.2562 g 1865 1692 N 132 49 229 -499 -132 -46 h
stroke
LT0
0.75 0.75 0.75 C 1865 1692 M
229 -496 V
-132 -49 V
-229 499 V
132 46 V
.0347 g 2782 1068 N 132 58 230 -37 -133 -58 h
stroke
LT0
0.75 0.75 0.75 C 2782 1068 M
229 -37 V
2879 973 L
-230 37 V
133 58 V
.0288 g 3372 1050 N 132 56 230 -36 -132 -56 h
stroke
LT0
0.75 0.75 0.75 C 3372 1050 M
230 -36 V
3470 958 L
-230 36 V
132 56 V
.0213 g 3963 1030 N 133 52 229 -36 -132 -52 h
stroke
LT0
0.75 0.75 0.75 C 3963 1030 M
230 -36 V
4060 942 L
-229 36 V
132 52 V
.657 g 1905 2383 N 132 26 225 -595 -133 -59 h
stroke
LT0
0.75 0.75 0.75 C 1905 2383 M
224 -628 V
-132 -26 V
-225 595 V
133 59 V
.0641 g 1830 1105 N 133 61 229 -92 -132 -46 h
stroke
LT0
0.75 0.75 0.75 C 1830 1105 M
230 -77 V
1927 967 L
-229 92 V
132 46 V
.0382 g 2421 1048 N 131 58 229 -37 -132 -59 h
stroke
LT0
0.75 0.75 0.75 C 2421 1048 M
228 -38 V
2518 952 L
-229 37 V
132 59 V
.0327 g 3011 1031 N 132 57 229 -36 -132 -58 h
stroke
LT0
0.75 0.75 0.75 C 3011 1031 M
229 -37 V
3108 937 L
-229 36 V
132 58 V
.0273 g 3602 1014 N 132 55 229 -35 -132 -56 h
stroke
LT0
0.75 0.75 0.75 C 3602 1014 M
229 -36 V
3699 923 L
-229 35 V
132 56 V
.0414 g 2060 1028 N 132 59 230 -37 -133 -61 h
stroke
LT0
0.75 0.75 0.75 C 2060 1028 M
229 -39 V
2157 930 L
-230 37 V
133 61 V
.2673 g 1733 1646 N 132 42 229 -493 -132 -48 h
stroke
LT0
0.75 0.75 0.75 C 1733 1646 M
229 -499 V
-132 -42 V
-229 493 V
132 48 V
.036 g 2649 1010 N 132 57 229 -36 -131 -58 h
stroke
LT0
0.75 0.75 0.75 C 2649 1010 M
230 -37 V
2747 916 L
-229 36 V
131 58 V
.0311 g 3240 994 N 133 57 229 -36 -132 -57 h
stroke
LT0
0.75 0.75 0.75 C 3240 994 M
230 -36 V
3337 901 L
-229 36 V
132 57 V
.026 g 3831 978 N 132 55 229 -36 -132 -55 h
stroke
LT0
0.75 0.75 0.75 C 3831 978 M
229 -36 V
3928 887 L
-229 36 V
132 55 V
.6687 g 1772 2324 N 132 37 225 -573 -132 -59 h
stroke
LT0
0.75 0.75 0.75 C 1772 2324 M
225 -595 V
-132 -37 V
-225 573 V
132 59 V
.0695 g 1698 1059 N 132 59 229 -105 -132 -46 h
stroke
LT0
0.75 0.75 0.75 C 1698 1059 M
229 -92 V
1795 908 L
-229 105 V
132 46 V
.0387 g 2289 989 N 132 59 229 -37 -132 -59 h
stroke
LT0
0.75 0.75 0.75 C 2289 989 M
229 -37 V
2386 893 L
-229 37 V
132 59 V
.0343 g 2879 973 N 132 57 229 -36 -132 -57 h
stroke
LT0
0.75 0.75 0.75 C 2879 973 M
229 -36 V
2976 880 L
-229 36 V
132 57 V
.0298 g 3470 958 N 132 58 230 -36 -133 -57 h
stroke
LT0
0.75 0.75 0.75 C 3470 958 M
229 -35 V
3567 865 L
-230 36 V
133 57 V
.0412 g 1927 967 N 132 59 230 -37 -132 -59 h
stroke
LT0
0.75 0.75 0.75 C 1927 967 M
230 -37 V
2025 871 L
-230 37 V
132 59 V
.0369 g 2518 952 N 133 59 228 -36 -132 -59 h
stroke
LT0
0.75 0.75 0.75 C 2518 952 M
229 -36 V
2614 857 L
-228 36 V
132 59 V
.2777 g 1601 1598 N 132 46 229 -487 -132 -52 h
stroke
LT0
0.75 0.75 0.75 C 1601 1598 M
229 -493 V
-132 -46 V
-229 487 V
132 52 V
.0329 g 3108 937 N 132 57 229 -36 -132 -57 h
stroke
LT0
0.75 0.75 0.75 C 3108 937 M
229 -36 V
3205 844 L
-229 36 V
132 57 V
.0287 g 3699 923 N 132 57 229 -35 -132 -58 h
stroke
LT0
0.75 0.75 0.75 C 3699 923 M
229 -36 V
3796 830 L
-229 35 V
132 58 V
.0744 g 1566 1013 N 132 60 229 -116 -132 -49 h
stroke
LT0
0.75 0.75 0.75 C 1566 1013 M
1795 908 L
1663 848 L
1434 964 L
132 49 V
.6762 g 1640 2265 N 132 46 225 -559 -132 -60 h
stroke
LT0
0.75 0.75 0.75 C 1640 2265 M
225 -573 V
-132 -46 V
-225 559 V
132 60 V
.0391 g 2157 930 N 132 58 229 -36 -132 -59 h
stroke
LT0
0.75 0.75 0.75 C 2157 930 M
229 -37 V
2254 835 L
-229 36 V
132 59 V
.0354 g 2747 916 N 132 59 230 -36 -133 -59 h
stroke
LT0
0.75 0.75 0.75 C 2747 916 M
229 -36 V
2844 821 L
-230 36 V
133 59 V
.0317 g 3337 901 N 132 56 230 -35 -132 -57 h
stroke
LT0
0.75 0.75 0.75 C 3337 901 M
230 -36 V
3435 809 L
-230 35 V
132 57 V
.0413 g 1795 908 N 133 59 229 -36 -132 -60 h
stroke
LT0
0.75 0.75 0.75 C 1795 908 M
230 -37 V
1892 812 L
-229 36 V
132 60 V
.0375 g 2386 893 N 131 58 229 -36 -132 -58 h
stroke
LT0
0.75 0.75 0.75 C 2386 893 M
228 -36 V
2483 799 L
-229 36 V
132 58 V
.2863 g 1469 1546 N 132 46 229 -481 -132 -52 h
stroke
LT0
0.75 0.75 0.75 C 1469 1546 M
229 -487 V
-132 -46 V
-229 481 V
132 52 V
.0342 g 2976 880 N 132 58 229 -35 -132 -59 h
stroke
LT0
0.75 0.75 0.75 C 2976 880 M
229 -36 V
3073 786 L
-229 35 V
132 59 V
.0307 g 3567 865 N 132 57 229 -36 -132 -56 h
stroke
LT0
0.75 0.75 0.75 C 3567 865 M
229 -35 V
3664 773 L
-229 36 V
132 56 V
.6814 g 1508 2205 N 132 48 225 -548 -132 -59 h
stroke
LT0
0.75 0.75 0.75 C 1508 2205 M
225 -559 V
-132 -48 V
-225 548 V
132 59 V
.0784 g 1434 964 N 132 58 229 -123 -132 -51 h
stroke
LT0
0.75 0.75 0.75 C 1434 964 M
1663 848 L
1531 790 L
1302 913 L
132 51 V
.0397 g 2025 871 N 132 59 230 -36 -133 -59 h
stroke
LT0
0.75 0.75 0.75 C 2025 871 M
229 -36 V
2122 776 L
-230 36 V
133 59 V
.0362 g 2614 857 N 132 58 229 -36 -131 -58 h
stroke
LT0
0.75 0.75 0.75 C 2614 857 M
230 -36 V
2712 763 L
-229 36 V
131 58 V
.0331 g 3205 844 N 133 59 229 -36 -132 -58 h
stroke
LT0
0.75 0.75 0.75 C 3205 844 M
230 -35 V
3302 750 L
-229 36 V
132 58 V
.042 g 1663 848 N 132 57 229 -35 -132 -58 h
stroke
LT0
0.75 0.75 0.75 C 1663 848 M
229 -36 V
1760 755 L
-229 35 V
132 58 V
.0385 g 2254 835 N 132 58 229 -35 -132 -59 h
stroke
LT0
0.75 0.75 0.75 C 2254 835 M
229 -36 V
2351 741 L
-229 35 V
132 59 V
.2934 g 1337 1494 N 132 49 230 -475 -133 -55 h
stroke
LT0
0.75 0.75 0.75 C 1337 1494 M
229 -481 V
1434 964 L
-230 475 V
133 55 V
.0352 g 2844 821 N 132 58 229 -35 -132 -58 h
stroke
LT0
0.75 0.75 0.75 C 2844 821 M
229 -35 V
2941 728 L
-229 35 V
132 58 V
.0322 g 3435 809 N 132 58 230 -35 -133 -59 h
stroke
LT0
0.75 0.75 0.75 C 3435 809 M
229 -36 V
3532 715 L
-230 35 V
133 59 V
.6854 g 1376 2146 N 132 52 225 -541 -132 -59 h
stroke
LT0
0.75 0.75 0.75 C 1376 2146 M
225 -548 V
-132 -52 V
-225 541 V
132 59 V
.0816 g 1302 913 N 132 60 230 -130 -133 -53 h
stroke
LT0
0.75 0.75 0.75 C 1302 913 M
1531 790 L
1399 730 L
1169 860 L
133 53 V
.041 g 1892 812 N 132 56 230 -35 -132 -57 h
stroke
LT0
0.75 0.75 0.75 C 1892 812 M
230 -36 V
1990 720 L
-230 35 V
132 57 V
.0375 g 2483 799 N 133 57 228 -35 -132 -58 h
stroke
LT0
0.75 0.75 0.75 C 2483 799 M
229 -36 V
2579 706 L
-228 35 V
132 58 V
.0344 g 3073 786 N 132 57 229 -35 -132 -58 h
stroke
LT0
0.75 0.75 0.75 C 3073 786 M
229 -36 V
3170 693 L
-229 35 V
132 58 V
.0426 g 1531 790 N 132 59 229 -34 -132 -60 h
stroke
LT0
0.75 0.75 0.75 C 1531 790 M
229 -35 V
1628 696 L
-229 34 V
132 60 V
.0402 g 2122 776 N 132 56 229 -35 -132 -56 h
stroke
LT0
0.75 0.75 0.75 C 2122 776 M
229 -35 V
2219 685 L
-229 35 V
132 56 V
.2989 g 1204 1439 N 132 51 230 -470 -132 -56 h
stroke
LT0
0.75 0.75 0.75 C 1204 1439 M
1434 964 L
1302 913 L
-230 470 V
132 56 V
.0367 g 2712 763 N 132 57 230 -35 -133 -57 h
stroke
LT0
0.75 0.75 0.75 C 2712 763 M
229 -35 V
2809 671 L
-230 35 V
133 57 V
.0336 g 3302 750 N 132 57 230 -35 -132 -57 h
stroke
LT0
0.75 0.75 0.75 C 3302 750 M
230 -35 V
3400 658 L
-230 35 V
132 57 V
.6883 g 1244 2087 N 132 52 225 -533 -132 -60 h
stroke
LT0
0.75 0.75 0.75 C 1244 2087 M
225 -541 V
-132 -52 V
-225 533 V
132 60 V
.0422 g 1760 755 N 133 59 229 -35 -132 -59 h
stroke
LT0
0.75 0.75 0.75 C 1760 755 M
230 -35 V
1857 661 L
-229 35 V
132 59 V
.0396 g 2351 741 N 131 56 229 -35 -132 -56 h
stroke
LT0
0.75 0.75 0.75 C 2351 741 M
228 -35 V
2448 650 L
-229 35 V
132 56 V
.0361 g 2941 728 N 132 57 229 -35 -132 -57 h
stroke
LT0
0.75 0.75 0.75 C 2941 728 M
229 -35 V
3038 636 L
-229 35 V
132 57 V
.042 g 1990 720 N 132 58 230 -34 -133 -59 h
stroke
LT0
0.75 0.75 0.75 C 1990 720 M
229 -35 V
2087 627 L
-230 34 V
133 59 V
.3031 g 1072 1383 N 133 53 229 -466 -132 -57 h
stroke
LT0
0.75 0.75 0.75 C 1072 1383 M
1302 913 L
1169 860 L
940 1326 L
132 57 V
.0391 g 2579 706 N 132 56 229 -35 -131 -56 h
stroke
LT0
0.75 0.75 0.75 C 2579 706 M
230 -35 V
2677 615 L
-229 35 V
131 56 V
.6904 g 1112 2027 N 133 55 224 -529 -132 -59 h
stroke
LT0
0.75 0.75 0.75 C 1112 2027 M
225 -533 V
-133 -55 V
980 1968 L
132 59 V
.0355 g 3170 693 N 132 57 230 -35 -132 -57 h
stroke
LT0
0.75 0.75 0.75 C 3170 693 M
230 -35 V
3268 601 L
-230 35 V
132 57 V
.0418 g 2219 685 N 132 57 229 -34 -132 -58 h
stroke
LT0
0.75 0.75 0.75 C 2219 685 M
229 -35 V
2316 593 L
-229 34 V
132 58 V
.0386 g 2809 671 N 132 55 229 -34 -132 -56 h
stroke
LT0
0.75 0.75 0.75 C 2809 671 M
229 -35 V
2906 581 L
-229 34 V
132 56 V
.0416 g 2448 650 N 132 57 229 -35 -132 -57 h
stroke
LT0
0.75 0.75 0.75 C 2448 650 M
229 -35 V
2545 558 L
-229 35 V
132 57 V
.692 g 980 1968 N 132 56 225 -526 -133 -59 h
stroke
LT0
0.75 0.75 0.75 C 980 1968 M
224 -529 V
-132 -56 V
847 1909 L
133 59 V
.0381 g 3038 636 N 133 55 229 -35 -132 -55 h
stroke
LT0
0.75 0.75 0.75 C 3038 636 M
230 -35 V
3135 546 L
-229 35 V
132 55 V
.0414 g 2677 615 N 132 57 229 -34 -132 -57 h
stroke
LT0
0.75 0.75 0.75 C 2677 615 M
229 -34 V
2774 524 L
-229 34 V
132 57 V
.6933 g 847 1909 N 132 57 225 -523 -132 -60 h
stroke
LT0
0.75 0.75 0.75 C 847 1909 M
225 -526 V
940 1326 L
715 1849 L
132 60 V
.0412 g 2906 581 N 132 56 229 -34 -132 -57 h
stroke
LT0
0.75 0.75 0.75 C 2906 581 M
229 -35 V
3003 490 L
-229 34 V
132 57 V
stroke
LTb
LCb setrgbcolor
3003 439 M
1322 594 V
stroke
LTb
LCb setrgbcolor
3003 439 M
715 782 L
stroke
LTb
LCb setrgbcolor
715 782 M
404 181 V
stroke
LTb
LCb setrgbcolor
4325 1033 M
-14 2 V
stroke
LTb
LCb setrgbcolor
715 1967 M
715 782 L
stroke
LTb
LCb setrgbcolor
2037 2561 M
0 -118 V
stroke
LTb
LCb setrgbcolor
4325 2218 M
0 -1185 V
stroke
LTb
LCb setrgbcolor
3003 490 M
0 -51 V
stroke
LTb
LCb setrgbcolor
715 1967 M
1322 594 V
stroke
LTb
LCb setrgbcolor
4325 2218 M
2037 2561 L
stroke
LTa
LCa setrgbcolor
940 748 M
238 107 V
stroke
LTb
LCb setrgbcolor
940 748 M
61 28 V
stroke
LTb
LCb setrgbcolor
871 696 M
[ [(Times-Roman) 120.0 0.0 true true 0 ( 50)]
] -40.0 MRshow
1.000 UL
LTb
LCb setrgbcolor
1.000 UL
LTa
LCa setrgbcolor
1169 714 M
144 65 V
stroke
LTb
LCb setrgbcolor
1169 714 M
61 27 V
stroke
LTb
LCb setrgbcolor
1100 662 M
[ [(Times-Roman) 120.0 0.0 true true 0 ( 100)]
] -40.0 MRshow
1.000 UL
LTb
LCb setrgbcolor
1.000 UL
LTa
LCa setrgbcolor
1399 680 M
84 38 V
stroke
LTb
LCb setrgbcolor
1399 680 M
61 27 V
stroke
LTb
LCb setrgbcolor
1329 628 M
[ [(Times-Roman) 120.0 0.0 true true 0 ( 150)]
] -40.0 MRshow
1.000 UL
LTb
LCb setrgbcolor
1.000 UL
LTa
LCa setrgbcolor
1628 645 M
84 38 V
stroke
LTb
LCb setrgbcolor
1628 645 M
61 28 V
stroke
LTb
LCb setrgbcolor
1559 593 M
[ [(Times-Roman) 120.0 0.0 true true 0 ( 200)]
] -40.0 MRshow
1.000 UL
LTb
LCb setrgbcolor
1.000 UL
LTa
LCa setrgbcolor
1857 611 M
85 38 V
stroke
LTb
LCb setrgbcolor
1857 611 M
61 27 V
stroke
LTb
LCb setrgbcolor
1788 559 M
[ [(Times-Roman) 120.0 0.0 true true 0 ( 250)]
] -40.0 MRshow
1.000 UL
LTb
LCb setrgbcolor
1.000 UL
LTa
LCa setrgbcolor
2087 577 M
84 38 V
stroke
LTb
LCb setrgbcolor
2087 577 M
61 27 V
stroke
LTb
LCb setrgbcolor
2017 525 M
[ [(Times-Roman) 120.0 0.0 true true 0 ( 300)]
] -40.0 MRshow
1.000 UL
LTb
LCb setrgbcolor
1.000 UL
LTa
LCa setrgbcolor
2316 542 M
84 38 V
stroke
LTb
LCb setrgbcolor
2316 542 M
61 28 V
stroke
LTb
LCb setrgbcolor
2247 490 M
[ [(Times-Roman) 120.0 0.0 true true 0 ( 350)]
] -40.0 MRshow
1.000 UL
LTb
LCb setrgbcolor
1.000 UL
LTa
LCa setrgbcolor
2545 508 M
84 38 V
stroke
LTb
LCb setrgbcolor
2545 508 M
60 27 V
stroke
LTb
LCb setrgbcolor
2476 456 M
[ [(Times-Roman) 120.0 0.0 true true 0 ( 400)]
] -40.0 MRshow
1.000 UL
LTb
LCb setrgbcolor
1.000 UL
LTa
LCa setrgbcolor
2774 474 M
84 38 V
stroke
LTb
LCb setrgbcolor
2774 474 M
61 27 V
stroke
LTb
LCb setrgbcolor
2704 422 M
[ [(Times-Roman) 120.0 0.0 true true 0 ( 450)]
] -40.0 MRshow
1.000 UL
LTb
LCb setrgbcolor
1.000 UL
LTa
LCa setrgbcolor
3003 439 M
1322 594 V
stroke
LTb
LCb setrgbcolor
3003 439 M
61 28 V
stroke
LTb
LCb setrgbcolor
2934 387 M
[ [(Times-Roman) 120.0 0.0 true true 0 ( 500)]
] -40.0 MRshow
1.000 UL
LTb
LCb setrgbcolor
1.000 UL
LTb
LCb setrgbcolor
4264 1005 M
61 28 V
stroke
LCb setrgbcolor
1529 462 M
[ [(Times-Roman) 120.0 0.0 true true 0 (Max iterations)]
] -40.0 MCshow
LTb
1.000 UL
LTa
LCa setrgbcolor
3003 439 M
715 782 L
stroke
LTb
LCb setrgbcolor
3003 439 M
-54 9 V
stroke
3066 424 M
[ [(Times-Roman) 120.0 0.0 true true 0 ( 0)]
] -40.0 MCshow
1.000 UL
LTb
LCb setrgbcolor
1.000 UL
LTb
LCb setrgbcolor
770 774 M
-55 8 V
stroke
LTa
LCa setrgbcolor
1330 769 M
847 841 L
stroke
LTa
LCa setrgbcolor
3135 499 M
-82 12 V
stroke
LTb
LCb setrgbcolor
3135 499 M
-54 8 V
stroke
3198 483 M
[ [(Times-Roman) 120.0 0.0 true true 0 ( 10)]
] -40.0 MCshow
1.000 UL
LTb
LCb setrgbcolor
1.000 UL
LTb
LCb setrgbcolor
902 833 M
-55 8 V
stroke
LTa
LCa setrgbcolor
1163 873 M
980 901 L
stroke
LTa
LCa setrgbcolor
3268 558 M
-76 11 V
stroke
LTb
LCb setrgbcolor
3268 558 M
-55 8 V
stroke
3330 543 M
[ [(Times-Roman) 120.0 0.0 true true 0 ( 20)]
] -40.0 MCshow
1.000 UL
LTb
LCb setrgbcolor
1.000 UL
LTb
LCb setrgbcolor
1034 892 M
-54 9 V
stroke
LTa
LCa setrgbcolor
1121 959 M
-9 1 V
stroke
LTa
LCa setrgbcolor
3400 617 M
-70 11 V
stroke
LTb
LCb setrgbcolor
3400 617 M
-55 9 V
stroke
3462 602 M
[ [(Times-Roman) 120.0 0.0 true true 0 ( 30)]
] -40.0 MCshow
1.000 UL
LTb
LCb setrgbcolor
1.000 UL
LTb
LCb setrgbcolor
1121 959 M
-9 1 V
stroke
LTa
LCa setrgbcolor
3532 677 M
-66 10 V
stroke
LTb
LCb setrgbcolor
3532 677 M
-55 8 V
stroke
3594 661 M
[ [(Times-Roman) 120.0 0.0 true true 0 ( 40)]
] -40.0 MCshow
1.000 UL
LTb
LCb setrgbcolor
1.000 UL
LTa
LCa setrgbcolor
3664 736 M
-63 9 V
stroke
LTb
LCb setrgbcolor
3664 736 M
-55 8 V
stroke
3726 720 M
[ [(Times-Roman) 120.0 0.0 true true 0 ( 50)]
] -40.0 MCshow
1.000 UL
LTb
LCb setrgbcolor
1.000 UL
LTa
LCa setrgbcolor
3796 795 M
-59 9 V
stroke
LTb
LCb setrgbcolor
3796 795 M
-54 9 V
stroke
3858 780 M
[ [(Times-Roman) 120.0 0.0 true true 0 ( 60)]
] -40.0 MCshow
1.000 UL
LTb
LCb setrgbcolor
1.000 UL
LTa
LCa setrgbcolor
3928 855 M
-55 8 V
stroke
LTb
LCb setrgbcolor
3928 855 M
-54 8 V
stroke
3991 839 M
[ [(Times-Roman) 120.0 0.0 true true 0 ( 70)]
] -40.0 MCshow
1.000 UL
LTb
LCb setrgbcolor
1.000 UL
LTa
LCa setrgbcolor
4060 914 M
-49 7 V
stroke
LTb
LCb setrgbcolor
4060 914 M
-49 7 V
stroke
4123 898 M
[ [(Times-Roman) 120.0 0.0 true true 0 ( 80)]
] -40.0 MCshow
1.000 UL
LTb
LCb setrgbcolor
1.000 UL
LTa
LCa setrgbcolor
4193 973 M
-39 6 V
stroke
LTb
LCb setrgbcolor
4193 973 M
-39 6 V
stroke
4255 958 M
[ [(Times-Roman) 120.0 0.0 true true 0 ( 90)]
] -40.0 MCshow
1.000 UL
LTb
LCb setrgbcolor
1.000 UL
LTa
LCa setrgbcolor
4325 1033 M
-14 2 V
stroke
LTb
LCb setrgbcolor
4325 1033 M
-14 2 V
stroke
4387 1017 M
[ [(Times-Roman) 120.0 0.0 true true 0 ( 100)]
] -40.0 MCshow
1.000 UL
LTb
LCb setrgbcolor
LCb setrgbcolor
4236 530 M
[ [(Times-Roman) 120.0 0.0 true true 0 (SProbability of ties p2)]
] -40.0 MCshow
LTb
1.000 UL
LTa
LCa setrgbcolor
715 782 M
404 181 V
stroke
LTa
LCa setrgbcolor
4325 1033 M
-14 2 V
stroke
LTb
LCb setrgbcolor
778 782 M
-63 0 V
stroke
589 782 M
[ [(Times-Roman) 120.0 0.0 true true 0 ( 0)]
] -40.0 MRshow
1.000 UL
LTb
LCb setrgbcolor
1.000 UL
LTa
LCa setrgbcolor
715 901 M
356 159 V
stroke
LTa
LCa setrgbcolor
4325 1151 M
2457 1431 L
stroke
LTb
LCb setrgbcolor
778 901 M
-63 0 V
stroke
589 901 M
[ [(Times-Roman) 120.0 0.0 true true 0 ( 10)]
] -40.0 MRshow
1.000 UL
LTb
LCb setrgbcolor
1.000 UL
LTa
LCa setrgbcolor
715 1019 M
308 138 V
stroke
LTa
LCa setrgbcolor
4325 1270 M
2382 1560 L
stroke
LTb
LCb setrgbcolor
778 1019 M
-63 0 V
stroke
589 1019 M
[ [(Times-Roman) 120.0 0.0 true true 0 ( 20)]
] -40.0 MRshow
1.000 UL
LTb
LCb setrgbcolor
1.000 UL
LTa
LCa setrgbcolor
715 1138 M
260 117 V
stroke
LTa
LCa setrgbcolor
4325 1389 M
2308 1690 L
stroke
LTb
LCb setrgbcolor
778 1138 M
-63 0 V
stroke
589 1138 M
[ [(Times-Roman) 120.0 0.0 true true 0 ( 30)]
] -40.0 MRshow
1.000 UL
LTb
LCb setrgbcolor
1.000 UL
LTa
LCa setrgbcolor
715 1256 M
214 96 V
stroke
LTa
LCa setrgbcolor
4325 1506 M
2246 1817 L
stroke
LTb
LCb setrgbcolor
778 1256 M
-63 0 V
stroke
589 1256 M
[ [(Times-Roman) 120.0 0.0 true true 0 ( 40)]
] -40.0 MRshow
1.000 UL
LTb
LCb setrgbcolor
1.000 UL
LTa
LCa setrgbcolor
715 1375 M
171 77 V
stroke
LTa
LCa setrgbcolor
4325 1625 M
2204 1942 L
stroke
LTb
LCb setrgbcolor
778 1375 M
-63 0 V
stroke
589 1375 M
[ [(Times-Roman) 120.0 0.0 true true 0 ( 50)]
] -40.0 MRshow
1.000 UL
LTb
LCb setrgbcolor
1.000 UL
LTa
LCa setrgbcolor
715 1494 M
129 56 V
stroke
LTa
LCa setrgbcolor
4325 1744 M
2162 2067 L
stroke
LTb
LCb setrgbcolor
778 1494 M
-63 0 V
stroke
589 1494 M
[ [(Times-Roman) 120.0 0.0 true true 0 ( 60)]
] -40.0 MRshow
1.000 UL
LTb
LCb setrgbcolor
1.000 UL
LTa
LCa setrgbcolor
715 1611 M
86 39 V
stroke
LTa
LCa setrgbcolor
4325 1862 M
2120 2192 L
stroke
LTb
LCb setrgbcolor
778 1611 M
-63 0 V
stroke
589 1611 M
[ [(Times-Roman) 120.0 0.0 true true 0 ( 70)]
] -40.0 MRshow
1.000 UL
LTb
LCb setrgbcolor
1.000 UL
LTa
LCa setrgbcolor
715 1730 M
43 19 V
stroke
LTa
LCa setrgbcolor
4325 1981 M
2079 2317 L
stroke
LTb
LCb setrgbcolor
766 1730 M
-51 0 V
stroke
589 1730 M
[ [(Times-Roman) 120.0 0.0 true true 0 ( 80)]
] -40.0 MRshow
1.000 UL
LTb
LCb setrgbcolor
1.000 UL
LTa
LCa setrgbcolor
715 1849 M
1 0 V
stroke
LTa
LCa setrgbcolor
4325 2099 M
2037 2442 L
stroke
LTb
LCb setrgbcolor
715 1849 M
1 0 V
stroke
LTb
LCb setrgbcolor
716 1849 M
62 0 V
stroke
589 1849 M
[ [(Times-Roman) 120.0 0.0 true true 0 ( 90)]
] -40.0 MRshow
1.000 UL
LTb
LCb setrgbcolor
1.000 UL
LTa
LCa setrgbcolor
715 1967 M
1322 594 V
stroke
LTa
LCa setrgbcolor
4325 2218 M
2037 2561 L
stroke
LTb
LCb setrgbcolor
778 1967 M
-63 0 V
stroke
589 1967 M
[ [(Times-Roman) 120.0 0.0 true true 0 ( 100)]
] -40.0 MRshow
1.000 UL
LTb
LCb setrgbcolor
LCb setrgbcolor
211 1375 M
currentpoint gsave translate 90 rotate 0 0 moveto
[ [(Times-Roman) 120.0 0.0 true true 0 (Average number of singles)]
] -40.0 MCshow
grestore
LTb
stroke gsave	%% draw gray scale smooth box
maxcolors 0 gt {/imax maxcolors def} {/imax 1024 def} ifelse
4393 1298 translate 183 882 scale 0 setlinewidth
/ystep 1 imax div def /y0 0 def /ii 0 def
{ y0 g 0 y0 N 1 0 V 0 ystep V -1 0 f
/y0 y0 ystep add def /ii ii 1 add def
ii imax ge {exit} if } loop
grestore 0 setgray
1.000 UL
LTb
LCb setrgbcolor
4393 1298 N
183 0 V
0 882 V
-183 0 V
0 -882 V
Z stroke
1.000 UL
LTb
LCb setrgbcolor
1.000 UL
LTb
LCb setrgbcolor
4576 1298 M
-63 0 V
stroke
4648 1298 M
[ [(Times-Roman) 120.0 0.0 true true 0 ( 0)]
] -40.0 MLshow
1.000 UL
LTb
LCb setrgbcolor
4393 1298 M
63 0 V
120 88 R
-63 0 V
stroke
4648 1386 M
[ [(Times-Roman) 120.0 0.0 true true 0 ( 10)]
] -40.0 MLshow
1.000 UL
LTb
LCb setrgbcolor
4393 1386 M
63 0 V
120 88 R
-63 0 V
stroke
4648 1474 M
[ [(Times-Roman) 120.0 0.0 true true 0 ( 20)]
] -40.0 MLshow
1.000 UL
LTb
LCb setrgbcolor
4393 1474 M
63 0 V
120 88 R
-63 0 V
stroke
4648 1562 M
[ [(Times-Roman) 120.0 0.0 true true 0 ( 30)]
] -40.0 MLshow
1.000 UL
LTb
LCb setrgbcolor
4393 1562 M
63 0 V
120 88 R
-63 0 V
stroke
4648 1650 M
[ [(Times-Roman) 120.0 0.0 true true 0 ( 40)]
] -40.0 MLshow
1.000 UL
LTb
LCb setrgbcolor
4393 1650 M
63 0 V
120 89 R
-63 0 V
stroke
4648 1739 M
[ [(Times-Roman) 120.0 0.0 true true 0 ( 50)]
] -40.0 MLshow
1.000 UL
LTb
LCb setrgbcolor
4393 1739 M
63 0 V
120 88 R
-63 0 V
stroke
4648 1827 M
[ [(Times-Roman) 120.0 0.0 true true 0 ( 60)]
] -40.0 MLshow
1.000 UL
LTb
LCb setrgbcolor
4393 1827 M
63 0 V
120 88 R
-63 0 V
stroke
4648 1915 M
[ [(Times-Roman) 120.0 0.0 true true 0 ( 70)]
] -40.0 MLshow
1.000 UL
LTb
LCb setrgbcolor
4393 1915 M
63 0 V
120 88 R
-63 0 V
stroke
4648 2003 M
[ [(Times-Roman) 120.0 0.0 true true 0 ( 80)]
] -40.0 MLshow
1.000 UL
LTb
LCb setrgbcolor
4393 2003 M
63 0 V
120 88 R
-63 0 V
stroke
4648 2091 M
[ [(Times-Roman) 120.0 0.0 true true 0 ( 90)]
] -40.0 MLshow
1.000 UL
LTb
LCb setrgbcolor
4393 2091 M
63 0 V
120 89 R
-63 0 V
stroke
4648 2180 M
[ [(Times-Roman) 120.0 0.0 true true 0 ( 100)]
] -40.0 MLshow
1.000 UL
LTb
LCb setrgbcolor
4393 2180 M
63 0 V
1.000 UP
stroke
grestore % colour palette end
stroke
grestore
end
showpage
%%Trailer
%%DocumentFonts: Times-Roman
