%!PS-Adobe-2.0 EPSF-2.0
%%Title: AS-3D-BP-vp1.eps
%%Creator: gnuplot 4.6 patchlevel 4
%%CreationDate: Thu Sep 25 13:56:32 2014
%%DocumentFonts: (atend)
%%BoundingBox: 50 50 482 230
%%EndComments
%%BeginProlog
/gnudict 256 dict def
gnudict begin
%
% The following true/false flags may be edited by hand if desired.
% The unit line width and grayscale image gamma correction may also be changed.
%
/Color true def
/Blacktext false def
/Solid false def
/Dashlength 1 def
/Landscape false def
/Level1 false def
/Rounded false def
/ClipToBoundingBox false def
/SuppressPDFMark false def
/TransparentPatterns false def
/gnulinewidth 5.000 def
/userlinewidth gnulinewidth def
/Gamma 1.0 def
/BackgroundColor {-1.000 -1.000 -1.000} def
%
/vshift -40 def
/dl1 {
  10.0 Dashlength mul mul
  Rounded { currentlinewidth 0.75 mul sub dup 0 le { pop 0.01 } if } if
} def
/dl2 {
  10.0 Dashlength mul mul
  Rounded { currentlinewidth 0.75 mul add } if
} def
/hpt_ 31.5 def
/vpt_ 31.5 def
/hpt hpt_ def
/vpt vpt_ def
/doclip {
  ClipToBoundingBox {
    newpath 50 50 moveto 482 50 lineto 482 230 lineto 50 230 lineto closepath
    clip
  } if
} def
%
% Gnuplot Prolog Version 4.6 (September 2012)
%
%/SuppressPDFMark true def
%
/M {moveto} bind def
/L {lineto} bind def
/R {rmoveto} bind def
/V {rlineto} bind def
/N {newpath moveto} bind def
/Z {closepath} bind def
/C {setrgbcolor} bind def
/f {rlineto fill} bind def
/g {setgray} bind def
/Gshow {show} def   % May be redefined later in the file to support UTF-8
/vpt2 vpt 2 mul def
/hpt2 hpt 2 mul def
/Lshow {currentpoint stroke M 0 vshift R 
	Blacktext {gsave 0 setgray show grestore} {show} ifelse} def
/Rshow {currentpoint stroke M dup stringwidth pop neg vshift R
	Blacktext {gsave 0 setgray show grestore} {show} ifelse} def
/Cshow {currentpoint stroke M dup stringwidth pop -2 div vshift R 
	Blacktext {gsave 0 setgray show grestore} {show} ifelse} def
/UP {dup vpt_ mul /vpt exch def hpt_ mul /hpt exch def
  /hpt2 hpt 2 mul def /vpt2 vpt 2 mul def} def
/DL {Color {setrgbcolor Solid {pop []} if 0 setdash}
 {pop pop pop 0 setgray Solid {pop []} if 0 setdash} ifelse} def
/BL {stroke userlinewidth 2 mul setlinewidth
	Rounded {1 setlinejoin 1 setlinecap} if} def
/AL {stroke userlinewidth 2 div setlinewidth
	Rounded {1 setlinejoin 1 setlinecap} if} def
/UL {dup gnulinewidth mul /userlinewidth exch def
	dup 1 lt {pop 1} if 10 mul /udl exch def} def
/PL {stroke userlinewidth setlinewidth
	Rounded {1 setlinejoin 1 setlinecap} if} def
3.8 setmiterlimit
% Default Line colors
/LCw {1 1 1} def
/LCb {0 0 0} def
/LCa {0 0 0} def
/LC0 {1 0 0} def
/LC1 {0 1 0} def
/LC2 {0 0 1} def
/LC3 {1 0 1} def
/LC4 {0 1 1} def
/LC5 {1 1 0} def
/LC6 {0 0 0} def
/LC7 {1 0.3 0} def
/LC8 {0.5 0.5 0.5} def
% Default Line Types
/LTw {PL [] 1 setgray} def
/LTb {BL [] LCb DL} def
/LTa {AL [1 udl mul 2 udl mul] 0 setdash LCa setrgbcolor} def
/LT0 {PL [] LC0 DL} def
/LT1 {PL [4 dl1 2 dl2] LC1 DL} def
/LT2 {PL [2 dl1 3 dl2] LC2 DL} def
/LT3 {PL [1 dl1 1.5 dl2] LC3 DL} def
/LT4 {PL [6 dl1 2 dl2 1 dl1 2 dl2] LC4 DL} def
/LT5 {PL [3 dl1 3 dl2 1 dl1 3 dl2] LC5 DL} def
/LT6 {PL [2 dl1 2 dl2 2 dl1 6 dl2] LC6 DL} def
/LT7 {PL [1 dl1 2 dl2 6 dl1 2 dl2 1 dl1 2 dl2] LC7 DL} def
/LT8 {PL [2 dl1 2 dl2 2 dl1 2 dl2 2 dl1 2 dl2 2 dl1 4 dl2] LC8 DL} def
/Pnt {stroke [] 0 setdash gsave 1 setlinecap M 0 0 V stroke grestore} def
/Dia {stroke [] 0 setdash 2 copy vpt add M
  hpt neg vpt neg V hpt vpt neg V
  hpt vpt V hpt neg vpt V closepath stroke
  Pnt} def
/Pls {stroke [] 0 setdash vpt sub M 0 vpt2 V
  currentpoint stroke M
  hpt neg vpt neg R hpt2 0 V stroke
 } def
/Box {stroke [] 0 setdash 2 copy exch hpt sub exch vpt add M
  0 vpt2 neg V hpt2 0 V 0 vpt2 V
  hpt2 neg 0 V closepath stroke
  Pnt} def
/Crs {stroke [] 0 setdash exch hpt sub exch vpt add M
  hpt2 vpt2 neg V currentpoint stroke M
  hpt2 neg 0 R hpt2 vpt2 V stroke} def
/TriU {stroke [] 0 setdash 2 copy vpt 1.12 mul add M
  hpt neg vpt -1.62 mul V
  hpt 2 mul 0 V
  hpt neg vpt 1.62 mul V closepath stroke
  Pnt} def
/Star {2 copy Pls Crs} def
/BoxF {stroke [] 0 setdash exch hpt sub exch vpt add M
  0 vpt2 neg V hpt2 0 V 0 vpt2 V
  hpt2 neg 0 V closepath fill} def
/TriUF {stroke [] 0 setdash vpt 1.12 mul add M
  hpt neg vpt -1.62 mul V
  hpt 2 mul 0 V
  hpt neg vpt 1.62 mul V closepath fill} def
/TriD {stroke [] 0 setdash 2 copy vpt 1.12 mul sub M
  hpt neg vpt 1.62 mul V
  hpt 2 mul 0 V
  hpt neg vpt -1.62 mul V closepath stroke
  Pnt} def
/TriDF {stroke [] 0 setdash vpt 1.12 mul sub M
  hpt neg vpt 1.62 mul V
  hpt 2 mul 0 V
  hpt neg vpt -1.62 mul V closepath fill} def
/DiaF {stroke [] 0 setdash vpt add M
  hpt neg vpt neg V hpt vpt neg V
  hpt vpt V hpt neg vpt V closepath fill} def
/Pent {stroke [] 0 setdash 2 copy gsave
  translate 0 hpt M 4 {72 rotate 0 hpt L} repeat
  closepath stroke grestore Pnt} def
/PentF {stroke [] 0 setdash gsave
  translate 0 hpt M 4 {72 rotate 0 hpt L} repeat
  closepath fill grestore} def
/Circle {stroke [] 0 setdash 2 copy
  hpt 0 360 arc stroke Pnt} def
/CircleF {stroke [] 0 setdash hpt 0 360 arc fill} def
/C0 {BL [] 0 setdash 2 copy moveto vpt 90 450 arc} bind def
/C1 {BL [] 0 setdash 2 copy moveto
	2 copy vpt 0 90 arc closepath fill
	vpt 0 360 arc closepath} bind def
/C2 {BL [] 0 setdash 2 copy moveto
	2 copy vpt 90 180 arc closepath fill
	vpt 0 360 arc closepath} bind def
/C3 {BL [] 0 setdash 2 copy moveto
	2 copy vpt 0 180 arc closepath fill
	vpt 0 360 arc closepath} bind def
/C4 {BL [] 0 setdash 2 copy moveto
	2 copy vpt 180 270 arc closepath fill
	vpt 0 360 arc closepath} bind def
/C5 {BL [] 0 setdash 2 copy moveto
	2 copy vpt 0 90 arc
	2 copy moveto
	2 copy vpt 180 270 arc closepath fill
	vpt 0 360 arc} bind def
/C6 {BL [] 0 setdash 2 copy moveto
	2 copy vpt 90 270 arc closepath fill
	vpt 0 360 arc closepath} bind def
/C7 {BL [] 0 setdash 2 copy moveto
	2 copy vpt 0 270 arc closepath fill
	vpt 0 360 arc closepath} bind def
/C8 {BL [] 0 setdash 2 copy moveto
	2 copy vpt 270 360 arc closepath fill
	vpt 0 360 arc closepath} bind def
/C9 {BL [] 0 setdash 2 copy moveto
	2 copy vpt 270 450 arc closepath fill
	vpt 0 360 arc closepath} bind def
/C10 {BL [] 0 setdash 2 copy 2 copy moveto vpt 270 360 arc closepath fill
	2 copy moveto
	2 copy vpt 90 180 arc closepath fill
	vpt 0 360 arc closepath} bind def
/C11 {BL [] 0 setdash 2 copy moveto
	2 copy vpt 0 180 arc closepath fill
	2 copy moveto
	2 copy vpt 270 360 arc closepath fill
	vpt 0 360 arc closepath} bind def
/C12 {BL [] 0 setdash 2 copy moveto
	2 copy vpt 180 360 arc closepath fill
	vpt 0 360 arc closepath} bind def
/C13 {BL [] 0 setdash 2 copy moveto
	2 copy vpt 0 90 arc closepath fill
	2 copy moveto
	2 copy vpt 180 360 arc closepath fill
	vpt 0 360 arc closepath} bind def
/C14 {BL [] 0 setdash 2 copy moveto
	2 copy vpt 90 360 arc closepath fill
	vpt 0 360 arc} bind def
/C15 {BL [] 0 setdash 2 copy vpt 0 360 arc closepath fill
	vpt 0 360 arc closepath} bind def
/Rec {newpath 4 2 roll moveto 1 index 0 rlineto 0 exch rlineto
	neg 0 rlineto closepath} bind def
/Square {dup Rec} bind def
/Bsquare {vpt sub exch vpt sub exch vpt2 Square} bind def
/S0 {BL [] 0 setdash 2 copy moveto 0 vpt rlineto BL Bsquare} bind def
/S1 {BL [] 0 setdash 2 copy vpt Square fill Bsquare} bind def
/S2 {BL [] 0 setdash 2 copy exch vpt sub exch vpt Square fill Bsquare} bind def
/S3 {BL [] 0 setdash 2 copy exch vpt sub exch vpt2 vpt Rec fill Bsquare} bind def
/S4 {BL [] 0 setdash 2 copy exch vpt sub exch vpt sub vpt Square fill Bsquare} bind def
/S5 {BL [] 0 setdash 2 copy 2 copy vpt Square fill
	exch vpt sub exch vpt sub vpt Square fill Bsquare} bind def
/S6 {BL [] 0 setdash 2 copy exch vpt sub exch vpt sub vpt vpt2 Rec fill Bsquare} bind def
/S7 {BL [] 0 setdash 2 copy exch vpt sub exch vpt sub vpt vpt2 Rec fill
	2 copy vpt Square fill Bsquare} bind def
/S8 {BL [] 0 setdash 2 copy vpt sub vpt Square fill Bsquare} bind def
/S9 {BL [] 0 setdash 2 copy vpt sub vpt vpt2 Rec fill Bsquare} bind def
/S10 {BL [] 0 setdash 2 copy vpt sub vpt Square fill 2 copy exch vpt sub exch vpt Square fill
	Bsquare} bind def
/S11 {BL [] 0 setdash 2 copy vpt sub vpt Square fill 2 copy exch vpt sub exch vpt2 vpt Rec fill
	Bsquare} bind def
/S12 {BL [] 0 setdash 2 copy exch vpt sub exch vpt sub vpt2 vpt Rec fill Bsquare} bind def
/S13 {BL [] 0 setdash 2 copy exch vpt sub exch vpt sub vpt2 vpt Rec fill
	2 copy vpt Square fill Bsquare} bind def
/S14 {BL [] 0 setdash 2 copy exch vpt sub exch vpt sub vpt2 vpt Rec fill
	2 copy exch vpt sub exch vpt Square fill Bsquare} bind def
/S15 {BL [] 0 setdash 2 copy Bsquare fill Bsquare} bind def
/D0 {gsave translate 45 rotate 0 0 S0 stroke grestore} bind def
/D1 {gsave translate 45 rotate 0 0 S1 stroke grestore} bind def
/D2 {gsave translate 45 rotate 0 0 S2 stroke grestore} bind def
/D3 {gsave translate 45 rotate 0 0 S3 stroke grestore} bind def
/D4 {gsave translate 45 rotate 0 0 S4 stroke grestore} bind def
/D5 {gsave translate 45 rotate 0 0 S5 stroke grestore} bind def
/D6 {gsave translate 45 rotate 0 0 S6 stroke grestore} bind def
/D7 {gsave translate 45 rotate 0 0 S7 stroke grestore} bind def
/D8 {gsave translate 45 rotate 0 0 S8 stroke grestore} bind def
/D9 {gsave translate 45 rotate 0 0 S9 stroke grestore} bind def
/D10 {gsave translate 45 rotate 0 0 S10 stroke grestore} bind def
/D11 {gsave translate 45 rotate 0 0 S11 stroke grestore} bind def
/D12 {gsave translate 45 rotate 0 0 S12 stroke grestore} bind def
/D13 {gsave translate 45 rotate 0 0 S13 stroke grestore} bind def
/D14 {gsave translate 45 rotate 0 0 S14 stroke grestore} bind def
/D15 {gsave translate 45 rotate 0 0 S15 stroke grestore} bind def
/DiaE {stroke [] 0 setdash vpt add M
  hpt neg vpt neg V hpt vpt neg V
  hpt vpt V hpt neg vpt V closepath stroke} def
/BoxE {stroke [] 0 setdash exch hpt sub exch vpt add M
  0 vpt2 neg V hpt2 0 V 0 vpt2 V
  hpt2 neg 0 V closepath stroke} def
/TriUE {stroke [] 0 setdash vpt 1.12 mul add M
  hpt neg vpt -1.62 mul V
  hpt 2 mul 0 V
  hpt neg vpt 1.62 mul V closepath stroke} def
/TriDE {stroke [] 0 setdash vpt 1.12 mul sub M
  hpt neg vpt 1.62 mul V
  hpt 2 mul 0 V
  hpt neg vpt -1.62 mul V closepath stroke} def
/PentE {stroke [] 0 setdash gsave
  translate 0 hpt M 4 {72 rotate 0 hpt L} repeat
  closepath stroke grestore} def
/CircE {stroke [] 0 setdash 
  hpt 0 360 arc stroke} def
/Opaque {gsave closepath 1 setgray fill grestore 0 setgray closepath} def
/DiaW {stroke [] 0 setdash vpt add M
  hpt neg vpt neg V hpt vpt neg V
  hpt vpt V hpt neg vpt V Opaque stroke} def
/BoxW {stroke [] 0 setdash exch hpt sub exch vpt add M
  0 vpt2 neg V hpt2 0 V 0 vpt2 V
  hpt2 neg 0 V Opaque stroke} def
/TriUW {stroke [] 0 setdash vpt 1.12 mul add M
  hpt neg vpt -1.62 mul V
  hpt 2 mul 0 V
  hpt neg vpt 1.62 mul V Opaque stroke} def
/TriDW {stroke [] 0 setdash vpt 1.12 mul sub M
  hpt neg vpt 1.62 mul V
  hpt 2 mul 0 V
  hpt neg vpt -1.62 mul V Opaque stroke} def
/PentW {stroke [] 0 setdash gsave
  translate 0 hpt M 4 {72 rotate 0 hpt L} repeat
  Opaque stroke grestore} def
/CircW {stroke [] 0 setdash 
  hpt 0 360 arc Opaque stroke} def
/BoxFill {gsave Rec 1 setgray fill grestore} def
/Density {
  /Fillden exch def
  currentrgbcolor
  /ColB exch def /ColG exch def /ColR exch def
  /ColR ColR Fillden mul Fillden sub 1 add def
  /ColG ColG Fillden mul Fillden sub 1 add def
  /ColB ColB Fillden mul Fillden sub 1 add def
  ColR ColG ColB setrgbcolor} def
/BoxColFill {gsave Rec PolyFill} def
/PolyFill {gsave Density fill grestore grestore} def
/h {rlineto rlineto rlineto gsave closepath fill grestore} bind def
%
% PostScript Level 1 Pattern Fill routine for rectangles
% Usage: x y w h s a XX PatternFill
%	x,y = lower left corner of box to be filled
%	w,h = width and height of box
%	  a = angle in degrees between lines and x-axis
%	 XX = 0/1 for no/yes cross-hatch
%
/PatternFill {gsave /PFa [ 9 2 roll ] def
  PFa 0 get PFa 2 get 2 div add PFa 1 get PFa 3 get 2 div add translate
  PFa 2 get -2 div PFa 3 get -2 div PFa 2 get PFa 3 get Rec
  TransparentPatterns {} {gsave 1 setgray fill grestore} ifelse
  clip
  currentlinewidth 0.5 mul setlinewidth
  /PFs PFa 2 get dup mul PFa 3 get dup mul add sqrt def
  0 0 M PFa 5 get rotate PFs -2 div dup translate
  0 1 PFs PFa 4 get div 1 add floor cvi
	{PFa 4 get mul 0 M 0 PFs V} for
  0 PFa 6 get ne {
	0 1 PFs PFa 4 get div 1 add floor cvi
	{PFa 4 get mul 0 2 1 roll M PFs 0 V} for
 } if
  stroke grestore} def
%
/languagelevel where
 {pop languagelevel} {1} ifelse
 2 lt
	{/InterpretLevel1 true def}
	{/InterpretLevel1 Level1 def}
 ifelse
%
% PostScript level 2 pattern fill definitions
%
/Level2PatternFill {
/Tile8x8 {/PaintType 2 /PatternType 1 /TilingType 1 /BBox [0 0 8 8] /XStep 8 /YStep 8}
	bind def
/KeepColor {currentrgbcolor [/Pattern /DeviceRGB] setcolorspace} bind def
<< Tile8x8
 /PaintProc {0.5 setlinewidth pop 0 0 M 8 8 L 0 8 M 8 0 L stroke} 
>> matrix makepattern
/Pat1 exch def
<< Tile8x8
 /PaintProc {0.5 setlinewidth pop 0 0 M 8 8 L 0 8 M 8 0 L stroke
	0 4 M 4 8 L 8 4 L 4 0 L 0 4 L stroke}
>> matrix makepattern
/Pat2 exch def
<< Tile8x8
 /PaintProc {0.5 setlinewidth pop 0 0 M 0 8 L
	8 8 L 8 0 L 0 0 L fill}
>> matrix makepattern
/Pat3 exch def
<< Tile8x8
 /PaintProc {0.5 setlinewidth pop -4 8 M 8 -4 L
	0 12 M 12 0 L stroke}
>> matrix makepattern
/Pat4 exch def
<< Tile8x8
 /PaintProc {0.5 setlinewidth pop -4 0 M 8 12 L
	0 -4 M 12 8 L stroke}
>> matrix makepattern
/Pat5 exch def
<< Tile8x8
 /PaintProc {0.5 setlinewidth pop -2 8 M 4 -4 L
	0 12 M 8 -4 L 4 12 M 10 0 L stroke}
>> matrix makepattern
/Pat6 exch def
<< Tile8x8
 /PaintProc {0.5 setlinewidth pop -2 0 M 4 12 L
	0 -4 M 8 12 L 4 -4 M 10 8 L stroke}
>> matrix makepattern
/Pat7 exch def
<< Tile8x8
 /PaintProc {0.5 setlinewidth pop 8 -2 M -4 4 L
	12 0 M -4 8 L 12 4 M 0 10 L stroke}
>> matrix makepattern
/Pat8 exch def
<< Tile8x8
 /PaintProc {0.5 setlinewidth pop 0 -2 M 12 4 L
	-4 0 M 12 8 L -4 4 M 8 10 L stroke}
>> matrix makepattern
/Pat9 exch def
/Pattern1 {PatternBgnd KeepColor Pat1 setpattern} bind def
/Pattern2 {PatternBgnd KeepColor Pat2 setpattern} bind def
/Pattern3 {PatternBgnd KeepColor Pat3 setpattern} bind def
/Pattern4 {PatternBgnd KeepColor Landscape {Pat5} {Pat4} ifelse setpattern} bind def
/Pattern5 {PatternBgnd KeepColor Landscape {Pat4} {Pat5} ifelse setpattern} bind def
/Pattern6 {PatternBgnd KeepColor Landscape {Pat9} {Pat6} ifelse setpattern} bind def
/Pattern7 {PatternBgnd KeepColor Landscape {Pat8} {Pat7} ifelse setpattern} bind def
} def
%
%
%End of PostScript Level 2 code
%
/PatternBgnd {
  TransparentPatterns {} {gsave 1 setgray fill grestore} ifelse
} def
%
% Substitute for Level 2 pattern fill codes with
% grayscale if Level 2 support is not selected.
%
/Level1PatternFill {
/Pattern1 {0.250 Density} bind def
/Pattern2 {0.500 Density} bind def
/Pattern3 {0.750 Density} bind def
/Pattern4 {0.125 Density} bind def
/Pattern5 {0.375 Density} bind def
/Pattern6 {0.625 Density} bind def
/Pattern7 {0.875 Density} bind def
} def
%
% Now test for support of Level 2 code
%
Level1 {Level1PatternFill} {Level2PatternFill} ifelse
%
/Symbol-Oblique /Symbol findfont [1 0 .167 1 0 0] makefont
dup length dict begin {1 index /FID eq {pop pop} {def} ifelse} forall
currentdict end definefont pop
/MFshow {
   { dup 5 get 3 ge
     { 5 get 3 eq {gsave} {grestore} ifelse }
     {dup dup 0 get findfont exch 1 get scalefont setfont
     [ currentpoint ] exch dup 2 get 0 exch R dup 5 get 2 ne {dup dup 6
     get exch 4 get {Gshow} {stringwidth pop 0 R} ifelse }if dup 5 get 0 eq
     {dup 3 get {2 get neg 0 exch R pop} {pop aload pop M} ifelse} {dup 5
     get 1 eq {dup 2 get exch dup 3 get exch 6 get stringwidth pop -2 div
     dup 0 R} {dup 6 get stringwidth pop -2 div 0 R 6 get
     show 2 index {aload pop M neg 3 -1 roll neg R pop pop} {pop pop pop
     pop aload pop M} ifelse }ifelse }ifelse }
     ifelse }
   forall} def
/Gswidth {dup type /stringtype eq {stringwidth} {pop (n) stringwidth} ifelse} def
/MFwidth {0 exch { dup 5 get 3 ge { 5 get 3 eq { 0 } { pop } ifelse }
 {dup 3 get{dup dup 0 get findfont exch 1 get scalefont setfont
     6 get Gswidth pop add} {pop} ifelse} ifelse} forall} def
/MLshow { currentpoint stroke M
  0 exch R
  Blacktext {gsave 0 setgray MFshow grestore} {MFshow} ifelse } bind def
/MRshow { currentpoint stroke M
  exch dup MFwidth neg 3 -1 roll R
  Blacktext {gsave 0 setgray MFshow grestore} {MFshow} ifelse } bind def
/MCshow { currentpoint stroke M
  exch dup MFwidth -2 div 3 -1 roll R
  Blacktext {gsave 0 setgray MFshow grestore} {MFshow} ifelse } bind def
/XYsave    { [( ) 1 2 true false 3 ()] } bind def
/XYrestore { [( ) 1 2 true false 4 ()] } bind def
Level1 SuppressPDFMark or 
{} {
/SDict 10 dict def
systemdict /pdfmark known not {
  userdict /pdfmark systemdict /cleartomark get put
} if
SDict begin [
  /Title (AS-3D-BP-vp1.eps)
  /Subject (gnuplot plot)
  /Creator (gnuplot 4.6 patchlevel 4)
  /Author (danny)
%  /Producer (gnuplot)
%  /Keywords ()
  /CreationDate (Thu Sep 25 13:56:32 2014)
  /DOCINFO pdfmark
end
} ifelse
end
%%EndProlog
%%Page: 1 1
gnudict begin
gsave
doclip
50 50 translate
0.050 0.050 scale
0 setgray
newpath
(Times-Roman) findfont 120 scalefont setfont
BackgroundColor 0 lt 3 1 roll 0 lt exch 0 lt or or not {BackgroundColor C 1.000 0 0 8640.00 3600.00 BoxColFill} if
gsave % colour palette begin
/maxcolors 0 def
/HSV2RGB {  exch dup 0.0 eq {pop exch pop dup dup} % achromatic gray
  { /HSVs exch def /HSVv exch def 6.0 mul dup floor dup 3 1 roll sub
     /HSVf exch def /HSVi exch cvi def /HSVp HSVv 1.0 HSVs sub mul def
	 /HSVq HSVv 1.0 HSVs HSVf mul sub mul def 
	 /HSVt HSVv 1.0 HSVs 1.0 HSVf sub mul sub mul def
	 /HSVi HSVi 6 mod def 0 HSVi eq {HSVv HSVt HSVp}
	 {1 HSVi eq {HSVq HSVv HSVp}{2 HSVi eq {HSVp HSVv HSVt}
	 {3 HSVi eq {HSVp HSVq HSVv}{4 HSVi eq {HSVt HSVp HSVv}
	 {HSVv HSVp HSVq} ifelse} ifelse} ifelse} ifelse} ifelse
  } ifelse} def
/Constrain {
  dup 0 lt {0 exch pop}{dup 1 gt {1 exch pop} if} ifelse} def
/YIQ2RGB {
  3 copy -1.702 mul exch -1.105 mul add add Constrain 4 1 roll
  3 copy -0.647 mul exch -0.272 mul add add Constrain 5 1 roll
  0.621 mul exch -0.956 mul add add Constrain 3 1 roll } def
/CMY2RGB {  1 exch sub exch 1 exch sub 3 2 roll 1 exch sub 3 1 roll exch } def
/XYZ2RGB {  3 copy -0.9017 mul exch -0.1187 mul add exch 0.0585 mul exch add
  Constrain 4 1 roll 3 copy -0.0279 mul exch 1.999 mul add exch
  -0.9844 mul add Constrain 5 1 roll -0.2891 mul exch -0.5338 mul add
  exch 1.91 mul exch add Constrain 3 1 roll} def
/SelectSpace {ColorSpace (HSV) eq {HSV2RGB}{ColorSpace (XYZ) eq {
  XYZ2RGB}{ColorSpace (CMY) eq {CMY2RGB}{ColorSpace (YIQ) eq {YIQ2RGB}
  if} ifelse} ifelse} ifelse} def
/InterpolatedColor false def
/pm3dround {maxcolors 0 gt {dup 1 ge
	{pop 1} {maxcolors mul floor maxcolors 1 sub div} ifelse} if} def
/pm3dGamma 1.0 1.5 Gamma mul div def
/ColorSpace (RGB) def
false { % COLOUR vs. GRAY map
  InterpolatedColor { %% Interpolation vs. RGB-Formula
    /g {stroke pm3dround /grayv exch def interpolate
        SelectSpace setrgbcolor} bind def
  }{
  /g {stroke pm3dround dup cF7 Constrain exch dup cF5 Constrain exch cF15 Constrain 
       SelectSpace setrgbcolor} bind def
  } ifelse
}{
  /g {stroke pm3dround pm3dGamma exp setgray} bind def
} ifelse
1.000 UL
LTb
LCb setrgbcolor
1.000 UP
% Begin plot #1
% End plot #1
% Begin plot #2
1.000 UL
LT0
0.75 0.75 0.75 C 1.000 UL
LT0
0.75 0.75 0.75 C % End plot #2
.0478 g 4816 1621 N 293 90 679 -283 -294 47 h
1.000 UL
LT0
0.75 0.75 0.75 C 4816 1621 M
678 -146 V
-293 -90 V
-679 283 V
294 -47 V
.0012 g 5494 1475 N 294 96 678 -80 -293 -90 h
stroke
LT0
0.75 0.75 0.75 C 5494 1475 M
679 -74 V
-294 -96 V
-678 80 V
293 90 V
.0824 g 4522 1668 N 294 82 677 -318 -292 -47 h
stroke
LT0
0.75 0.75 0.75 C 4522 1668 M
679 -283 V
-294 -82 V
-677 318 V
292 47 V
.3016 g 4139 2396 N 294 -47 677 -657 -294 -71 h
stroke
LT0
0.75 0.75 0.75 C 4139 2396 M
677 -775 V
-294 47 V
-677 657 V
294 71 V
.0001 g 6173 1401 N 293 96 679 -75 -294 -96 h
stroke
LT0
0.75 0.75 0.75 C 6173 1401 M
678 -75 V
-293 -96 V
-679 75 V
294 96 V
.0051 g 5201 1385 N 294 94 678 -92 -294 -82 h
stroke
LT0
0.75 0.75 0.75 C 5201 1385 M
678 -80 V
-294 -94 V
-678 92 V
294 82 V
.0982 g 4230 1621 N 294 88 677 -336 -294 -70 h
stroke
LT0
0.75 0.75 0.75 C 4230 1621 M
677 -318 V
-294 -88 V
-677 336 V
294 70 V
.3386 g 3845 2325 N 292 47 679 -618 -294 -86 h
stroke
LT0
0.75 0.75 0.75 C 3845 2325 M
677 -657 V
-292 -47 V
-679 618 V
294 86 V
0 g 6851 1326 N 294 96 678 -74 -293 -96 h
stroke
LT0
0.75 0.75 0.75 C 6851 1326 M
679 -74 V
-294 -96 V
-678 74 V
293 96 V
.0008 g 5879 1305 N 294 95 679 -76 -294 -94 h
stroke
LT0
0.75 0.75 0.75 C 5879 1305 M
679 -75 V
-294 -95 V
-679 76 V
294 94 V
.0092 g 4907 1303 N 293 96 679 -100 -294 -88 h
stroke
LT0
0.75 0.75 0.75 C 4907 1303 M
678 -92 V
-293 -96 V
-679 100 V
294 88 V
.7445 g 3474 3206 N 294 71 665 -784 -294 -97 h
stroke
LT0
0.75 0.75 0.75 C 3474 3206 M
665 -810 V
-294 -71 V
-665 784 V
294 97 V
.1047 g 3936 1551 N 293 95 678 -339 -294 -92 h
stroke
LT0
0.75 0.75 0.75 C 3936 1551 M
677 -336 V
-293 -95 V
-678 339 V
294 92 V
.3524 g 3551 2239 N 294 70 679 -592 -294 -96 h
stroke
LT0
0.75 0.75 0.75 C 3551 2239 M
679 -618 V
-294 -70 V
-679 592 V
294 96 V
.0002 g 6558 1230 N 294 96 678 -75 -294 -95 h
stroke
LT0
0.75 0.75 0.75 C 6558 1230 M
678 -74 V
-294 -96 V
-678 75 V
294 95 V
.0013 g 5585 1211 N 294 97 678 -77 -293 -96 h
stroke
LT0
0.75 0.75 0.75 C 5585 1211 M
679 -76 V
-294 -97 V
-678 77 V
293 96 V
.0107 g 4613 1215 N 294 97 678 -102 -293 -95 h
stroke
LT0
0.75 0.75 0.75 C 4613 1215 M
679 -100 V
-294 -97 V
-678 102 V
293 95 V
.7501 g 3180 3109 N 294 86 665 -772 -294 -98 h
stroke
LT0
0.75 0.75 0.75 C 3180 3109 M
665 -784 V
-294 -86 V
-665 772 V
294 98 V
.3562 g 3257 2143 N 294 92 678 -579 -293 -105 h
stroke
LT0
0.75 0.75 0.75 C 3257 2143 M
679 -592 V
-294 -92 V
-678 579 V
293 105 V
.1045 g 3642 1459 N 293 99 679 -337 -294 -101 h
stroke
LT0
0.75 0.75 0.75 C 3642 1459 M
678 -339 V
-293 -99 V
-679 337 V
294 101 V
.0004 g 6264 1135 N 294 97 678 -75 -294 -97 h
stroke
LT0
0.75 0.75 0.75 C 6264 1135 M
678 -75 V
6648 963 L
-678 75 V
294 97 V
.0013 g 5292 1115 N 294 96 678 -76 -294 -97 h
stroke
LT0
0.75 0.75 0.75 C 5292 1115 M
678 -77 V
5676 942 L
-678 76 V
294 97 V
.0104 g 4320 1120 N 294 97 677 -100 -293 -99 h
stroke
LT0
0.75 0.75 0.75 C 4320 1120 M
678 -102 V
4704 921 L
-677 100 V
293 99 V
.7513 g 2886 3011 N 294 96 664 -770 -293 -98 h
stroke
LT0
0.75 0.75 0.75 C 2886 3011 M
665 -772 V
-294 -96 V
-664 770 V
293 98 V
.0989 g 3348 1358 N 294 104 678 -324 -293 -117 h
stroke
LT0
0.75 0.75 0.75 C 3348 1358 M
679 -337 V
3733 917 L
-678 324 V
293 117 V
.3524 g 2964 2038 N 294 101 678 -568 -294 -112 h
stroke
LT0
0.75 0.75 0.75 C 2964 2038 M
678 -579 V
3348 1358 L
-678 568 V
294 112 V
.0003 g 5970 1038 N 293 96 679 -75 -294 -96 h
stroke
LT0
0.75 0.75 0.75 C 5970 1038 M
678 -75 V
6355 867 L
-679 75 V
294 96 V
.0011 g 4998 1018 N 293 97 679 -76 -294 -97 h
stroke
LT0
0.75 0.75 0.75 C 4998 1018 M
678 -76 V
5383 845 L
-679 76 V
294 97 V
.0086 g 4027 1021 N 294 97 677 -93 -294 -104 h
stroke
LT0
0.75 0.75 0.75 C 4027 1021 M
4704 921 L
4410 824 L
-677 93 V
294 104 V
.7497 g 2593 2913 N 293 105 665 -778 -294 -97 h
stroke
LT0
0.75 0.75 0.75 C 2593 2913 M
664 -770 V
2964 2038 L
-665 778 V
294 97 V
.0857 g 3055 1241 N 294 104 678 -286 -294 -142 h
stroke
LT0
0.75 0.75 0.75 C 3055 1241 M
3733 917 L
3439 813 L
-678 286 V
294 142 V
.3417 g 2670 1926 N 293 117 679 -565 -294 -120 h
stroke
LT0
0.75 0.75 0.75 C 2670 1926 M
678 -568 V
3055 1241 L
-679 565 V
294 120 V
.0002 g 5676 942 N 294 97 678 -75 -293 -97 h
stroke
LT0
0.75 0.75 0.75 C 5676 942 M
679 -75 V
6061 770 L
-678 75 V
293 97 V
.0008 g 4704 921 N 294 97 679 -76 -294 -97 h
stroke
LT0
0.75 0.75 0.75 C 4704 921 M
679 -76 V
5089 748 L
-679 76 V
294 97 V
.0059 g 3733 917 N 292 97 679 -86 -294 -104 h
stroke
LT0
0.75 0.75 0.75 C 3733 917 M
677 -93 V
4118 727 L
-679 86 V
294 104 V
.7456 g 2299 2816 N 294 112 665 -792 -294 -98 h
stroke
LT0
0.75 0.75 0.75 C 2299 2816 M
665 -778 V
2670 1926 L
-665 792 V
294 98 V
.3222 g 2376 1806 N 294 142 679 -582 -294 -125 h
stroke
LT0
0.75 0.75 0.75 C 2376 1806 M
679 -565 V
2761 1099 L
-679 582 V
294 125 V
.0672 g 2761 1099 N 293 101 679 -234 -294 -153 h
stroke
LT0
0.75 0.75 0.75 C 2761 1099 M
3439 813 L
3146 712 L
2467 946 L
294 153 V
.0001 g 5383 845 N 294 96 678 -74 -294 -97 h
stroke
LT0
0.75 0.75 0.75 C 5383 845 M
678 -75 V
5767 674 L
-678 74 V
294 97 V
.0005 g 4410 824 N 294 96 677 -75 -292 -97 h
stroke
LT0
0.75 0.75 0.75 C 4410 824 M
679 -76 V
4795 652 L
-677 75 V
292 97 V
.0037 g 3439 813 N 294 97 678 -82 -293 -101 h
stroke
LT0
0.75 0.75 0.75 C 3439 813 M
679 -86 V
3824 630 L
-678 82 V
293 101 V
.2961 g 2082 1681 N 294 153 678 -607 -293 -128 h
stroke
LT0
0.75 0.75 0.75 C 2082 1681 M
679 -582 V
2467 946 L
-678 607 V
293 128 V
.7383 g 2005 2718 N 294 120 665 -813 -294 -99 h
stroke
LT0
0.75 0.75 0.75 C 2005 2718 M
665 -792 V
2376 1806 L
-665 813 V
294 99 V
.0001 g 5089 748 N 294 97 678 -75 -294 -96 h
stroke
LT0
0.75 0.75 0.75 C 5089 748 M
678 -74 V
5473 577 L
-678 75 V
294 96 V
.0003 g 4118 727 N 294 97 677 -75 -294 -97 h
stroke
LT0
0.75 0.75 0.75 C 4118 727 M
677 -75 V
4501 555 L
-677 75 V
294 97 V
.7288 g 1711 2619 N 294 125 664 -840 -293 -98 h
stroke
LT0
0.75 0.75 0.75 C 1711 2619 M
665 -813 V
2082 1681 L
-664 840 V
293 98 V
.0001 g 4795 652 N 293 96 679 -74 -294 -97 h
stroke
LT0
0.75 0.75 0.75 C 4795 652 M
678 -75 V
5180 481 L
-679 74 V
294 97 V
.7183 g 1418 2521 N 293 128 665 -869 -294 -99 h
stroke
LT0
0.75 0.75 0.75 C 1418 2521 M
664 -840 V
1789 1553 L
-665 869 V
294 99 V
stroke
LTb
LCb setrgbcolor
6355 867 M
1175 385 V
stroke
LTb
LCb setrgbcolor
5180 481 M
587 193 V
stroke
LTb
LCb setrgbcolor
5180 481 M
1110 926 L
stroke
LTb
LCb setrgbcolor
1110 926 M
1009 331 V
stroke
LTb
LCb setrgbcolor
7530 1252 M
5495 1475 L
stroke
LTb
LCb setrgbcolor
1110 2468 M
0 -1542 V
stroke
LTb
LCb setrgbcolor
3460 3239 M
0 -38 V
stroke
LTb
LCb setrgbcolor
7530 2794 M
0 -1542 V
stroke
LTb
LCb setrgbcolor
1110 2468 M
2350 771 V
stroke
LTb
LCb setrgbcolor
7530 2794 M
3460 3239 L
stroke
LTa
LCa setrgbcolor
1110 926 M
1009 331 V
stroke
LTb
LCb setrgbcolor
1110 926 M
83 28 V
stroke
LTb
LCb setrgbcolor
1015 874 M
[ [(Times-Roman) 120.0 0.0 true true 0 ( 0)]
] -40.0 MRshow
1.000 UL
LTb
LCb setrgbcolor
1.000 UL
LTa
LCa setrgbcolor
1789 852 M
573 188 V
stroke
LTb
LCb setrgbcolor
1789 852 M
83 27 V
stroke
LTb
LCb setrgbcolor
1694 800 M
[ [(Times-Roman) 120.0 0.0 true true 0 ( 50)]
] -40.0 MRshow
1.000 UL
LTb
LCb setrgbcolor
1.000 UL
LTa
LCa setrgbcolor
2467 778 M
250 82 V
stroke
LTb
LCb setrgbcolor
2467 778 M
83 27 V
stroke
LTb
LCb setrgbcolor
2372 726 M
[ [(Times-Roman) 120.0 0.0 true true 0 ( 100)]
] -40.0 MRshow
1.000 UL
LTb
LCb setrgbcolor
1.000 UL
LTa
LCa setrgbcolor
3146 704 M
18 6 V
stroke
LTb
LCb setrgbcolor
3146 704 M
18 6 V
stroke
LTb
LCb setrgbcolor
3050 652 M
[ [(Times-Roman) 120.0 0.0 true true 0 ( 150)]
] -40.0 MRshow
1.000 UL
LTb
LCb setrgbcolor
1.000 UL
LTa
LCa setrgbcolor
3824 629 M
2 1 V
stroke
LTb
LCb setrgbcolor
3824 629 M
2 1 V
stroke
LTb
LCb setrgbcolor
3729 578 M
[ [(Times-Roman) 120.0 0.0 true true 0 ( 200)]
] -40.0 MRshow
1.000 UL
LTb
LCb setrgbcolor
1.000 UL
LTa
LCa setrgbcolor
4501 555 M
stroke
LTb
LCb setrgbcolor
4501 555 M
stroke
LTb
LCb setrgbcolor
4406 503 M
[ [(Times-Roman) 120.0 0.0 true true 0 ( 250)]
] -40.0 MRshow
1.000 UL
LTb
LCb setrgbcolor
1.000 UL
LTa
LCa setrgbcolor
6355 867 M
1175 385 V
stroke
LTa
LCa setrgbcolor
5180 481 M
587 193 V
stroke
LTb
LCb setrgbcolor
5180 481 M
83 27 V
stroke
LTb
LCb setrgbcolor
5085 429 M
[ [(Times-Roman) 120.0 0.0 true true 0 ( 300)]
] -40.0 MRshow
1.000 UL
LTb
LCb setrgbcolor
1.000 UL
LTb
LCb setrgbcolor
7447 1225 M
83 27 V
stroke
LCb setrgbcolor
2558 511 M
[ [(Times-Roman) 120.0 0.0 true true 0 (Max. iterations)]
] -40.0 MCshow
LTb
1.000 UL
LTa
LCa setrgbcolor
5180 481 M
1110 926 L
stroke
5242 470 M
[ [(Times-Roman) 120.0 0.0 true true 0 ( 10)]
] -40.0 MCshow
1.000 UL
LTb
LCb setrgbcolor
1.000 UL
LTb
LCb setrgbcolor
1165 920 M
-55 6 V
stroke
LTa
LCa setrgbcolor
2636 888 M
1404 1023 L
stroke
5536 566 M
[ [(Times-Roman) 120.0 0.0 true true 0 ( 20)]
] -40.0 MCshow
1.000 UL
LTb
LCb setrgbcolor
1.000 UL
LTb
LCb setrgbcolor
1459 1017 M
-55 6 V
stroke
LTa
LCa setrgbcolor
2354 1047 M
-656 72 V
stroke
5830 663 M
[ [(Times-Roman) 120.0 0.0 true true 0 ( 30)]
] -40.0 MCshow
1.000 UL
LTb
LCb setrgbcolor
1.000 UL
LTb
LCb setrgbcolor
1752 1113 M
-54 6 V
stroke
LTa
LCa setrgbcolor
2190 1194 M
-198 22 V
stroke
6123 759 M
[ [(Times-Roman) 120.0 0.0 true true 0 ( 40)]
] -40.0 MCshow
1.000 UL
LTb
LCb setrgbcolor
1.000 UL
LTb
LCb setrgbcolor
2046 1210 M
-54 6 V
stroke
6417 855 M
[ [(Times-Roman) 120.0 0.0 true true 0 ( 50)]
] -40.0 MCshow
1.000 UL
LTb
LCb setrgbcolor
1.000 UL
LTa
LCa setrgbcolor
6648 963 M
stroke
LTb
LCb setrgbcolor
6648 963 M
stroke
6711 952 M
[ [(Times-Roman) 120.0 0.0 true true 0 ( 60)]
] -40.0 MCshow
1.000 UL
LTb
LCb setrgbcolor
1.000 UL
LTa
LCa setrgbcolor
6942 1059 M
-1 1 V
stroke
LTb
LCb setrgbcolor
6942 1059 M
-1 1 V
stroke
7005 1048 M
[ [(Times-Roman) 120.0 0.0 true true 0 ( 70)]
] -40.0 MCshow
1.000 UL
LTb
LCb setrgbcolor
7298 1145 M
[ [(Times-Roman) 120.0 0.0 true true 0 ( 80)]
] -40.0 MCshow
1.000 UL
LTb
LCb setrgbcolor
1.000 UL
LTa
LCa setrgbcolor
7530 1252 M
5495 1475 L
stroke
LTb
LCb setrgbcolor
7530 1252 M
-55 6 V
stroke
7592 1241 M
[ [(Times-Roman) 120.0 0.0 true true 0 ( 90)]
] -40.0 MCshow
1.000 UL
LTb
LCb setrgbcolor
LCb setrgbcolor
7372 755 M
[ [(Times-Roman) 120.0 0.0 true true 0 (p1)]
] -40.0 MCshow
LTb
1.000 UL
LTa
LCa setrgbcolor
1110 926 M
1009 331 V
stroke
LTa
LCa setrgbcolor
7530 1252 M
5495 1475 L
stroke
LTb
LCb setrgbcolor
1173 926 M
-63 0 V
stroke
984 926 M
[ [(Times-Roman) 120.0 0.0 true true 0 ( 0)]
] -40.0 MRshow
1.000 UL
LTb
LCb setrgbcolor
1.000 UL
LTa
LCa setrgbcolor
1110 1081 M
883 289 V
stroke
LTa
LCa setrgbcolor
7530 1407 M
4737 1712 L
stroke
LTb
LCb setrgbcolor
1173 1081 M
-63 0 V
stroke
984 1081 M
[ [(Times-Roman) 120.0 0.0 true true 0 ( 10)]
] -40.0 MRshow
1.000 UL
LTb
LCb setrgbcolor
1.000 UL
LTa
LCa setrgbcolor
1110 1235 M
757 248 V
stroke
LTa
LCa setrgbcolor
7530 1561 M
4587 1882 L
stroke
LTb
LCb setrgbcolor
1173 1235 M
-63 0 V
stroke
984 1235 M
[ [(Times-Roman) 120.0 0.0 true true 0 ( 20)]
] -40.0 MRshow
1.000 UL
LTb
LCb setrgbcolor
1.000 UL
LTa
LCa setrgbcolor
1110 1389 M
643 211 V
stroke
LTa
LCa setrgbcolor
7530 1715 M
4438 2052 L
stroke
LTb
LCb setrgbcolor
1173 1389 M
-63 0 V
stroke
984 1389 M
[ [(Times-Roman) 120.0 0.0 true true 0 ( 30)]
] -40.0 MRshow
1.000 UL
LTb
LCb setrgbcolor
1.000 UL
LTa
LCa setrgbcolor
1110 1543 M
549 180 V
stroke
LTa
LCa setrgbcolor
7530 1868 M
4290 2223 L
stroke
LTb
LCb setrgbcolor
1173 1543 M
-63 0 V
stroke
984 1543 M
[ [(Times-Roman) 120.0 0.0 true true 0 ( 40)]
] -40.0 MRshow
1.000 UL
LTb
LCb setrgbcolor
1.000 UL
LTa
LCa setrgbcolor
1110 1698 M
454 149 V
stroke
LTa
LCa setrgbcolor
7530 2022 M
4141 2393 L
stroke
LTb
LCb setrgbcolor
1173 1698 M
-63 0 V
stroke
984 1698 M
[ [(Times-Roman) 120.0 0.0 true true 0 ( 50)]
] -40.0 MRshow
1.000 UL
LTb
LCb setrgbcolor
1.000 UL
LTa
LCa setrgbcolor
1110 1852 M
360 117 V
stroke
LTa
LCa setrgbcolor
7530 2177 M
4002 2563 L
stroke
LTb
LCb setrgbcolor
1173 1852 M
-63 0 V
stroke
984 1852 M
[ [(Times-Roman) 120.0 0.0 true true 0 ( 60)]
] -40.0 MRshow
1.000 UL
LTb
LCb setrgbcolor
1.000 UL
LTa
LCa setrgbcolor
1110 2005 M
266 87 V
stroke
LTa
LCa setrgbcolor
7530 2331 M
3862 2732 L
stroke
LTb
LCb setrgbcolor
1173 2005 M
-63 0 V
stroke
984 2005 M
[ [(Times-Roman) 120.0 0.0 true true 0 ( 70)]
] -40.0 MRshow
1.000 UL
LTb
LCb setrgbcolor
1.000 UL
LTa
LCa setrgbcolor
1110 2159 M
172 56 V
stroke
LTa
LCa setrgbcolor
7530 2485 M
3723 2902 L
stroke
LTb
LCb setrgbcolor
1173 2159 M
-63 0 V
stroke
984 2159 M
[ [(Times-Roman) 120.0 0.0 true true 0 ( 80)]
] -40.0 MRshow
1.000 UL
LTb
LCb setrgbcolor
1.000 UL
LTa
LCa setrgbcolor
1110 2313 M
77 26 V
stroke
LTa
LCa setrgbcolor
7530 2639 M
3584 3071 L
stroke
LTb
LCb setrgbcolor
1173 2313 M
-63 0 V
stroke
984 2313 M
[ [(Times-Roman) 120.0 0.0 true true 0 ( 90)]
] -40.0 MRshow
1.000 UL
LTb
LCb setrgbcolor
1.000 UL
LTa
LCa setrgbcolor
1110 2468 M
2350 771 V
stroke
LTa
LCa setrgbcolor
7530 2794 M
3460 3239 L
stroke
LTb
LCb setrgbcolor
1173 2468 M
-63 0 V
stroke
984 2468 M
[ [(Times-Roman) 120.0 0.0 true true 0 ( 100)]
] -40.0 MRshow
1.000 UL
LTb
LCb setrgbcolor
LCb setrgbcolor
606 1698 M
currentpoint gsave translate 90 rotate 0 0 moveto
[ [(Times-Roman) 120.0 0.0 true true 0 (Average number of blocking pairs)]
] -40.0 MCshow
grestore
LTb
1.000 UP
grestore % colour palette end
stroke
grestore
end
showpage
%%Trailer
%%DocumentFonts: Times-Roman
