%!PS-Adobe-2.0 EPSF-2.0
%%Title: AS-3D-Sg-vp1-v2.eps
%%Creator: gnuplot 4.6 patchlevel 5
%%CreationDate: Fri Sep 26 20:44:14 2014
%%DocumentFonts: (atend)
%%BoundingBox: 50 50 428 266
%%EndComments
%%BeginProlog
/gnudict 256 dict def
gnudict begin
%
% The following true/false flags may be edited by hand if desired.
% The unit line width and grayscale image gamma correction may also be changed.
%
/Color true def
/Blacktext false def
/Solid false def
/Dashlength 1 def
/Landscape false def
/Level1 false def
/Rounded false def
/ClipToBoundingBox false def
/SuppressPDFMark false def
/TransparentPatterns false def
/gnulinewidth 5.000 def
/userlinewidth gnulinewidth def
/Gamma 1.0 def
/BackgroundColor {-1.000 -1.000 -1.000} def
%
/vshift -46 def
/dl1 {
  10.0 Dashlength mul mul
  Rounded { currentlinewidth 0.75 mul sub dup 0 le { pop 0.01 } if } if
} def
/dl2 {
  10.0 Dashlength mul mul
  Rounded { currentlinewidth 0.75 mul add } if
} def
/hpt_ 31.5 def
/vpt_ 31.5 def
/hpt hpt_ def
/vpt vpt_ def
/doclip {
  ClipToBoundingBox {
    newpath 50 50 moveto 428 50 lineto 428 266 lineto 50 266 lineto closepath
    clip
  } if
} def
%
% Gnuplot Prolog Version 4.6 (September 2012)
%
%/SuppressPDFMark true def
%
/M {moveto} bind def
/L {lineto} bind def
/R {rmoveto} bind def
/V {rlineto} bind def
/N {newpath moveto} bind def
/Z {closepath} bind def
/C {setrgbcolor} bind def
/f {rlineto fill} bind def
/g {setgray} bind def
/Gshow {show} def   % May be redefined later in the file to support UTF-8
/vpt2 vpt 2 mul def
/hpt2 hpt 2 mul def
/Lshow {currentpoint stroke M 0 vshift R 
	Blacktext {gsave 0 setgray show grestore} {show} ifelse} def
/Rshow {currentpoint stroke M dup stringwidth pop neg vshift R
	Blacktext {gsave 0 setgray show grestore} {show} ifelse} def
/Cshow {currentpoint stroke M dup stringwidth pop -2 div vshift R 
	Blacktext {gsave 0 setgray show grestore} {show} ifelse} def
/UP {dup vpt_ mul /vpt exch def hpt_ mul /hpt exch def
  /hpt2 hpt 2 mul def /vpt2 vpt 2 mul def} def
/DL {Color {setrgbcolor Solid {pop []} if 0 setdash}
 {pop pop pop 0 setgray Solid {pop []} if 0 setdash} ifelse} def
/BL {stroke userlinewidth 2 mul setlinewidth
	Rounded {1 setlinejoin 1 setlinecap} if} def
/AL {stroke userlinewidth 2 div setlinewidth
	Rounded {1 setlinejoin 1 setlinecap} if} def
/UL {dup gnulinewidth mul /userlinewidth exch def
	dup 1 lt {pop 1} if 10 mul /udl exch def} def
/PL {stroke userlinewidth setlinewidth
	Rounded {1 setlinejoin 1 setlinecap} if} def
3.8 setmiterlimit
% Default Line colors
/LCw {1 1 1} def
/LCb {0 0 0} def
/LCa {0 0 0} def
/LC0 {1 0 0} def
/LC1 {0 1 0} def
/LC2 {0 0 1} def
/LC3 {1 0 1} def
/LC4 {0 1 1} def
/LC5 {1 1 0} def
/LC6 {0 0 0} def
/LC7 {1 0.3 0} def
/LC8 {0.5 0.5 0.5} def
% Default Line Types
/LTw {PL [] 1 setgray} def
/LTb {BL [] LCb DL} def
/LTa {AL [1 udl mul 2 udl mul] 0 setdash LCa setrgbcolor} def
/LT0 {PL [] LC0 DL} def
/LT1 {PL [4 dl1 2 dl2] LC1 DL} def
/LT2 {PL [2 dl1 3 dl2] LC2 DL} def
/LT3 {PL [1 dl1 1.5 dl2] LC3 DL} def
/LT4 {PL [6 dl1 2 dl2 1 dl1 2 dl2] LC4 DL} def
/LT5 {PL [3 dl1 3 dl2 1 dl1 3 dl2] LC5 DL} def
/LT6 {PL [2 dl1 2 dl2 2 dl1 6 dl2] LC6 DL} def
/LT7 {PL [1 dl1 2 dl2 6 dl1 2 dl2 1 dl1 2 dl2] LC7 DL} def
/LT8 {PL [2 dl1 2 dl2 2 dl1 2 dl2 2 dl1 2 dl2 2 dl1 4 dl2] LC8 DL} def
/Pnt {stroke [] 0 setdash gsave 1 setlinecap M 0 0 V stroke grestore} def
/Dia {stroke [] 0 setdash 2 copy vpt add M
  hpt neg vpt neg V hpt vpt neg V
  hpt vpt V hpt neg vpt V closepath stroke
  Pnt} def
/Pls {stroke [] 0 setdash vpt sub M 0 vpt2 V
  currentpoint stroke M
  hpt neg vpt neg R hpt2 0 V stroke
 } def
/Box {stroke [] 0 setdash 2 copy exch hpt sub exch vpt add M
  0 vpt2 neg V hpt2 0 V 0 vpt2 V
  hpt2 neg 0 V closepath stroke
  Pnt} def
/Crs {stroke [] 0 setdash exch hpt sub exch vpt add M
  hpt2 vpt2 neg V currentpoint stroke M
  hpt2 neg 0 R hpt2 vpt2 V stroke} def
/TriU {stroke [] 0 setdash 2 copy vpt 1.12 mul add M
  hpt neg vpt -1.62 mul V
  hpt 2 mul 0 V
  hpt neg vpt 1.62 mul V closepath stroke
  Pnt} def
/Star {2 copy Pls Crs} def
/BoxF {stroke [] 0 setdash exch hpt sub exch vpt add M
  0 vpt2 neg V hpt2 0 V 0 vpt2 V
  hpt2 neg 0 V closepath fill} def
/TriUF {stroke [] 0 setdash vpt 1.12 mul add M
  hpt neg vpt -1.62 mul V
  hpt 2 mul 0 V
  hpt neg vpt 1.62 mul V closepath fill} def
/TriD {stroke [] 0 setdash 2 copy vpt 1.12 mul sub M
  hpt neg vpt 1.62 mul V
  hpt 2 mul 0 V
  hpt neg vpt -1.62 mul V closepath stroke
  Pnt} def
/TriDF {stroke [] 0 setdash vpt 1.12 mul sub M
  hpt neg vpt 1.62 mul V
  hpt 2 mul 0 V
  hpt neg vpt -1.62 mul V closepath fill} def
/DiaF {stroke [] 0 setdash vpt add M
  hpt neg vpt neg V hpt vpt neg V
  hpt vpt V hpt neg vpt V closepath fill} def
/Pent {stroke [] 0 setdash 2 copy gsave
  translate 0 hpt M 4 {72 rotate 0 hpt L} repeat
  closepath stroke grestore Pnt} def
/PentF {stroke [] 0 setdash gsave
  translate 0 hpt M 4 {72 rotate 0 hpt L} repeat
  closepath fill grestore} def
/Circle {stroke [] 0 setdash 2 copy
  hpt 0 360 arc stroke Pnt} def
/CircleF {stroke [] 0 setdash hpt 0 360 arc fill} def
/C0 {BL [] 0 setdash 2 copy moveto vpt 90 450 arc} bind def
/C1 {BL [] 0 setdash 2 copy moveto
	2 copy vpt 0 90 arc closepath fill
	vpt 0 360 arc closepath} bind def
/C2 {BL [] 0 setdash 2 copy moveto
	2 copy vpt 90 180 arc closepath fill
	vpt 0 360 arc closepath} bind def
/C3 {BL [] 0 setdash 2 copy moveto
	2 copy vpt 0 180 arc closepath fill
	vpt 0 360 arc closepath} bind def
/C4 {BL [] 0 setdash 2 copy moveto
	2 copy vpt 180 270 arc closepath fill
	vpt 0 360 arc closepath} bind def
/C5 {BL [] 0 setdash 2 copy moveto
	2 copy vpt 0 90 arc
	2 copy moveto
	2 copy vpt 180 270 arc closepath fill
	vpt 0 360 arc} bind def
/C6 {BL [] 0 setdash 2 copy moveto
	2 copy vpt 90 270 arc closepath fill
	vpt 0 360 arc closepath} bind def
/C7 {BL [] 0 setdash 2 copy moveto
	2 copy vpt 0 270 arc closepath fill
	vpt 0 360 arc closepath} bind def
/C8 {BL [] 0 setdash 2 copy moveto
	2 copy vpt 270 360 arc closepath fill
	vpt 0 360 arc closepath} bind def
/C9 {BL [] 0 setdash 2 copy moveto
	2 copy vpt 270 450 arc closepath fill
	vpt 0 360 arc closepath} bind def
/C10 {BL [] 0 setdash 2 copy 2 copy moveto vpt 270 360 arc closepath fill
	2 copy moveto
	2 copy vpt 90 180 arc closepath fill
	vpt 0 360 arc closepath} bind def
/C11 {BL [] 0 setdash 2 copy moveto
	2 copy vpt 0 180 arc closepath fill
	2 copy moveto
	2 copy vpt 270 360 arc closepath fill
	vpt 0 360 arc closepath} bind def
/C12 {BL [] 0 setdash 2 copy moveto
	2 copy vpt 180 360 arc closepath fill
	vpt 0 360 arc closepath} bind def
/C13 {BL [] 0 setdash 2 copy moveto
	2 copy vpt 0 90 arc closepath fill
	2 copy moveto
	2 copy vpt 180 360 arc closepath fill
	vpt 0 360 arc closepath} bind def
/C14 {BL [] 0 setdash 2 copy moveto
	2 copy vpt 90 360 arc closepath fill
	vpt 0 360 arc} bind def
/C15 {BL [] 0 setdash 2 copy vpt 0 360 arc closepath fill
	vpt 0 360 arc closepath} bind def
/Rec {newpath 4 2 roll moveto 1 index 0 rlineto 0 exch rlineto
	neg 0 rlineto closepath} bind def
/Square {dup Rec} bind def
/Bsquare {vpt sub exch vpt sub exch vpt2 Square} bind def
/S0 {BL [] 0 setdash 2 copy moveto 0 vpt rlineto BL Bsquare} bind def
/S1 {BL [] 0 setdash 2 copy vpt Square fill Bsquare} bind def
/S2 {BL [] 0 setdash 2 copy exch vpt sub exch vpt Square fill Bsquare} bind def
/S3 {BL [] 0 setdash 2 copy exch vpt sub exch vpt2 vpt Rec fill Bsquare} bind def
/S4 {BL [] 0 setdash 2 copy exch vpt sub exch vpt sub vpt Square fill Bsquare} bind def
/S5 {BL [] 0 setdash 2 copy 2 copy vpt Square fill
	exch vpt sub exch vpt sub vpt Square fill Bsquare} bind def
/S6 {BL [] 0 setdash 2 copy exch vpt sub exch vpt sub vpt vpt2 Rec fill Bsquare} bind def
/S7 {BL [] 0 setdash 2 copy exch vpt sub exch vpt sub vpt vpt2 Rec fill
	2 copy vpt Square fill Bsquare} bind def
/S8 {BL [] 0 setdash 2 copy vpt sub vpt Square fill Bsquare} bind def
/S9 {BL [] 0 setdash 2 copy vpt sub vpt vpt2 Rec fill Bsquare} bind def
/S10 {BL [] 0 setdash 2 copy vpt sub vpt Square fill 2 copy exch vpt sub exch vpt Square fill
	Bsquare} bind def
/S11 {BL [] 0 setdash 2 copy vpt sub vpt Square fill 2 copy exch vpt sub exch vpt2 vpt Rec fill
	Bsquare} bind def
/S12 {BL [] 0 setdash 2 copy exch vpt sub exch vpt sub vpt2 vpt Rec fill Bsquare} bind def
/S13 {BL [] 0 setdash 2 copy exch vpt sub exch vpt sub vpt2 vpt Rec fill
	2 copy vpt Square fill Bsquare} bind def
/S14 {BL [] 0 setdash 2 copy exch vpt sub exch vpt sub vpt2 vpt Rec fill
	2 copy exch vpt sub exch vpt Square fill Bsquare} bind def
/S15 {BL [] 0 setdash 2 copy Bsquare fill Bsquare} bind def
/D0 {gsave translate 45 rotate 0 0 S0 stroke grestore} bind def
/D1 {gsave translate 45 rotate 0 0 S1 stroke grestore} bind def
/D2 {gsave translate 45 rotate 0 0 S2 stroke grestore} bind def
/D3 {gsave translate 45 rotate 0 0 S3 stroke grestore} bind def
/D4 {gsave translate 45 rotate 0 0 S4 stroke grestore} bind def
/D5 {gsave translate 45 rotate 0 0 S5 stroke grestore} bind def
/D6 {gsave translate 45 rotate 0 0 S6 stroke grestore} bind def
/D7 {gsave translate 45 rotate 0 0 S7 stroke grestore} bind def
/D8 {gsave translate 45 rotate 0 0 S8 stroke grestore} bind def
/D9 {gsave translate 45 rotate 0 0 S9 stroke grestore} bind def
/D10 {gsave translate 45 rotate 0 0 S10 stroke grestore} bind def
/D11 {gsave translate 45 rotate 0 0 S11 stroke grestore} bind def
/D12 {gsave translate 45 rotate 0 0 S12 stroke grestore} bind def
/D13 {gsave translate 45 rotate 0 0 S13 stroke grestore} bind def
/D14 {gsave translate 45 rotate 0 0 S14 stroke grestore} bind def
/D15 {gsave translate 45 rotate 0 0 S15 stroke grestore} bind def
/DiaE {stroke [] 0 setdash vpt add M
  hpt neg vpt neg V hpt vpt neg V
  hpt vpt V hpt neg vpt V closepath stroke} def
/BoxE {stroke [] 0 setdash exch hpt sub exch vpt add M
  0 vpt2 neg V hpt2 0 V 0 vpt2 V
  hpt2 neg 0 V closepath stroke} def
/TriUE {stroke [] 0 setdash vpt 1.12 mul add M
  hpt neg vpt -1.62 mul V
  hpt 2 mul 0 V
  hpt neg vpt 1.62 mul V closepath stroke} def
/TriDE {stroke [] 0 setdash vpt 1.12 mul sub M
  hpt neg vpt 1.62 mul V
  hpt 2 mul 0 V
  hpt neg vpt -1.62 mul V closepath stroke} def
/PentE {stroke [] 0 setdash gsave
  translate 0 hpt M 4 {72 rotate 0 hpt L} repeat
  closepath stroke grestore} def
/CircE {stroke [] 0 setdash 
  hpt 0 360 arc stroke} def
/Opaque {gsave closepath 1 setgray fill grestore 0 setgray closepath} def
/DiaW {stroke [] 0 setdash vpt add M
  hpt neg vpt neg V hpt vpt neg V
  hpt vpt V hpt neg vpt V Opaque stroke} def
/BoxW {stroke [] 0 setdash exch hpt sub exch vpt add M
  0 vpt2 neg V hpt2 0 V 0 vpt2 V
  hpt2 neg 0 V Opaque stroke} def
/TriUW {stroke [] 0 setdash vpt 1.12 mul add M
  hpt neg vpt -1.62 mul V
  hpt 2 mul 0 V
  hpt neg vpt 1.62 mul V Opaque stroke} def
/TriDW {stroke [] 0 setdash vpt 1.12 mul sub M
  hpt neg vpt 1.62 mul V
  hpt 2 mul 0 V
  hpt neg vpt -1.62 mul V Opaque stroke} def
/PentW {stroke [] 0 setdash gsave
  translate 0 hpt M 4 {72 rotate 0 hpt L} repeat
  Opaque stroke grestore} def
/CircW {stroke [] 0 setdash 
  hpt 0 360 arc Opaque stroke} def
/BoxFill {gsave Rec 1 setgray fill grestore} def
/Density {
  /Fillden exch def
  currentrgbcolor
  /ColB exch def /ColG exch def /ColR exch def
  /ColR ColR Fillden mul Fillden sub 1 add def
  /ColG ColG Fillden mul Fillden sub 1 add def
  /ColB ColB Fillden mul Fillden sub 1 add def
  ColR ColG ColB setrgbcolor} def
/BoxColFill {gsave Rec PolyFill} def
/PolyFill {gsave Density fill grestore grestore} def
/h {rlineto rlineto rlineto gsave closepath fill grestore} bind def
%
% PostScript Level 1 Pattern Fill routine for rectangles
% Usage: x y w h s a XX PatternFill
%	x,y = lower left corner of box to be filled
%	w,h = width and height of box
%	  a = angle in degrees between lines and x-axis
%	 XX = 0/1 for no/yes cross-hatch
%
/PatternFill {gsave /PFa [ 9 2 roll ] def
  PFa 0 get PFa 2 get 2 div add PFa 1 get PFa 3 get 2 div add translate
  PFa 2 get -2 div PFa 3 get -2 div PFa 2 get PFa 3 get Rec
  TransparentPatterns {} {gsave 1 setgray fill grestore} ifelse
  clip
  currentlinewidth 0.5 mul setlinewidth
  /PFs PFa 2 get dup mul PFa 3 get dup mul add sqrt def
  0 0 M PFa 5 get rotate PFs -2 div dup translate
  0 1 PFs PFa 4 get div 1 add floor cvi
	{PFa 4 get mul 0 M 0 PFs V} for
  0 PFa 6 get ne {
	0 1 PFs PFa 4 get div 1 add floor cvi
	{PFa 4 get mul 0 2 1 roll M PFs 0 V} for
 } if
  stroke grestore} def
%
/languagelevel where
 {pop languagelevel} {1} ifelse
 2 lt
	{/InterpretLevel1 true def}
	{/InterpretLevel1 Level1 def}
 ifelse
%
% PostScript level 2 pattern fill definitions
%
/Level2PatternFill {
/Tile8x8 {/PaintType 2 /PatternType 1 /TilingType 1 /BBox [0 0 8 8] /XStep 8 /YStep 8}
	bind def
/KeepColor {currentrgbcolor [/Pattern /DeviceRGB] setcolorspace} bind def
<< Tile8x8
 /PaintProc {0.5 setlinewidth pop 0 0 M 8 8 L 0 8 M 8 0 L stroke} 
>> matrix makepattern
/Pat1 exch def
<< Tile8x8
 /PaintProc {0.5 setlinewidth pop 0 0 M 8 8 L 0 8 M 8 0 L stroke
	0 4 M 4 8 L 8 4 L 4 0 L 0 4 L stroke}
>> matrix makepattern
/Pat2 exch def
<< Tile8x8
 /PaintProc {0.5 setlinewidth pop 0 0 M 0 8 L
	8 8 L 8 0 L 0 0 L fill}
>> matrix makepattern
/Pat3 exch def
<< Tile8x8
 /PaintProc {0.5 setlinewidth pop -4 8 M 8 -4 L
	0 12 M 12 0 L stroke}
>> matrix makepattern
/Pat4 exch def
<< Tile8x8
 /PaintProc {0.5 setlinewidth pop -4 0 M 8 12 L
	0 -4 M 12 8 L stroke}
>> matrix makepattern
/Pat5 exch def
<< Tile8x8
 /PaintProc {0.5 setlinewidth pop -2 8 M 4 -4 L
	0 12 M 8 -4 L 4 12 M 10 0 L stroke}
>> matrix makepattern
/Pat6 exch def
<< Tile8x8
 /PaintProc {0.5 setlinewidth pop -2 0 M 4 12 L
	0 -4 M 8 12 L 4 -4 M 10 8 L stroke}
>> matrix makepattern
/Pat7 exch def
<< Tile8x8
 /PaintProc {0.5 setlinewidth pop 8 -2 M -4 4 L
	12 0 M -4 8 L 12 4 M 0 10 L stroke}
>> matrix makepattern
/Pat8 exch def
<< Tile8x8
 /PaintProc {0.5 setlinewidth pop 0 -2 M 12 4 L
	-4 0 M 12 8 L -4 4 M 8 10 L stroke}
>> matrix makepattern
/Pat9 exch def
/Pattern1 {PatternBgnd KeepColor Pat1 setpattern} bind def
/Pattern2 {PatternBgnd KeepColor Pat2 setpattern} bind def
/Pattern3 {PatternBgnd KeepColor Pat3 setpattern} bind def
/Pattern4 {PatternBgnd KeepColor Landscape {Pat5} {Pat4} ifelse setpattern} bind def
/Pattern5 {PatternBgnd KeepColor Landscape {Pat4} {Pat5} ifelse setpattern} bind def
/Pattern6 {PatternBgnd KeepColor Landscape {Pat9} {Pat6} ifelse setpattern} bind def
/Pattern7 {PatternBgnd KeepColor Landscape {Pat8} {Pat7} ifelse setpattern} bind def
} def
%
%
%End of PostScript Level 2 code
%
/PatternBgnd {
  TransparentPatterns {} {gsave 1 setgray fill grestore} ifelse
} def
%
% Substitute for Level 2 pattern fill codes with
% grayscale if Level 2 support is not selected.
%
/Level1PatternFill {
/Pattern1 {0.250 Density} bind def
/Pattern2 {0.500 Density} bind def
/Pattern3 {0.750 Density} bind def
/Pattern4 {0.125 Density} bind def
/Pattern5 {0.375 Density} bind def
/Pattern6 {0.625 Density} bind def
/Pattern7 {0.875 Density} bind def
} def
%
% Now test for support of Level 2 code
%
Level1 {Level1PatternFill} {Level2PatternFill} ifelse
%
/Symbol-Oblique /Symbol findfont [1 0 .167 1 0 0] makefont
dup length dict begin {1 index /FID eq {pop pop} {def} ifelse} forall
currentdict end definefont pop
/MFshow {
   { dup 5 get 3 ge
     { 5 get 3 eq {gsave} {grestore} ifelse }
     {dup dup 0 get findfont exch 1 get scalefont setfont
     [ currentpoint ] exch dup 2 get 0 exch R dup 5 get 2 ne {dup dup 6
     get exch 4 get {Gshow} {stringwidth pop 0 R} ifelse }if dup 5 get 0 eq
     {dup 3 get {2 get neg 0 exch R pop} {pop aload pop M} ifelse} {dup 5
     get 1 eq {dup 2 get exch dup 3 get exch 6 get stringwidth pop -2 div
     dup 0 R} {dup 6 get stringwidth pop -2 div 0 R 6 get
     show 2 index {aload pop M neg 3 -1 roll neg R pop pop} {pop pop pop
     pop aload pop M} ifelse }ifelse }ifelse }
     ifelse }
   forall} def
/Gswidth {dup type /stringtype eq {stringwidth} {pop (n) stringwidth} ifelse} def
/MFwidth {0 exch { dup 5 get 3 ge { 5 get 3 eq { 0 } { pop } ifelse }
 {dup 3 get{dup dup 0 get findfont exch 1 get scalefont setfont
     6 get Gswidth pop add} {pop} ifelse} ifelse} forall} def
/MLshow { currentpoint stroke M
  0 exch R
  Blacktext {gsave 0 setgray MFshow grestore} {MFshow} ifelse } bind def
/MRshow { currentpoint stroke M
  exch dup MFwidth neg 3 -1 roll R
  Blacktext {gsave 0 setgray MFshow grestore} {MFshow} ifelse } bind def
/MCshow { currentpoint stroke M
  exch dup MFwidth -2 div 3 -1 roll R
  Blacktext {gsave 0 setgray MFshow grestore} {MFshow} ifelse } bind def
/XYsave    { [( ) 1 2 true false 3 ()] } bind def
/XYrestore { [( ) 1 2 true false 4 ()] } bind def
Level1 SuppressPDFMark or 
{} {
/SDict 10 dict def
systemdict /pdfmark known not {
  userdict /pdfmark systemdict /cleartomark get put
} if
SDict begin [
  /Title (AS-3D-Sg-vp1-v2.eps)
  /Subject (gnuplot plot)
  /Creator (gnuplot 4.6 patchlevel 5)
  /Author (dannymunera)
%  /Producer (gnuplot)
%  /Keywords ()
  /CreationDate (Fri Sep 26 20:44:14 2014)
  /DOCINFO pdfmark
end
} ifelse
end
%%EndProlog
%%Page: 1 1
gnudict begin
gsave
doclip
50 50 translate
0.050 0.050 scale
0 setgray
newpath
(Times-Roman) findfont 140 scalefont setfont
BackgroundColor 0 lt 3 1 roll 0 lt exch 0 lt or or not {BackgroundColor C 1.000 0 0 7560.00 4320.00 BoxColFill} if
gsave % colour palette begin
/maxcolors 0 def
/HSV2RGB {  exch dup 0.0 eq {pop exch pop dup dup} % achromatic gray
  { /HSVs exch def /HSVv exch def 6.0 mul dup floor dup 3 1 roll sub
     /HSVf exch def /HSVi exch cvi def /HSVp HSVv 1.0 HSVs sub mul def
	 /HSVq HSVv 1.0 HSVs HSVf mul sub mul def 
	 /HSVt HSVv 1.0 HSVs 1.0 HSVf sub mul sub mul def
	 /HSVi HSVi 6 mod def 0 HSVi eq {HSVv HSVt HSVp}
	 {1 HSVi eq {HSVq HSVv HSVp}{2 HSVi eq {HSVp HSVv HSVt}
	 {3 HSVi eq {HSVp HSVq HSVv}{4 HSVi eq {HSVt HSVp HSVv}
	 {HSVv HSVp HSVq} ifelse} ifelse} ifelse} ifelse} ifelse
  } ifelse} def
/Constrain {
  dup 0 lt {0 exch pop}{dup 1 gt {1 exch pop} if} ifelse} def
/YIQ2RGB {
  3 copy -1.702 mul exch -1.105 mul add add Constrain 4 1 roll
  3 copy -0.647 mul exch -0.272 mul add add Constrain 5 1 roll
  0.621 mul exch -0.956 mul add add Constrain 3 1 roll } def
/CMY2RGB {  1 exch sub exch 1 exch sub 3 2 roll 1 exch sub 3 1 roll exch } def
/XYZ2RGB {  3 copy -0.9017 mul exch -0.1187 mul add exch 0.0585 mul exch add
  Constrain 4 1 roll 3 copy -0.0279 mul exch 1.999 mul add exch
  -0.9844 mul add Constrain 5 1 roll -0.2891 mul exch -0.5338 mul add
  exch 1.91 mul exch add Constrain 3 1 roll} def
/SelectSpace {ColorSpace (HSV) eq {HSV2RGB}{ColorSpace (XYZ) eq {
  XYZ2RGB}{ColorSpace (CMY) eq {CMY2RGB}{ColorSpace (YIQ) eq {YIQ2RGB}
  if} ifelse} ifelse} ifelse} def
/InterpolatedColor false def
/pm3dround {maxcolors 0 gt {dup 1 ge
	{pop 1} {maxcolors mul floor maxcolors 1 sub div} ifelse} if} def
/pm3dGamma 1.0 1.5 Gamma mul div def
/ColorSpace (RGB) def
false { % COLOUR vs. GRAY map
  InterpolatedColor { %% Interpolation vs. RGB-Formula
    /g {stroke pm3dround /grayv exch def interpolate
        SelectSpace setrgbcolor} bind def
  }{
  /g {stroke pm3dround dup cF7 Constrain exch dup cF5 Constrain exch cF15 Constrain 
       SelectSpace setrgbcolor} bind def
  } ifelse
}{
  /g {stroke pm3dround pm3dGamma exp setgray} bind def
} ifelse
1.000 UL
LTb
LCb setrgbcolor
1.000 UP
% Begin plot #1
% End plot #1
% Begin plot #2
1.000 UL
LT0
0.75 0.75 0.75 C 1.000 UL
LT0
0.75 0.75 0.75 C % End plot #2
.0375 g 3693 2029 N 254 177 59 -35 -253 -153 h
1.000 UL
LT0
0.75 0.75 0.75 C 3693 2029 M
60 -11 V
3499 1841 L
-59 35 V
253 153 V
.0326 g 3753 2018 N 252 182 60 -16 -254 -177 h
stroke
LT0
0.75 0.75 0.75 C 3753 2018 M
58 -11 V
3559 1825 L
-60 16 V
254 177 V
.0499 g 3634 2045 N 253 153 60 -67 -254 -102 h
stroke
LT0
0.75 0.75 0.75 C 3634 2045 M
59 -16 V
3440 1876 L
-60 67 V
254 102 V
.0309 g 3811 2007 N 253 183 59 -11 -252 -182 h
stroke
LT0
0.75 0.75 0.75 C 3811 2007 M
60 -10 V
3618 1814 L
-59 11 V
252 182 V
.0301 g 3871 1997 N 252 183 60 -11 -253 -183 h
stroke
LT0
0.75 0.75 0.75 C 3871 1997 M
59 -11 V
3678 1803 L
-60 11 V
253 183 V
.0781 g 3574 2112 N 254 102 59 -96 -253 -73 h
stroke
LT0
0.75 0.75 0.75 C 3574 2112 M
60 -67 V
3380 1943 L
-59 96 V
253 73 V
.0292 g 3930 1986 N 253 182 59 -10 -252 -183 h
stroke
LT0
0.75 0.75 0.75 C 3930 1986 M
60 -11 V
3737 1793 L
-59 10 V
252 183 V
.0285 g 3990 1975 N 253 181 59 -10 -253 -182 h
stroke
LT0
0.75 0.75 0.75 C 3990 1975 M
59 -11 V
3796 1783 L
-59 10 V
253 182 V
.0278 g 4049 1964 N 254 181 59 -10 -253 -181 h
stroke
LT0
0.75 0.75 0.75 C 4049 1964 M
60 -10 V
3855 1773 L
-59 10 V
253 181 V
.1314 g 3514 2260 N 253 73 60 -121 -253 -100 h
stroke
LT0
0.75 0.75 0.75 C 3514 2260 M
60 -148 V
-253 -73 V
-60 121 V
253 100 V
.0272 g 4109 1954 N 253 181 60 -10 -254 -181 h
stroke
LT0
0.75 0.75 0.75 C 4109 1954 M
59 -10 V
3915 1763 L
-60 10 V
254 181 V
.0267 g 4168 1944 N 254 179 59 -9 -253 -181 h
stroke
LT0
0.75 0.75 0.75 C 4168 1944 M
60 -11 V
3974 1754 L
-59 9 V
253 181 V
.0263 g 4228 1933 N 253 179 60 -10 -254 -179 h
stroke
LT0
0.75 0.75 0.75 C 4228 1933 M
59 -10 V
4034 1744 L
-60 10 V
254 179 V
.0259 g 4287 1923 N 254 179 59 -10 -253 -179 h
stroke
LT0
0.75 0.75 0.75 C 4287 1923 M
60 -10 V
4093 1734 L
-59 10 V
253 179 V
.2025 g 3455 2423 N 253 100 60 -132 -254 -131 h
stroke
LT0
0.75 0.75 0.75 C 3455 2423 M
59 -163 V
3261 2160 L
-60 132 V
254 131 V
.0256 g 4347 1913 N 254 178 60 -9 -254 -179 h
stroke
LT0
0.75 0.75 0.75 C 4347 1913 M
60 -10 V
4153 1725 L
-60 9 V
254 179 V
.0253 g 4407 1903 N 253 179 60 -10 -254 -178 h
stroke
LT0
0.75 0.75 0.75 C 4407 1903 M
59 -9 V
4213 1715 L
-60 10 V
254 178 V
.025 g 4466 1894 N 254 179 59 -10 -253 -179 h
stroke
LT0
0.75 0.75 0.75 C 4466 1894 M
60 -10 V
4272 1705 L
-59 10 V
253 179 V
.0155 g 3499 1841 N 254 123 59 -30 -253 -109 h
stroke
LT0
0.75 0.75 0.75 C 3499 1841 M
60 -16 V
3305 1702 L
-59 30 V
253 109 V
.0247 g 4526 1884 N 253 180 60 -10 -254 -179 h
stroke
LT0
0.75 0.75 0.75 C 4526 1884 M
59 -9 V
4332 1695 L
-60 10 V
254 179 V
.0276 g 3440 1876 N 253 109 60 -45 -254 -99 h
stroke
LT0
0.75 0.75 0.75 C 3440 1876 M
59 -35 V
3246 1732 L
-60 45 V
254 99 V
.2802 g 3395 2592 N 254 131 59 -149 -253 -151 h
stroke
LT0
0.75 0.75 0.75 C 3395 2592 M
60 -169 V
3201 2292 L
-59 149 V
253 151 V
.0107 g 3559 1825 N 253 127 60 -15 -254 -123 h
stroke
LT0
0.75 0.75 0.75 C 3559 1825 M
59 -11 V
3365 1687 L
-60 15 V
254 123 V
.0243 g 4585 1875 N 254 179 59 -9 -253 -180 h
stroke
LT0
0.75 0.75 0.75 C 4585 1875 M
60 -10 V
4391 1686 L
-59 9 V
253 180 V
.0519 g 3380 1943 N 254 99 59 -70 -253 -96 h
stroke
LT0
0.75 0.75 0.75 C 3380 1943 M
60 -67 V
-254 -99 V
-59 70 V
253 96 V
.0091 g 3618 1814 N 254 128 59 -12 -253 -127 h
stroke
LT0
0.75 0.75 0.75 C 3618 1814 M
60 -11 V
3424 1675 L
-59 12 V
253 127 V
.0238 g 4645 1865 N 253 178 60 -10 -254 -179 h
stroke
LT0
0.75 0.75 0.75 C 4645 1865 M
59 -11 V
4451 1676 L
-60 10 V
254 179 V
.0078 g 3678 1803 N 253 131 60 -13 -254 -128 h
stroke
LT0
0.75 0.75 0.75 C 3678 1803 M
59 -10 V
3484 1662 L
-60 13 V
254 128 V
.0233 g 4704 1854 N 254 177 59 -9 -253 -178 h
stroke
LT0
0.75 0.75 0.75 C 4704 1854 M
60 -10 V
4510 1667 L
-59 9 V
253 178 V
.0906 g 3321 2039 N 253 96 60 -90 -254 -102 h
stroke
LT0
0.75 0.75 0.75 C 3321 2039 M
59 -96 V
-253 -96 V
-60 90 V
254 102 V
.007 g 3737 1793 N 253 131 59 -10 -253 -131 h
stroke
LT0
0.75 0.75 0.75 C 3737 1793 M
59 -10 V
3543 1652 L
-59 10 V
253 131 V
.0231 g 4764 1844 N 253 176 60 -9 -254 -177 h
stroke
LT0
0.75 0.75 0.75 C 4764 1844 M
59 -10 V
4570 1658 L
-60 9 V
254 177 V
.0066 g 3796 1783 N 252 130 60 -9 -253 -131 h
stroke
LT0
0.75 0.75 0.75 C 3796 1783 M
59 -10 V
3603 1643 L
-60 9 V
253 131 V
.0229 g 4823 1834 N 254 177 59 -10 -253 -176 h
stroke
LT0
0.75 0.75 0.75 C 4823 1834 M
60 -9 V
4629 1648 L
-59 10 V
253 176 V
.3635 g 3336 2771 N 253 151 60 -159 -254 -171 h
stroke
LT0
0.75 0.75 0.75 C 3336 2771 M
59 -179 V
3142 2441 L
-60 159 V
254 171 V
.0062 g 3855 1773 N 253 130 59 -10 -252 -130 h
stroke
LT0
0.75 0.75 0.75 C 3855 1773 M
60 -10 V
3662 1633 L
-59 10 V
252 130 V
.1407 g 3261 2160 N 254 102 60 -103 -254 -120 h
stroke
LT0
0.75 0.75 0.75 C 3261 2160 M
60 -121 V
3067 1937 L
-60 103 V
254 120 V
.0227 g 4883 1825 N 253 177 60 -10 -254 -177 h
stroke
LT0
0.75 0.75 0.75 C 4883 1825 M
59 -10 V
4689 1638 L
-60 10 V
254 177 V
.0059 g 3915 1763 N 252 131 60 -10 -253 -130 h
stroke
LT0
0.75 0.75 0.75 C 3915 1763 M
59 -9 V
3722 1623 L
-60 10 V
253 130 V
.0224 g 4942 1815 N 254 176 59 -9 -253 -177 h
stroke
LT0
0.75 0.75 0.75 C 4942 1815 M
60 -10 V
4748 1629 L
-59 9 V
253 177 V
.0057 g 3974 1754 N 254 130 58 -9 -252 -131 h
stroke
LT0
0.75 0.75 0.75 C 3974 1754 M
60 -10 V
3780 1614 L
-58 9 V
252 131 V
.0221 g 5002 1805 N 253 176 60 -9 -254 -176 h
stroke
LT0
0.75 0.75 0.75 C 5002 1805 M
59 -9 V
4808 1620 L
-60 9 V
254 176 V
.0055 g 4034 1744 N 253 129 60 -9 -254 -130 h
stroke
LT0
0.75 0.75 0.75 C 4034 1744 M
59 -10 V
3840 1605 L
-60 9 V
254 130 V
.2001 g 3201 2292 N 254 120 59 -122 -253 -130 h
stroke
LT0
0.75 0.75 0.75 C 3201 2292 M
60 -132 V
3007 2040 L
-59 122 V
253 130 V
.0219 g 5061 1796 N 254 176 59 -10 -253 -176 h
stroke
LT0
0.75 0.75 0.75 C 5061 1796 M
60 -10 V
4867 1610 L
-59 10 V
253 176 V
.0053 g 4093 1734 N 253 130 60 -10 -253 -129 h
stroke
LT0
0.75 0.75 0.75 C 4093 1734 M
60 -9 V
3900 1595 L
-60 10 V
253 129 V
.0217 g 5121 1786 N 253 175 60 -9 -254 -176 h
stroke
LT0
0.75 0.75 0.75 C 5121 1786 M
59 -10 V
4927 1601 L
-60 9 V
254 176 V
.4522 g 3276 2958 N 254 171 59 -171 -253 -187 h
stroke
LT0
0.75 0.75 0.75 C 3276 2958 M
60 -187 V
3082 2600 L
-59 171 V
253 187 V
.0051 g 4153 1725 N 254 129 59 -9 -253 -130 h
stroke
LT0
0.75 0.75 0.75 C 4153 1725 M
60 -10 V
3959 1586 L
-59 9 V
253 130 V
.0215 g 5180 1776 N 253 174 60 -9 -253 -175 h
stroke
LT0
0.75 0.75 0.75 C 5180 1776 M
60 -10 V
4987 1592 L
-60 9 V
253 175 V
.0049 g 4213 1715 N 253 128 60 -9 -254 -129 h
stroke
LT0
0.75 0.75 0.75 C 4213 1715 M
59 -10 V
4019 1577 L
-60 9 V
254 129 V
.0213 g 5240 1766 N 254 175 59 -10 -253 -174 h
stroke
LT0
0.75 0.75 0.75 C 5240 1766 M
60 -9 V
5046 1582 L
-59 10 V
253 174 V
.267 g 3142 2441 N 253 130 60 -129 -254 -150 h
stroke
LT0
0.75 0.75 0.75 C 3142 2441 M
59 -149 V
2948 2162 L
-60 129 V
254 150 V
.0047 g 4272 1705 N 254 127 59 -9 -253 -128 h
stroke
LT0
0.75 0.75 0.75 C 4272 1705 M
60 -10 V
4078 1568 L
-59 9 V
253 128 V
.0155 g 3246 1732 N 253 117 60 -31 -254 -116 h
stroke
LT0
0.75 0.75 0.75 C 3246 1732 M
59 -30 V
3052 1585 L
-60 31 V
254 116 V
.021 g 5300 1757 N 253 174 60 -9 -254 -175 h
stroke
LT0
0.75 0.75 0.75 C 5300 1757 M
59 -10 V
5106 1573 L
-60 9 V
254 175 V
.0324 g 3186 1777 N 254 116 59 -56 -253 -105 h
stroke
LT0
0.75 0.75 0.75 C 3186 1777 M
60 -45 V
2992 1616 L
-59 56 V
253 105 V
.0075 g 3305 1702 N 254 122 59 -20 -253 -117 h
stroke
LT0
0.75 0.75 0.75 C 3305 1702 M
60 -15 V
3111 1565 L
-59 20 V
253 117 V
.0045 g 4332 1695 N 253 127 60 -9 -254 -127 h
stroke
LT0
0.75 0.75 0.75 C 4332 1695 M
59 -9 V
4138 1559 L
-60 9 V
254 127 V
.0208 g 5359 1747 N 254 173 59 -9 -253 -174 h
stroke
LT0
0.75 0.75 0.75 C 5359 1747 M
60 -10 V
5165 1564 L
-59 9 V
253 174 V
.0044 g 3365 1687 N 253 123 60 -13 -254 -122 h
stroke
LT0
0.75 0.75 0.75 C 3365 1687 M
59 -12 V
3171 1552 L
-60 13 V
254 122 V
.0595 g 3127 1847 N 253 105 60 -67 -254 -108 h
stroke
LT0
0.75 0.75 0.75 C 3127 1847 M
59 -70 V
2933 1672 L
-60 67 V
254 108 V
.0043 g 4391 1686 N 254 126 59 -9 -253 -127 h
stroke
LT0
0.75 0.75 0.75 C 4391 1686 M
60 -10 V
4197 1550 L
-59 9 V
253 127 V
.0206 g 5419 1737 N 253 173 60 -9 -254 -173 h
stroke
LT0
0.75 0.75 0.75 C 5419 1737 M
59 -9 V
5225 1555 L
-60 9 V
254 173 V
.0029 g 3424 1675 N 254 119 59 -9 -253 -123 h
stroke
LT0
0.75 0.75 0.75 C 3424 1675 M
60 -13 V
3230 1543 L
-59 9 V
253 123 V
.5453 g 3217 3150 N 253 187 60 -177 -254 -202 h
stroke
LT0
0.75 0.75 0.75 C 3217 3150 M
59 -192 V
3023 2771 L
-60 177 V
254 202 V
.0041 g 4451 1676 N 253 127 60 -10 -254 -126 h
stroke
LT0
0.75 0.75 0.75 C 4451 1676 M
59 -9 V
4257 1540 L
-60 10 V
254 126 V
.0204 g 5478 1728 N 254 173 59 -10 -253 -173 h
stroke
LT0
0.75 0.75 0.75 C 5478 1728 M
60 -10 V
5284 1545 L
-59 10 V
253 173 V
.0964 g 3067 1937 N 254 108 59 -83 -253 -115 h
stroke
LT0
0.75 0.75 0.75 C 3067 1937 M
60 -90 V
2873 1739 L
-59 83 V
253 115 V
.0022 g 3484 1662 N 253 119 60 -10 -254 -119 h
stroke
LT0
0.75 0.75 0.75 C 3484 1662 M
59 -10 V
3290 1533 L
-60 10 V
254 119 V
.3407 g 3082 2600 N 254 150 59 -147 -253 -162 h
stroke
LT0
0.75 0.75 0.75 C 3082 2600 M
60 -159 V
2888 2291 L
-59 147 V
253 162 V
.004 g 4510 1667 N 254 127 59 -9 -253 -127 h
stroke
LT0
0.75 0.75 0.75 C 4510 1667 M
60 -9 V
4316 1531 L
-59 9 V
253 127 V
.0202 g 5538 1718 N 253 172 60 -9 -254 -173 h
stroke
LT0
0.75 0.75 0.75 C 5538 1718 M
59 -10 V
5344 1536 L
-60 9 V
254 173 V
.0019 g 3543 1652 N 254 119 59 -9 -253 -119 h
stroke
LT0
0.75 0.75 0.75 C 3543 1652 M
60 -9 V
3349 1524 L
-59 9 V
253 119 V
.0038 g 4570 1658 N 253 127 60 -10 -254 -127 h
stroke
LT0
0.75 0.75 0.75 C 4570 1658 M
59 -10 V
4376 1521 L
-60 10 V
254 127 V
.0199 g 5597 1708 N 254 171 59 -9 -253 -172 h
stroke
LT0
0.75 0.75 0.75 C 5597 1708 M
60 -10 V
5403 1527 L
-59 9 V
253 172 V
.1402 g 3007 2040 N 253 115 60 -86 -253 -132 h
stroke
LT0
0.75 0.75 0.75 C 3007 2040 M
60 -103 V
2814 1822 L
-60 86 V
253 132 V
.0018 g 3603 1643 N 253 118 60 -9 -254 -119 h
stroke
LT0
0.75 0.75 0.75 C 3603 1643 M
59 -10 V
3409 1515 L
-60 9 V
254 119 V
.0037 g 4629 1648 N 254 126 59 -9 -253 -127 h
stroke
LT0
0.75 0.75 0.75 C 4629 1648 M
60 -10 V
4435 1512 L
-59 9 V
253 127 V
.0199 g 5657 1698 N 253 171 60 -9 -254 -171 h
stroke
LT0
0.75 0.75 0.75 C 5657 1698 M
59 -9 V
5463 1518 L
-60 9 V
254 171 V
.0016 g 3662 1633 N 254 118 59 -10 -253 -118 h
stroke
LT0
0.75 0.75 0.75 C 3662 1633 M
60 -10 V
3468 1505 L
-59 10 V
253 118 V
.0035 g 4689 1638 N 253 126 60 -9 -254 -126 h
stroke
LT0
0.75 0.75 0.75 C 4689 1638 M
59 -9 V
4495 1503 L
-60 9 V
254 126 V
.0198 g 5716 1689 N 254 170 59 -9 -253 -171 h
stroke
LT0
0.75 0.75 0.75 C 5716 1689 M
60 -10 V
5522 1509 L
-59 9 V
253 171 V
.0014 g 3722 1623 N 252 118 60 -9 -254 -118 h
stroke
LT0
0.75 0.75 0.75 C 3722 1623 M
58 -9 V
3528 1496 L
-60 9 V
254 118 V
.0034 g 4748 1629 N 254 126 59 -9 -253 -126 h
stroke
LT0
0.75 0.75 0.75 C 4748 1629 M
60 -9 V
4554 1494 L
-59 9 V
253 126 V
.4199 g 3023 2771 N 253 162 60 -148 -254 -185 h
stroke
LT0
0.75 0.75 0.75 C 3023 2771 M
59 -171 V
2829 2438 L
-60 148 V
254 185 V
.1913 g 2948 2162 N 253 132 60 -105 -254 -149 h
stroke
LT0
0.75 0.75 0.75 C 2948 2162 M
59 -122 V
2754 1908 L
-60 105 V
254 149 V
.6414 g 3157 3353 N 254 202 59 -179 -253 -226 h
stroke
LT0
0.75 0.75 0.75 C 3157 3353 M
60 -203 V
2963 2948 L
-59 179 V
253 226 V
.0197 g 5776 1679 N 253 170 60 -9 -254 -170 h
stroke
LT0
0.75 0.75 0.75 C 5776 1679 M
59 -9 V
5582 1500 L
-60 9 V
254 170 V
.0013 g 3780 1614 N 253 119 59 -10 -252 -118 h
stroke
LT0
0.75 0.75 0.75 C 3780 1614 M
60 -9 V
3587 1486 L
-59 10 V
252 118 V
.0034 g 4808 1620 N 253 125 60 -9 -254 -126 h
stroke
LT0
0.75 0.75 0.75 C 4808 1620 M
59 -10 V
4614 1485 L
-60 9 V
254 126 V
.0197 g 5835 1670 N 254 170 59 -9 -253 -170 h
stroke
LT0
0.75 0.75 0.75 C 5835 1670 M
60 -9 V
5641 1491 L
-59 9 V
253 170 V
.0011 g 3840 1605 N 253 118 60 -9 -253 -119 h
stroke
LT0
0.75 0.75 0.75 C 3840 1605 M
60 -10 V
3647 1477 L
-60 9 V
253 119 V
.0033 g 4867 1610 N 254 125 59 -9 -253 -125 h
stroke
LT0
0.75 0.75 0.75 C 4867 1610 M
60 -9 V
4673 1476 L
-59 9 V
253 125 V
.0196 g 5895 1661 N 253 170 60 -10 -254 -170 h
stroke
LT0
0.75 0.75 0.75 C 5895 1661 M
59 -10 V
5701 1481 L
-60 10 V
254 170 V
.0011 g 3900 1595 N 252 118 60 -9 -253 -118 h
stroke
LT0
0.75 0.75 0.75 C 3900 1595 M
59 -9 V
3707 1468 L
-60 9 V
253 118 V
.2499 g 2888 2291 N 254 149 59 -116 -253 -162 h
stroke
LT0
0.75 0.75 0.75 C 2888 2291 M
60 -129 V
2694 2013 L
-59 116 V
253 162 V
.0033 g 4927 1601 N 254 126 60 -10 -254 -125 h
stroke
LT0
0.75 0.75 0.75 C 4927 1601 M
60 -9 V
4733 1466 L
-60 10 V
254 125 V
.0194 g 5954 1651 N 254 170 59 -9 -253 -170 h
stroke
LT0
0.75 0.75 0.75 C 5954 1651 M
60 -9 V
5760 1472 L
-59 9 V
253 170 V
.001 g 3959 1586 N 253 118 59 -9 -252 -118 h
stroke
LT0
0.75 0.75 0.75 C 3959 1586 M
60 -9 V
3766 1459 L
-59 9 V
252 118 V
.0032 g 4987 1592 N 253 125 60 -9 -254 -126 h
stroke
LT0
0.75 0.75 0.75 C 4987 1592 M
59 -10 V
4793 1457 L
-60 9 V
254 126 V
.0193 g 6014 1642 N 254 169 60 -9 -254 -170 h
stroke
LT0
0.75 0.75 0.75 C 6014 1642 M
60 -10 V
5820 1463 L
-60 9 V
254 170 V
.0009 g 4019 1577 N 253 119 59 -10 -253 -118 h
stroke
LT0
0.75 0.75 0.75 C 4019 1577 M
59 -9 V
3825 1449 L
-59 10 V
253 118 V
.5041 g 2963 2948 N 254 185 59 -165 -253 -197 h
stroke
LT0
0.75 0.75 0.75 C 2963 2948 M
60 -177 V
2769 2586 L
-59 165 V
253 197 V
.0031 g 5046 1582 N 254 125 59 -9 -253 -125 h
stroke
LT0
0.75 0.75 0.75 C 5046 1582 M
60 -9 V
4852 1448 L
-59 9 V
253 125 V
.0152 g 2992 1616 N 254 117 59 -31 -253 -117 h
stroke
LT0
0.75 0.75 0.75 C 2992 1616 M
60 -31 V
2798 1468 L
-59 31 V
253 117 V
.0321 g 2933 1672 N 253 117 60 -43 -254 -130 h
stroke
LT0
0.75 0.75 0.75 C 2933 1672 M
59 -56 V
2739 1499 L
-60 43 V
254 130 V
.0192 g 6074 1632 N 253 169 60 -9 -254 -169 h
stroke
LT0
0.75 0.75 0.75 C 6074 1632 M
59 -9 V
5880 1454 L
-60 9 V
254 169 V
.0064 g 3052 1585 N 253 117 60 -20 -254 -117 h
stroke
LT0
0.75 0.75 0.75 C 3052 1585 M
59 -20 V
2858 1448 L
-60 20 V
254 117 V
.0009 g 4078 1568 N 254 119 59 -9 -253 -119 h
stroke
LT0
0.75 0.75 0.75 C 4078 1568 M
60 -9 V
3884 1440 L
-59 9 V
253 119 V
.7404 g 3098 3553 N 253 226 60 -192 -254 -234 h
stroke
LT0
0.75 0.75 0.75 C 3098 3553 M
59 -200 V
2904 3127 L
-60 192 V
254 234 V
.0572 g 2873 1739 N 254 130 59 -57 -253 -140 h
stroke
LT0
0.75 0.75 0.75 C 2873 1739 M
60 -67 V
2679 1542 L
-59 57 V
253 140 V
.003 g 5106 1573 N 253 125 60 -9 -254 -125 h
stroke
LT0
0.75 0.75 0.75 C 5106 1573 M
59 -9 V
4912 1439 L
-60 9 V
254 125 V
.3139 g 2829 2438 N 253 162 60 -119 -254 -190 h
stroke
LT0
0.75 0.75 0.75 C 2829 2438 M
59 -147 V
2635 2129 L
-60 119 V
254 190 V
.0191 g 6133 1623 N 254 169 59 -9 -253 -169 h
stroke
LT0
0.75 0.75 0.75 C 6133 1623 M
60 -9 V
5939 1445 L
-59 9 V
253 169 V
.0023 g 3111 1565 N 254 118 59 -14 -253 -117 h
stroke
LT0
0.75 0.75 0.75 C 3111 1565 M
60 -13 V
2917 1434 L
-59 14 V
253 117 V
.0009 g 4138 1559 N 253 119 60 -9 -254 -119 h
stroke
LT0
0.75 0.75 0.75 C 4138 1559 M
59 -9 V
3944 1431 L
-60 9 V
254 119 V
.088 g 2814 1822 N 253 140 60 -59 -254 -164 h
stroke
LT0
0.75 0.75 0.75 C 2814 1822 M
59 -83 V
2620 1599 L
-60 59 V
254 164 V
.0029 g 5165 1564 N 254 125 59 -9 -253 -125 h
stroke
LT0
0.75 0.75 0.75 C 5165 1564 M
60 -9 V
4971 1430 L
-59 9 V
253 125 V
.019 g 6193 1614 N 253 170 60 -10 -254 -169 h
stroke
LT0
0.75 0.75 0.75 C 6193 1614 M
59 -9 V
5999 1435 L
-60 10 V
254 169 V
.001 g 3171 1552 N 253 119 60 -10 -254 -118 h
stroke
LT0
0.75 0.75 0.75 C 3171 1552 M
59 -9 V
2977 1424 L
-60 10 V
254 118 V
.0009 g 4197 1550 N 254 118 59 -9 -253 -119 h
stroke
LT0
0.75 0.75 0.75 C 4197 1550 M
60 -10 V
4003 1422 L
-59 9 V
253 119 V
.0029 g 5225 1555 N 253 124 60 -9 -254 -125 h
stroke
LT0
0.75 0.75 0.75 C 5225 1555 M
59 -10 V
5031 1421 L
-60 9 V
254 125 V
.1241 g 2754 1908 N 254 164 60 -77 -254 -173 h
stroke
LT0
0.75 0.75 0.75 C 2754 1908 M
60 -86 V
2560 1658 L
-60 77 V
254 173 V
.0189 g 6252 1605 N 254 169 59 -9 -253 -170 h
stroke
LT0
0.75 0.75 0.75 C 6252 1605 M
60 -10 V
6058 1426 L
-59 9 V
253 170 V
.0008 g 3230 1543 N 254 118 59 -9 -253 -119 h
stroke
LT0
0.75 0.75 0.75 C 3230 1543 M
60 -10 V
3036 1415 L
-59 9 V
253 119 V
.0008 g 4257 1540 N 253 118 60 -9 -254 -118 h
stroke
LT0
0.75 0.75 0.75 C 4257 1540 M
59 -9 V
4063 1413 L
-60 9 V
254 118 V
.0028 g 5284 1545 N 254 125 59 -10 -253 -124 h
stroke
LT0
0.75 0.75 0.75 C 5284 1545 M
60 -9 V
5090 1411 L
-59 10 V
253 124 V
.0188 g 6312 1595 N 253 170 60 -10 -254 -169 h
stroke
LT0
0.75 0.75 0.75 C 6312 1595 M
59 -9 V
6118 1416 L
-60 10 V
254 169 V
.0007 g 3290 1533 N 253 118 60 -9 -254 -118 h
stroke
LT0
0.75 0.75 0.75 C 3290 1533 M
59 -9 V
3096 1406 L
-60 9 V
254 118 V
.3831 g 2769 2586 N 254 190 59 -135 -253 -203 h
stroke
LT0
0.75 0.75 0.75 C 2769 2586 M
60 -148 V
2575 2248 L
-59 135 V
253 203 V
.0007 g 4316 1531 N 254 117 59 -9 -253 -118 h
stroke
LT0
0.75 0.75 0.75 C 4316 1531 M
60 -10 V
4122 1404 L
-59 9 V
253 118 V
.5925 g 2904 3127 N 253 197 60 -173 -254 -203 h
stroke
LT0
0.75 0.75 0.75 C 2904 3127 M
59 -179 V
2710 2751 L
-60 173 V
254 203 V
.0028 g 5344 1536 N 253 125 60 -9 -254 -125 h
stroke
LT0
0.75 0.75 0.75 C 5344 1536 M
59 -9 V
5150 1402 L
-60 9 V
254 125 V
.1677 g 2694 2013 N 254 173 59 -92 -253 -186 h
stroke
LT0
0.75 0.75 0.75 C 2694 2013 M
60 -105 V
2500 1735 L
-59 92 V
253 186 V
.0187 g 6371 1586 N 254 170 59 -9 -253 -170 h
stroke
LT0
0.75 0.75 0.75 C 6371 1586 M
60 -9 V
6177 1407 L
-59 9 V
253 170 V
.0006 g 3349 1524 N 254 118 59 -9 -253 -118 h
stroke
LT0
0.75 0.75 0.75 C 3349 1524 M
60 -9 V
3155 1397 L
-59 9 V
253 118 V
.0006 g 4376 1521 N 253 117 60 -9 -254 -117 h
stroke
LT0
0.75 0.75 0.75 C 4376 1521 M
59 -9 V
4182 1395 L
-60 9 V
254 117 V
.0028 g 5403 1527 N 254 125 59 -9 -253 -125 h
stroke
LT0
0.75 0.75 0.75 C 5403 1527 M
60 -9 V
5209 1393 L
-59 9 V
253 125 V
.0186 g 6431 1577 N 253 169 60 -9 -254 -170 h
stroke
LT0
0.75 0.75 0.75 C 6431 1577 M
59 -10 V
6237 1398 L
-60 9 V
254 170 V
.0006 g 3409 1515 N 253 118 60 -10 -254 -118 h
stroke
LT0
0.75 0.75 0.75 C 3409 1515 M
59 -10 V
3215 1387 L
-60 10 V
254 118 V
.8421 g 3038 3759 N 254 234 59 -194 -253 -246 h
stroke
LT0
0.75 0.75 0.75 C 3038 3759 M
60 -206 V
2844 3319 L
-59 194 V
253 246 V
.0005 g 4435 1512 N 254 117 59 -9 -253 -117 h
stroke
LT0
0.75 0.75 0.75 C 4435 1512 M
60 -9 V
4241 1386 L
-59 9 V
253 117 V
.0028 g 5463 1518 N 253 125 60 -9 -254 -125 h
stroke
LT0
0.75 0.75 0.75 C 5463 1518 M
59 -9 V
5269 1384 L
-60 9 V
254 125 V
.0184 g 6490 1567 N 254 169 59 -9 -253 -169 h
stroke
LT0
0.75 0.75 0.75 C 6490 1567 M
60 -9 V
6296 1389 L
-59 9 V
253 169 V
.0005 g 3468 1505 N 254 118 59 -9 -253 -118 h
stroke
LT0
0.75 0.75 0.75 C 3468 1505 M
60 -9 V
3274 1378 L
-59 9 V
253 118 V
.0005 g 4495 1503 N 253 118 60 -10 -254 -117 h
stroke
LT0
0.75 0.75 0.75 C 4495 1503 M
59 -9 V
4301 1376 L
-60 10 V
254 117 V
.0028 g 5522 1509 N 254 125 59 -9 -253 -125 h
stroke
LT0
0.75 0.75 0.75 C 5522 1509 M
60 -9 V
5328 1375 L
-59 9 V
253 125 V
.2199 g 2635 2129 N 253 186 60 -112 -254 -190 h
stroke
LT0
0.75 0.75 0.75 C 2635 2129 M
59 -116 V
2441 1827 L
-60 112 V
254 190 V
.0004 g 3528 1496 N 253 117 60 -9 -254 -118 h
stroke
LT0
0.75 0.75 0.75 C 3528 1496 M
59 -10 V
3334 1369 L
-60 9 V
254 118 V
.4577 g 2710 2751 N 253 203 60 -143 -254 -225 h
stroke
LT0
0.75 0.75 0.75 C 2710 2751 M
59 -165 V
2516 2383 L
-60 143 V
254 225 V
.0004 g 4554 1494 N 254 118 59 -9 -253 -118 h
stroke
LT0
0.75 0.75 0.75 C 4554 1494 M
60 -9 V
4360 1367 L
-59 9 V
253 118 V
.0028 g 5582 1500 N 253 125 60 -9 -254 -125 h
stroke
LT0
0.75 0.75 0.75 C 5582 1500 M
59 -9 V
5388 1366 L
-60 9 V
254 125 V
.0003 g 3587 1486 N 253 117 60 -9 -253 -117 h
stroke
LT0
0.75 0.75 0.75 C 3587 1486 M
60 -9 V
3394 1360 L
-60 9 V
253 117 V
.0004 g 4614 1485 N 253 118 60 -9 -254 -118 h
stroke
LT0
0.75 0.75 0.75 C 4614 1485 M
59 -9 V
4420 1358 L
-60 9 V
254 118 V
.6842 g 2844 3319 N 254 203 59 -175 -253 -220 h
stroke
LT0
0.75 0.75 0.75 C 2844 3319 M
60 -192 V
2650 2924 L
-59 175 V
253 220 V
.0028 g 5641 1491 N 254 124 59 -9 -253 -125 h
stroke
LT0
0.75 0.75 0.75 C 5641 1491 M
60 -10 V
5447 1357 L
-59 9 V
253 125 V
.0003 g 3647 1477 N 254 117 59 -9 -253 -117 h
stroke
LT0
0.75 0.75 0.75 C 3647 1477 M
60 -9 V
3453 1351 L
-59 9 V
253 117 V
.0004 g 4673 1476 N 253 117 60 -9 -253 -118 h
stroke
LT0
0.75 0.75 0.75 C 4673 1476 M
60 -10 V
4480 1349 L
-60 9 V
253 118 V
.277 g 2575 2248 N 254 190 59 -113 -253 -196 h
stroke
LT0
0.75 0.75 0.75 C 2575 2248 M
60 -119 V
2381 1939 L
-59 113 V
253 196 V
.0027 g 5701 1481 N 253 124 60 -9 -254 -124 h
stroke
LT0
0.75 0.75 0.75 C 5701 1481 M
59 -9 V
5507 1348 L
-60 9 V
254 124 V
.0003 g 3707 1468 N 253 117 60 -9 -254 -117 h
stroke
LT0
0.75 0.75 0.75 C 3707 1468 M
59 -9 V
3513 1342 L
-60 9 V
254 117 V
.0004 g 4733 1466 N 254 117 59 -9 -253 -117 h
stroke
LT0
0.75 0.75 0.75 C 4733 1466 M
60 -9 V
4539 1340 L
-59 9 V
253 117 V
.0027 g 5760 1472 N 253 125 60 -10 -253 -124 h
stroke
LT0
0.75 0.75 0.75 C 5760 1472 M
60 -9 V
5567 1338 L
-60 10 V
253 124 V
.0273 g 2679 1542 N 254 124 59 -38 -253 -129 h
stroke
LT0
0.75 0.75 0.75 C 2679 1542 M
60 -43 V
2485 1375 L
-59 38 V
253 129 V
.0003 g 3766 1459 N 253 116 59 -9 -253 -117 h
stroke
LT0
0.75 0.75 0.75 C 3766 1459 M
59 -10 V
3572 1333 L
-59 9 V
253 117 V
.0004 g 4793 1457 N 253 117 60 -9 -254 -117 h
stroke
LT0
0.75 0.75 0.75 C 4793 1457 M
59 -9 V
4599 1331 L
-60 9 V
254 117 V
.0135 g 2739 1499 N 253 120 60 -27 -254 -124 h
stroke
LT0
0.75 0.75 0.75 C 2739 1499 M
59 -31 V
2545 1348 L
-60 27 V
254 124 V
.0471 g 2620 1599 N 253 129 60 -46 -254 -140 h
stroke
LT0
0.75 0.75 0.75 C 2620 1599 M
59 -57 V
2426 1413 L
-60 46 V
254 140 V
.538 g 2650 2924 N 254 225 59 -154 -253 -244 h
stroke
LT0
0.75 0.75 0.75 C 2650 2924 M
60 -173 V
2456 2526 L
-59 154 V
253 244 V
.0027 g 5820 1463 N 254 125 59 -9 -253 -125 h
stroke
LT0
0.75 0.75 0.75 C 5820 1463 M
60 -9 V
5626 1329 L
-59 9 V
253 125 V
.7728 g 2785 3513 N 253 220 60 -135 -254 -279 h
stroke
LT0
0.75 0.75 0.75 C 2785 3513 M
59 -194 V
2591 3099 L
-60 135 V
254 279 V
.0003 g 3825 1449 N 252 116 60 -9 -253 -116 h
stroke
LT0
0.75 0.75 0.75 C 3825 1449 M
59 -9 V
3632 1324 L
-60 9 V
253 116 V
.0058 g 2798 1468 N 254 116 59 -16 -253 -120 h
stroke
LT0
0.75 0.75 0.75 C 2798 1468 M
60 -20 V
2604 1332 L
-59 16 V
253 120 V
.0004 g 4852 1448 N 254 117 59 -9 -253 -117 h
stroke
LT0
0.75 0.75 0.75 C 4852 1448 M
60 -9 V
4658 1322 L
-59 9 V
253 117 V
.0727 g 2560 1658 N 254 140 59 -64 -253 -135 h
stroke
LT0
0.75 0.75 0.75 C 2560 1658 M
60 -59 V
2366 1459 L
-59 64 V
253 135 V
.0026 g 5880 1454 N 253 125 60 -9 -254 -125 h
stroke
LT0
0.75 0.75 0.75 C 5880 1454 M
59 -9 V
5686 1320 L
-60 9 V
254 125 V
.3387 g 2516 2383 N 253 196 60 -127 -254 -204 h
stroke
LT0
0.75 0.75 0.75 C 2516 2383 M
59 -135 V
2322 2052 L
-60 127 V
254 204 V
.0021 g 2858 1448 N 253 116 60 -14 -254 -116 h
stroke
LT0
0.75 0.75 0.75 C 2858 1448 M
59 -14 V
2664 1318 L
-60 14 V
254 116 V
.0003 g 3884 1440 N 253 116 59 -9 -252 -116 h
stroke
LT0
0.75 0.75 0.75 C 3884 1440 M
60 -9 V
3691 1315 L
-59 9 V
252 116 V
.0004 g 4912 1439 N 253 117 60 -9 -254 -117 h
stroke
LT0
0.75 0.75 0.75 C 4912 1439 M
59 -9 V
4718 1313 L
-60 9 V
254 117 V
.0026 g 5939 1445 N 254 124 59 -9 -253 -125 h
stroke
LT0
0.75 0.75 0.75 C 5939 1445 M
60 -10 V
5745 1311 L
-59 9 V
253 125 V
.1043 g 2500 1735 N 253 135 60 -71 -253 -141 h
stroke
LT0
0.75 0.75 0.75 C 2500 1735 M
60 -77 V
2307 1523 L
-60 71 V
253 141 V
.0005 g 2917 1434 N 254 116 59 -10 -253 -116 h
stroke
LT0
0.75 0.75 0.75 C 2917 1434 M
60 -10 V
2723 1308 L
-59 10 V
253 116 V
.0003 g 3944 1431 N 252 116 60 -9 -253 -116 h
stroke
LT0
0.75 0.75 0.75 C 3944 1431 M
59 -9 V
3751 1306 L
-60 9 V
253 116 V
.0003 g 4971 1430 N 254 117 59 -9 -253 -117 h
stroke
LT0
0.75 0.75 0.75 C 4971 1430 M
60 -9 V
4777 1304 L
-59 9 V
253 117 V
.0025 g 5999 1435 N 253 124 60 -9 -254 -124 h
stroke
LT0
0.75 0.75 0.75 C 5999 1435 M
59 -9 V
5805 1302 L
-60 9 V
254 124 V
.0002 g 2977 1424 N 253 116 60 -9 -254 -116 h
stroke
LT0
0.75 0.75 0.75 C 2977 1424 M
59 -9 V
2783 1299 L
-60 9 V
254 116 V
.0003 g 4003 1422 N 254 116 58 -9 -252 -116 h
stroke
LT0
0.75 0.75 0.75 C 4003 1422 M
60 -9 V
3809 1297 L
-58 9 V
252 116 V
.0003 g 5031 1421 N 253 117 60 -10 -254 -117 h
stroke
LT0
0.75 0.75 0.75 C 5031 1421 M
59 -10 V
4837 1294 L
-60 10 V
254 117 V
.6198 g 2591 3099 N 253 244 60 -143 -254 -276 h
stroke
LT0
0.75 0.75 0.75 C 2591 3099 M
59 -175 V
2397 2680 L
-60 143 V
254 276 V
.1432 g 2441 1827 N 253 141 60 -86 -254 -147 h
stroke
LT0
0.75 0.75 0.75 C 2441 1827 M
59 -92 V
2247 1594 L
-60 86 V
254 147 V
.0024 g 6058 1426 N 254 123 59 -9 -253 -124 h
stroke
LT0
0.75 0.75 0.75 C 6058 1426 M
60 -10 V
5864 1293 L
-59 9 V
253 124 V
.0001 g 3036 1415 N 254 117 59 -10 -253 -116 h
stroke
LT0
0.75 0.75 0.75 C 3036 1415 M
60 -9 V
2842 1289 L
-59 10 V
253 116 V
.0003 g 4063 1413 N 253 116 60 -9 -254 -116 h
stroke
LT0
0.75 0.75 0.75 C 4063 1413 M
59 -9 V
3869 1288 L
-60 9 V
254 116 V
.0003 g 5090 1411 N 254 117 59 -9 -253 -117 h
stroke
LT0
0.75 0.75 0.75 C 5090 1411 M
60 -9 V
4896 1285 L
-59 9 V
253 117 V
.0023 g 6118 1416 N 253 123 60 -9 -254 -123 h
stroke
LT0
0.75 0.75 0.75 C 6118 1416 M
59 -9 V
5924 1284 L
-60 9 V
254 123 V
.4072 g 2456 2526 N 254 204 59 -140 -253 -207 h
stroke
LT0
0.75 0.75 0.75 C 2456 2526 M
60 -143 V
2262 2179 L
-59 140 V
253 207 V
.6859 g 2531 3234 N 254 276 59 -75 -253 -336 h
stroke
LT0
0.75 0.75 0.75 C 2531 3234 M
60 -135 V
2337 2823 L
-59 75 V
253 336 V
.0001 g 3096 1406 N 253 117 60 -9 -254 -117 h
stroke
LT0
0.75 0.75 0.75 C 3096 1406 M
59 -9 V
2902 1280 L
-60 9 V
254 117 V
.0002 g 4122 1404 N 254 117 59 -10 -253 -116 h
stroke
LT0
0.75 0.75 0.75 C 4122 1404 M
60 -9 V
3928 1278 L
-59 10 V
253 116 V
.0003 g 5150 1402 N 253 117 60 -9 -254 -117 h
stroke
LT0
0.75 0.75 0.75 C 5150 1402 M
59 -9 V
4956 1276 L
-60 9 V
254 117 V
.0023 g 6177 1407 N 254 123 59 -9 -253 -123 h
stroke
LT0
0.75 0.75 0.75 C 6177 1407 M
60 -9 V
5983 1275 L
-59 9 V
253 123 V
.1902 g 2381 1939 N 254 147 59 -96 -253 -163 h
stroke
LT0
0.75 0.75 0.75 C 2381 1939 M
60 -112 V
2187 1680 L
-59 96 V
253 163 V
.0001 g 3155 1397 N 254 116 59 -9 -253 -117 h
stroke
LT0
0.75 0.75 0.75 C 3155 1397 M
60 -10 V
2961 1271 L
-59 9 V
253 117 V
.0002 g 4182 1395 N 253 117 60 -9 -254 -117 h
stroke
LT0
0.75 0.75 0.75 C 4182 1395 M
59 -9 V
3988 1269 L
-60 9 V
254 117 V
.0003 g 5209 1393 N 254 117 59 -9 -253 -117 h
stroke
LT0
0.75 0.75 0.75 C 5209 1393 M
60 -9 V
5015 1267 L
-59 9 V
253 117 V
.0023 g 6237 1398 N 253 124 60 -10 -254 -123 h
stroke
LT0
0.75 0.75 0.75 C 6237 1398 M
59 -9 V
6043 1265 L
-60 10 V
254 123 V
.0001 g 3215 1387 N 253 116 60 -9 -254 -116 h
stroke
LT0
0.75 0.75 0.75 C 3215 1387 M
59 -9 V
3021 1262 L
-60 9 V
254 116 V
.0001 g 4241 1386 N 254 116 59 -9 -253 -117 h
stroke
LT0
0.75 0.75 0.75 C 4241 1386 M
60 -10 V
4047 1260 L
-59 9 V
253 117 V
.0003 g 5269 1384 N 253 117 60 -9 -254 -117 h
stroke
LT0
0.75 0.75 0.75 C 5269 1384 M
59 -9 V
5075 1258 L
-60 9 V
254 117 V
.0001 g 3274 1378 N 254 116 59 -9 -253 -116 h
stroke
LT0
0.75 0.75 0.75 C 3274 1378 M
60 -9 V
3080 1253 L
-59 9 V
253 116 V
.2419 g 2322 2052 N 253 163 60 -100 -254 -176 h
stroke
LT0
0.75 0.75 0.75 C 2322 2052 M
59 -113 V
2128 1776 L
-60 100 V
254 176 V
.0001 g 4301 1376 N 253 116 60 -9 -254 -116 h
stroke
LT0
0.75 0.75 0.75 C 4301 1376 M
59 -9 V
4107 1251 L
-60 9 V
254 116 V
.0003 g 5328 1375 N 254 117 59 -9 -253 -117 h
stroke
LT0
0.75 0.75 0.75 C 5328 1375 M
60 -9 V
5134 1249 L
-59 9 V
253 117 V
.4799 g 2397 2680 N 253 207 60 -139 -254 -222 h
stroke
LT0
0.75 0.75 0.75 C 2397 2680 M
59 -154 V
2203 2319 L
-60 139 V
254 222 V
.0001 g 3334 1369 N 254 116 60 -9 -254 -116 h
stroke
LT0
0.75 0.75 0.75 C 3334 1369 M
60 -9 V
3140 1244 L
-60 9 V
254 116 V
.0001 g 4360 1367 N 254 116 59 -9 -253 -116 h
stroke
LT0
0.75 0.75 0.75 C 4360 1367 M
60 -9 V
4166 1242 L
-59 9 V
253 116 V
.0003 g 5388 1366 N 253 117 60 -9 -254 -117 h
stroke
LT0
0.75 0.75 0.75 C 5388 1366 M
59 -9 V
5194 1240 L
-60 9 V
254 117 V
.0001 g 3394 1360 N 253 116 60 -9 -254 -116 h
stroke
LT0
0.75 0.75 0.75 C 3394 1360 M
59 -9 V
3200 1235 L
-60 9 V
254 116 V
.0001 g 4420 1358 N 254 116 60 -9 -254 -116 h
stroke
LT0
0.75 0.75 0.75 C 4420 1358 M
60 -9 V
4226 1233 L
-60 9 V
254 116 V
.0003 g 5447 1357 N 254 117 59 -9 -253 -117 h
stroke
LT0
0.75 0.75 0.75 C 5447 1357 M
60 -9 V
5253 1231 L
-59 9 V
253 117 V
.5871 g 2278 2898 N 253 273 60 -33 -254 -315 h
stroke
LT0
0.75 0.75 0.75 C 2278 2898 M
59 -75 V
2084 2550 L
-60 33 V
254 315 V
.546 g 2337 2823 N 254 222 59 -92 -253 -273 h
stroke
LT0
0.75 0.75 0.75 C 2337 2823 M
60 -143 V
2143 2458 L
-59 92 V
253 273 V
.2972 g 2262 2179 N 254 176 59 -109 -253 -194 h
stroke
LT0
0.75 0.75 0.75 C 2262 2179 M
60 -127 V
2068 1876 L
-59 109 V
253 194 V
.0001 g 3453 1351 N 254 116 59 -9 -253 -116 h
stroke
LT0
0.75 0.75 0.75 C 3453 1351 M
60 -9 V
3259 1226 L
-59 9 V
253 116 V
.0001 g 4480 1349 N 253 116 60 -9 -254 -116 h
stroke
LT0
0.75 0.75 0.75 C 4480 1349 M
59 -9 V
4286 1224 L
-60 9 V
254 116 V
.0358 g 2366 1459 N 254 134 59 -34 -253 -146 h
stroke
LT0
0.75 0.75 0.75 C 2366 1459 M
60 -46 V
2172 1279 L
-59 34 V
253 146 V
.0003 g 5507 1348 N 254 116 60 -9 -254 -117 h
stroke
LT0
0.75 0.75 0.75 C 5507 1348 M
60 -10 V
5313 1222 L
-60 9 V
254 117 V
.0206 g 2426 1413 N 253 128 60 -32 -254 -134 h
stroke
LT0
0.75 0.75 0.75 C 2426 1413 M
59 -38 V
2232 1247 L
-60 32 V
254 134 V
.0572 g 2307 1523 N 253 146 60 -52 -254 -158 h
stroke
LT0
0.75 0.75 0.75 C 2307 1523 M
59 -64 V
2113 1313 L
-60 52 V
254 158 V
.0095 g 2485 1375 N 254 123 59 -22 -253 -128 h
stroke
LT0
0.75 0.75 0.75 C 2485 1375 M
60 -27 V
2291 1225 L
-59 22 V
253 128 V
.0001 g 3513 1342 N 253 117 60 -10 -254 -116 h
stroke
LT0
0.75 0.75 0.75 C 3513 1342 M
59 -9 V
3319 1216 L
-60 10 V
254 116 V
.0001 g 4539 1340 N 254 116 59 -9 -253 -116 h
stroke
LT0
0.75 0.75 0.75 C 4539 1340 M
60 -9 V
4345 1215 L
-59 9 V
253 116 V
.0003 g 5567 1338 N 253 116 60 -9 -254 -116 h
stroke
LT0
0.75 0.75 0.75 C 5567 1338 M
59 -9 V
5373 1213 L
-60 9 V
254 116 V
.0856 g 2247 1594 N 254 158 60 -60 -254 -169 h
stroke
LT0
0.75 0.75 0.75 C 2247 1594 M
60 -71 V
2053 1365 L
-60 60 V
254 169 V
.0038 g 2545 1348 N 253 121 60 -14 -254 -123 h
stroke
LT0
0.75 0.75 0.75 C 2545 1348 M
59 -16 V
2351 1211 L
-60 14 V
254 123 V
.0001 g 3572 1333 N 254 117 59 -9 -253 -117 h
stroke
LT0
0.75 0.75 0.75 C 3572 1333 M
60 -9 V
3378 1207 L
-59 9 V
253 117 V
.0001 g 4599 1331 N 253 116 60 -9 -254 -116 h
stroke
LT0
0.75 0.75 0.75 C 4599 1331 M
59 -9 V
4405 1206 L
-60 9 V
254 116 V
.0003 g 5626 1329 N 254 117 59 -10 -253 -116 h
stroke
LT0
0.75 0.75 0.75 C 5626 1329 M
60 -9 V
5432 1203 L
-59 10 V
253 116 V
.0014 g 2604 1332 N 254 117 59 -10 -253 -121 h
stroke
LT0
0.75 0.75 0.75 C 2604 1332 M
60 -14 V
2410 1201 L
-59 10 V
253 121 V
.1192 g 2187 1680 N 254 169 59 -69 -253 -186 h
stroke
LT0
0.75 0.75 0.75 C 2187 1680 M
60 -86 V
1993 1425 L
-59 69 V
253 186 V
.0001 g 3632 1324 N 253 117 60 -9 -254 -117 h
stroke
LT0
0.75 0.75 0.75 C 3632 1324 M
59 -9 V
3438 1198 L
-60 9 V
254 117 V
.3601 g 2203 2319 N 253 194 60 -126 -254 -208 h
stroke
LT0
0.75 0.75 0.75 C 2203 2319 M
59 -140 V
2009 1985 L
-60 126 V
254 208 V
.0001 g 4658 1322 N 254 117 59 -10 -253 -116 h
stroke
LT0
0.75 0.75 0.75 C 4658 1322 M
60 -9 V
4464 1196 L
-59 10 V
253 116 V
.0003 g 5686 1320 N 253 117 60 -9 -254 -117 h
stroke
LT0
0.75 0.75 0.75 C 5686 1320 M
59 -9 V
5492 1194 L
-60 9 V
254 117 V
.0004 g 2664 1318 N 253 117 60 -10 -254 -117 h
stroke
LT0
0.75 0.75 0.75 C 2664 1318 M
59 -10 V
2470 1191 L
-60 10 V
254 117 V
.0001 g 3691 1315 N 254 117 59 -9 -253 -117 h
stroke
LT0
0.75 0.75 0.75 C 3691 1315 M
60 -9 V
3497 1189 L
-59 9 V
253 117 V
.0001 g 4718 1313 N 253 117 60 -9 -254 -117 h
stroke
LT0
0.75 0.75 0.75 C 4718 1313 M
59 -9 V
4524 1187 L
-60 9 V
254 117 V
.1582 g 2128 1776 N 253 186 60 -75 -254 -207 h
stroke
LT0
0.75 0.75 0.75 C 2128 1776 M
59 -96 V
1934 1494 L
-60 75 V
254 207 V
.0003 g 5745 1311 N 254 117 59 -9 -253 -117 h
stroke
LT0
0.75 0.75 0.75 C 5745 1311 M
60 -9 V
5551 1185 L
-59 9 V
253 117 V
.0001 g 2723 1308 N 254 117 59 -9 -253 -117 h
stroke
LT0
0.75 0.75 0.75 C 2723 1308 M
60 -9 V
2529 1182 L
-59 9 V
253 117 V
.0001 g 3751 1306 N 252 117 60 -9 -254 -117 h
stroke
LT0
0.75 0.75 0.75 C 3751 1306 M
58 -9 V
3557 1180 L
-60 9 V
254 117 V
.0001 g 4777 1304 N 254 116 59 -9 -253 -117 h
stroke
LT0
0.75 0.75 0.75 C 4777 1304 M
60 -10 V
4583 1178 L
-59 9 V
253 117 V
.4227 g 2143 2458 N 254 208 59 -96 -253 -251 h
stroke
LT0
0.75 0.75 0.75 C 2143 2458 M
60 -139 V
1949 2111 L
-59 96 V
253 251 V
.0002 g 5805 1302 N 253 117 60 -9 -254 -117 h
stroke
LT0
0.75 0.75 0.75 C 5805 1302 M
59 -9 V
5611 1176 L
-60 9 V
254 117 V
.488 g 2024 2583 N 254 301 59 -21 -253 -313 h
stroke
LT0
0.75 0.75 0.75 C 2024 2583 M
60 -33 V
1830 2249 L
-59 21 V
253 313 V
.4676 g 2084 2550 N 253 251 60 -42 -254 -301 h
stroke
LT0
0.75 0.75 0.75 C 2084 2550 M
59 -92 V
1890 2207 L
-60 42 V
254 301 V
0 g 2783 1299 N 253 116 60 -9 -254 -117 h
stroke
LT0
0.75 0.75 0.75 C 2783 1299 M
59 -10 V
2589 1173 L
-60 9 V
254 117 V
.0001 g 3809 1297 N 253 117 59 -9 -252 -117 h
stroke
LT0
0.75 0.75 0.75 C 3809 1297 M
60 -9 V
3616 1171 L
-59 9 V
252 117 V
.0001 g 4837 1294 N 253 116 60 -9 -254 -116 h
stroke
LT0
0.75 0.75 0.75 C 4837 1294 M
59 -9 V
4643 1169 L
-60 9 V
254 116 V
.2018 g 2068 1876 N 254 207 59 -90 -253 -217 h
stroke
LT0
0.75 0.75 0.75 C 2068 1876 M
60 -100 V
1874 1569 L
-59 90 V
253 217 V
.0002 g 5864 1293 N 254 117 59 -9 -253 -117 h
stroke
LT0
0.75 0.75 0.75 C 5864 1293 M
60 -9 V
5670 1167 L
-59 9 V
253 117 V
0 g 2842 1289 N 254 116 59 -9 -253 -116 h
stroke
LT0
0.75 0.75 0.75 C 2842 1289 M
60 -9 V
2648 1164 L
-59 9 V
253 116 V
.0001 g 3869 1288 N 252 116 60 -9 -253 -117 h
stroke
LT0
0.75 0.75 0.75 C 3869 1288 M
59 -10 V
3676 1162 L
-60 9 V
253 117 V
.0001 g 4896 1285 N 254 116 59 -9 -253 -116 h
stroke
LT0
0.75 0.75 0.75 C 4896 1285 M
60 -9 V
4702 1160 L
-59 9 V
253 116 V
.0002 g 5924 1284 N 253 117 60 -9 -254 -117 h
stroke
LT0
0.75 0.75 0.75 C 5924 1284 M
59 -9 V
5730 1158 L
-60 9 V
254 117 V
0 g 2902 1280 N 253 116 60 -9 -254 -116 h
stroke
LT0
0.75 0.75 0.75 C 2902 1280 M
59 -9 V
2708 1155 L
-60 9 V
254 116 V
.0001 g 3928 1278 N 253 116 59 -9 -252 -116 h
stroke
LT0
0.75 0.75 0.75 C 3928 1278 M
60 -9 V
3735 1153 L
-59 9 V
252 116 V
.0001 g 4956 1276 N 253 116 60 -9 -254 -116 h
stroke
LT0
0.75 0.75 0.75 C 4956 1276 M
59 -9 V
4762 1151 L
-60 9 V
254 116 V
.0002 g 5983 1275 N 254 116 59 -9 -253 -117 h
stroke
LT0
0.75 0.75 0.75 C 5983 1275 M
60 -10 V
5789 1149 L
-59 9 V
253 117 V
.2501 g 2009 1985 N 253 217 60 -97 -254 -229 h
stroke
LT0
0.75 0.75 0.75 C 2009 1985 M
59 -109 V
1815 1659 L
-60 97 V
254 229 V
0 g 2961 1271 N 254 116 59 -9 -253 -116 h
stroke
LT0
0.75 0.75 0.75 C 2961 1271 M
60 -9 V
2767 1146 L
-59 9 V
253 116 V
.0001 g 3988 1269 N 253 116 59 -9 -253 -116 h
stroke
LT0
0.75 0.75 0.75 C 3988 1269 M
59 -9 V
3794 1144 L
-59 9 V
253 116 V
.0001 g 5015 1267 N 254 116 59 -9 -253 -116 h
stroke
LT0
0.75 0.75 0.75 C 5015 1267 M
60 -9 V
4821 1142 L
-59 9 V
253 116 V
0 g 3021 1262 N 253 116 60 -9 -254 -116 h
stroke
LT0
0.75 0.75 0.75 C 3021 1262 M
59 -9 V
2827 1137 L
-60 9 V
254 116 V
.0001 g 4047 1260 N 254 116 59 -9 -253 -116 h
stroke
LT0
0.75 0.75 0.75 C 4047 1260 M
60 -9 V
3853 1135 L
-59 9 V
253 116 V
.3007 g 1949 2111 N 254 229 59 -81 -253 -274 h
stroke
LT0
0.75 0.75 0.75 C 1949 2111 M
60 -126 V
1755 1756 L
-59 81 V
253 274 V
.0001 g 5075 1258 N 253 116 60 -9 -254 -116 h
stroke
LT0
0.75 0.75 0.75 C 5075 1258 M
59 -9 V
4881 1133 L
-60 9 V
254 116 V
.3779 g 1771 2270 N 253 333 60 -18 -254 -336 h
stroke
LT0
0.75 0.75 0.75 C 1771 2270 M
59 -21 V
1577 1916 L
-60 18 V
254 336 V
.3672 g 1830 2249 N 254 324 59 -33 -253 -333 h
stroke
LT0
0.75 0.75 0.75 C 1830 2249 M
60 -42 V
1636 1883 L
-59 33 V
253 333 V
.3427 g 1890 2207 N 253 274 60 -46 -254 -324 h
stroke
LT0
0.75 0.75 0.75 C 1890 2207 M
59 -96 V
1696 1837 L
-60 46 V
254 324 V
0 g 3080 1253 N 253 116 60 -9 -253 -116 h
stroke
LT0
0.75 0.75 0.75 C 3080 1253 M
60 -9 V
2887 1128 L
-60 9 V
253 116 V
.0001 g 4107 1251 N 253 117 60 -10 -254 -116 h
stroke
LT0
0.75 0.75 0.75 C 4107 1251 M
59 -9 V
3913 1125 L
-60 10 V
254 116 V
.0001 g 5134 1249 N 254 116 59 -9 -253 -116 h
stroke
LT0
0.75 0.75 0.75 C 5134 1249 M
60 -9 V
4940 1124 L
-59 9 V
253 116 V
0 g 3140 1244 N 254 117 59 -10 -253 -116 h
stroke
LT0
0.75 0.75 0.75 C 3140 1244 M
60 -9 V
2946 1118 L
-59 10 V
253 116 V
.0001 g 4166 1242 N 253 117 60 -9 -253 -117 h
stroke
LT0
0.75 0.75 0.75 C 4166 1242 M
60 -9 V
3973 1116 L
-60 9 V
253 117 V
.0221 g 2113 1313 N 253 143 60 -34 -254 -143 h
stroke
LT0
0.75 0.75 0.75 C 2113 1313 M
59 -34 V
1919 1136 L
-60 34 V
254 143 V
.0001 g 5194 1240 N 253 116 60 -9 -254 -116 h
stroke
LT0
0.75 0.75 0.75 C 5194 1240 M
59 -9 V
5000 1115 L
-60 9 V
254 116 V
.0392 g 2053 1365 N 254 143 59 -43 -253 -152 h
stroke
LT0
0.75 0.75 0.75 C 2053 1365 M
60 -52 V
1859 1170 L
-59 43 V
253 152 V
.0111 g 2172 1279 N 254 130 59 -19 -253 -143 h
stroke
LT0
0.75 0.75 0.75 C 2172 1279 M
60 -32 V
1978 1117 L
-59 19 V
253 143 V
0 g 3200 1235 N 253 117 60 -9 -254 -117 h
stroke
LT0
0.75 0.75 0.75 C 3200 1235 M
59 -9 V
3006 1109 L
-60 9 V
254 117 V
.0621 g 1993 1425 N 253 152 60 -51 -253 -161 h
stroke
LT0
0.75 0.75 0.75 C 1993 1425 M
60 -60 V
1800 1213 L
-60 51 V
253 161 V
.0001 g 4226 1233 N 254 117 59 -9 -253 -117 h
stroke
LT0
0.75 0.75 0.75 C 4226 1233 M
60 -9 V
4032 1107 L
-59 9 V
253 117 V
.0001 g 5253 1231 N 253 117 60 -10 -253 -116 h
stroke
LT0
0.75 0.75 0.75 C 5253 1231 M
60 -9 V
5060 1105 L
-60 10 V
253 116 V
.0043 g 2232 1247 N 253 122 60 -14 -254 -130 h
stroke
LT0
0.75 0.75 0.75 C 2232 1247 M
59 -22 V
2038 1103 L
-60 14 V
254 130 V
.0891 g 1934 1494 N 253 161 60 -58 -254 -172 h
stroke
LT0
0.75 0.75 0.75 C 1934 1494 M
59 -69 V
1740 1264 L
-60 58 V
254 172 V
0 g 3259 1226 N 254 116 59 -9 -253 -117 h
stroke
LT0
0.75 0.75 0.75 C 3259 1226 M
60 -10 V
3065 1100 L
-59 9 V
253 117 V
.0001 g 4286 1224 N 253 117 60 -9 -254 -117 h
stroke
LT0
0.75 0.75 0.75 C 4286 1224 M
59 -9 V
4092 1098 L
-60 9 V
254 117 V
.0001 g 5313 1222 N 254 117 59 -9 -253 -117 h
stroke
LT0
0.75 0.75 0.75 C 5313 1222 M
60 -9 V
5119 1096 L
-59 9 V
253 117 V
.0011 g 2291 1225 N 254 118 59 -10 -253 -122 h
stroke
LT0
0.75 0.75 0.75 C 2291 1225 M
60 -14 V
2097 1093 L
-59 10 V
253 122 V
.1198 g 1874 1569 N 254 172 59 -62 -253 -185 h
stroke
LT0
0.75 0.75 0.75 C 1874 1569 M
60 -75 V
1680 1322 L
-59 62 V
253 185 V
0 g 3319 1216 N 253 116 60 -9 -254 -116 h
stroke
LT0
0.75 0.75 0.75 C 3319 1216 M
59 -9 V
3125 1091 L
-60 9 V
254 116 V
.0001 g 4345 1215 N 254 117 59 -9 -253 -117 h
stroke
LT0
0.75 0.75 0.75 C 4345 1215 M
60 -9 V
4151 1089 L
-59 9 V
253 117 V
.0001 g 5373 1213 N 253 116 60 -9 -254 -117 h
stroke
LT0
0.75 0.75 0.75 C 5373 1213 M
59 -10 V
5179 1087 L
-60 9 V
254 117 V
.1534 g 1815 1659 N 253 185 60 -59 -254 -216 h
stroke
LT0
0.75 0.75 0.75 C 1815 1659 M
59 -90 V
1621 1384 L
-60 59 V
254 216 V
.0003 g 2351 1211 N 253 117 60 -9 -254 -118 h
stroke
LT0
0.75 0.75 0.75 C 2351 1211 M
59 -10 V
2157 1084 L
-60 9 V
254 118 V
0 g 3378 1207 N 254 116 59 -9 -253 -116 h
stroke
LT0
0.75 0.75 0.75 C 3378 1207 M
60 -9 V
3184 1082 L
-59 9 V
253 116 V
.0001 g 4405 1206 N 253 116 60 -9 -254 -117 h
stroke
LT0
0.75 0.75 0.75 C 4405 1206 M
59 -10 V
4211 1080 L
-60 9 V
254 117 V
.0001 g 5432 1203 N 254 116 59 -9 -253 -116 h
stroke
LT0
0.75 0.75 0.75 C 5432 1203 M
60 -9 V
5238 1078 L
-59 9 V
253 116 V
.1901 g 1755 1756 N 254 216 59 -63 -253 -250 h
stroke
LT0
0.75 0.75 0.75 C 1755 1756 M
60 -97 V
1561 1443 L
-59 63 V
253 250 V
.0001 g 2410 1201 N 254 116 59 -9 -253 -117 h
stroke
LT0
0.75 0.75 0.75 C 2410 1201 M
60 -10 V
2216 1075 L
-59 9 V
253 117 V
.2714 g 1517 1934 N 254 291 59 -14 -253 -295 h
stroke
LT0
0.75 0.75 0.75 C 1517 1934 M
60 -18 V
1323 1625 L
-59 14 V
253 295 V
0 g 3438 1198 N 253 116 60 -9 -254 -116 h
stroke
LT0
0.75 0.75 0.75 C 3438 1198 M
59 -9 V
3244 1073 L
-60 9 V
254 116 V
.2241 g 1696 1837 N 253 250 60 -49 -254 -282 h
stroke
LT0
0.75 0.75 0.75 C 1696 1837 M
59 -81 V
1502 1506 L
-60 49 V
254 282 V
.0001 g 4464 1196 N 254 116 59 -9 -253 -116 h
stroke
LT0
0.75 0.75 0.75 C 4464 1196 M
60 -9 V
4270 1071 L
-59 9 V
253 116 V
.2488 g 1636 1883 N 254 282 59 -44 -253 -284 h
stroke
LT0
0.75 0.75 0.75 C 1636 1883 M
60 -46 V
1442 1555 L
-59 44 V
253 284 V
.264 g 1577 1916 N 253 284 60 -26 -254 -291 h
stroke
LT0
0.75 0.75 0.75 C 1577 1916 M
59 -33 V
1383 1599 L
-60 26 V
254 291 V
.0001 g 5492 1194 N 253 116 60 -9 -254 -116 h
stroke
LT0
0.75 0.75 0.75 C 5492 1194 M
59 -9 V
5298 1069 L
-60 9 V
254 116 V
0 g 2470 1191 N 253 116 60 -9 -254 -116 h
stroke
LT0
0.75 0.75 0.75 C 2470 1191 M
59 -9 V
2276 1066 L
-60 9 V
254 116 V
0 g 3497 1189 N 254 116 59 -9 -253 -116 h
stroke
LT0
0.75 0.75 0.75 C 3497 1189 M
60 -9 V
3303 1064 L
-59 9 V
253 116 V
.0001 g 4524 1187 N 253 116 60 -9 -254 -116 h
stroke
LT0
0.75 0.75 0.75 C 4524 1187 M
59 -9 V
4330 1062 L
-60 9 V
254 116 V
.0001 g 5551 1185 N 254 116 59 -9 -253 -116 h
stroke
LT0
0.75 0.75 0.75 C 5551 1185 M
60 -9 V
5357 1060 L
-59 9 V
253 116 V
0 g 2529 1182 N 254 116 59 -9 -253 -116 h
stroke
LT0
0.75 0.75 0.75 C 2529 1182 M
60 -9 V
2335 1057 L
-59 9 V
253 116 V
0 g 3557 1180 N 253 116 60 -9 -254 -116 h
stroke
LT0
0.75 0.75 0.75 C 3557 1180 M
59 -9 V
3363 1055 L
-60 9 V
254 116 V
.0001 g 4583 1178 N 254 116 59 -9 -253 -116 h
stroke
LT0
0.75 0.75 0.75 C 4583 1178 M
60 -9 V
4389 1053 L
-59 9 V
253 116 V
.0001 g 5611 1176 N 253 116 60 -9 -254 -116 h
stroke
LT0
0.75 0.75 0.75 C 5611 1176 M
59 -9 V
5417 1051 L
-60 9 V
254 116 V
0 g 2589 1173 N 253 116 60 -9 -254 -116 h
stroke
LT0
0.75 0.75 0.75 C 2589 1173 M
59 -9 V
2395 1048 L
-60 9 V
254 116 V
0 g 3616 1171 N 254 116 59 -9 -253 -116 h
stroke
LT0
0.75 0.75 0.75 C 3616 1171 M
60 -9 V
3422 1046 L
-59 9 V
253 116 V
.0001 g 4643 1169 N 253 116 60 -9 -254 -116 h
stroke
LT0
0.75 0.75 0.75 C 4643 1169 M
59 -9 V
4449 1044 L
-60 9 V
254 116 V
.0001 g 5670 1167 N 254 116 59 -9 -253 -116 h
stroke
LT0
0.75 0.75 0.75 C 5670 1167 M
60 -9 V
5476 1042 L
-59 9 V
253 116 V
0 g 2648 1164 N 254 116 59 -9 -253 -116 h
stroke
LT0
0.75 0.75 0.75 C 2648 1164 M
60 -9 V
2454 1039 L
-59 9 V
253 116 V
0 g 3676 1162 N 253 116 60 -9 -254 -116 h
stroke
LT0
0.75 0.75 0.75 C 3676 1162 M
59 -9 V
3482 1037 L
-60 9 V
254 116 V
.0001 g 4702 1160 N 254 116 59 -9 -253 -116 h
stroke
LT0
0.75 0.75 0.75 C 4702 1160 M
60 -9 V
4508 1035 L
-59 9 V
253 116 V
.0001 g 5730 1158 N 253 117 60 -10 -254 -116 h
stroke
LT0
0.75 0.75 0.75 C 5730 1158 M
59 -9 V
5536 1032 L
-60 10 V
254 116 V
0 g 2708 1155 N 253 116 60 -9 -254 -116 h
stroke
LT0
0.75 0.75 0.75 C 2708 1155 M
59 -9 V
2514 1030 L
-60 9 V
254 116 V
.1669 g 1264 1639 N 253 328 60 -14 -254 -328 h
stroke
LT0
0.75 0.75 0.75 C 1264 1639 M
59 -14 V
1070 1297 L
-60 14 V
254 328 V
0 g 3735 1153 N 253 117 59 -10 -253 -116 h
stroke
LT0
0.75 0.75 0.75 C 3735 1153 M
59 -9 V
3541 1027 L
-59 10 V
253 116 V
.0001 g 4762 1151 N 253 117 60 -10 -254 -116 h
stroke
LT0
0.75 0.75 0.75 C 4762 1151 M
59 -9 V
4568 1025 L
-60 10 V
254 116 V
.1619 g 1323 1625 N 254 321 59 -19 -253 -328 h
stroke
LT0
0.75 0.75 0.75 C 1323 1625 M
60 -26 V
1129 1278 L
-59 19 V
253 328 V
0 g 2767 1146 N 254 117 59 -10 -253 -116 h
stroke
LT0
0.75 0.75 0.75 C 2767 1146 M
60 -9 V
2573 1020 L
-59 10 V
253 116 V
.1511 g 1383 1599 N 253 304 60 -27 -254 -321 h
stroke
LT0
0.75 0.75 0.75 C 1383 1599 M
59 -44 V
1189 1251 L
-60 27 V
254 321 V
0 g 3794 1144 N 252 117 60 -9 -253 -117 h
stroke
LT0
0.75 0.75 0.75 C 3794 1144 M
59 -9 V
3601 1018 L
-60 9 V
253 117 V
.0001 g 4821 1142 N 254 117 59 -9 -253 -117 h
stroke
LT0
0.75 0.75 0.75 C 4821 1142 M
60 -9 V
4627 1016 L
-59 9 V
253 117 V
.1362 g 1442 1555 N 254 282 59 -27 -253 -304 h
stroke
LT0
0.75 0.75 0.75 C 1442 1555 M
60 -49 V
1248 1224 L
-59 27 V
253 304 V
.1176 g 1502 1506 N 253 256 60 -37 -254 -282 h
stroke
LT0
0.75 0.75 0.75 C 1502 1506 M
59 -63 V
1308 1187 L
-60 37 V
254 282 V
.0963 g 1561 1443 N 254 233 59 -36 -253 -256 h
stroke
LT0
0.75 0.75 0.75 C 1561 1443 M
60 -59 V
1367 1151 L
-59 36 V
253 256 V
.0753 g 1621 1384 N 253 206 60 -35 -254 -233 h
stroke
LT0
0.75 0.75 0.75 C 1621 1384 M
59 -62 V
1427 1116 L
-60 35 V
254 233 V
.0541 g 1680 1322 N 254 187 59 -39 -253 -206 h
stroke
LT0
0.75 0.75 0.75 C 1680 1322 M
60 -58 V
1486 1077 L
-59 39 V
253 206 V
.0348 g 1740 1264 N 254 169 60 -33 -254 -187 h
stroke
LT0
0.75 0.75 0.75 C 1740 1264 M
60 -51 V
1546 1044 L
-60 33 V
254 187 V
0 g 2827 1137 N 254 117 60 -9 -254 -117 h
stroke
LT0
0.75 0.75 0.75 C 2827 1137 M
60 -9 V
2633 1011 L
-60 9 V
254 117 V
.0194 g 1800 1213 N 253 149 60 -23 -254 -169 h
stroke
LT0
0.75 0.75 0.75 C 1800 1213 M
59 -43 V
1606 1021 L
-60 23 V
254 169 V
0 g 3853 1135 N 253 116 59 -9 -252 -117 h
stroke
LT0
0.75 0.75 0.75 C 3853 1135 M
60 -10 V
3660 1009 L
-59 9 V
252 117 V
.0001 g 4881 1133 N 253 117 60 -9 -254 -117 h
stroke
LT0
0.75 0.75 0.75 C 4881 1133 M
59 -9 V
4687 1007 L
-60 9 V
254 117 V
.0089 g 1859 1170 N 254 129 59 -14 -253 -149 h
stroke
LT0
0.75 0.75 0.75 C 1859 1170 M
60 -34 V
1665 1007 L
-59 14 V
253 149 V
0 g 2887 1128 N 253 116 60 -9 -254 -117 h
stroke
LT0
0.75 0.75 0.75 C 2887 1128 M
59 -10 V
2693 1002 L
-60 9 V
254 117 V
0 g 3913 1125 N 253 116 60 -9 -253 -116 h
stroke
LT0
0.75 0.75 0.75 C 3913 1125 M
60 -9 V
3720 1000 L
-60 9 V
253 116 V
.0001 g 4940 1124 N 254 117 59 -9 -253 -117 h
stroke
LT0
0.75 0.75 0.75 C 4940 1124 M
60 -9 V
4746 998 L
-59 9 V
253 117 V
.0033 g 1919 1136 N 253 121 60 -11 -254 -129 h
stroke
LT0
0.75 0.75 0.75 C 1919 1136 M
59 -19 V
1725 996 L
-60 11 V
254 129 V
0 g 2946 1118 N 254 116 59 -9 -253 -116 h
stroke
LT0
0.75 0.75 0.75 C 2946 1118 M
60 -9 V
2752 993 L
-59 9 V
253 116 V
0 g 3973 1116 N 252 116 60 -9 -253 -116 h
stroke
LT0
0.75 0.75 0.75 C 3973 1116 M
59 -9 V
3780 991 L
-60 9 V
253 116 V
.0001 g 5000 1115 N 254 116 60 -9 -254 -117 h
stroke
LT0
0.75 0.75 0.75 C 5000 1115 M
60 -10 V
4806 989 L
-60 9 V
254 117 V
.001 g 1978 1117 N 254 117 59 -10 -253 -121 h
stroke
LT0
0.75 0.75 0.75 C 1978 1117 M
60 -14 V
1784 986 L
-59 10 V
253 121 V
0 g 3006 1109 N 253 116 60 -9 -254 -116 h
stroke
LT0
0.75 0.75 0.75 C 3006 1109 M
59 -9 V
2812 984 L
-60 9 V
254 116 V
0 g 4032 1107 N 254 116 58 -9 -252 -116 h
stroke
LT0
0.75 0.75 0.75 C 4032 1107 M
60 -9 V
3838 982 L
-58 9 V
252 116 V
.0001 g 5060 1105 N 253 116 60 -9 -254 -116 h
stroke
LT0
0.75 0.75 0.75 C 5060 1105 M
59 -9 V
4866 980 L
-60 9 V
254 116 V
.0001 g 2038 1103 N 253 116 60 -9 -254 -117 h
stroke
LT0
0.75 0.75 0.75 C 2038 1103 M
59 -10 V
1844 977 L
-60 9 V
254 117 V
0 g 3065 1100 N 254 116 59 -9 -253 -116 h
stroke
LT0
0.75 0.75 0.75 C 3065 1100 M
60 -9 V
2871 975 L
-59 9 V
253 116 V
0 g 4092 1098 N 253 116 60 -9 -254 -116 h
stroke
LT0
0.75 0.75 0.75 C 4092 1098 M
59 -9 V
3898 973 L
-60 9 V
254 116 V
.0001 g 5119 1096 N 254 116 59 -9 -253 -116 h
stroke
LT0
0.75 0.75 0.75 C 5119 1096 M
60 -9 V
4925 971 L
-59 9 V
253 116 V
0 g 2097 1093 N 254 116 59 -9 -253 -116 h
stroke
LT0
0.75 0.75 0.75 C 2097 1093 M
60 -9 V
1903 968 L
-59 9 V
253 116 V
0 g 3125 1091 N 253 116 60 -9 -254 -116 h
stroke
LT0
0.75 0.75 0.75 C 3125 1091 M
59 -9 V
2931 966 L
-60 9 V
254 116 V
0 g 4151 1089 N 254 116 59 -9 -253 -116 h
stroke
LT0
0.75 0.75 0.75 C 4151 1089 M
60 -9 V
3957 964 L
-59 9 V
253 116 V
.0001 g 5179 1087 N 253 116 60 -9 -254 -116 h
stroke
LT0
0.75 0.75 0.75 C 5179 1087 M
59 -9 V
4985 962 L
-60 9 V
254 116 V
0 g 2157 1084 N 253 116 60 -9 -254 -116 h
stroke
LT0
0.75 0.75 0.75 C 2157 1084 M
59 -9 V
1963 959 L
-60 9 V
254 116 V
0 g 3184 1082 N 254 116 59 -9 -253 -116 h
stroke
LT0
0.75 0.75 0.75 C 3184 1082 M
60 -9 V
2990 957 L
-59 9 V
253 116 V
0 g 4211 1080 N 253 116 60 -9 -254 -116 h
stroke
LT0
0.75 0.75 0.75 C 4211 1080 M
59 -9 V
4017 955 L
-60 9 V
254 116 V
0 g 5238 1078 N 254 116 59 -9 -253 -116 h
stroke
LT0
0.75 0.75 0.75 C 5238 1078 M
60 -9 V
5044 953 L
-59 9 V
253 116 V
0 g 2216 1075 N 254 116 59 -9 -253 -116 h
stroke
LT0
0.75 0.75 0.75 C 2216 1075 M
60 -9 V
2022 950 L
-59 9 V
253 116 V
0 g 3244 1073 N 253 116 60 -9 -254 -116 h
stroke
LT0
0.75 0.75 0.75 C 3244 1073 M
59 -9 V
3050 948 L
-60 9 V
254 116 V
0 g 4270 1071 N 254 116 59 -9 -253 -116 h
stroke
LT0
0.75 0.75 0.75 C 4270 1071 M
60 -9 V
4076 946 L
-59 9 V
253 116 V
0 g 5298 1069 N 253 116 60 -9 -254 -116 h
stroke
LT0
0.75 0.75 0.75 C 5298 1069 M
59 -9 V
5104 944 L
-60 9 V
254 116 V
0 g 2276 1066 N 253 116 60 -9 -254 -116 h
stroke
LT0
0.75 0.75 0.75 C 2276 1066 M
59 -9 V
2082 941 L
-60 9 V
254 116 V
0 g 3303 1064 N 254 116 59 -9 -253 -116 h
stroke
LT0
0.75 0.75 0.75 C 3303 1064 M
60 -9 V
3109 939 L
-59 9 V
253 116 V
0 g 4330 1062 N 253 117 60 -10 -254 -116 h
stroke
LT0
0.75 0.75 0.75 C 4330 1062 M
59 -9 V
4136 936 L
-60 10 V
254 116 V
0 g 5357 1060 N 254 117 59 -10 -253 -116 h
stroke
LT0
0.75 0.75 0.75 C 5357 1060 M
60 -9 V
5163 934 L
-59 10 V
253 116 V
0 g 2335 1057 N 254 116 59 -9 -253 -116 h
stroke
LT0
0.75 0.75 0.75 C 2335 1057 M
60 -9 V
2141 932 L
-59 9 V
253 116 V
0 g 3363 1055 N 253 117 60 -10 -254 -116 h
stroke
LT0
0.75 0.75 0.75 C 3363 1055 M
59 -9 V
3169 929 L
-60 10 V
254 116 V
0 g 4389 1053 N 254 117 59 -9 -253 -117 h
stroke
LT0
0.75 0.75 0.75 C 4389 1053 M
60 -9 V
4195 927 L
-59 9 V
253 117 V
0 g 5417 1051 N 253 117 60 -9 -254 -117 h
stroke
LT0
0.75 0.75 0.75 C 5417 1051 M
59 -9 V
5223 925 L
-60 9 V
254 117 V
0 g 2395 1048 N 253 117 60 -10 -254 -116 h
stroke
LT0
0.75 0.75 0.75 C 2395 1048 M
59 -9 V
2201 922 L
-60 10 V
254 116 V
0 g 3422 1046 N 254 117 59 -9 -253 -117 h
stroke
LT0
0.75 0.75 0.75 C 3422 1046 M
60 -9 V
3228 920 L
-59 9 V
253 117 V
0 g 4449 1044 N 253 117 60 -9 -254 -117 h
stroke
LT0
0.75 0.75 0.75 C 4449 1044 M
59 -9 V
4255 918 L
-60 9 V
254 117 V
0 g 5476 1042 N 254 116 59 -9 -253 -117 h
stroke
LT0
0.75 0.75 0.75 C 5476 1042 M
60 -10 V
5282 916 L
-59 9 V
253 117 V
0 g 2454 1039 N 254 117 59 -9 -253 -117 h
stroke
LT0
0.75 0.75 0.75 C 2454 1039 M
60 -9 V
2260 913 L
-59 9 V
253 117 V
0 g 3482 1037 N 253 116 60 -9 -254 -117 h
stroke
LT0
0.75 0.75 0.75 C 3482 1037 M
59 -10 V
3288 911 L
-60 9 V
254 117 V
0 g 4508 1035 N 254 116 59 -9 -253 -117 h
stroke
LT0
0.75 0.75 0.75 C 4508 1035 M
60 -10 V
4314 909 L
-59 9 V
253 117 V
0 g 2514 1030 N 253 116 60 -9 -254 -117 h
stroke
LT0
0.75 0.75 0.75 C 2514 1030 M
59 -10 V
2320 904 L
-60 9 V
254 117 V
0 g 3541 1027 N 254 116 59 -9 -253 -116 h
stroke
LT0
0.75 0.75 0.75 C 3541 1027 M
60 -9 V
3347 902 L
-59 9 V
253 116 V
0 g 4568 1025 N 253 116 60 -9 -254 -116 h
stroke
LT0
0.75 0.75 0.75 C 4568 1025 M
59 -9 V
4374 900 L
-60 9 V
254 116 V
0 g 2573 1020 N 253 116 60 -9 -253 -116 h
stroke
LT0
0.75 0.75 0.75 C 2573 1020 M
60 -9 V
2380 895 L
-60 9 V
253 116 V
0 g 3601 1018 N 253 116 60 -9 -254 -116 h
stroke
LT0
0.75 0.75 0.75 C 3601 1018 M
59 -9 V
3407 893 L
-60 9 V
254 116 V
0 g 4627 1016 N 254 116 59 -9 -253 -116 h
stroke
LT0
0.75 0.75 0.75 C 4627 1016 M
60 -9 V
4433 891 L
-59 9 V
253 116 V
0 g 2633 1011 N 254 116 59 -9 -253 -116 h
stroke
LT0
0.75 0.75 0.75 C 2633 1011 M
60 -9 V
2439 886 L
-59 9 V
253 116 V
0 g 3660 1009 N 253 116 60 -9 -253 -116 h
stroke
LT0
0.75 0.75 0.75 C 3660 1009 M
60 -9 V
3467 884 L
-60 9 V
253 116 V
0 g 4687 1007 N 253 116 60 -9 -254 -116 h
stroke
LT0
0.75 0.75 0.75 C 4687 1007 M
59 -9 V
4493 882 L
-60 9 V
254 116 V
0 g 2693 1002 N 253 116 60 -9 -254 -116 h
stroke
LT0
0.75 0.75 0.75 C 2693 1002 M
59 -9 V
2499 877 L
-60 9 V
254 116 V
0 g 3720 1000 N 254 116 59 -9 -253 -116 h
stroke
LT0
0.75 0.75 0.75 C 3720 1000 M
60 -9 V
3526 875 L
-59 9 V
253 116 V
0 g 4746 998 N 253 116 60 -9 -253 -116 h
stroke
LT0
0.75 0.75 0.75 C 4746 998 M
60 -9 V
4553 873 L
-60 9 V
253 116 V
0 g 2752 993 N 254 116 59 -9 -253 -116 h
stroke
LT0
0.75 0.75 0.75 C 2752 993 M
60 -9 V
2558 868 L
-59 9 V
253 116 V
0 g 3780 991 N 252 116 60 -9 -254 -116 h
stroke
LT0
0.75 0.75 0.75 C 3780 991 M
58 -9 V
3586 866 L
-60 9 V
254 116 V
0 g 4806 989 N 254 116 59 -9 -253 -116 h
stroke
LT0
0.75 0.75 0.75 C 4806 989 M
60 -9 V
4612 864 L
-59 9 V
253 116 V
0 g 2812 984 N 253 116 60 -9 -254 -116 h
stroke
LT0
0.75 0.75 0.75 C 2812 984 M
59 -9 V
2618 859 L
-60 9 V
254 116 V
0 g 3838 982 N 253 116 59 -9 -252 -116 h
stroke
LT0
0.75 0.75 0.75 C 3838 982 M
60 -9 V
3645 857 L
-59 9 V
252 116 V
0 g 4866 980 N 253 116 60 -9 -254 -116 h
stroke
LT0
0.75 0.75 0.75 C 4866 980 M
59 -9 V
4672 855 L
-60 9 V
254 116 V
0 g 2871 975 N 254 116 59 -9 -253 -116 h
stroke
LT0
0.75 0.75 0.75 C 2871 975 M
60 -9 V
2677 850 L
-59 9 V
253 116 V
0 g 3898 973 N 252 116 60 -9 -253 -116 h
stroke
LT0
0.75 0.75 0.75 C 3898 973 M
59 -9 V
3705 848 L
-60 9 V
253 116 V
0 g 4925 971 N 254 116 59 -9 -253 -116 h
stroke
LT0
0.75 0.75 0.75 C 4925 971 M
60 -9 V
4731 846 L
-59 9 V
253 116 V
0 g 2931 966 N 253 116 60 -9 -254 -116 h
stroke
LT0
0.75 0.75 0.75 C 2931 966 M
59 -9 V
2737 841 L
-60 9 V
254 116 V
0 g 3957 964 N 253 117 59 -10 -252 -116 h
stroke
LT0
0.75 0.75 0.75 C 3957 964 M
60 -9 V
3764 838 L
-59 10 V
252 116 V
0 g 4985 962 N 253 117 60 -10 -254 -116 h
stroke
LT0
0.75 0.75 0.75 C 4985 962 M
59 -9 V
4791 836 L
-60 10 V
254 116 V
0 g 2990 957 N 254 117 59 -10 -253 -116 h
stroke
LT0
0.75 0.75 0.75 C 2990 957 M
60 -9 V
2796 831 L
-59 10 V
253 116 V
0 g 4017 955 N 253 117 59 -9 -253 -117 h
stroke
LT0
0.75 0.75 0.75 C 4017 955 M
59 -9 V
3823 829 L
-59 9 V
253 117 V
0 g 5044 953 N 254 117 59 -9 -253 -117 h
stroke
LT0
0.75 0.75 0.75 C 5044 953 M
60 -9 V
4850 827 L
-59 9 V
253 117 V
0 g 3050 948 N 253 117 60 -9 -254 -117 h
stroke
LT0
0.75 0.75 0.75 C 3050 948 M
59 -9 V
2856 822 L
-60 9 V
254 117 V
0 g 4076 946 N 254 116 59 -9 -253 -117 h
stroke
LT0
0.75 0.75 0.75 C 4076 946 M
60 -10 V
3882 820 L
-59 9 V
253 117 V
0 g 5104 944 N 253 116 60 -9 -254 -117 h
stroke
LT0
0.75 0.75 0.75 C 5104 944 M
59 -10 V
4910 818 L
-60 9 V
254 117 V
0 g 3109 939 N 254 116 59 -9 -253 -117 h
stroke
LT0
0.75 0.75 0.75 C 3109 939 M
60 -10 V
2915 813 L
-59 9 V
253 117 V
0 g 4136 936 N 253 116 60 -9 -254 -116 h
stroke
LT0
0.75 0.75 0.75 C 4136 936 M
59 -9 V
3942 811 L
-60 9 V
254 116 V
0 g 5163 934 N 254 116 59 -9 -253 -116 h
stroke
LT0
0.75 0.75 0.75 C 5163 934 M
60 -9 V
4969 809 L
-59 9 V
253 116 V
0 g 3169 929 N 253 116 60 -9 -254 -116 h
stroke
LT0
0.75 0.75 0.75 C 3169 929 M
59 -9 V
2975 804 L
-60 9 V
254 116 V
0 g 4195 927 N 254 116 59 -9 -253 -116 h
stroke
LT0
0.75 0.75 0.75 C 4195 927 M
60 -9 V
4001 802 L
-59 9 V
253 116 V
0 g 5223 925 N 253 116 60 -9 -254 -116 h
stroke
LT0
0.75 0.75 0.75 C 5223 925 M
59 -9 V
5029 800 L
-60 9 V
254 116 V
0 g 3228 920 N 254 116 59 -9 -253 -116 h
stroke
LT0
0.75 0.75 0.75 C 3228 920 M
60 -9 V
3034 795 L
-59 9 V
253 116 V
0 g 4255 918 N 253 116 60 -9 -254 -116 h
stroke
LT0
0.75 0.75 0.75 C 4255 918 M
59 -9 V
4061 793 L
-60 9 V
254 116 V
0 g 3288 911 N 253 116 60 -9 -254 -116 h
stroke
LT0
0.75 0.75 0.75 C 3288 911 M
59 -9 V
3094 786 L
-60 9 V
254 116 V
0 g 4314 909 N 254 116 59 -9 -253 -116 h
stroke
LT0
0.75 0.75 0.75 C 4314 909 M
60 -9 V
4120 784 L
-59 9 V
253 116 V
0 g 3347 902 N 254 116 59 -9 -253 -116 h
stroke
LT0
0.75 0.75 0.75 C 3347 902 M
60 -9 V
3153 777 L
-59 9 V
253 116 V
0 g 4374 900 N 253 116 60 -9 -254 -116 h
stroke
LT0
0.75 0.75 0.75 C 4374 900 M
59 -9 V
4180 775 L
-60 9 V
254 116 V
0 g 3407 893 N 254 116 60 -9 -254 -116 h
stroke
LT0
0.75 0.75 0.75 C 3407 893 M
60 -9 V
3213 768 L
-60 9 V
254 116 V
0 g 4433 891 N 254 116 59 -9 -253 -116 h
stroke
LT0
0.75 0.75 0.75 C 4433 891 M
60 -9 V
4239 766 L
-59 9 V
253 116 V
0 g 3467 884 N 253 116 60 -9 -254 -116 h
stroke
LT0
0.75 0.75 0.75 C 3467 884 M
59 -9 V
3273 759 L
-60 9 V
254 116 V
0 g 4493 882 N 254 116 60 -9 -254 -116 h
stroke
LT0
0.75 0.75 0.75 C 4493 882 M
60 -9 V
4299 757 L
-60 9 V
254 116 V
0 g 3526 875 N 254 116 59 -9 -253 -116 h
stroke
LT0
0.75 0.75 0.75 C 3526 875 M
60 -9 V
3332 750 L
-59 9 V
253 116 V
0 g 4553 873 N 253 117 60 -10 -254 -116 h
stroke
LT0
0.75 0.75 0.75 C 4553 873 M
59 -9 V
4359 747 L
-60 10 V
254 116 V
0 g 3586 866 N 253 117 60 -10 -254 -116 h
stroke
LT0
0.75 0.75 0.75 C 3586 866 M
59 -9 V
3392 740 L
-60 10 V
254 116 V
0 g 4612 864 N 254 117 59 -9 -253 -117 h
stroke
LT0
0.75 0.75 0.75 C 4612 864 M
60 -9 V
4418 738 L
-59 9 V
253 117 V
0 g 3645 857 N 254 117 59 -9 -253 -117 h
stroke
LT0
0.75 0.75 0.75 C 3645 857 M
60 -9 V
3451 731 L
-59 9 V
253 117 V
0 g 4672 855 N 253 117 60 -9 -254 -117 h
stroke
LT0
0.75 0.75 0.75 C 4672 855 M
59 -9 V
4478 729 L
-60 9 V
254 117 V
0 g 3705 848 N 253 116 60 -9 -254 -117 h
stroke
LT0
0.75 0.75 0.75 C 3705 848 M
59 -10 V
3511 722 L
-60 9 V
254 117 V
0 g 4731 846 N 254 116 59 -9 -253 -117 h
stroke
LT0
0.75 0.75 0.75 C 4731 846 M
60 -10 V
4537 720 L
-59 9 V
253 117 V
0 g 3764 838 N 253 116 59 -9 -253 -116 h
stroke
LT0
0.75 0.75 0.75 C 3764 838 M
59 -9 V
3570 713 L
-59 9 V
253 116 V
0 g 4791 836 N 253 116 60 -9 -254 -116 h
stroke
LT0
0.75 0.75 0.75 C 4791 836 M
59 -9 V
4597 711 L
-60 9 V
254 116 V
0 g 3823 829 N 252 116 60 -9 -253 -116 h
stroke
LT0
0.75 0.75 0.75 C 3823 829 M
59 -9 V
3630 704 L
-60 9 V
253 116 V
0 g 4850 827 N 254 116 59 -9 -253 -116 h
stroke
LT0
0.75 0.75 0.75 C 4850 827 M
60 -9 V
4656 702 L
-59 9 V
253 116 V
0 g 3882 820 N 253 116 59 -9 -252 -116 h
stroke
LT0
0.75 0.75 0.75 C 3882 820 M
60 -9 V
3689 695 L
-59 9 V
252 116 V
0 g 4910 818 N 253 116 60 -9 -254 -116 h
stroke
LT0
0.75 0.75 0.75 C 4910 818 M
59 -9 V
4716 693 L
-60 9 V
254 116 V
0 g 3942 811 N 252 116 60 -9 -253 -116 h
stroke
LT0
0.75 0.75 0.75 C 3942 811 M
59 -9 V
3749 686 L
-60 9 V
253 116 V
0 g 4969 809 N 254 116 59 -9 -253 -116 h
stroke
LT0
0.75 0.75 0.75 C 4969 809 M
60 -9 V
4775 684 L
-59 9 V
253 116 V
0 g 4001 802 N 254 116 58 -9 -252 -116 h
stroke
LT0
0.75 0.75 0.75 C 4001 802 M
60 -9 V
3807 677 L
-58 9 V
252 116 V
0 g 4061 793 N 253 116 60 -9 -254 -116 h
stroke
LT0
0.75 0.75 0.75 C 4061 793 M
59 -9 V
3867 668 L
-60 9 V
254 116 V
0 g 4120 784 N 254 116 59 -9 -253 -116 h
stroke
LT0
0.75 0.75 0.75 C 4120 784 M
60 -9 V
3926 659 L
-59 9 V
253 116 V
0 g 4180 775 N 253 117 60 -10 -254 -116 h
stroke
LT0
0.75 0.75 0.75 C 4180 775 M
59 -9 V
3986 649 L
-60 10 V
254 116 V
0 g 4239 766 N 253 117 60 -9 -253 -117 h
stroke
LT0
0.75 0.75 0.75 C 4239 766 M
60 -9 V
4046 640 L
-60 9 V
253 117 V
0 g 4299 757 N 254 116 59 -9 -253 -117 h
stroke
LT0
0.75 0.75 0.75 C 4299 757 M
60 -10 V
4105 631 L
-59 9 V
253 117 V
0 g 4359 747 N 253 116 60 -9 -254 -116 h
stroke
LT0
0.75 0.75 0.75 C 4359 747 M
59 -9 V
4165 622 L
-60 9 V
254 116 V
0 g 4418 738 N 254 116 59 -9 -253 -116 h
stroke
LT0
0.75 0.75 0.75 C 4418 738 M
60 -9 V
4224 613 L
-59 9 V
253 116 V
0 g 4478 729 N 253 116 60 -9 -254 -116 h
stroke
LT0
0.75 0.75 0.75 C 4478 729 M
59 -9 V
4284 604 L
-60 9 V
254 116 V
0 g 4537 720 N 254 116 59 -9 -253 -116 h
stroke
LT0
0.75 0.75 0.75 C 4537 720 M
60 -9 V
4343 595 L
-59 9 V
253 116 V
0 g 4597 711 N 253 116 60 -9 -254 -116 h
stroke
LT0
0.75 0.75 0.75 C 4597 711 M
59 -9 V
4403 586 L
-60 9 V
254 116 V
0 g 4656 702 N 254 116 59 -9 -253 -116 h
stroke
LT0
0.75 0.75 0.75 C 4656 702 M
60 -9 V
4462 577 L
-59 9 V
253 116 V
0 g 4716 693 N 253 116 60 -9 -254 -116 h
stroke
LT0
0.75 0.75 0.75 C 4716 693 M
59 -9 V
4522 568 L
-60 9 V
254 116 V
stroke
LTb
LCb setrgbcolor
5790 1149 M
760 348 V
stroke
LTb
LCb setrgbcolor
4522 568 M
1014 464 V
stroke
LTb
LCb setrgbcolor
1723 995 M
-713 109 V
stroke
LTb
LCb setrgbcolor
1844 977 M
-60 9 V
stroke
LTb
LCb setrgbcolor
4522 568 M
1963 959 L
stroke
LTb
LCb setrgbcolor
1010 1104 M
248 114 V
stroke
LTb
LCb setrgbcolor
6550 1497 M
-74 12 V
stroke
LTb
LCb setrgbcolor
1010 2963 M
0 -1859 V
stroke
LTb
LCb setrgbcolor
3038 3892 M
0 -133 V
stroke
LTb
LCb setrgbcolor
6550 3356 M
0 -1859 V
stroke
LTb
LCb setrgbcolor
1010 2963 M
2028 929 V
stroke
LTb
LCb setrgbcolor
6550 3356 M
3038 3892 L
stroke
LTa
LCa setrgbcolor
1248 1068 M
147 67 V
stroke
LTb
LCb setrgbcolor
1248 1068 M
60 27 V
stroke
LTb
LCb setrgbcolor
1169 1007 M
[ [(Times-Roman) 140.0 0.0 true true 0 ( 50)]
] -46.7 MRshow
1.000 UL
LTb
LCb setrgbcolor
1.000 UL
LTa
LCa setrgbcolor
1546 1022 M
26 12 V
stroke
LTb
LCb setrgbcolor
1546 1022 M
26 12 V
stroke
LTb
LCb setrgbcolor
1467 962 M
[ [(Times-Roman) 140.0 0.0 true true 0 ( 100)]
] -46.7 MRshow
1.000 UL
LTb
LCb setrgbcolor
1.000 UL
LTa
LCa setrgbcolor
1844 977 M
253 116 V
stroke
LTb
LCb setrgbcolor
1844 977 M
59 27 V
stroke
LTb
LCb setrgbcolor
1764 916 M
[ [(Times-Roman) 140.0 0.0 true true 0 ( 150)]
] -46.7 MRshow
1.000 UL
LTb
LCb setrgbcolor
1.000 UL
LTa
LCa setrgbcolor
2141 932 M
761 348 V
stroke
LTb
LCb setrgbcolor
2141 932 M
60 27 V
stroke
LTb
LCb setrgbcolor
2062 871 M
[ [(Times-Roman) 140.0 0.0 true true 0 ( 200)]
] -46.7 MRshow
1.000 UL
LTb
LCb setrgbcolor
1.000 UL
LTa
LCa setrgbcolor
2439 886 M
761 349 V
stroke
LTb
LCb setrgbcolor
2439 886 M
60 27 V
stroke
LTb
LCb setrgbcolor
2360 825 M
[ [(Times-Roman) 140.0 0.0 true true 0 ( 250)]
] -46.7 MRshow
1.000 UL
LTb
LCb setrgbcolor
1.000 UL
LTa
LCa setrgbcolor
2737 841 M
760 348 V
stroke
LTb
LCb setrgbcolor
2737 841 M
59 27 V
stroke
LTb
LCb setrgbcolor
2657 780 M
[ [(Times-Roman) 140.0 0.0 true true 0 ( 300)]
] -46.7 MRshow
1.000 UL
LTb
LCb setrgbcolor
1.000 UL
LTa
LCa setrgbcolor
3034 795 M
760 349 V
stroke
LTb
LCb setrgbcolor
3034 795 M
60 27 V
stroke
LTb
LCb setrgbcolor
2955 734 M
[ [(Times-Roman) 140.0 0.0 true true 0 ( 350)]
] -46.7 MRshow
1.000 UL
LTb
LCb setrgbcolor
1.000 UL
LTa
LCa setrgbcolor
3332 750 M
760 348 V
stroke
LTb
LCb setrgbcolor
3332 750 M
60 27 V
stroke
LTb
LCb setrgbcolor
3253 689 M
[ [(Times-Roman) 140.0 0.0 true true 0 ( 400)]
] -46.7 MRshow
1.000 UL
LTb
LCb setrgbcolor
1.000 UL
LTa
LCa setrgbcolor
3630 704 M
759 349 V
stroke
LTb
LCb setrgbcolor
3630 704 M
59 27 V
stroke
LTb
LCb setrgbcolor
3550 643 M
[ [(Times-Roman) 140.0 0.0 true true 0 ( 450)]
] -46.7 MRshow
1.000 UL
LTb
LCb setrgbcolor
1.000 UL
LTa
LCa setrgbcolor
3926 659 M
761 348 V
stroke
LTb
LCb setrgbcolor
3926 659 M
60 27 V
stroke
LTb
LCb setrgbcolor
3847 598 M
[ [(Times-Roman) 140.0 0.0 true true 0 ( 500)]
] -46.7 MRshow
1.000 UL
LTb
LCb setrgbcolor
LCb setrgbcolor
2260 604 M
[ [(Times-Roman) 140.0 0.0 true true 0 (Max iterations)]
] -46.7 MCshow
LTb
1.000 UL
LTa
LCa setrgbcolor
1723 995 M
-713 109 V
stroke
LTa
LCa setrgbcolor
1844 977 M
-60 9 V
stroke
LTa
LCa setrgbcolor
4522 568 M
1963 959 L
stroke
LTb
LCb setrgbcolor
4522 568 M
-55 8 V
stroke
4595 549 M
[ [(Times-Roman) 140.0 0.0 true true 0 ( 10)]
] -46.7 MCshow
1.000 UL
LTb
LCb setrgbcolor
1.000 UL
LTb
LCb setrgbcolor
1065 1096 M
-55 8 V
stroke
LTa
LCa setrgbcolor
4775 684 M
2097 1093 L
stroke
LTb
LCb setrgbcolor
4775 684 M
-54 8 V
stroke
4848 665 M
[ [(Times-Roman) 140.0 0.0 true true 0 ( 20)]
] -46.7 MCshow
1.000 UL
LTb
LCb setrgbcolor
1.000 UL
LTa
LCa setrgbcolor
5029 800 M
2470 1191 L
stroke
LTb
LCb setrgbcolor
5029 800 M
-55 8 V
stroke
5102 782 M
[ [(Times-Roman) 140.0 0.0 true true 0 ( 30)]
] -46.7 MCshow
1.000 UL
LTb
LCb setrgbcolor
1.000 UL
LTa
LCa setrgbcolor
5282 916 M
2842 1289 L
stroke
LTb
LCb setrgbcolor
5282 916 M
-54 9 V
stroke
5355 898 M
[ [(Times-Roman) 140.0 0.0 true true 0 ( 40)]
] -46.7 MCshow
1.000 UL
LTb
LCb setrgbcolor
1.000 UL
LTa
LCa setrgbcolor
5536 1032 M
-238 37 V
stroke
LTb
LCb setrgbcolor
5536 1032 M
-55 9 V
stroke
5609 1014 M
[ [(Times-Roman) 140.0 0.0 true true 0 ( 50)]
] -46.7 MCshow
1.000 UL
LTb
LCb setrgbcolor
5862 1130 M
[ [(Times-Roman) 140.0 0.0 true true 0 ( 60)]
] -46.7 MCshow
1.000 UL
LTb
LCb setrgbcolor
1.000 UL
LTa
LCa setrgbcolor
6043 1265 M
-1 0 V
stroke
LTb
LCb setrgbcolor
6043 1265 M
-1 0 V
stroke
6116 1246 M
[ [(Times-Roman) 140.0 0.0 true true 0 ( 70)]
] -46.7 MCshow
1.000 UL
LTb
LCb setrgbcolor
1.000 UL
LTa
LCa setrgbcolor
6296 1381 M
-12 2 V
stroke
LTb
LCb setrgbcolor
6296 1381 M
-12 2 V
stroke
6369 1363 M
[ [(Times-Roman) 140.0 0.0 true true 0 ( 80)]
] -46.7 MCshow
1.000 UL
LTb
LCb setrgbcolor
1.000 UL
LTa
LCa setrgbcolor
6550 1497 M
-74 12 V
stroke
LTb
LCb setrgbcolor
6550 1497 M
-55 9 V
stroke
6623 1479 M
[ [(Times-Roman) 140.0 0.0 true true 0 ( 90)]
] -46.7 MCshow
1.000 UL
LTb
LCb setrgbcolor
LCb setrgbcolor
6414 758 M
[ [(Times-Roman) 140.0 0.0 true true 0 (		Probability of incompleteness p1)]
] -46.7 MCshow
LTb
1.000 UL
LTa
LCa setrgbcolor
1010 1104 M
248 114 V
stroke
LTa
LCa setrgbcolor
6550 1497 M
-74 12 V
stroke
LTb
LCb setrgbcolor
1073 1104 M
-63 0 V
stroke
884 1104 M
[ [(Times-Roman) 140.0 0.0 true true 0 ( 0)]
] -46.7 MRshow
1.000 UL
LTb
LCb setrgbcolor
1.000 UL
LTa
LCa setrgbcolor
6550 1704 M
3554 2162 L
stroke
884 1311 M
[ [(Times-Roman) 140.0 0.0 true true 0 ( 10)]
] -46.7 MRshow
1.000 UL
LTb
LCb setrgbcolor
1.000 UL
LTa
LCa setrgbcolor
1010 1518 M
248 113 V
stroke
LTa
LCa setrgbcolor
6550 1910 M
3471 2380 L
stroke
LTb
LCb setrgbcolor
1073 1518 M
-63 0 V
stroke
884 1518 M
[ [(Times-Roman) 140.0 0.0 true true 0 ( 20)]
] -46.7 MRshow
1.000 UL
LTb
LCb setrgbcolor
1.000 UL
LTa
LCa setrgbcolor
1010 1724 M
533 244 V
stroke
LTa
LCa setrgbcolor
6550 2117 M
3393 2599 L
stroke
LTb
LCb setrgbcolor
1073 1724 M
-63 0 V
stroke
884 1724 M
[ [(Times-Roman) 140.0 0.0 true true 0 ( 30)]
] -46.7 MRshow
1.000 UL
LTb
LCb setrgbcolor
1.000 UL
LTa
LCa setrgbcolor
1010 1931 M
771 352 V
stroke
LTa
LCa setrgbcolor
6550 2323 M
3321 2816 L
stroke
LTb
LCb setrgbcolor
1073 1931 M
-63 0 V
stroke
884 1931 M
[ [(Times-Roman) 140.0 0.0 true true 0 ( 40)]
] -46.7 MRshow
1.000 UL
LTb
LCb setrgbcolor
1.000 UL
LTa
LCa setrgbcolor
1010 2137 M
1038 475 V
stroke
LTa
LCa setrgbcolor
6550 2529 M
3253 3033 L
stroke
LTb
LCb setrgbcolor
1073 2137 M
-63 0 V
stroke
884 2137 M
[ [(Times-Roman) 140.0 0.0 true true 0 ( 50)]
] -46.7 MRshow
1.000 UL
LTb
LCb setrgbcolor
1.000 UL
LTa
LCa setrgbcolor
1010 2343 M
1298 595 V
stroke
LTa
LCa setrgbcolor
6550 2736 M
3188 3250 L
stroke
LTb
LCb setrgbcolor
1073 2343 M
-63 0 V
stroke
884 2343 M
[ [(Times-Roman) 140.0 0.0 true true 0 ( 60)]
] -46.7 MRshow
1.000 UL
LTb
LCb setrgbcolor
1.000 UL
LTa
LCa setrgbcolor
1010 2550 M
1542 706 V
stroke
LTa
LCa setrgbcolor
6550 2942 M
3123 3466 L
stroke
LTb
LCb setrgbcolor
1073 2550 M
-63 0 V
stroke
884 2550 M
[ [(Times-Roman) 140.0 0.0 true true 0 ( 70)]
] -46.7 MRshow
1.000 UL
LTb
LCb setrgbcolor
1.000 UL
LTa
LCa setrgbcolor
1010 2756 M
1885 864 V
stroke
LTa
LCa setrgbcolor
6550 3149 M
3060 3682 L
stroke
LTb
LCb setrgbcolor
1073 2756 M
-63 0 V
stroke
884 2756 M
[ [(Times-Roman) 140.0 0.0 true true 0 ( 80)]
] -46.7 MRshow
1.000 UL
LTb
LCb setrgbcolor
1.000 UL
LTa
LCa setrgbcolor
1010 2963 M
2028 929 V
stroke
LTa
LCa setrgbcolor
6550 3356 M
3038 3892 L
stroke
LTb
LCb setrgbcolor
1073 2963 M
-63 0 V
stroke
884 2963 M
[ [(Times-Roman) 140.0 0.0 true true 0 ( 90)]
] -46.7 MRshow
1.000 UL
LTb
LCb setrgbcolor
LCb setrgbcolor
422 2034 M
currentpoint gsave translate 90 rotate 0 0 moveto
[ [(Times-Roman) 140.0 0.0 true true 0 (Average number of singles)]
] -46.7 MCshow
grestore
LTb
stroke gsave	%% draw gray scale smooth box
maxcolors 0 gt {/imax maxcolors def} {/imax 1024 def} ifelse
6655 1914 translate 280 1383 scale 0 setlinewidth
/ystep 1 imax div def /y0 0 def /ii 0 def
{ y0 g 0 y0 N 1 0 V 0 ystep V -1 0 f
/y0 y0 ystep add def /ii ii 1 add def
ii imax ge {exit} if } loop
grestore 0 setgray
1.000 UL
LTb
LCb setrgbcolor
6655 1914 N
280 0 V
0 1383 V
-280 0 V
0 -1383 V
Z stroke
1.000 UL
LTb
LCb setrgbcolor
1.000 UL
LTb
LCb setrgbcolor
6935 1914 M
-63 0 V
stroke
7019 1914 M
[ [(Times-Roman) 140.0 0.0 true true 0 ( 0)]
] -46.7 MLshow
1.000 UL
LTb
LCb setrgbcolor
6655 1914 M
63 0 V
217 153 R
-63 0 V
stroke
7019 2067 M
[ [(Times-Roman) 140.0 0.0 true true 0 ( 10)]
] -46.7 MLshow
1.000 UL
LTb
LCb setrgbcolor
6655 2067 M
63 0 V
217 154 R
-63 0 V
stroke
7019 2221 M
[ [(Times-Roman) 140.0 0.0 true true 0 ( 20)]
] -46.7 MLshow
1.000 UL
LTb
LCb setrgbcolor
6655 2221 M
63 0 V
217 154 R
-63 0 V
stroke
7019 2375 M
[ [(Times-Roman) 140.0 0.0 true true 0 ( 30)]
] -46.7 MLshow
1.000 UL
LTb
LCb setrgbcolor
6655 2375 M
63 0 V
217 153 R
-63 0 V
stroke
7019 2528 M
[ [(Times-Roman) 140.0 0.0 true true 0 ( 40)]
] -46.7 MLshow
1.000 UL
LTb
LCb setrgbcolor
6655 2528 M
63 0 V
217 154 R
-63 0 V
stroke
7019 2682 M
[ [(Times-Roman) 140.0 0.0 true true 0 ( 50)]
] -46.7 MLshow
1.000 UL
LTb
LCb setrgbcolor
6655 2682 M
63 0 V
217 154 R
-63 0 V
stroke
7019 2836 M
[ [(Times-Roman) 140.0 0.0 true true 0 ( 60)]
] -46.7 MLshow
1.000 UL
LTb
LCb setrgbcolor
6655 2836 M
63 0 V
217 153 R
-63 0 V
stroke
7019 2989 M
[ [(Times-Roman) 140.0 0.0 true true 0 ( 70)]
] -46.7 MLshow
1.000 UL
LTb
LCb setrgbcolor
6655 2989 M
63 0 V
217 154 R
-63 0 V
stroke
7019 3143 M
[ [(Times-Roman) 140.0 0.0 true true 0 ( 80)]
] -46.7 MLshow
1.000 UL
LTb
LCb setrgbcolor
6655 3143 M
63 0 V
217 154 R
-63 0 V
stroke
7019 3297 M
[ [(Times-Roman) 140.0 0.0 true true 0 ( 90)]
] -46.7 MLshow
1.000 UL
LTb
LCb setrgbcolor
6655 3297 M
63 0 V
1.000 UP
stroke
grestore % colour palette end
stroke
grestore
end
showpage
%%Trailer
%%DocumentFonts: Times-Roman
