%!PS-Adobe-2.0 EPSF-2.0
%%Title: AS-3D-BP-vp1-v2.eps
%%Creator: gnuplot 4.6 patchlevel 5
%%CreationDate: Fri Sep 26 20:44:14 2014
%%DocumentFonts: (atend)
%%BoundingBox: 50 50 428 266
%%EndComments
%%BeginProlog
/gnudict 256 dict def
gnudict begin
%
% The following true/false flags may be edited by hand if desired.
% The unit line width and grayscale image gamma correction may also be changed.
%
/Color true def
/Blacktext false def
/Solid false def
/Dashlength 1 def
/Landscape false def
/Level1 false def
/Rounded false def
/ClipToBoundingBox false def
/SuppressPDFMark false def
/TransparentPatterns false def
/gnulinewidth 5.000 def
/userlinewidth gnulinewidth def
/Gamma 1.0 def
/BackgroundColor {-1.000 -1.000 -1.000} def
%
/vshift -46 def
/dl1 {
  10.0 Dashlength mul mul
  Rounded { currentlinewidth 0.75 mul sub dup 0 le { pop 0.01 } if } if
} def
/dl2 {
  10.0 Dashlength mul mul
  Rounded { currentlinewidth 0.75 mul add } if
} def
/hpt_ 31.5 def
/vpt_ 31.5 def
/hpt hpt_ def
/vpt vpt_ def
/doclip {
  ClipToBoundingBox {
    newpath 50 50 moveto 428 50 lineto 428 266 lineto 50 266 lineto closepath
    clip
  } if
} def
%
% Gnuplot Prolog Version 4.6 (September 2012)
%
%/SuppressPDFMark true def
%
/M {moveto} bind def
/L {lineto} bind def
/R {rmoveto} bind def
/V {rlineto} bind def
/N {newpath moveto} bind def
/Z {closepath} bind def
/C {setrgbcolor} bind def
/f {rlineto fill} bind def
/g {setgray} bind def
/Gshow {show} def   % May be redefined later in the file to support UTF-8
/vpt2 vpt 2 mul def
/hpt2 hpt 2 mul def
/Lshow {currentpoint stroke M 0 vshift R 
	Blacktext {gsave 0 setgray show grestore} {show} ifelse} def
/Rshow {currentpoint stroke M dup stringwidth pop neg vshift R
	Blacktext {gsave 0 setgray show grestore} {show} ifelse} def
/Cshow {currentpoint stroke M dup stringwidth pop -2 div vshift R 
	Blacktext {gsave 0 setgray show grestore} {show} ifelse} def
/UP {dup vpt_ mul /vpt exch def hpt_ mul /hpt exch def
  /hpt2 hpt 2 mul def /vpt2 vpt 2 mul def} def
/DL {Color {setrgbcolor Solid {pop []} if 0 setdash}
 {pop pop pop 0 setgray Solid {pop []} if 0 setdash} ifelse} def
/BL {stroke userlinewidth 2 mul setlinewidth
	Rounded {1 setlinejoin 1 setlinecap} if} def
/AL {stroke userlinewidth 2 div setlinewidth
	Rounded {1 setlinejoin 1 setlinecap} if} def
/UL {dup gnulinewidth mul /userlinewidth exch def
	dup 1 lt {pop 1} if 10 mul /udl exch def} def
/PL {stroke userlinewidth setlinewidth
	Rounded {1 setlinejoin 1 setlinecap} if} def
3.8 setmiterlimit
% Default Line colors
/LCw {1 1 1} def
/LCb {0 0 0} def
/LCa {0 0 0} def
/LC0 {1 0 0} def
/LC1 {0 1 0} def
/LC2 {0 0 1} def
/LC3 {1 0 1} def
/LC4 {0 1 1} def
/LC5 {1 1 0} def
/LC6 {0 0 0} def
/LC7 {1 0.3 0} def
/LC8 {0.5 0.5 0.5} def
% Default Line Types
/LTw {PL [] 1 setgray} def
/LTb {BL [] LCb DL} def
/LTa {AL [1 udl mul 2 udl mul] 0 setdash LCa setrgbcolor} def
/LT0 {PL [] LC0 DL} def
/LT1 {PL [4 dl1 2 dl2] LC1 DL} def
/LT2 {PL [2 dl1 3 dl2] LC2 DL} def
/LT3 {PL [1 dl1 1.5 dl2] LC3 DL} def
/LT4 {PL [6 dl1 2 dl2 1 dl1 2 dl2] LC4 DL} def
/LT5 {PL [3 dl1 3 dl2 1 dl1 3 dl2] LC5 DL} def
/LT6 {PL [2 dl1 2 dl2 2 dl1 6 dl2] LC6 DL} def
/LT7 {PL [1 dl1 2 dl2 6 dl1 2 dl2 1 dl1 2 dl2] LC7 DL} def
/LT8 {PL [2 dl1 2 dl2 2 dl1 2 dl2 2 dl1 2 dl2 2 dl1 4 dl2] LC8 DL} def
/Pnt {stroke [] 0 setdash gsave 1 setlinecap M 0 0 V stroke grestore} def
/Dia {stroke [] 0 setdash 2 copy vpt add M
  hpt neg vpt neg V hpt vpt neg V
  hpt vpt V hpt neg vpt V closepath stroke
  Pnt} def
/Pls {stroke [] 0 setdash vpt sub M 0 vpt2 V
  currentpoint stroke M
  hpt neg vpt neg R hpt2 0 V stroke
 } def
/Box {stroke [] 0 setdash 2 copy exch hpt sub exch vpt add M
  0 vpt2 neg V hpt2 0 V 0 vpt2 V
  hpt2 neg 0 V closepath stroke
  Pnt} def
/Crs {stroke [] 0 setdash exch hpt sub exch vpt add M
  hpt2 vpt2 neg V currentpoint stroke M
  hpt2 neg 0 R hpt2 vpt2 V stroke} def
/TriU {stroke [] 0 setdash 2 copy vpt 1.12 mul add M
  hpt neg vpt -1.62 mul V
  hpt 2 mul 0 V
  hpt neg vpt 1.62 mul V closepath stroke
  Pnt} def
/Star {2 copy Pls Crs} def
/BoxF {stroke [] 0 setdash exch hpt sub exch vpt add M
  0 vpt2 neg V hpt2 0 V 0 vpt2 V
  hpt2 neg 0 V closepath fill} def
/TriUF {stroke [] 0 setdash vpt 1.12 mul add M
  hpt neg vpt -1.62 mul V
  hpt 2 mul 0 V
  hpt neg vpt 1.62 mul V closepath fill} def
/TriD {stroke [] 0 setdash 2 copy vpt 1.12 mul sub M
  hpt neg vpt 1.62 mul V
  hpt 2 mul 0 V
  hpt neg vpt -1.62 mul V closepath stroke
  Pnt} def
/TriDF {stroke [] 0 setdash vpt 1.12 mul sub M
  hpt neg vpt 1.62 mul V
  hpt 2 mul 0 V
  hpt neg vpt -1.62 mul V closepath fill} def
/DiaF {stroke [] 0 setdash vpt add M
  hpt neg vpt neg V hpt vpt neg V
  hpt vpt V hpt neg vpt V closepath fill} def
/Pent {stroke [] 0 setdash 2 copy gsave
  translate 0 hpt M 4 {72 rotate 0 hpt L} repeat
  closepath stroke grestore Pnt} def
/PentF {stroke [] 0 setdash gsave
  translate 0 hpt M 4 {72 rotate 0 hpt L} repeat
  closepath fill grestore} def
/Circle {stroke [] 0 setdash 2 copy
  hpt 0 360 arc stroke Pnt} def
/CircleF {stroke [] 0 setdash hpt 0 360 arc fill} def
/C0 {BL [] 0 setdash 2 copy moveto vpt 90 450 arc} bind def
/C1 {BL [] 0 setdash 2 copy moveto
	2 copy vpt 0 90 arc closepath fill
	vpt 0 360 arc closepath} bind def
/C2 {BL [] 0 setdash 2 copy moveto
	2 copy vpt 90 180 arc closepath fill
	vpt 0 360 arc closepath} bind def
/C3 {BL [] 0 setdash 2 copy moveto
	2 copy vpt 0 180 arc closepath fill
	vpt 0 360 arc closepath} bind def
/C4 {BL [] 0 setdash 2 copy moveto
	2 copy vpt 180 270 arc closepath fill
	vpt 0 360 arc closepath} bind def
/C5 {BL [] 0 setdash 2 copy moveto
	2 copy vpt 0 90 arc
	2 copy moveto
	2 copy vpt 180 270 arc closepath fill
	vpt 0 360 arc} bind def
/C6 {BL [] 0 setdash 2 copy moveto
	2 copy vpt 90 270 arc closepath fill
	vpt 0 360 arc closepath} bind def
/C7 {BL [] 0 setdash 2 copy moveto
	2 copy vpt 0 270 arc closepath fill
	vpt 0 360 arc closepath} bind def
/C8 {BL [] 0 setdash 2 copy moveto
	2 copy vpt 270 360 arc closepath fill
	vpt 0 360 arc closepath} bind def
/C9 {BL [] 0 setdash 2 copy moveto
	2 copy vpt 270 450 arc closepath fill
	vpt 0 360 arc closepath} bind def
/C10 {BL [] 0 setdash 2 copy 2 copy moveto vpt 270 360 arc closepath fill
	2 copy moveto
	2 copy vpt 90 180 arc closepath fill
	vpt 0 360 arc closepath} bind def
/C11 {BL [] 0 setdash 2 copy moveto
	2 copy vpt 0 180 arc closepath fill
	2 copy moveto
	2 copy vpt 270 360 arc closepath fill
	vpt 0 360 arc closepath} bind def
/C12 {BL [] 0 setdash 2 copy moveto
	2 copy vpt 180 360 arc closepath fill
	vpt 0 360 arc closepath} bind def
/C13 {BL [] 0 setdash 2 copy moveto
	2 copy vpt 0 90 arc closepath fill
	2 copy moveto
	2 copy vpt 180 360 arc closepath fill
	vpt 0 360 arc closepath} bind def
/C14 {BL [] 0 setdash 2 copy moveto
	2 copy vpt 90 360 arc closepath fill
	vpt 0 360 arc} bind def
/C15 {BL [] 0 setdash 2 copy vpt 0 360 arc closepath fill
	vpt 0 360 arc closepath} bind def
/Rec {newpath 4 2 roll moveto 1 index 0 rlineto 0 exch rlineto
	neg 0 rlineto closepath} bind def
/Square {dup Rec} bind def
/Bsquare {vpt sub exch vpt sub exch vpt2 Square} bind def
/S0 {BL [] 0 setdash 2 copy moveto 0 vpt rlineto BL Bsquare} bind def
/S1 {BL [] 0 setdash 2 copy vpt Square fill Bsquare} bind def
/S2 {BL [] 0 setdash 2 copy exch vpt sub exch vpt Square fill Bsquare} bind def
/S3 {BL [] 0 setdash 2 copy exch vpt sub exch vpt2 vpt Rec fill Bsquare} bind def
/S4 {BL [] 0 setdash 2 copy exch vpt sub exch vpt sub vpt Square fill Bsquare} bind def
/S5 {BL [] 0 setdash 2 copy 2 copy vpt Square fill
	exch vpt sub exch vpt sub vpt Square fill Bsquare} bind def
/S6 {BL [] 0 setdash 2 copy exch vpt sub exch vpt sub vpt vpt2 Rec fill Bsquare} bind def
/S7 {BL [] 0 setdash 2 copy exch vpt sub exch vpt sub vpt vpt2 Rec fill
	2 copy vpt Square fill Bsquare} bind def
/S8 {BL [] 0 setdash 2 copy vpt sub vpt Square fill Bsquare} bind def
/S9 {BL [] 0 setdash 2 copy vpt sub vpt vpt2 Rec fill Bsquare} bind def
/S10 {BL [] 0 setdash 2 copy vpt sub vpt Square fill 2 copy exch vpt sub exch vpt Square fill
	Bsquare} bind def
/S11 {BL [] 0 setdash 2 copy vpt sub vpt Square fill 2 copy exch vpt sub exch vpt2 vpt Rec fill
	Bsquare} bind def
/S12 {BL [] 0 setdash 2 copy exch vpt sub exch vpt sub vpt2 vpt Rec fill Bsquare} bind def
/S13 {BL [] 0 setdash 2 copy exch vpt sub exch vpt sub vpt2 vpt Rec fill
	2 copy vpt Square fill Bsquare} bind def
/S14 {BL [] 0 setdash 2 copy exch vpt sub exch vpt sub vpt2 vpt Rec fill
	2 copy exch vpt sub exch vpt Square fill Bsquare} bind def
/S15 {BL [] 0 setdash 2 copy Bsquare fill Bsquare} bind def
/D0 {gsave translate 45 rotate 0 0 S0 stroke grestore} bind def
/D1 {gsave translate 45 rotate 0 0 S1 stroke grestore} bind def
/D2 {gsave translate 45 rotate 0 0 S2 stroke grestore} bind def
/D3 {gsave translate 45 rotate 0 0 S3 stroke grestore} bind def
/D4 {gsave translate 45 rotate 0 0 S4 stroke grestore} bind def
/D5 {gsave translate 45 rotate 0 0 S5 stroke grestore} bind def
/D6 {gsave translate 45 rotate 0 0 S6 stroke grestore} bind def
/D7 {gsave translate 45 rotate 0 0 S7 stroke grestore} bind def
/D8 {gsave translate 45 rotate 0 0 S8 stroke grestore} bind def
/D9 {gsave translate 45 rotate 0 0 S9 stroke grestore} bind def
/D10 {gsave translate 45 rotate 0 0 S10 stroke grestore} bind def
/D11 {gsave translate 45 rotate 0 0 S11 stroke grestore} bind def
/D12 {gsave translate 45 rotate 0 0 S12 stroke grestore} bind def
/D13 {gsave translate 45 rotate 0 0 S13 stroke grestore} bind def
/D14 {gsave translate 45 rotate 0 0 S14 stroke grestore} bind def
/D15 {gsave translate 45 rotate 0 0 S15 stroke grestore} bind def
/DiaE {stroke [] 0 setdash vpt add M
  hpt neg vpt neg V hpt vpt neg V
  hpt vpt V hpt neg vpt V closepath stroke} def
/BoxE {stroke [] 0 setdash exch hpt sub exch vpt add M
  0 vpt2 neg V hpt2 0 V 0 vpt2 V
  hpt2 neg 0 V closepath stroke} def
/TriUE {stroke [] 0 setdash vpt 1.12 mul add M
  hpt neg vpt -1.62 mul V
  hpt 2 mul 0 V
  hpt neg vpt 1.62 mul V closepath stroke} def
/TriDE {stroke [] 0 setdash vpt 1.12 mul sub M
  hpt neg vpt 1.62 mul V
  hpt 2 mul 0 V
  hpt neg vpt -1.62 mul V closepath stroke} def
/PentE {stroke [] 0 setdash gsave
  translate 0 hpt M 4 {72 rotate 0 hpt L} repeat
  closepath stroke grestore} def
/CircE {stroke [] 0 setdash 
  hpt 0 360 arc stroke} def
/Opaque {gsave closepath 1 setgray fill grestore 0 setgray closepath} def
/DiaW {stroke [] 0 setdash vpt add M
  hpt neg vpt neg V hpt vpt neg V
  hpt vpt V hpt neg vpt V Opaque stroke} def
/BoxW {stroke [] 0 setdash exch hpt sub exch vpt add M
  0 vpt2 neg V hpt2 0 V 0 vpt2 V
  hpt2 neg 0 V Opaque stroke} def
/TriUW {stroke [] 0 setdash vpt 1.12 mul add M
  hpt neg vpt -1.62 mul V
  hpt 2 mul 0 V
  hpt neg vpt 1.62 mul V Opaque stroke} def
/TriDW {stroke [] 0 setdash vpt 1.12 mul sub M
  hpt neg vpt 1.62 mul V
  hpt 2 mul 0 V
  hpt neg vpt -1.62 mul V Opaque stroke} def
/PentW {stroke [] 0 setdash gsave
  translate 0 hpt M 4 {72 rotate 0 hpt L} repeat
  Opaque stroke grestore} def
/CircW {stroke [] 0 setdash 
  hpt 0 360 arc Opaque stroke} def
/BoxFill {gsave Rec 1 setgray fill grestore} def
/Density {
  /Fillden exch def
  currentrgbcolor
  /ColB exch def /ColG exch def /ColR exch def
  /ColR ColR Fillden mul Fillden sub 1 add def
  /ColG ColG Fillden mul Fillden sub 1 add def
  /ColB ColB Fillden mul Fillden sub 1 add def
  ColR ColG ColB setrgbcolor} def
/BoxColFill {gsave Rec PolyFill} def
/PolyFill {gsave Density fill grestore grestore} def
/h {rlineto rlineto rlineto gsave closepath fill grestore} bind def
%
% PostScript Level 1 Pattern Fill routine for rectangles
% Usage: x y w h s a XX PatternFill
%	x,y = lower left corner of box to be filled
%	w,h = width and height of box
%	  a = angle in degrees between lines and x-axis
%	 XX = 0/1 for no/yes cross-hatch
%
/PatternFill {gsave /PFa [ 9 2 roll ] def
  PFa 0 get PFa 2 get 2 div add PFa 1 get PFa 3 get 2 div add translate
  PFa 2 get -2 div PFa 3 get -2 div PFa 2 get PFa 3 get Rec
  TransparentPatterns {} {gsave 1 setgray fill grestore} ifelse
  clip
  currentlinewidth 0.5 mul setlinewidth
  /PFs PFa 2 get dup mul PFa 3 get dup mul add sqrt def
  0 0 M PFa 5 get rotate PFs -2 div dup translate
  0 1 PFs PFa 4 get div 1 add floor cvi
	{PFa 4 get mul 0 M 0 PFs V} for
  0 PFa 6 get ne {
	0 1 PFs PFa 4 get div 1 add floor cvi
	{PFa 4 get mul 0 2 1 roll M PFs 0 V} for
 } if
  stroke grestore} def
%
/languagelevel where
 {pop languagelevel} {1} ifelse
 2 lt
	{/InterpretLevel1 true def}
	{/InterpretLevel1 Level1 def}
 ifelse
%
% PostScript level 2 pattern fill definitions
%
/Level2PatternFill {
/Tile8x8 {/PaintType 2 /PatternType 1 /TilingType 1 /BBox [0 0 8 8] /XStep 8 /YStep 8}
	bind def
/KeepColor {currentrgbcolor [/Pattern /DeviceRGB] setcolorspace} bind def
<< Tile8x8
 /PaintProc {0.5 setlinewidth pop 0 0 M 8 8 L 0 8 M 8 0 L stroke} 
>> matrix makepattern
/Pat1 exch def
<< Tile8x8
 /PaintProc {0.5 setlinewidth pop 0 0 M 8 8 L 0 8 M 8 0 L stroke
	0 4 M 4 8 L 8 4 L 4 0 L 0 4 L stroke}
>> matrix makepattern
/Pat2 exch def
<< Tile8x8
 /PaintProc {0.5 setlinewidth pop 0 0 M 0 8 L
	8 8 L 8 0 L 0 0 L fill}
>> matrix makepattern
/Pat3 exch def
<< Tile8x8
 /PaintProc {0.5 setlinewidth pop -4 8 M 8 -4 L
	0 12 M 12 0 L stroke}
>> matrix makepattern
/Pat4 exch def
<< Tile8x8
 /PaintProc {0.5 setlinewidth pop -4 0 M 8 12 L
	0 -4 M 12 8 L stroke}
>> matrix makepattern
/Pat5 exch def
<< Tile8x8
 /PaintProc {0.5 setlinewidth pop -2 8 M 4 -4 L
	0 12 M 8 -4 L 4 12 M 10 0 L stroke}
>> matrix makepattern
/Pat6 exch def
<< Tile8x8
 /PaintProc {0.5 setlinewidth pop -2 0 M 4 12 L
	0 -4 M 8 12 L 4 -4 M 10 8 L stroke}
>> matrix makepattern
/Pat7 exch def
<< Tile8x8
 /PaintProc {0.5 setlinewidth pop 8 -2 M -4 4 L
	12 0 M -4 8 L 12 4 M 0 10 L stroke}
>> matrix makepattern
/Pat8 exch def
<< Tile8x8
 /PaintProc {0.5 setlinewidth pop 0 -2 M 12 4 L
	-4 0 M 12 8 L -4 4 M 8 10 L stroke}
>> matrix makepattern
/Pat9 exch def
/Pattern1 {PatternBgnd KeepColor Pat1 setpattern} bind def
/Pattern2 {PatternBgnd KeepColor Pat2 setpattern} bind def
/Pattern3 {PatternBgnd KeepColor Pat3 setpattern} bind def
/Pattern4 {PatternBgnd KeepColor Landscape {Pat5} {Pat4} ifelse setpattern} bind def
/Pattern5 {PatternBgnd KeepColor Landscape {Pat4} {Pat5} ifelse setpattern} bind def
/Pattern6 {PatternBgnd KeepColor Landscape {Pat9} {Pat6} ifelse setpattern} bind def
/Pattern7 {PatternBgnd KeepColor Landscape {Pat8} {Pat7} ifelse setpattern} bind def
} def
%
%
%End of PostScript Level 2 code
%
/PatternBgnd {
  TransparentPatterns {} {gsave 1 setgray fill grestore} ifelse
} def
%
% Substitute for Level 2 pattern fill codes with
% grayscale if Level 2 support is not selected.
%
/Level1PatternFill {
/Pattern1 {0.250 Density} bind def
/Pattern2 {0.500 Density} bind def
/Pattern3 {0.750 Density} bind def
/Pattern4 {0.125 Density} bind def
/Pattern5 {0.375 Density} bind def
/Pattern6 {0.625 Density} bind def
/Pattern7 {0.875 Density} bind def
} def
%
% Now test for support of Level 2 code
%
Level1 {Level1PatternFill} {Level2PatternFill} ifelse
%
/Symbol-Oblique /Symbol findfont [1 0 .167 1 0 0] makefont
dup length dict begin {1 index /FID eq {pop pop} {def} ifelse} forall
currentdict end definefont pop
/MFshow {
   { dup 5 get 3 ge
     { 5 get 3 eq {gsave} {grestore} ifelse }
     {dup dup 0 get findfont exch 1 get scalefont setfont
     [ currentpoint ] exch dup 2 get 0 exch R dup 5 get 2 ne {dup dup 6
     get exch 4 get {Gshow} {stringwidth pop 0 R} ifelse }if dup 5 get 0 eq
     {dup 3 get {2 get neg 0 exch R pop} {pop aload pop M} ifelse} {dup 5
     get 1 eq {dup 2 get exch dup 3 get exch 6 get stringwidth pop -2 div
     dup 0 R} {dup 6 get stringwidth pop -2 div 0 R 6 get
     show 2 index {aload pop M neg 3 -1 roll neg R pop pop} {pop pop pop
     pop aload pop M} ifelse }ifelse }ifelse }
     ifelse }
   forall} def
/Gswidth {dup type /stringtype eq {stringwidth} {pop (n) stringwidth} ifelse} def
/MFwidth {0 exch { dup 5 get 3 ge { 5 get 3 eq { 0 } { pop } ifelse }
 {dup 3 get{dup dup 0 get findfont exch 1 get scalefont setfont
     6 get Gswidth pop add} {pop} ifelse} ifelse} forall} def
/MLshow { currentpoint stroke M
  0 exch R
  Blacktext {gsave 0 setgray MFshow grestore} {MFshow} ifelse } bind def
/MRshow { currentpoint stroke M
  exch dup MFwidth neg 3 -1 roll R
  Blacktext {gsave 0 setgray MFshow grestore} {MFshow} ifelse } bind def
/MCshow { currentpoint stroke M
  exch dup MFwidth -2 div 3 -1 roll R
  Blacktext {gsave 0 setgray MFshow grestore} {MFshow} ifelse } bind def
/XYsave    { [( ) 1 2 true false 3 ()] } bind def
/XYrestore { [( ) 1 2 true false 4 ()] } bind def
Level1 SuppressPDFMark or 
{} {
/SDict 10 dict def
systemdict /pdfmark known not {
  userdict /pdfmark systemdict /cleartomark get put
} if
SDict begin [
  /Title (AS-3D-BP-vp1-v2.eps)
  /Subject (gnuplot plot)
  /Creator (gnuplot 4.6 patchlevel 5)
  /Author (dannymunera)
%  /Producer (gnuplot)
%  /Keywords ()
  /CreationDate (Fri Sep 26 20:44:14 2014)
  /DOCINFO pdfmark
end
} ifelse
end
%%EndProlog
%%Page: 1 1
gnudict begin
gsave
doclip
50 50 translate
0.050 0.050 scale
0 setgray
newpath
(Times-Roman) findfont 140 scalefont setfont
BackgroundColor 0 lt 3 1 roll 0 lt exch 0 lt or or not {BackgroundColor C 1.000 0 0 7560.00 4320.00 BoxColFill} if
gsave % colour palette begin
/maxcolors 0 def
/HSV2RGB {  exch dup 0.0 eq {pop exch pop dup dup} % achromatic gray
  { /HSVs exch def /HSVv exch def 6.0 mul dup floor dup 3 1 roll sub
     /HSVf exch def /HSVi exch cvi def /HSVp HSVv 1.0 HSVs sub mul def
	 /HSVq HSVv 1.0 HSVs HSVf mul sub mul def 
	 /HSVt HSVv 1.0 HSVs 1.0 HSVf sub mul sub mul def
	 /HSVi HSVi 6 mod def 0 HSVi eq {HSVv HSVt HSVp}
	 {1 HSVi eq {HSVq HSVv HSVp}{2 HSVi eq {HSVp HSVv HSVt}
	 {3 HSVi eq {HSVp HSVq HSVv}{4 HSVi eq {HSVt HSVp HSVv}
	 {HSVv HSVp HSVq} ifelse} ifelse} ifelse} ifelse} ifelse
  } ifelse} def
/Constrain {
  dup 0 lt {0 exch pop}{dup 1 gt {1 exch pop} if} ifelse} def
/YIQ2RGB {
  3 copy -1.702 mul exch -1.105 mul add add Constrain 4 1 roll
  3 copy -0.647 mul exch -0.272 mul add add Constrain 5 1 roll
  0.621 mul exch -0.956 mul add add Constrain 3 1 roll } def
/CMY2RGB {  1 exch sub exch 1 exch sub 3 2 roll 1 exch sub 3 1 roll exch } def
/XYZ2RGB {  3 copy -0.9017 mul exch -0.1187 mul add exch 0.0585 mul exch add
  Constrain 4 1 roll 3 copy -0.0279 mul exch 1.999 mul add exch
  -0.9844 mul add Constrain 5 1 roll -0.2891 mul exch -0.5338 mul add
  exch 1.91 mul exch add Constrain 3 1 roll} def
/SelectSpace {ColorSpace (HSV) eq {HSV2RGB}{ColorSpace (XYZ) eq {
  XYZ2RGB}{ColorSpace (CMY) eq {CMY2RGB}{ColorSpace (YIQ) eq {YIQ2RGB}
  if} ifelse} ifelse} ifelse} def
/InterpolatedColor false def
/pm3dround {maxcolors 0 gt {dup 1 ge
	{pop 1} {maxcolors mul floor maxcolors 1 sub div} ifelse} if} def
/pm3dGamma 1.0 1.5 Gamma mul div def
/ColorSpace (RGB) def
false { % COLOUR vs. GRAY map
  InterpolatedColor { %% Interpolation vs. RGB-Formula
    /g {stroke pm3dround /grayv exch def interpolate
        SelectSpace setrgbcolor} bind def
  }{
  /g {stroke pm3dround dup cF7 Constrain exch dup cF5 Constrain exch cF15 Constrain 
       SelectSpace setrgbcolor} bind def
  } ifelse
}{
  /g {stroke pm3dround pm3dGamma exp setgray} bind def
} ifelse
1.000 UL
LTb
LCb setrgbcolor
1.000 UP
% Begin plot #1
% End plot #1
% Begin plot #2
1.000 UL
LT0
0.75 0.75 0.75 C 1.000 UL
LT0
0.75 0.75 0.75 C % End plot #2
.0055 g 3753 1925 N 252 105 60 -27 -254 -87 h
1.000 UL
LT0
0.75 0.75 0.75 C 3753 1925 M
58 -9 V
3559 1811 L
-60 27 V
254 87 V
.0141 g 3693 1935 N 254 87 59 -55 -253 -42 h
stroke
LT0
0.75 0.75 0.75 C 3693 1935 M
60 -10 V
-254 -87 V
-59 55 V
253 42 V
.0023 g 3811 1916 N 253 111 59 -15 -252 -105 h
stroke
LT0
0.75 0.75 0.75 C 3811 1916 M
60 -9 V
3618 1796 L
-59 15 V
252 105 V
.0011 g 3871 1907 N 252 114 60 -12 -253 -111 h
stroke
LT0
0.75 0.75 0.75 C 3871 1907 M
59 -9 V
3678 1784 L
-60 12 V
253 111 V
.0337 g 3634 1953 N 253 42 60 -99 -254 39 h
stroke
LT0
0.75 0.75 0.75 C 3634 1953 M
59 -18 V
-253 -42 V
-60 99 V
254 -39 V
.0008 g 3930 1898 N 253 113 59 -9 -252 -114 h
stroke
LT0
0.75 0.75 0.75 C 3930 1898 M
60 -10 V
3737 1775 L
-59 9 V
252 114 V
.0006 g 3990 1888 N 253 114 59 -10 -253 -113 h
stroke
LT0
0.75 0.75 0.75 C 3990 1888 M
59 -9 V
3796 1765 L
-59 10 V
253 113 V
.0003 g 4049 1879 N 254 115 59 -10 -253 -114 h
stroke
LT0
0.75 0.75 0.75 C 4049 1879 M
60 -9 V
3855 1755 L
-59 10 V
253 114 V
.0001 g 4109 1870 N 253 116 60 -10 -254 -115 h
stroke
LT0
0.75 0.75 0.75 C 4109 1870 M
59 -9 V
3915 1745 L
-60 10 V
254 115 V
.0728 g 3574 2041 N 254 -39 59 -121 -253 72 h
stroke
LT0
0.75 0.75 0.75 C 3574 2041 M
60 -88 V
-254 39 V
-59 121 V
253 -72 V
0 g 4168 1861 N 254 116 59 -9 -253 -116 h
stroke
LT0
0.75 0.75 0.75 C 4168 1861 M
60 -9 V
3974 1736 L
-59 9 V
253 116 V
0 g 4228 1852 N 253 116 60 -9 -254 -116 h
stroke
LT0
0.75 0.75 0.75 C 4228 1852 M
59 -9 V
4034 1727 L
-60 9 V
254 116 V
0 g 4287 1843 N 254 116 59 -9 -253 -116 h
stroke
LT0
0.75 0.75 0.75 C 4287 1843 M
60 -9 V
4093 1718 L
-59 9 V
253 116 V
0 g 4347 1834 N 254 116 60 -9 -254 -116 h
stroke
LT0
0.75 0.75 0.75 C 4347 1834 M
60 -9 V
4153 1709 L
-60 9 V
254 116 V
.1414 g 3514 2233 N 253 -72 60 -143 -253 23 h
stroke
LT0
0.75 0.75 0.75 C 3514 2233 M
60 -192 V
-253 72 V
-60 143 V
253 -23 V
0 g 4407 1825 N 253 117 60 -10 -254 -116 h
stroke
LT0
0.75 0.75 0.75 C 4407 1825 M
59 -9 V
4213 1699 L
-60 10 V
254 116 V
0 g 4466 1816 N 254 117 59 -9 -253 -117 h
stroke
LT0
0.75 0.75 0.75 C 4466 1816 M
60 -9 V
4272 1690 L
-59 9 V
253 117 V
0 g 4526 1807 N 253 117 60 -9 -254 -117 h
stroke
LT0
0.75 0.75 0.75 C 4526 1807 M
59 -9 V
4332 1681 L
-60 9 V
254 117 V
0 g 4585 1798 N 254 116 59 -9 -253 -117 h
stroke
LT0
0.75 0.75 0.75 C 4585 1798 M
60 -10 V
4391 1672 L
-59 9 V
253 117 V
.2296 g 3455 2431 N 253 -23 60 -158 -254 -17 h
stroke
LT0
0.75 0.75 0.75 C 3455 2431 M
59 -198 V
-253 23 V
-60 158 V
254 17 V
.0121 g 3559 1811 N 253 95 60 -28 -254 -82 h
stroke
LT0
0.75 0.75 0.75 C 3559 1811 M
59 -15 V
-253 -95 V
-60 28 V
254 82 V
0 g 4645 1788 N 253 116 60 -9 -254 -116 h
stroke
LT0
0.75 0.75 0.75 C 4645 1788 M
59 -9 V
4451 1663 L
-60 9 V
254 116 V
.0242 g 3499 1838 N 254 82 59 -56 -253 -53 h
stroke
LT0
0.75 0.75 0.75 C 3499 1838 M
60 -27 V
-254 -82 V
-59 56 V
253 53 V
.0073 g 3618 1796 N 254 99 59 -16 -253 -95 h
stroke
LT0
0.75 0.75 0.75 C 3618 1796 M
60 -12 V
-254 -99 V
-59 16 V
253 95 V
0 g 4704 1779 N 254 116 59 -9 -253 -116 h
stroke
LT0
0.75 0.75 0.75 C 4704 1779 M
60 -9 V
4510 1654 L
-59 9 V
253 116 V
.0049 g 3678 1784 N 253 108 60 -18 -254 -99 h
stroke
LT0
0.75 0.75 0.75 C 3678 1784 M
59 -9 V
3484 1667 L
-60 18 V
254 99 V
.0472 g 3440 1893 N 253 53 60 -71 -254 -37 h
stroke
LT0
0.75 0.75 0.75 C 3440 1893 M
59 -55 V
-253 -53 V
-60 71 V
254 37 V
0 g 4764 1770 N 253 116 60 -9 -254 -116 h
stroke
LT0
0.75 0.75 0.75 C 4764 1770 M
59 -9 V
4570 1645 L
-60 9 V
254 116 V
.0032 g 3737 1775 N 253 110 59 -12 -253 -108 h
stroke
LT0
0.75 0.75 0.75 C 3737 1775 M
59 -10 V
3543 1655 L
-59 12 V
253 108 V
.0021 g 3796 1765 N 252 112 60 -12 -253 -110 h
stroke
LT0
0.75 0.75 0.75 C 3796 1765 M
59 -10 V
3603 1643 L
-60 12 V
253 110 V
0 g 4823 1761 N 254 116 59 -9 -253 -116 h
stroke
LT0
0.75 0.75 0.75 C 4823 1761 M
60 -9 V
4629 1636 L
-59 9 V
253 116 V
.0857 g 3380 1992 N 254 37 59 -98 -253 -38 h
stroke
LT0
0.75 0.75 0.75 C 3380 1992 M
60 -99 V
-254 -37 V
-59 98 V
253 38 V
.0014 g 3855 1755 N 253 112 59 -10 -252 -112 h
stroke
LT0
0.75 0.75 0.75 C 3855 1755 M
60 -10 V
3662 1633 L
-59 10 V
252 112 V
0 g 4883 1752 N 253 116 60 -9 -254 -116 h
stroke
LT0
0.75 0.75 0.75 C 4883 1752 M
59 -9 V
4689 1627 L
-60 9 V
254 116 V
.3219 g 3395 2631 N 254 17 59 -167 -253 -50 h
stroke
LT0
0.75 0.75 0.75 C 3395 2631 M
60 -200 V
-254 -17 V
-59 167 V
253 50 V
.0011 g 3915 1745 N 252 113 60 -10 -253 -112 h
stroke
LT0
0.75 0.75 0.75 C 3915 1745 M
59 -9 V
3722 1623 L
-60 10 V
253 112 V
0 g 4942 1743 N 254 116 59 -9 -253 -116 h
stroke
LT0
0.75 0.75 0.75 C 4942 1743 M
60 -9 V
4748 1618 L
-59 9 V
253 116 V
.0009 g 3974 1736 N 254 113 58 -9 -252 -113 h
stroke
LT0
0.75 0.75 0.75 C 3974 1736 M
60 -9 V
3780 1614 L
-58 9 V
252 113 V
0 g 5002 1734 N 253 116 60 -9 -254 -116 h
stroke
LT0
0.75 0.75 0.75 C 5002 1734 M
59 -9 V
4808 1609 L
-60 9 V
254 116 V
.1402 g 3321 2113 N 253 38 60 -123 -254 -36 h
stroke
LT0
0.75 0.75 0.75 C 3321 2113 M
59 -121 V
-253 -38 V
-60 123 V
254 36 V
.0008 g 4034 1727 N 253 114 60 -10 -254 -113 h
stroke
LT0
0.75 0.75 0.75 C 4034 1727 M
59 -9 V
3840 1604 L
-60 10 V
254 113 V
0 g 5061 1725 N 254 117 59 -10 -253 -116 h
stroke
LT0
0.75 0.75 0.75 C 5061 1725 M
60 -9 V
4867 1599 L
-59 10 V
253 116 V
.0006 g 4093 1718 N 253 115 60 -10 -253 -114 h
stroke
LT0
0.75 0.75 0.75 C 4093 1718 M
60 -9 V
3900 1594 L
-60 10 V
253 114 V
0 g 5121 1716 N 253 117 60 -9 -254 -117 h
stroke
LT0
0.75 0.75 0.75 C 5121 1716 M
59 -9 V
4927 1590 L
-60 9 V
254 117 V
.0005 g 4153 1709 N 254 114 59 -9 -253 -115 h
stroke
LT0
0.75 0.75 0.75 C 4153 1709 M
60 -10 V
3959 1585 L
-59 9 V
253 115 V
0 g 5180 1707 N 253 116 60 -9 -253 -117 h
stroke
LT0
0.75 0.75 0.75 C 5180 1707 M
60 -10 V
4987 1581 L
-60 9 V
253 117 V
.4176 g 3336 2831 N 253 50 60 -181 -254 -69 h
stroke
LT0
0.75 0.75 0.75 C 3336 2831 M
59 -200 V
-253 -50 V
-60 181 V
254 69 V
.0004 g 4213 1699 N 253 114 60 -9 -254 -114 h
stroke
LT0
0.75 0.75 0.75 C 4213 1699 M
59 -9 V
4019 1576 L
-60 9 V
254 114 V
0 g 5240 1697 N 254 116 59 -9 -253 -116 h
stroke
LT0
0.75 0.75 0.75 C 5240 1697 M
60 -9 V
5046 1572 L
-59 9 V
253 116 V
.2044 g 3261 2256 N 254 36 60 -125 -254 -54 h
stroke
LT0
0.75 0.75 0.75 C 3261 2256 M
60 -143 V
-254 -36 V
-60 125 V
254 54 V
.0004 g 4272 1690 N 254 115 59 -10 -253 -114 h
stroke
LT0
0.75 0.75 0.75 C 4272 1690 M
60 -9 V
4078 1566 L
-59 10 V
253 114 V
0 g 5300 1688 N 253 116 60 -9 -254 -116 h
stroke
LT0
0.75 0.75 0.75 C 5300 1688 M
59 -9 V
5106 1563 L
-60 9 V
254 116 V
.0003 g 4332 1681 N 253 115 60 -9 -254 -115 h
stroke
LT0
0.75 0.75 0.75 C 4332 1681 M
59 -9 V
4138 1557 L
-60 9 V
254 115 V
0 g 5359 1679 N 254 116 59 -9 -253 -116 h
stroke
LT0
0.75 0.75 0.75 C 5359 1679 M
60 -9 V
5165 1554 L
-59 9 V
253 116 V
.0223 g 3305 1729 N 254 111 59 -38 -253 -101 h
stroke
LT0
0.75 0.75 0.75 C 3305 1729 M
60 -28 V
3111 1590 L
-59 38 V
253 101 V
.0003 g 4391 1672 N 254 115 59 -9 -253 -115 h
stroke
LT0
0.75 0.75 0.75 C 4391 1672 M
60 -9 V
4197 1548 L
-59 9 V
253 115 V
0 g 5419 1670 N 253 116 60 -9 -254 -116 h
stroke
LT0
0.75 0.75 0.75 C 5419 1670 M
59 -9 V
5225 1545 L
-60 9 V
254 116 V
.0129 g 3365 1701 N 253 119 60 -24 -254 -111 h
stroke
LT0
0.75 0.75 0.75 C 3365 1701 M
59 -16 V
3171 1566 L
-60 24 V
254 111 V
.0002 g 4451 1663 N 253 116 60 -10 -254 -115 h
stroke
LT0
0.75 0.75 0.75 C 4451 1663 M
59 -9 V
4257 1538 L
-60 10 V
254 115 V
.0425 g 3246 1785 N 253 101 60 -65 -254 -92 h
stroke
LT0
0.75 0.75 0.75 C 3246 1785 M
59 -56 V
3052 1628 L
-60 65 V
254 92 V
0 g 5478 1661 N 254 116 59 -9 -253 -116 h
stroke
LT0
0.75 0.75 0.75 C 5478 1661 M
60 -9 V
5284 1536 L
-59 9 V
253 116 V
.0082 g 3424 1685 N 254 114 59 -13 -253 -119 h
stroke
LT0
0.75 0.75 0.75 C 3424 1685 M
60 -18 V
3230 1553 L
-59 13 V
253 119 V
.2776 g 3201 2414 N 254 54 59 -153 -253 -59 h
stroke
LT0
0.75 0.75 0.75 C 3201 2414 M
60 -158 V
-254 -54 V
-59 153 V
253 59 V
.0001 g 4510 1654 N 254 116 59 -9 -253 -116 h
stroke
LT0
0.75 0.75 0.75 C 4510 1654 M
60 -9 V
4316 1529 L
-59 9 V
253 116 V
.0057 g 3484 1667 N 253 114 60 -12 -254 -114 h
stroke
LT0
0.75 0.75 0.75 C 3484 1667 M
59 -12 V
3290 1541 L
-60 12 V
254 114 V
0 g 5538 1652 N 253 116 60 -9 -254 -116 h
stroke
LT0
0.75 0.75 0.75 C 5538 1652 M
59 -9 V
5344 1527 L
-60 9 V
254 116 V
.5164 g 3276 3034 N 254 69 59 -187 -253 -85 h
stroke
LT0
0.75 0.75 0.75 C 3276 3034 M
60 -203 V
-254 -69 V
-59 187 V
253 85 V
0 g 4570 1645 N 253 116 60 -9 -254 -116 h
stroke
LT0
0.75 0.75 0.75 C 4570 1645 M
59 -9 V
4376 1520 L
-60 9 V
254 116 V
.0756 g 3186 1856 N 254 92 59 -91 -253 -72 h
stroke
LT0
0.75 0.75 0.75 C 3186 1856 M
60 -71 V
-254 -92 V
-59 91 V
253 72 V
.0042 g 3543 1655 N 254 114 59 -12 -253 -114 h
stroke
LT0
0.75 0.75 0.75 C 3543 1655 M
60 -12 V
3349 1529 L
-59 12 V
253 114 V
0 g 5597 1643 N 254 116 59 -9 -253 -116 h
stroke
LT0
0.75 0.75 0.75 C 5597 1643 M
60 -9 V
5403 1518 L
-59 9 V
253 116 V
.0031 g 3603 1643 N 253 114 60 -10 -254 -114 h
stroke
LT0
0.75 0.75 0.75 C 3603 1643 M
59 -10 V
3409 1519 L
-60 10 V
254 114 V
0 g 4629 1636 N 254 117 59 -10 -253 -116 h
stroke
LT0
0.75 0.75 0.75 C 4629 1636 M
60 -9 V
4435 1510 L
-59 10 V
253 116 V
0 g 5657 1634 N 253 117 60 -10 -254 -116 h
stroke
LT0
0.75 0.75 0.75 C 5657 1634 M
59 -9 V
5463 1508 L
-60 10 V
254 116 V
.0024 g 3662 1633 N 254 115 59 -11 -253 -114 h
stroke
LT0
0.75 0.75 0.75 C 3662 1633 M
60 -10 V
3468 1508 L
-59 11 V
253 114 V
0 g 4689 1627 N 253 117 60 -9 -254 -117 h
stroke
LT0
0.75 0.75 0.75 C 4689 1627 M
59 -9 V
4495 1501 L
-60 9 V
254 117 V
0 g 5716 1625 N 254 117 59 -9 -253 -117 h
stroke
LT0
0.75 0.75 0.75 C 5716 1625 M
60 -9 V
5522 1499 L
-59 9 V
253 117 V
.1189 g 3127 1954 N 253 72 60 -99 -254 -71 h
stroke
LT0
0.75 0.75 0.75 C 3127 1954 M
59 -98 V
-253 -72 V
-60 99 V
254 71 V
.0019 g 3722 1623 N 252 117 60 -11 -254 -115 h
stroke
LT0
0.75 0.75 0.75 C 3722 1623 M
58 -9 V
3528 1497 L
-60 11 V
254 115 V
.3577 g 3142 2581 N 253 59 60 -153 -254 -73 h
stroke
LT0
0.75 0.75 0.75 C 3142 2581 M
59 -167 V
-253 -59 V
-60 153 V
254 73 V
0 g 4748 1618 N 254 117 59 -9 -253 -117 h
stroke
LT0
0.75 0.75 0.75 C 4748 1618 M
60 -9 V
4554 1492 L
-59 9 V
253 117 V
0 g 5776 1616 N 253 116 60 -9 -254 -117 h
stroke
LT0
0.75 0.75 0.75 C 5776 1616 M
59 -10 V
5582 1490 L
-60 9 V
254 117 V
.0014 g 3780 1614 N 253 117 59 -10 -252 -117 h
stroke
LT0
0.75 0.75 0.75 C 3780 1614 M
60 -10 V
3587 1487 L
-59 10 V
252 117 V
0 g 4808 1609 N 253 116 60 -9 -254 -117 h
stroke
LT0
0.75 0.75 0.75 C 4808 1609 M
59 -10 V
4614 1483 L
-60 9 V
254 117 V
0 g 5835 1606 N 254 116 59 -9 -253 -116 h
stroke
LT0
0.75 0.75 0.75 C 5835 1606 M
60 -9 V
5641 1481 L
-59 9 V
253 116 V
.0011 g 3840 1604 N 253 117 60 -10 -253 -117 h
stroke
LT0
0.75 0.75 0.75 C 3840 1604 M
60 -10 V
3647 1477 L
-60 10 V
253 117 V
0 g 4867 1599 N 254 116 59 -9 -253 -116 h
stroke
LT0
0.75 0.75 0.75 C 4867 1599 M
60 -9 V
4673 1474 L
-59 9 V
253 116 V
.1721 g 3067 2077 N 254 71 59 -112 -253 -82 h
stroke
LT0
0.75 0.75 0.75 C 3067 2077 M
60 -123 V
-254 -71 V
-59 112 V
253 82 V
0 g 5895 1597 N 253 116 60 -9 -254 -116 h
stroke
LT0
0.75 0.75 0.75 C 5895 1597 M
59 -9 V
5701 1472 L
-60 9 V
254 116 V
.618 g 3217 3238 N 253 85 60 -198 -254 -91 h
stroke
LT0
0.75 0.75 0.75 C 3217 3238 M
59 -204 V
-253 -85 V
-60 198 V
254 91 V
.0008 g 3900 1594 N 252 117 60 -9 -253 -117 h
stroke
LT0
0.75 0.75 0.75 C 3900 1594 M
59 -9 V
3707 1468 L
-60 9 V
253 117 V
0 g 4927 1590 N 254 116 60 -9 -254 -116 h
stroke
LT0
0.75 0.75 0.75 C 4927 1590 M
60 -9 V
4733 1465 L
-60 9 V
254 116 V
0 g 5954 1588 N 254 116 59 -9 -253 -116 h
stroke
LT0
0.75 0.75 0.75 C 5954 1588 M
60 -9 V
5760 1463 L
-59 9 V
253 116 V
.0006 g 3959 1585 N 253 117 59 -9 -252 -117 h
stroke
LT0
0.75 0.75 0.75 C 3959 1585 M
60 -9 V
3766 1459 L
-59 9 V
252 117 V
0 g 4987 1581 N 253 116 60 -9 -254 -116 h
stroke
LT0
0.75 0.75 0.75 C 4987 1581 M
59 -9 V
4793 1456 L
-60 9 V
254 116 V
0 g 6014 1579 N 254 116 60 -9 -254 -116 h
stroke
LT0
0.75 0.75 0.75 C 6014 1579 M
60 -9 V
5820 1454 L
-60 9 V
254 116 V
.4421 g 3082 2762 N 254 73 59 -163 -253 -91 h
stroke
LT0
0.75 0.75 0.75 C 3082 2762 M
60 -181 V
-254 -73 V
-59 163 V
253 91 V
.0005 g 4019 1576 N 253 117 59 -10 -253 -117 h
stroke
LT0
0.75 0.75 0.75 C 4019 1576 M
59 -10 V
3825 1449 L
-59 10 V
253 117 V
0 g 5046 1572 N 254 116 59 -9 -253 -116 h
stroke
LT0
0.75 0.75 0.75 C 5046 1572 M
60 -9 V
4852 1447 L
-59 9 V
253 116 V
0 g 6074 1570 N 253 116 60 -9 -254 -116 h
stroke
LT0
0.75 0.75 0.75 C 6074 1570 M
59 -9 V
5880 1445 L
-60 9 V
254 116 V
.2323 g 3007 2202 N 253 82 60 -123 -253 -84 h
stroke
LT0
0.75 0.75 0.75 C 3007 2202 M
60 -125 V
-253 -82 V
-60 123 V
253 84 V
.0004 g 4078 1566 N 254 117 59 -9 -253 -117 h
stroke
LT0
0.75 0.75 0.75 C 4078 1566 M
60 -9 V
3884 1440 L
-59 9 V
253 117 V
0 g 5106 1563 N 253 116 60 -9 -254 -116 h
stroke
LT0
0.75 0.75 0.75 C 5106 1563 M
59 -9 V
4912 1438 L
-60 9 V
254 116 V
0 g 6133 1561 N 254 116 59 -9 -253 -116 h
stroke
LT0
0.75 0.75 0.75 C 6133 1561 M
60 -9 V
5939 1436 L
-59 9 V
253 116 V
.0004 g 4138 1557 N 253 117 60 -9 -254 -117 h
stroke
LT0
0.75 0.75 0.75 C 4138 1557 M
59 -9 V
3944 1431 L
-60 9 V
254 117 V
0 g 5165 1554 N 254 116 59 -9 -253 -116 h
stroke
LT0
0.75 0.75 0.75 C 5165 1554 M
60 -9 V
4971 1429 L
-59 9 V
253 116 V
0 g 6193 1552 N 253 116 60 -9 -254 -116 h
stroke
LT0
0.75 0.75 0.75 C 6193 1552 M
59 -9 V
5999 1427 L
-60 9 V
254 116 V
.0148 g 3111 1590 N 254 114 59 -31 -253 -107 h
stroke
LT0
0.75 0.75 0.75 C 3111 1590 M
60 -24 V
2917 1452 L
-59 31 V
253 107 V
.0292 g 3052 1628 N 253 107 60 -50 -254 -95 h
stroke
LT0
0.75 0.75 0.75 C 3052 1628 M
59 -38 V
2858 1483 L
-60 50 V
254 95 V
.0003 g 4197 1548 N 254 116 59 -9 -253 -117 h
stroke
LT0
0.75 0.75 0.75 C 4197 1548 M
60 -10 V
4003 1422 L
-59 9 V
253 117 V
.0082 g 3171 1566 N 253 118 60 -17 -254 -114 h
stroke
LT0
0.75 0.75 0.75 C 3171 1566 M
59 -13 V
2977 1435 L
-60 17 V
254 114 V
0 g 5225 1545 N 253 116 60 -9 -254 -116 h
stroke
LT0
0.75 0.75 0.75 C 5225 1545 M
59 -9 V
5031 1420 L
-60 9 V
254 116 V
.7215 g 3157 3446 N 254 91 59 -197 -253 -102 h
stroke
LT0
0.75 0.75 0.75 C 3157 3446 M
60 -208 V
-254 -91 V
-59 197 V
253 102 V
0 g 6252 1543 N 254 117 59 -10 -253 -116 h
stroke
LT0
0.75 0.75 0.75 C 6252 1543 M
60 -9 V
6058 1417 L
-59 10 V
253 116 V
.0541 g 2992 1693 N 254 95 59 -70 -253 -90 h
stroke
LT0
0.75 0.75 0.75 C 2992 1693 M
60 -65 V
-254 -95 V
-59 70 V
253 90 V
.0002 g 4257 1538 N 253 116 60 -9 -254 -116 h
stroke
LT0
0.75 0.75 0.75 C 4257 1538 M
59 -9 V
4063 1413 L
-60 9 V
254 116 V
.0056 g 3230 1553 N 254 120 59 -14 -253 -118 h
stroke
LT0
0.75 0.75 0.75 C 3230 1553 M
60 -12 V
3036 1421 L
-59 14 V
253 118 V
0 g 5284 1536 N 254 117 59 -10 -253 -116 h
stroke
LT0
0.75 0.75 0.75 C 5284 1536 M
60 -9 V
5090 1410 L
-59 10 V
253 116 V
.3001 g 2948 2355 N 253 84 60 -138 -254 -99 h
stroke
LT0
0.75 0.75 0.75 C 2948 2355 M
59 -153 V
-253 -84 V
-60 138 V
254 99 V
0 g 6312 1534 N 253 117 60 -9 -254 -117 h
stroke
LT0
0.75 0.75 0.75 C 6312 1534 M
59 -9 V
6118 1408 L
-60 9 V
254 117 V
.5324 g 3023 2949 N 253 91 60 -177 -254 -101 h
stroke
LT0
0.75 0.75 0.75 C 3023 2949 M
59 -187 V
-253 -91 V
-60 177 V
254 101 V
.0039 g 3290 1541 N 253 119 60 -11 -254 -120 h
stroke
LT0
0.75 0.75 0.75 C 3290 1541 M
59 -12 V
3096 1410 L
-60 11 V
254 120 V
.0001 g 4316 1529 N 254 116 59 -9 -253 -116 h
stroke
LT0
0.75 0.75 0.75 C 4316 1529 M
60 -9 V
4122 1404 L
-59 9 V
253 116 V
0 g 5344 1527 N 253 117 60 -9 -254 -117 h
stroke
LT0
0.75 0.75 0.75 C 5344 1527 M
59 -9 V
5150 1401 L
-60 9 V
254 117 V
0 g 6371 1525 N 254 116 59 -9 -253 -117 h
stroke
LT0
0.75 0.75 0.75 C 6371 1525 M
60 -10 V
6177 1399 L
-59 9 V
253 117 V
.0904 g 2933 1784 N 253 90 60 -81 -254 -100 h
stroke
LT0
0.75 0.75 0.75 C 2933 1784 M
59 -91 V
-253 -90 V
-60 81 V
254 100 V
.0029 g 3349 1529 N 254 120 59 -11 -253 -119 h
stroke
LT0
0.75 0.75 0.75 C 3349 1529 M
60 -10 V
3155 1399 L
-59 11 V
253 119 V
.0001 g 4376 1520 N 253 115 60 -9 -254 -116 h
stroke
LT0
0.75 0.75 0.75 C 4376 1520 M
59 -10 V
4182 1395 L
-60 9 V
254 116 V
0 g 5403 1518 N 254 116 59 -9 -253 -117 h
stroke
LT0
0.75 0.75 0.75 C 5403 1518 M
60 -10 V
5209 1392 L
-59 9 V
253 117 V
0 g 6431 1515 N 253 116 60 -9 -254 -116 h
stroke
LT0
0.75 0.75 0.75 C 6431 1515 M
59 -9 V
6237 1390 L
-60 9 V
254 116 V
.0021 g 3409 1519 N 253 118 60 -9 -254 -120 h
stroke
LT0
0.75 0.75 0.75 C 3409 1519 M
59 -11 V
3215 1390 L
-60 9 V
254 120 V
.0001 g 4435 1510 N 254 115 59 -9 -253 -115 h
stroke
LT0
0.75 0.75 0.75 C 4435 1510 M
60 -9 V
4241 1386 L
-59 9 V
253 115 V
0 g 5463 1508 N 253 116 60 -9 -254 -116 h
stroke
LT0
0.75 0.75 0.75 C 5463 1508 M
59 -9 V
5269 1383 L
-60 9 V
254 116 V
0 g 6490 1506 N 254 116 59 -9 -253 -116 h
stroke
LT0
0.75 0.75 0.75 C 6490 1506 M
60 -9 V
6296 1381 L
-59 9 V
253 116 V
.0015 g 3468 1508 N 254 117 59 -10 -253 -118 h
stroke
LT0
0.75 0.75 0.75 C 3468 1508 M
60 -11 V
3274 1380 L
-59 10 V
253 118 V
.1351 g 2873 1883 N 254 100 59 -97 -253 -102 h
stroke
LT0
0.75 0.75 0.75 C 2873 1883 M
60 -99 V
2679 1684 L
-59 97 V
253 102 V
.0001 g 4495 1501 N 253 115 60 -9 -254 -115 h
stroke
LT0
0.75 0.75 0.75 C 4495 1501 M
59 -9 V
4301 1377 L
-60 9 V
254 115 V
0 g 5522 1499 N 254 116 59 -9 -253 -116 h
stroke
LT0
0.75 0.75 0.75 C 5522 1499 M
60 -9 V
5328 1374 L
-59 9 V
253 116 V
.3745 g 2888 2508 N 254 99 59 -144 -253 -108 h
stroke
LT0
0.75 0.75 0.75 C 2888 2508 M
60 -153 V
-254 -99 V
-59 144 V
253 108 V
.0011 g 3528 1497 N 253 117 60 -10 -254 -117 h
stroke
LT0
0.75 0.75 0.75 C 3528 1497 M
59 -10 V
3334 1370 L
-60 10 V
254 117 V
.0001 g 4554 1492 N 254 116 59 -10 -253 -115 h
stroke
LT0
0.75 0.75 0.75 C 4554 1492 M
60 -9 V
4360 1367 L
-59 10 V
253 115 V
0 g 5582 1490 N 253 116 60 -9 -254 -116 h
stroke
LT0
0.75 0.75 0.75 C 5582 1490 M
59 -9 V
5388 1365 L
-60 9 V
254 116 V
.8266 g 3098 3657 N 253 102 60 -203 -254 -110 h
stroke
LT0
0.75 0.75 0.75 C 3098 3657 M
59 -211 V
2904 3344 L
-60 203 V
254 110 V
.0007 g 3587 1487 N 253 116 60 -9 -253 -117 h
stroke
LT0
0.75 0.75 0.75 C 3587 1487 M
60 -10 V
3394 1361 L
-60 9 V
253 117 V
.0001 g 4614 1483 N 253 116 60 -9 -254 -116 h
stroke
LT0
0.75 0.75 0.75 C 4614 1483 M
59 -9 V
4420 1358 L
-60 9 V
254 116 V
.1851 g 2814 1995 N 253 102 60 -101 -254 -113 h
stroke
LT0
0.75 0.75 0.75 C 2814 1995 M
59 -112 V
2620 1781 L
-60 101 V
254 113 V
0 g 5641 1481 N 254 116 59 -9 -253 -116 h
stroke
LT0
0.75 0.75 0.75 C 5641 1481 M
60 -9 V
5447 1356 L
-59 9 V
253 116 V
.6284 g 2963 3147 N 254 101 59 -189 -253 -110 h
stroke
LT0
0.75 0.75 0.75 C 2963 3147 M
60 -198 V
2769 2848 L
-59 189 V
253 110 V
.0004 g 3647 1477 N 254 117 59 -10 -253 -116 h
stroke
LT0
0.75 0.75 0.75 C 3647 1477 M
60 -9 V
3453 1351 L
-59 10 V
253 116 V
.0001 g 4673 1474 N 253 116 60 -9 -253 -116 h
stroke
LT0
0.75 0.75 0.75 C 4673 1474 M
60 -9 V
4480 1349 L
-60 9 V
253 116 V
0 g 5701 1472 N 253 116 60 -9 -254 -116 h
stroke
LT0
0.75 0.75 0.75 C 5701 1472 M
59 -9 V
5507 1347 L
-60 9 V
254 116 V
.0003 g 3707 1468 N 253 117 60 -9 -254 -117 h
stroke
LT0
0.75 0.75 0.75 C 3707 1468 M
59 -9 V
3513 1342 L
-60 9 V
254 117 V
.0001 g 4733 1465 N 254 116 59 -9 -253 -116 h
stroke
LT0
0.75 0.75 0.75 C 4733 1465 M
60 -9 V
4539 1340 L
-59 9 V
253 116 V
0 g 5760 1463 N 253 116 60 -9 -253 -116 h
stroke
LT0
0.75 0.75 0.75 C 5760 1463 M
60 -9 V
5567 1338 L
-60 9 V
253 116 V
.4525 g 2829 2671 N 253 108 60 -156 -254 -115 h
stroke
LT0
0.75 0.75 0.75 C 2829 2671 M
59 -163 V
2635 2400 L
-60 156 V
254 115 V
.0003 g 3766 1459 N 253 116 59 -9 -253 -117 h
stroke
LT0
0.75 0.75 0.75 C 3766 1459 M
59 -10 V
3572 1333 L
-59 9 V
253 117 V
.0001 g 4793 1456 N 253 116 60 -9 -254 -116 h
stroke
LT0
0.75 0.75 0.75 C 4793 1456 M
59 -9 V
4599 1331 L
-60 9 V
254 116 V
0 g 5820 1454 N 254 116 59 -9 -253 -116 h
stroke
LT0
0.75 0.75 0.75 C 5820 1454 M
60 -9 V
5626 1329 L
-59 9 V
253 116 V
.2414 g 2754 2118 N 254 113 60 -119 -254 -117 h
stroke
LT0
0.75 0.75 0.75 C 2754 2118 M
60 -123 V
2560 1882 L
-60 119 V
254 117 V
.0002 g 3825 1449 N 252 116 60 -9 -253 -116 h
stroke
LT0
0.75 0.75 0.75 C 3825 1449 M
59 -9 V
3632 1324 L
-60 9 V
253 116 V
.0001 g 4852 1447 N 254 116 59 -9 -253 -116 h
stroke
LT0
0.75 0.75 0.75 C 4852 1447 M
60 -9 V
4658 1322 L
-59 9 V
253 116 V
0 g 5880 1445 N 253 117 60 -10 -254 -116 h
stroke
LT0
0.75 0.75 0.75 C 5880 1445 M
59 -9 V
5686 1319 L
-60 10 V
254 116 V
.0002 g 3884 1440 N 253 116 59 -9 -252 -116 h
stroke
LT0
0.75 0.75 0.75 C 3884 1440 M
60 -9 V
3691 1315 L
-59 9 V
252 116 V
.0001 g 4912 1438 N 253 116 60 -9 -254 -116 h
stroke
LT0
0.75 0.75 0.75 C 4912 1438 M
59 -9 V
4718 1313 L
-60 9 V
254 116 V
0 g 5939 1436 N 254 117 59 -9 -253 -117 h
stroke
LT0
0.75 0.75 0.75 C 5939 1436 M
60 -9 V
5745 1310 L
-59 9 V
253 117 V
.0178 g 2858 1483 N 253 114 60 -37 -254 -108 h
stroke
LT0
0.75 0.75 0.75 C 2858 1483 M
59 -31 V
2664 1338 L
-60 37 V
254 108 V
.0346 g 2798 1533 N 254 108 59 -44 -253 -114 h
stroke
LT0
0.75 0.75 0.75 C 2798 1533 M
60 -50 V
2604 1375 L
-59 44 V
253 114 V
.0002 g 3944 1431 N 252 116 60 -9 -253 -116 h
stroke
LT0
0.75 0.75 0.75 C 3944 1431 M
59 -9 V
3751 1306 L
-60 9 V
253 116 V
.934 g 3038 3870 N 254 110 59 -207 -253 -116 h
stroke
LT0
0.75 0.75 0.75 C 3038 3870 M
60 -213 V
2844 3547 L
-59 207 V
253 116 V
.0001 g 4971 1429 N 254 116 59 -9 -253 -116 h
stroke
LT0
0.75 0.75 0.75 C 4971 1429 M
60 -9 V
4777 1304 L
-59 9 V
253 116 V
.0088 g 2917 1452 N 254 115 59 -18 -253 -114 h
stroke
LT0
0.75 0.75 0.75 C 2917 1452 M
60 -17 V
2723 1320 L
-59 18 V
253 114 V
.7276 g 2904 3344 N 253 110 60 -191 -254 -116 h
stroke
LT0
0.75 0.75 0.75 C 2904 3344 M
59 -197 V
2710 3037 L
-60 191 V
254 116 V
0 g 5999 1427 N 253 116 60 -9 -254 -117 h
stroke
LT0
0.75 0.75 0.75 C 5999 1427 M
59 -10 V
5805 1301 L
-60 9 V
254 117 V
.3055 g 2694 2256 N 254 117 59 -131 -253 -124 h
stroke
LT0
0.75 0.75 0.75 C 2694 2256 M
60 -138 V
2500 2001 L
-59 131 V
253 124 V
.0606 g 2739 1603 N 253 114 60 -67 -254 -117 h
stroke
LT0
0.75 0.75 0.75 C 2739 1603 M
59 -70 V
2545 1419 L
-60 67 V
254 117 V
.0002 g 4003 1422 N 254 117 58 -10 -252 -116 h
stroke
LT0
0.75 0.75 0.75 C 4003 1422 M
60 -9 V
3809 1296 L
-58 10 V
252 116 V
.0052 g 2977 1435 N 253 115 60 -14 -254 -115 h
stroke
LT0
0.75 0.75 0.75 C 2977 1435 M
59 -14 V
2783 1306 L
-60 14 V
254 115 V
.0001 g 5031 1420 N 253 116 60 -10 -254 -116 h
stroke
LT0
0.75 0.75 0.75 C 5031 1420 M
59 -10 V
4837 1294 L
-60 10 V
254 116 V
0 g 6058 1417 N 254 116 59 -9 -253 -116 h
stroke
LT0
0.75 0.75 0.75 C 6058 1417 M
60 -9 V
5864 1292 L
-59 9 V
253 116 V
.5377 g 2769 2848 N 254 115 59 -175 -253 -117 h
stroke
LT0
0.75 0.75 0.75 C 2769 2848 M
60 -177 V
2575 2556 L
-59 175 V
253 117 V
.0032 g 3036 1421 N 254 116 59 -12 -253 -115 h
stroke
LT0
0.75 0.75 0.75 C 3036 1421 M
60 -11 V
2842 1294 L
-59 12 V
253 115 V
.0002 g 4063 1413 N 253 117 60 -9 -254 -117 h
stroke
LT0
0.75 0.75 0.75 C 4063 1413 M
59 -9 V
3869 1287 L
-60 9 V
254 117 V
.0001 g 5090 1410 N 254 116 59 -9 -253 -116 h
stroke
LT0
0.75 0.75 0.75 C 5090 1410 M
60 -9 V
4896 1285 L
-59 9 V
253 116 V
0 g 6118 1408 N 253 116 60 -9 -254 -116 h
stroke
LT0
0.75 0.75 0.75 C 6118 1408 M
59 -9 V
5924 1283 L
-60 9 V
254 116 V
.0965 g 2679 1684 N 254 117 59 -85 -253 -113 h
stroke
LT0
0.75 0.75 0.75 C 2679 1684 M
60 -81 V
2485 1486 L
-59 85 V
253 113 V
.0023 g 3096 1410 N 253 115 60 -10 -254 -116 h
stroke
LT0
0.75 0.75 0.75 C 3096 1410 M
59 -11 V
2902 1284 L
-60 10 V
254 116 V
.0002 g 4122 1404 N 254 117 59 -9 -253 -117 h
stroke
LT0
0.75 0.75 0.75 C 4122 1404 M
60 -9 V
3928 1278 L
-59 9 V
253 117 V
0 g 5150 1401 N 253 116 60 -9 -254 -116 h
stroke
LT0
0.75 0.75 0.75 C 5150 1401 M
59 -9 V
4956 1276 L
-60 9 V
254 116 V
0 g 6177 1399 N 254 116 59 -9 -253 -116 h
stroke
LT0
0.75 0.75 0.75 C 6177 1399 M
60 -9 V
5983 1274 L
-59 9 V
253 116 V
.0018 g 3155 1399 N 254 115 59 -9 -253 -115 h
stroke
LT0
0.75 0.75 0.75 C 3155 1399 M
60 -9 V
2961 1275 L
-59 9 V
253 115 V
.0002 g 4182 1395 N 253 117 60 -9 -254 -117 h
stroke
LT0
0.75 0.75 0.75 C 4182 1395 M
59 -9 V
3988 1269 L
-60 9 V
254 117 V
0 g 5209 1392 N 254 116 59 -9 -253 -116 h
stroke
LT0
0.75 0.75 0.75 C 5209 1392 M
60 -9 V
5015 1267 L
-59 9 V
253 116 V
0 g 6237 1390 N 253 116 60 -9 -254 -116 h
stroke
LT0
0.75 0.75 0.75 C 6237 1390 M
59 -9 V
6043 1265 L
-60 9 V
254 116 V
.1395 g 2620 1781 N 253 113 60 -92 -254 -118 h
stroke
LT0
0.75 0.75 0.75 C 2620 1781 M
59 -97 V
2426 1571 L
-60 92 V
254 118 V
.0014 g 3215 1390 N 253 115 60 -10 -254 -115 h
stroke
LT0
0.75 0.75 0.75 C 3215 1390 M
59 -10 V
3021 1265 L
-60 10 V
254 115 V
.3758 g 2635 2400 N 253 124 60 -145 -254 -123 h
stroke
LT0
0.75 0.75 0.75 C 2635 2400 M
59 -144 V
2441 2132 L
-60 145 V
254 123 V
.0002 g 4241 1386 N 254 117 59 -9 -253 -117 h
stroke
LT0
0.75 0.75 0.75 C 4241 1386 M
60 -9 V
4047 1260 L
-59 9 V
253 117 V
0 g 5269 1383 N 253 116 60 -9 -254 -116 h
stroke
LT0
0.75 0.75 0.75 C 5269 1383 M
59 -9 V
5075 1258 L
-60 9 V
254 116 V
.0011 g 3274 1380 N 254 115 59 -10 -253 -115 h
stroke
LT0
0.75 0.75 0.75 C 3274 1380 M
60 -10 V
3080 1255 L
-59 10 V
253 115 V
.0002 g 4301 1377 N 253 116 60 -9 -254 -117 h
stroke
LT0
0.75 0.75 0.75 C 4301 1377 M
59 -10 V
4107 1251 L
-60 9 V
254 117 V
0 g 5328 1374 N 254 116 59 -9 -253 -116 h
stroke
LT0
0.75 0.75 0.75 C 5328 1374 M
60 -9 V
5134 1249 L
-59 9 V
253 116 V
.8289 g 2844 3547 N 254 116 59 -199 -253 -120 h
stroke
LT0
0.75 0.75 0.75 C 2844 3547 M
60 -203 V
2650 3228 L
-59 199 V
253 120 V
.0008 g 3334 1370 N 254 115 60 -9 -254 -115 h
stroke
LT0
0.75 0.75 0.75 C 3334 1370 M
60 -9 V
3140 1246 L
-60 9 V
254 115 V
.0001 g 4360 1367 N 254 116 59 -9 -253 -116 h
stroke
LT0
0.75 0.75 0.75 C 4360 1367 M
60 -9 V
4166 1242 L
-59 9 V
253 116 V
.6294 g 2710 3037 N 253 117 60 -178 -254 -128 h
stroke
LT0
0.75 0.75 0.75 C 2710 3037 M
59 -189 V
2516 2731 L
-60 178 V
254 128 V
0 g 5388 1365 N 253 116 60 -9 -254 -116 h
stroke
LT0
0.75 0.75 0.75 C 5388 1365 M
59 -9 V
5194 1240 L
-60 9 V
254 116 V
.189 g 2560 1882 N 254 118 59 -116 -253 -103 h
stroke
LT0
0.75 0.75 0.75 C 2560 1882 M
60 -101 V
2366 1663 L
-59 116 V
253 103 V
.0006 g 3394 1361 N 253 115 60 -10 -254 -115 h
stroke
LT0
0.75 0.75 0.75 C 3394 1361 M
59 -10 V
3200 1236 L
-60 10 V
254 115 V
.0001 g 4420 1358 N 254 116 60 -9 -254 -116 h
stroke
LT0
0.75 0.75 0.75 C 4420 1358 M
60 -9 V
4226 1233 L
-60 9 V
254 116 V
0 g 5447 1356 N 254 116 59 -9 -253 -116 h
stroke
LT0
0.75 0.75 0.75 C 5447 1356 M
60 -9 V
5253 1231 L
-59 9 V
253 116 V
.0004 g 3453 1351 N 254 115 59 -9 -253 -115 h
stroke
LT0
0.75 0.75 0.75 C 3453 1351 M
60 -9 V
3259 1227 L
-59 9 V
253 115 V
.0001 g 4480 1349 N 253 117 60 -10 -254 -116 h
stroke
LT0
0.75 0.75 0.75 C 4480 1349 M
59 -9 V
4286 1223 L
-60 10 V
254 116 V
0 g 5507 1347 N 254 117 60 -10 -254 -116 h
stroke
LT0
0.75 0.75 0.75 C 5507 1347 M
60 -9 V
5313 1221 L
-60 10 V
254 116 V
.4514 g 2575 2556 N 254 123 59 -153 -253 -126 h
stroke
LT0
0.75 0.75 0.75 C 2575 2556 M
60 -156 V
2381 2277 L
-59 153 V
253 126 V
.0003 g 3513 1342 N 253 116 60 -10 -254 -115 h
stroke
LT0
0.75 0.75 0.75 C 3513 1342 M
59 -9 V
3319 1217 L
-60 10 V
254 115 V
.0001 g 4539 1340 N 254 117 59 -9 -253 -117 h
stroke
LT0
0.75 0.75 0.75 C 4539 1340 M
60 -9 V
4345 1214 L
-59 9 V
253 117 V
0 g 5567 1338 N 253 117 60 -9 -254 -117 h
stroke
LT0
0.75 0.75 0.75 C 5567 1338 M
59 -9 V
5373 1212 L
-60 9 V
254 117 V
.2438 g 2500 2001 N 253 103 60 -108 -253 -114 h
stroke
LT0
0.75 0.75 0.75 C 2500 2001 M
60 -119 V
2307 1779 L
-60 108 V
253 114 V
.0002 g 3572 1333 N 254 116 59 -9 -253 -116 h
stroke
LT0
0.75 0.75 0.75 C 3572 1333 M
60 -9 V
3378 1208 L
-59 9 V
253 116 V
.0001 g 4599 1331 N 253 117 60 -9 -254 -117 h
stroke
LT0
0.75 0.75 0.75 C 4599 1331 M
59 -9 V
4405 1205 L
-60 9 V
254 117 V
0 g 5626 1329 N 254 116 59 -9 -253 -117 h
stroke
LT0
0.75 0.75 0.75 C 5626 1329 M
60 -10 V
5432 1203 L
-59 9 V
253 117 V
.0002 g 3632 1324 N 253 116 60 -9 -254 -116 h
stroke
LT0
0.75 0.75 0.75 C 3632 1324 M
59 -9 V
3438 1199 L
-60 9 V
254 116 V
.0311 g 2545 1419 N 253 132 60 -40 -254 -136 h
stroke
LT0
0.75 0.75 0.75 C 2545 1419 M
59 -44 V
2351 1243 L
-60 40 V
254 136 V
.0001 g 4658 1322 N 254 117 59 -9 -253 -117 h
stroke
LT0
0.75 0.75 0.75 C 4658 1322 M
60 -9 V
4464 1196 L
-59 9 V
253 117 V
0 g 5686 1319 N 253 116 60 -9 -254 -116 h
stroke
LT0
0.75 0.75 0.75 C 5686 1319 M
59 -9 V
5492 1194 L
-60 9 V
254 116 V
.0167 g 2604 1375 N 254 118 59 -23 -253 -132 h
stroke
LT0
0.75 0.75 0.75 C 2604 1375 M
60 -37 V
2410 1220 L
-59 23 V
253 132 V
.7244 g 2650 3228 N 254 128 59 -185 -253 -134 h
stroke
LT0
0.75 0.75 0.75 C 2650 3228 M
60 -191 V
2456 2909 L
-59 185 V
253 134 V
.934 g 2785 3754 N 253 120 60 -208 -254 -119 h
stroke
LT0
0.75 0.75 0.75 C 2785 3754 M
59 -207 V
2591 3427 L
-60 208 V
254 119 V
.0001 g 3691 1315 N 254 117 59 -10 -253 -116 h
stroke
LT0
0.75 0.75 0.75 C 3691 1315 M
60 -9 V
3497 1189 L
-59 10 V
253 116 V
.0088 g 2664 1338 N 253 118 60 -18 -254 -118 h
stroke
LT0
0.75 0.75 0.75 C 2664 1338 M
59 -18 V
2470 1202 L
-60 18 V
254 118 V
.0001 g 4718 1313 N 253 117 60 -9 -254 -117 h
stroke
LT0
0.75 0.75 0.75 C 4718 1313 M
59 -9 V
4524 1187 L
-60 9 V
254 117 V
.0559 g 2485 1486 N 254 136 59 -70 -253 -133 h
stroke
LT0
0.75 0.75 0.75 C 2485 1486 M
60 -67 V
2291 1283 L
-59 70 V
253 133 V
0 g 5745 1310 N 254 116 59 -9 -253 -116 h
stroke
LT0
0.75 0.75 0.75 C 5745 1310 M
60 -9 V
5551 1185 L
-59 9 V
253 116 V
.3042 g 2441 2132 N 253 114 60 -127 -254 -118 h
stroke
LT0
0.75 0.75 0.75 C 2441 2132 M
59 -131 V
2247 1887 L
-60 127 V
254 118 V
.0001 g 3751 1306 N 252 116 60 -9 -254 -117 h
stroke
LT0
0.75 0.75 0.75 C 3751 1306 M
58 -10 V
3557 1180 L
-60 9 V
254 117 V
.0051 g 2723 1320 N 254 117 59 -13 -253 -118 h
stroke
LT0
0.75 0.75 0.75 C 2723 1320 M
60 -14 V
2529 1189 L
-59 13 V
253 118 V
.0001 g 4777 1304 N 254 116 59 -9 -253 -117 h
stroke
LT0
0.75 0.75 0.75 C 4777 1304 M
60 -10 V
4583 1178 L
-59 9 V
253 117 V
.5343 g 2516 2731 N 253 126 60 -169 -254 -132 h
stroke
LT0
0.75 0.75 0.75 C 2516 2731 M
59 -175 V
2322 2430 L
-60 169 V
254 132 V
0 g 5805 1301 N 253 116 60 -9 -254 -116 h
stroke
LT0
0.75 0.75 0.75 C 5805 1301 M
59 -9 V
5611 1176 L
-60 9 V
254 116 V
.0031 g 2783 1306 N 253 117 60 -12 -254 -117 h
stroke
LT0
0.75 0.75 0.75 C 2783 1306 M
59 -12 V
2589 1177 L
-60 12 V
254 117 V
.0915 g 2426 1571 N 253 133 60 -79 -254 -139 h
stroke
LT0
0.75 0.75 0.75 C 2426 1571 M
59 -85 V
2232 1353 L
-60 79 V
254 139 V
.0001 g 3809 1296 N 253 116 59 -9 -252 -116 h
stroke
LT0
0.75 0.75 0.75 C 3809 1296 M
60 -9 V
3616 1171 L
-59 9 V
252 116 V
.0001 g 4837 1294 N 253 116 60 -9 -254 -116 h
stroke
LT0
0.75 0.75 0.75 C 4837 1294 M
59 -9 V
4643 1169 L
-60 9 V
254 116 V
0 g 5864 1292 N 254 116 59 -9 -253 -116 h
stroke
LT0
0.75 0.75 0.75 C 5864 1292 M
60 -9 V
5670 1167 L
-59 9 V
253 116 V
.0022 g 2842 1294 N 254 117 59 -10 -253 -117 h
stroke
LT0
0.75 0.75 0.75 C 2842 1294 M
60 -10 V
2648 1167 L
-59 10 V
253 117 V
.0001 g 3869 1287 N 252 116 60 -9 -253 -116 h
stroke
LT0
0.75 0.75 0.75 C 3869 1287 M
59 -9 V
3676 1162 L
-60 9 V
253 116 V
0 g 4896 1285 N 254 116 59 -9 -253 -116 h
stroke
LT0
0.75 0.75 0.75 C 4896 1285 M
60 -9 V
4702 1160 L
-59 9 V
253 116 V
0 g 5924 1283 N 253 116 60 -9 -254 -116 h
stroke
LT0
0.75 0.75 0.75 C 5924 1283 M
59 -9 V
5730 1158 L
-60 9 V
254 116 V
.0017 g 2902 1284 N 253 118 60 -10 -254 -117 h
stroke
LT0
0.75 0.75 0.75 C 2902 1284 M
59 -9 V
2708 1157 L
-60 10 V
254 117 V
.1334 g 2366 1663 N 254 139 59 -91 -253 -140 h
stroke
LT0
0.75 0.75 0.75 C 2366 1663 M
60 -92 V
2172 1432 L
-59 91 V
253 140 V
.0001 g 3928 1278 N 253 116 59 -9 -252 -116 h
stroke
LT0
0.75 0.75 0.75 C 3928 1278 M
60 -9 V
3735 1153 L
-59 9 V
252 116 V
0 g 4956 1276 N 253 116 60 -9 -254 -116 h
stroke
LT0
0.75 0.75 0.75 C 4956 1276 M
59 -9 V
4762 1151 L
-60 9 V
254 116 V
0 g 5983 1274 N 254 116 59 -9 -253 -116 h
stroke
LT0
0.75 0.75 0.75 C 5983 1274 M
60 -9 V
5789 1149 L
-59 9 V
253 116 V
.0012 g 2961 1275 N 254 118 59 -10 -253 -118 h
stroke
LT0
0.75 0.75 0.75 C 2961 1275 M
60 -10 V
2767 1147 L
-59 10 V
253 118 V
.3729 g 2381 2277 N 254 118 59 -144 -253 -119 h
stroke
LT0
0.75 0.75 0.75 C 2381 2277 M
60 -145 V
2187 2014 L
-59 144 V
253 119 V
.0001 g 3988 1269 N 253 116 59 -9 -253 -116 h
stroke
LT0
0.75 0.75 0.75 C 3988 1269 M
59 -9 V
3794 1144 L
-59 9 V
253 116 V
0 g 5015 1267 N 254 116 59 -9 -253 -116 h
stroke
LT0
0.75 0.75 0.75 C 5015 1267 M
60 -9 V
4821 1142 L
-59 9 V
253 116 V
.8234 g 2591 3427 N 253 134 60 -197 -254 -136 h
stroke
LT0
0.75 0.75 0.75 C 2591 3427 M
59 -199 V
2397 3094 L
-60 197 V
254 136 V
.0009 g 3021 1265 N 253 118 60 -10 -254 -118 h
stroke
LT0
0.75 0.75 0.75 C 3021 1265 M
59 -10 V
2827 1137 L
-60 10 V
254 118 V
.0001 g 4047 1260 N 254 116 59 -9 -253 -116 h
stroke
LT0
0.75 0.75 0.75 C 4047 1260 M
60 -9 V
3853 1135 L
-59 9 V
253 116 V
0 g 5075 1258 N 253 116 60 -9 -254 -116 h
stroke
LT0
0.75 0.75 0.75 C 5075 1258 M
59 -9 V
4881 1133 L
-60 9 V
254 116 V
.1825 g 2307 1779 N 253 140 60 -103 -254 -153 h
stroke
LT0
0.75 0.75 0.75 C 2307 1779 M
59 -116 V
2113 1523 L
-60 103 V
254 153 V
.6235 g 2456 2909 N 254 132 59 -178 -253 -132 h
stroke
LT0
0.75 0.75 0.75 C 2456 2909 M
60 -178 V
2262 2599 L
-59 178 V
253 132 V
.0007 g 3080 1255 N 253 118 60 -9 -253 -118 h
stroke
LT0
0.75 0.75 0.75 C 3080 1255 M
60 -9 V
2887 1128 L
-60 9 V
253 118 V
0 g 4107 1251 N 253 117 60 -10 -254 -116 h
stroke
LT0
0.75 0.75 0.75 C 4107 1251 M
59 -9 V
3913 1125 L
-60 10 V
254 116 V
0 g 5134 1249 N 254 117 59 -10 -253 -116 h
stroke
LT0
0.75 0.75 0.75 C 5134 1249 M
60 -9 V
4940 1123 L
-59 10 V
253 116 V
.0005 g 3140 1246 N 254 117 59 -9 -253 -118 h
stroke
LT0
0.75 0.75 0.75 C 3140 1246 M
60 -10 V
2946 1119 L
-59 9 V
253 118 V
0 g 4166 1242 N 253 117 60 -9 -253 -117 h
stroke
LT0
0.75 0.75 0.75 C 4166 1242 M
60 -9 V
3973 1116 L
-60 9 V
253 117 V
0 g 5194 1240 N 253 117 60 -9 -254 -117 h
stroke
LT0
0.75 0.75 0.75 C 5194 1240 M
59 -9 V
5000 1114 L
-60 9 V
254 117 V
.0004 g 3200 1236 N 253 117 60 -9 -254 -117 h
stroke
LT0
0.75 0.75 0.75 C 3200 1236 M
59 -9 V
3006 1110 L
-60 9 V
254 117 V
0 g 4226 1233 N 254 116 59 -9 -253 -117 h
stroke
LT0
0.75 0.75 0.75 C 4226 1233 M
60 -10 V
4032 1107 L
-59 9 V
253 117 V
.4485 g 2322 2430 N 253 119 60 -155 -254 -117 h
stroke
LT0
0.75 0.75 0.75 C 2322 2430 M
59 -153 V
2128 2158 L
-60 155 V
254 117 V
0 g 5253 1231 N 253 116 60 -9 -253 -117 h
stroke
LT0
0.75 0.75 0.75 C 5253 1231 M
60 -10 V
5060 1105 L
-60 9 V
253 117 V
.237 g 2247 1887 N 254 153 60 -116 -254 -145 h
stroke
LT0
0.75 0.75 0.75 C 2247 1887 M
60 -108 V
2053 1626 L
-60 116 V
254 145 V
.0003 g 3259 1227 N 254 117 59 -10 -253 -117 h
stroke
LT0
0.75 0.75 0.75 C 3259 1227 M
60 -10 V
3065 1100 L
-59 10 V
253 117 V
0 g 4286 1223 N 253 116 60 -9 -254 -116 h
stroke
LT0
0.75 0.75 0.75 C 4286 1223 M
59 -9 V
4092 1098 L
-60 9 V
254 116 V
0 g 5313 1221 N 254 116 59 -9 -253 -116 h
stroke
LT0
0.75 0.75 0.75 C 5313 1221 M
60 -9 V
5119 1096 L
-59 9 V
253 116 V
.0002 g 3319 1217 N 253 117 60 -9 -254 -117 h
stroke
LT0
0.75 0.75 0.75 C 3319 1217 M
59 -9 V
3125 1091 L
-60 9 V
254 117 V
.0378 g 2232 1353 N 253 153 60 -44 -254 -179 h
stroke
LT0
0.75 0.75 0.75 C 2232 1353 M
59 -70 V
2038 1130 L
-60 44 V
254 179 V
0 g 4345 1214 N 254 116 59 -9 -253 -116 h
stroke
LT0
0.75 0.75 0.75 C 4345 1214 M
60 -9 V
4151 1089 L
-59 9 V
253 116 V
.0187 g 2291 1283 N 254 137 59 -24 -253 -153 h
stroke
LT0
0.75 0.75 0.75 C 2291 1283 M
60 -40 V
2097 1106 L
-59 24 V
253 153 V
0 g 5373 1212 N 253 116 60 -9 -254 -116 h
stroke
LT0
0.75 0.75 0.75 C 5373 1212 M
59 -9 V
5179 1087 L
-60 9 V
254 116 V
.0002 g 3378 1208 N 254 117 59 -9 -253 -117 h
stroke
LT0
0.75 0.75 0.75 C 3378 1208 M
60 -9 V
3184 1082 L
-59 9 V
253 117 V
.0099 g 2351 1243 N 253 128 60 -14 -254 -137 h
stroke
LT0
0.75 0.75 0.75 C 2351 1243 M
59 -23 V
2157 1092 L
-60 14 V
254 137 V
.0678 g 2172 1432 N 254 179 59 -67 -253 -191 h
stroke
LT0
0.75 0.75 0.75 C 2172 1432 M
60 -79 V
1978 1174 L
-59 67 V
253 191 V
0 g 4405 1205 N 253 116 60 -9 -254 -116 h
stroke
LT0
0.75 0.75 0.75 C 4405 1205 M
59 -9 V
4211 1080 L
-60 9 V
254 116 V
.9286 g 2531 3635 N 254 136 59 -214 -253 -130 h
stroke
LT0
0.75 0.75 0.75 C 2531 3635 M
60 -208 V
2337 3291 L
-59 214 V
253 130 V
.7171 g 2397 3094 N 253 132 60 -191 -254 -126 h
stroke
LT0
0.75 0.75 0.75 C 2397 3094 M
59 -185 V
2203 2777 L
-60 191 V
254 126 V
0 g 5432 1203 N 254 116 59 -9 -253 -116 h
stroke
LT0
0.75 0.75 0.75 C 5432 1203 M
60 -9 V
5238 1078 L
-59 9 V
253 116 V
.2956 g 2187 2014 N 254 145 59 -121 -253 -151 h
stroke
LT0
0.75 0.75 0.75 C 2187 2014 M
60 -127 V
1993 1742 L
-59 121 V
253 151 V
.0057 g 2410 1220 N 254 123 59 -13 -253 -128 h
stroke
LT0
0.75 0.75 0.75 C 2410 1220 M
60 -18 V
2216 1079 L
-59 13 V
253 128 V
.0001 g 3438 1199 N 253 116 60 -9 -254 -117 h
stroke
LT0
0.75 0.75 0.75 C 3438 1199 M
59 -10 V
3244 1073 L
-60 9 V
254 117 V
0 g 4464 1196 N 254 116 59 -9 -253 -116 h
stroke
LT0
0.75 0.75 0.75 C 4464 1196 M
60 -9 V
4270 1071 L
-59 9 V
253 116 V
0 g 5492 1194 N 253 116 60 -9 -254 -116 h
stroke
LT0
0.75 0.75 0.75 C 5492 1194 M
59 -9 V
5298 1069 L
-60 9 V
254 116 V
.0033 g 2470 1202 N 253 120 60 -10 -254 -123 h
stroke
LT0
0.75 0.75 0.75 C 2470 1202 M
59 -13 V
2276 1069 L
-60 10 V
254 123 V
.5295 g 2262 2599 N 254 117 59 -160 -253 -126 h
stroke
LT0
0.75 0.75 0.75 C 2262 2599 M
60 -169 V
2068 2313 L
-59 160 V
253 126 V
.0001 g 3497 1189 N 254 116 59 -9 -253 -116 h
stroke
LT0
0.75 0.75 0.75 C 3497 1189 M
60 -9 V
3303 1064 L
-59 9 V
253 116 V
0 g 4524 1187 N 253 116 60 -9 -254 -116 h
stroke
LT0
0.75 0.75 0.75 C 4524 1187 M
59 -9 V
4330 1062 L
-60 9 V
254 116 V
0 g 5551 1185 N 254 116 59 -9 -253 -116 h
stroke
LT0
0.75 0.75 0.75 C 5551 1185 M
60 -9 V
5357 1060 L
-59 9 V
253 116 V
.108 g 2113 1523 N 253 191 60 -99 -254 -183 h
stroke
LT0
0.75 0.75 0.75 C 2113 1523 M
59 -91 V
1919 1241 L
-60 99 V
254 183 V
.0021 g 2529 1189 N 254 118 59 -10 -253 -120 h
stroke
LT0
0.75 0.75 0.75 C 2529 1189 M
60 -12 V
2335 1059 L
-59 10 V
253 120 V
0 g 3557 1180 N 253 116 60 -9 -254 -116 h
stroke
LT0
0.75 0.75 0.75 C 3557 1180 M
59 -9 V
3363 1055 L
-60 9 V
254 116 V
0 g 4583 1178 N 254 116 59 -9 -253 -116 h
stroke
LT0
0.75 0.75 0.75 C 4583 1178 M
60 -9 V
4389 1053 L
-59 9 V
253 116 V
0 g 5611 1176 N 253 116 60 -9 -254 -116 h
stroke
LT0
0.75 0.75 0.75 C 5611 1176 M
59 -9 V
5417 1051 L
-60 9 V
254 116 V
.0014 g 2589 1177 N 253 118 60 -10 -254 -118 h
stroke
LT0
0.75 0.75 0.75 C 2589 1177 M
59 -10 V
2395 1049 L
-60 10 V
254 118 V
0 g 3616 1171 N 254 116 59 -9 -253 -116 h
stroke
LT0
0.75 0.75 0.75 C 3616 1171 M
60 -9 V
3422 1046 L
-59 9 V
253 116 V
0 g 4643 1169 N 253 116 60 -9 -254 -116 h
stroke
LT0
0.75 0.75 0.75 C 4643 1169 M
59 -9 V
4449 1044 L
-60 9 V
254 116 V
.3622 g 2128 2158 N 253 151 60 -139 -254 -156 h
stroke
LT0
0.75 0.75 0.75 C 2128 2158 M
59 -144 V
1934 1863 L
-60 139 V
254 156 V
0 g 5670 1167 N 254 116 59 -9 -253 -116 h
stroke
LT0
0.75 0.75 0.75 C 5670 1167 M
60 -9 V
5476 1042 L
-59 9 V
253 116 V
.0009 g 2648 1167 N 254 118 59 -10 -253 -118 h
stroke
LT0
0.75 0.75 0.75 C 2648 1167 M
60 -10 V
2454 1039 L
-59 10 V
253 118 V
0 g 3676 1162 N 253 116 60 -9 -254 -116 h
stroke
LT0
0.75 0.75 0.75 C 3676 1162 M
59 -9 V
3482 1037 L
-60 9 V
254 116 V
.1573 g 2053 1626 N 254 183 59 -110 -253 -176 h
stroke
LT0
0.75 0.75 0.75 C 2053 1626 M
60 -103 V
1859 1340 L
-59 110 V
253 176 V
0 g 4702 1160 N 254 116 59 -9 -253 -116 h
stroke
LT0
0.75 0.75 0.75 C 4702 1160 M
60 -9 V
4508 1035 L
-59 9 V
253 116 V
0 g 5730 1158 N 253 117 60 -10 -254 -116 h
stroke
LT0
0.75 0.75 0.75 C 5730 1158 M
59 -9 V
5536 1032 L
-60 10 V
254 116 V
.0006 g 2708 1157 N 253 117 60 -9 -254 -118 h
stroke
LT0
0.75 0.75 0.75 C 2708 1157 M
59 -10 V
2514 1030 L
-60 9 V
254 118 V
0 g 3735 1153 N 253 117 59 -10 -253 -116 h
stroke
LT0
0.75 0.75 0.75 C 3735 1153 M
59 -9 V
3541 1027 L
-59 10 V
253 116 V
0 g 4762 1151 N 253 117 60 -10 -254 -116 h
stroke
LT0
0.75 0.75 0.75 C 4762 1151 M
59 -9 V
4568 1025 L
-60 10 V
254 116 V
.8174 g 2337 3291 N 254 126 59 -209 -253 -114 h
stroke
LT0
0.75 0.75 0.75 C 2337 3291 M
60 -197 V
2143 2968 L
-59 209 V
253 114 V
.0004 g 2767 1147 N 254 116 59 -9 -253 -117 h
stroke
LT0
0.75 0.75 0.75 C 2767 1147 M
60 -10 V
2573 1021 L
-59 9 V
253 117 V
0 g 3794 1144 N 252 117 60 -9 -253 -117 h
stroke
LT0
0.75 0.75 0.75 C 3794 1144 M
59 -9 V
3601 1018 L
-60 9 V
253 117 V
.6166 g 2203 2777 N 253 126 60 -177 -254 -127 h
stroke
LT0
0.75 0.75 0.75 C 2203 2777 M
59 -178 V
2009 2473 L
-60 177 V
254 127 V
0 g 4821 1142 N 254 117 59 -9 -253 -117 h
stroke
LT0
0.75 0.75 0.75 C 4821 1142 M
60 -9 V
4627 1016 L
-59 9 V
253 117 V
.0003 g 2827 1137 N 254 116 60 -9 -254 -116 h
stroke
LT0
0.75 0.75 0.75 C 2827 1137 M
60 -9 V
2633 1012 L
-60 9 V
254 116 V
0 g 3853 1135 N 253 116 59 -9 -252 -117 h
stroke
LT0
0.75 0.75 0.75 C 3853 1135 M
60 -10 V
3660 1009 L
-59 9 V
252 117 V
0 g 4881 1133 N 253 116 60 -9 -254 -117 h
stroke
LT0
0.75 0.75 0.75 C 4881 1133 M
59 -10 V
4687 1007 L
-60 9 V
254 117 V
.2135 g 1993 1742 N 253 176 60 -125 -253 -167 h
stroke
LT0
0.75 0.75 0.75 C 1993 1742 M
60 -116 V
1800 1450 L
-60 125 V
253 167 V
.4365 g 2068 2313 N 254 156 59 -150 -253 -161 h
stroke
LT0
0.75 0.75 0.75 C 2068 2313 M
60 -155 V
1874 2002 L
-59 150 V
253 161 V
.0002 g 2887 1128 N 253 117 60 -10 -254 -116 h
stroke
LT0
0.75 0.75 0.75 C 2887 1128 M
59 -9 V
2693 1002 L
-60 10 V
254 116 V
0 g 3913 1125 N 253 116 60 -9 -253 -116 h
stroke
LT0
0.75 0.75 0.75 C 3913 1125 M
60 -9 V
3720 1000 L
-60 9 V
253 116 V
0 g 4940 1123 N 254 116 59 -9 -253 -116 h
stroke
LT0
0.75 0.75 0.75 C 4940 1123 M
60 -9 V
4746 998 L
-59 9 V
253 116 V
.0001 g 2946 1119 N 254 117 59 -9 -253 -117 h
stroke
LT0
0.75 0.75 0.75 C 2946 1119 M
60 -9 V
2752 993 L
-59 9 V
253 117 V
0 g 3973 1116 N 252 116 60 -9 -253 -116 h
stroke
LT0
0.75 0.75 0.75 C 3973 1116 M
59 -9 V
3780 991 L
-60 9 V
253 116 V
0 g 5000 1114 N 254 116 60 -9 -254 -116 h
stroke
LT0
0.75 0.75 0.75 C 5000 1114 M
60 -9 V
4806 989 L
-60 9 V
254 116 V
.0001 g 3006 1110 N 253 116 60 -9 -254 -117 h
stroke
LT0
0.75 0.75 0.75 C 3006 1110 M
59 -10 V
2812 984 L
-60 9 V
254 117 V
0 g 4032 1107 N 254 116 58 -9 -252 -116 h
stroke
LT0
0.75 0.75 0.75 C 4032 1107 M
60 -9 V
3838 982 L
-58 9 V
252 116 V
.0398 g 1919 1241 N 253 139 60 -42 -254 -164 h
stroke
LT0
0.75 0.75 0.75 C 1919 1241 M
59 -67 V
1725 1035 L
-60 42 V
254 164 V
0 g 5060 1105 N 253 116 60 -9 -254 -116 h
stroke
LT0
0.75 0.75 0.75 C 5060 1105 M
59 -9 V
4866 980 L
-60 9 V
254 116 V
.0202 g 1978 1174 N 254 124 59 -29 -253 -139 h
stroke
LT0
0.75 0.75 0.75 C 1978 1174 M
60 -44 V
1784 1006 L
-59 29 V
253 139 V
.2735 g 1934 1863 N 253 167 60 -122 -254 -166 h
stroke
LT0
0.75 0.75 0.75 C 1934 1863 M
59 -121 V
1740 1575 L
-60 122 V
254 166 V
.0001 g 3065 1100 N 254 116 59 -9 -253 -116 h
stroke
LT0
0.75 0.75 0.75 C 3065 1100 M
60 -9 V
2871 975 L
-59 9 V
253 116 V
.0098 g 2038 1130 N 253 117 60 -17 -254 -124 h
stroke
LT0
0.75 0.75 0.75 C 2038 1130 M
59 -24 V
1844 989 L
-60 17 V
254 124 V
0 g 4092 1098 N 253 116 60 -9 -254 -116 h
stroke
LT0
0.75 0.75 0.75 C 4092 1098 M
59 -9 V
3898 973 L
-60 9 V
254 116 V
0 g 5119 1096 N 254 116 59 -9 -253 -116 h
stroke
LT0
0.75 0.75 0.75 C 5119 1096 M
60 -9 V
4925 971 L
-59 9 V
253 116 V
.0719 g 1859 1340 N 254 164 59 -68 -253 -195 h
stroke
LT0
0.75 0.75 0.75 C 1859 1340 M
60 -99 V
1665 1077 L
-59 68 V
253 195 V
.0001 g 3125 1091 N 253 116 60 -9 -254 -116 h
stroke
LT0
0.75 0.75 0.75 C 3125 1091 M
59 -9 V
2931 966 L
-60 9 V
254 116 V
.0054 g 2097 1106 N 254 116 59 -13 -253 -117 h
stroke
LT0
0.75 0.75 0.75 C 2097 1106 M
60 -14 V
1903 976 L
-59 13 V
253 117 V
.7114 g 2143 2968 N 254 127 59 -195 -253 -123 h
stroke
LT0
0.75 0.75 0.75 C 2143 2968 M
60 -191 V
1949 2650 L
-59 195 V
253 123 V
0 g 4151 1089 N 254 116 59 -9 -253 -116 h
stroke
LT0
0.75 0.75 0.75 C 4151 1089 M
60 -9 V
3957 964 L
-59 9 V
253 116 V
0 g 5179 1087 N 253 116 60 -9 -254 -116 h
stroke
LT0
0.75 0.75 0.75 C 5179 1087 M
59 -9 V
4985 962 L
-60 9 V
254 116 V
.9251 g 2278 3505 N 253 114 60 -217 -254 -111 h
stroke
LT0
0.75 0.75 0.75 C 2278 3505 M
59 -214 V
2084 3177 L
-60 217 V
254 111 V
.5174 g 2009 2473 N 253 161 60 -171 -254 -150 h
stroke
LT0
0.75 0.75 0.75 C 2009 2473 M
59 -160 V
1815 2152 L
-60 171 V
254 150 V
.0033 g 2157 1092 N 253 115 60 -12 -254 -116 h
stroke
LT0
0.75 0.75 0.75 C 2157 1092 M
59 -13 V
1963 964 L
-60 12 V
254 116 V
0 g 3184 1082 N 254 116 59 -9 -253 -116 h
stroke
LT0
0.75 0.75 0.75 C 3184 1082 M
60 -9 V
2990 957 L
-59 9 V
253 116 V
0 g 4211 1080 N 253 116 60 -9 -254 -116 h
stroke
LT0
0.75 0.75 0.75 C 4211 1080 M
59 -9 V
4017 955 L
-60 9 V
254 116 V
.1158 g 1800 1450 N 253 195 60 -86 -254 -219 h
stroke
LT0
0.75 0.75 0.75 C 1800 1450 M
59 -110 V
1606 1145 L
-60 86 V
254 219 V
0 g 5238 1078 N 254 116 59 -9 -253 -116 h
stroke
LT0
0.75 0.75 0.75 C 5238 1078 M
60 -9 V
5044 953 L
-59 9 V
253 116 V
.002 g 2216 1079 N 254 117 59 -12 -253 -115 h
stroke
LT0
0.75 0.75 0.75 C 2216 1079 M
60 -10 V
2022 952 L
-59 12 V
253 115 V
0 g 3244 1073 N 253 116 60 -9 -254 -116 h
stroke
LT0
0.75 0.75 0.75 C 3244 1073 M
59 -9 V
3050 948 L
-60 9 V
254 116 V
0 g 4270 1071 N 254 116 59 -9 -253 -116 h
stroke
LT0
0.75 0.75 0.75 C 4270 1071 M
60 -9 V
4076 946 L
-59 9 V
253 116 V
0 g 5298 1069 N 253 116 60 -9 -254 -116 h
stroke
LT0
0.75 0.75 0.75 C 5298 1069 M
59 -9 V
5104 944 L
-60 9 V
254 116 V
.3385 g 1874 2002 N 254 166 59 -137 -253 -168 h
stroke
LT0
0.75 0.75 0.75 C 1874 2002 M
60 -139 V
1680 1697 L
-59 137 V
253 168 V
.0012 g 2276 1069 N 253 117 60 -10 -254 -117 h
stroke
LT0
0.75 0.75 0.75 C 2276 1069 M
59 -10 V
2082 942 L
-60 10 V
254 117 V
0 g 3303 1064 N 254 116 59 -9 -253 -116 h
stroke
LT0
0.75 0.75 0.75 C 3303 1064 M
60 -9 V
3109 939 L
-59 9 V
253 116 V
0 g 4330 1062 N 253 117 60 -10 -254 -116 h
stroke
LT0
0.75 0.75 0.75 C 4330 1062 M
59 -9 V
4136 936 L
-60 10 V
254 116 V
0 g 5357 1060 N 254 117 59 -10 -253 -116 h
stroke
LT0
0.75 0.75 0.75 C 5357 1060 M
60 -9 V
5163 934 L
-59 10 V
253 116 V
.0008 g 2335 1059 N 254 117 59 -10 -253 -117 h
stroke
LT0
0.75 0.75 0.75 C 2335 1059 M
60 -10 V
2141 932 L
-59 10 V
253 117 V
0 g 3363 1055 N 253 117 60 -10 -254 -116 h
stroke
LT0
0.75 0.75 0.75 C 3363 1055 M
59 -9 V
3169 929 L
-60 10 V
254 116 V
0 g 4389 1053 N 254 117 59 -9 -253 -117 h
stroke
LT0
0.75 0.75 0.75 C 4389 1053 M
60 -9 V
4195 927 L
-59 9 V
253 117 V
.1696 g 1740 1575 N 254 219 60 -115 -254 -229 h
stroke
LT0
0.75 0.75 0.75 C 1740 1575 M
60 -125 V
1546 1231 L
-60 115 V
254 229 V
0 g 5417 1051 N 253 117 60 -9 -254 -117 h
stroke
LT0
0.75 0.75 0.75 C 5417 1051 M
59 -9 V
5223 925 L
-60 9 V
254 117 V
.0005 g 2395 1049 N 253 116 60 -9 -254 -117 h
stroke
LT0
0.75 0.75 0.75 C 2395 1049 M
59 -10 V
2201 923 L
-60 9 V
254 117 V
0 g 3422 1046 N 254 117 59 -9 -253 -117 h
stroke
LT0
0.75 0.75 0.75 C 3422 1046 M
60 -9 V
3228 920 L
-59 9 V
253 117 V
0 g 4449 1044 N 253 117 60 -9 -254 -117 h
stroke
LT0
0.75 0.75 0.75 C 4449 1044 M
59 -9 V
4255 918 L
-60 9 V
254 117 V
0 g 5476 1042 N 254 116 59 -9 -253 -117 h
stroke
LT0
0.75 0.75 0.75 C 5476 1042 M
60 -10 V
5282 916 L
-59 9 V
253 117 V
.0003 g 2454 1039 N 254 116 59 -9 -253 -116 h
stroke
LT0
0.75 0.75 0.75 C 2454 1039 M
60 -9 V
2260 914 L
-59 9 V
253 116 V
0 g 3482 1037 N 253 116 60 -9 -254 -117 h
stroke
LT0
0.75 0.75 0.75 C 3482 1037 M
59 -10 V
3288 911 L
-60 9 V
254 117 V
0 g 4508 1035 N 254 116 59 -9 -253 -117 h
stroke
LT0
0.75 0.75 0.75 C 4508 1035 M
60 -10 V
4314 909 L
-59 9 V
253 117 V
.6062 g 1949 2650 N 254 150 59 -188 -253 -139 h
stroke
LT0
0.75 0.75 0.75 C 1949 2650 M
60 -177 V
1755 2323 L
-59 188 V
253 139 V
.8148 g 2084 3177 N 253 123 60 -211 -254 -121 h
stroke
LT0
0.75 0.75 0.75 C 2084 3177 M
59 -209 V
1890 2845 L
-60 211 V
254 121 V
.0003 g 2514 1030 N 253 116 60 -9 -254 -116 h
stroke
LT0
0.75 0.75 0.75 C 2514 1030 M
59 -9 V
2320 905 L
-60 9 V
254 116 V
.4117 g 1815 2152 N 253 168 60 -154 -254 -164 h
stroke
LT0
0.75 0.75 0.75 C 1815 2152 M
59 -150 V
1621 1834 L
-60 154 V
254 164 V
0 g 3541 1027 N 254 116 59 -9 -253 -116 h
stroke
LT0
0.75 0.75 0.75 C 3541 1027 M
60 -9 V
3347 902 L
-59 9 V
253 116 V
0 g 4568 1025 N 253 116 60 -9 -254 -116 h
stroke
LT0
0.75 0.75 0.75 C 4568 1025 M
59 -9 V
4374 900 L
-60 9 V
254 116 V
.2304 g 1680 1697 N 254 229 59 -127 -253 -224 h
stroke
LT0
0.75 0.75 0.75 C 1680 1697 M
60 -122 V
1486 1346 L
-59 127 V
253 224 V
.0003 g 2573 1021 N 253 117 60 -10 -253 -116 h
stroke
LT0
0.75 0.75 0.75 C 2573 1021 M
60 -9 V
2380 895 L
-60 10 V
253 116 V
0 g 3601 1018 N 253 116 60 -9 -254 -116 h
stroke
LT0
0.75 0.75 0.75 C 3601 1018 M
59 -9 V
3407 893 L
-60 9 V
254 116 V
0 g 4627 1016 N 254 116 59 -9 -253 -116 h
stroke
LT0
0.75 0.75 0.75 C 4627 1016 M
60 -9 V
4433 891 L
-59 9 V
253 116 V
.0001 g 2633 1012 N 254 116 59 -9 -253 -117 h
stroke
LT0
0.75 0.75 0.75 C 2633 1012 M
60 -10 V
2439 886 L
-59 9 V
253 117 V
0 g 3660 1009 N 253 116 60 -9 -253 -116 h
stroke
LT0
0.75 0.75 0.75 C 3660 1009 M
60 -9 V
3467 884 L
-60 9 V
253 116 V
0 g 4687 1007 N 253 116 60 -9 -254 -116 h
stroke
LT0
0.75 0.75 0.75 C 4687 1007 M
59 -9 V
4493 882 L
-60 9 V
254 116 V
0 g 2693 1002 N 253 116 60 -9 -254 -116 h
stroke
LT0
0.75 0.75 0.75 C 2693 1002 M
59 -9 V
2499 877 L
-60 9 V
254 116 V
0 g 3720 1000 N 254 116 59 -9 -253 -116 h
stroke
LT0
0.75 0.75 0.75 C 3720 1000 M
60 -9 V
3526 875 L
-59 9 V
253 116 V
0 g 4746 998 N 253 116 60 -9 -253 -116 h
stroke
LT0
0.75 0.75 0.75 C 4746 998 M
60 -9 V
4553 873 L
-60 9 V
253 116 V
0 g 2752 993 N 254 116 59 -9 -253 -116 h
stroke
LT0
0.75 0.75 0.75 C 2752 993 M
60 -9 V
2558 868 L
-59 9 V
253 116 V
0 g 3780 991 N 252 116 60 -9 -254 -116 h
stroke
LT0
0.75 0.75 0.75 C 3780 991 M
58 -9 V
3586 866 L
-60 9 V
254 116 V
0 g 4806 989 N 254 116 59 -9 -253 -116 h
stroke
LT0
0.75 0.75 0.75 C 4806 989 M
60 -9 V
4612 864 L
-59 9 V
253 116 V
0 g 2812 984 N 253 116 60 -9 -254 -116 h
stroke
LT0
0.75 0.75 0.75 C 2812 984 M
59 -9 V
2618 859 L
-60 9 V
254 116 V
.2977 g 1621 1834 N 253 224 60 -151 -254 -210 h
stroke
LT0
0.75 0.75 0.75 C 1621 1834 M
59 -137 V
1427 1473 L
-60 151 V
254 210 V
0 g 3838 982 N 253 116 59 -9 -252 -116 h
stroke
LT0
0.75 0.75 0.75 C 3838 982 M
60 -9 V
3645 857 L
-59 9 V
252 116 V
.495 g 1755 2323 N 254 164 59 -180 -253 -155 h
stroke
LT0
0.75 0.75 0.75 C 1755 2323 M
60 -171 V
1561 1988 L
-59 180 V
253 155 V
0 g 4866 980 N 253 116 60 -9 -254 -116 h
stroke
LT0
0.75 0.75 0.75 C 4866 980 M
59 -9 V
4672 855 L
-60 9 V
254 116 V
.7049 g 1890 2845 N 253 139 60 -210 -254 -124 h
stroke
LT0
0.75 0.75 0.75 C 1890 2845 M
59 -195 V
1696 2511 L
-60 210 V
254 124 V
0 g 2871 975 N 254 116 59 -9 -253 -116 h
stroke
LT0
0.75 0.75 0.75 C 2871 975 M
60 -9 V
2677 850 L
-59 9 V
253 116 V
0 g 3898 973 N 252 116 60 -9 -253 -116 h
stroke
LT0
0.75 0.75 0.75 C 3898 973 M
59 -9 V
3705 848 L
-60 9 V
253 116 V
.9249 g 2024 3394 N 254 121 59 -218 -253 -120 h
stroke
LT0
0.75 0.75 0.75 C 2024 3394 M
60 -217 V
1830 3056 L
-59 218 V
253 120 V
0 g 4925 971 N 254 116 59 -9 -253 -116 h
stroke
LT0
0.75 0.75 0.75 C 4925 971 M
60 -9 V
4731 846 L
-59 9 V
253 116 V
0 g 2931 966 N 253 116 60 -9 -254 -116 h
stroke
LT0
0.75 0.75 0.75 C 2931 966 M
59 -9 V
2737 841 L
-60 9 V
254 116 V
0 g 3957 964 N 253 117 59 -10 -252 -116 h
stroke
LT0
0.75 0.75 0.75 C 3957 964 M
60 -9 V
3764 838 L
-59 10 V
252 116 V
0 g 4985 962 N 253 117 60 -10 -254 -116 h
stroke
LT0
0.75 0.75 0.75 C 4985 962 M
59 -9 V
4791 836 L
-60 10 V
254 116 V
0 g 2990 957 N 254 117 59 -10 -253 -116 h
stroke
LT0
0.75 0.75 0.75 C 2990 957 M
60 -9 V
2796 831 L
-59 10 V
253 116 V
0 g 4017 955 N 253 117 59 -9 -253 -117 h
stroke
LT0
0.75 0.75 0.75 C 4017 955 M
59 -9 V
3823 829 L
-59 9 V
253 117 V
0 g 5044 953 N 254 117 59 -9 -253 -117 h
stroke
LT0
0.75 0.75 0.75 C 5044 953 M
60 -9 V
4850 827 L
-59 9 V
253 117 V
0 g 3050 948 N 253 117 60 -9 -254 -117 h
stroke
LT0
0.75 0.75 0.75 C 3050 948 M
59 -9 V
2856 822 L
-60 9 V
254 117 V
0 g 4076 946 N 254 116 59 -9 -253 -117 h
stroke
LT0
0.75 0.75 0.75 C 4076 946 M
60 -10 V
3882 820 L
-59 9 V
253 117 V
0 g 5104 944 N 253 116 60 -9 -254 -117 h
stroke
LT0
0.75 0.75 0.75 C 5104 944 M
59 -10 V
4910 818 L
-60 9 V
254 117 V
0 g 3109 939 N 254 116 59 -9 -253 -117 h
stroke
LT0
0.75 0.75 0.75 C 3109 939 M
60 -10 V
2915 813 L
-59 9 V
253 117 V
.376 g 1561 1988 N 254 210 59 -176 -253 -188 h
stroke
LT0
0.75 0.75 0.75 C 1561 1988 M
60 -154 V
1367 1624 L
-59 176 V
253 188 V
0 g 4136 936 N 253 116 60 -9 -254 -116 h
stroke
LT0
0.75 0.75 0.75 C 4136 936 M
59 -9 V
3942 811 L
-60 9 V
254 116 V
0 g 5163 934 N 254 116 59 -9 -253 -116 h
stroke
LT0
0.75 0.75 0.75 C 5163 934 M
60 -9 V
4969 809 L
-59 9 V
253 116 V
0 g 3169 929 N 253 116 60 -9 -254 -116 h
stroke
LT0
0.75 0.75 0.75 C 3169 929 M
59 -9 V
2975 804 L
-60 9 V
254 116 V
0 g 4195 927 N 254 116 59 -9 -253 -116 h
stroke
LT0
0.75 0.75 0.75 C 4195 927 M
60 -9 V
4001 802 L
-59 9 V
253 116 V
.5899 g 1696 2511 N 253 155 60 -202 -254 -141 h
stroke
LT0
0.75 0.75 0.75 C 1696 2511 M
59 -188 V
1502 2168 L
-60 202 V
254 141 V
0 g 5223 925 N 253 116 60 -9 -254 -116 h
stroke
LT0
0.75 0.75 0.75 C 5223 925 M
59 -9 V
5029 800 L
-60 9 V
254 116 V
0 g 3228 920 N 254 116 59 -9 -253 -116 h
stroke
LT0
0.75 0.75 0.75 C 3228 920 M
60 -9 V
3034 795 L
-59 9 V
253 116 V
0 g 4255 918 N 253 116 60 -9 -254 -116 h
stroke
LT0
0.75 0.75 0.75 C 4255 918 M
59 -9 V
4061 793 L
-60 9 V
254 116 V
.8123 g 1830 3056 N 254 124 59 -220 -253 -115 h
stroke
LT0
0.75 0.75 0.75 C 1830 3056 M
60 -211 V
1636 2721 L
-59 220 V
253 115 V
0 g 3288 911 N 253 116 60 -9 -254 -116 h
stroke
LT0
0.75 0.75 0.75 C 3288 911 M
59 -9 V
3094 786 L
-60 9 V
254 116 V
0 g 4314 909 N 254 116 59 -9 -253 -116 h
stroke
LT0
0.75 0.75 0.75 C 4314 909 M
60 -9 V
4120 784 L
-59 9 V
253 116 V
0 g 3347 902 N 254 116 59 -9 -253 -116 h
stroke
LT0
0.75 0.75 0.75 C 3347 902 M
60 -9 V
3153 777 L
-59 9 V
253 116 V
0 g 4374 900 N 253 116 60 -9 -254 -116 h
stroke
LT0
0.75 0.75 0.75 C 4374 900 M
59 -9 V
4180 775 L
-60 9 V
254 116 V
0 g 3407 893 N 254 116 60 -9 -254 -116 h
stroke
LT0
0.75 0.75 0.75 C 3407 893 M
60 -9 V
3213 768 L
-60 9 V
254 116 V
0 g 4433 891 N 254 116 59 -9 -253 -116 h
stroke
LT0
0.75 0.75 0.75 C 4433 891 M
60 -9 V
4239 766 L
-59 9 V
253 116 V
.466 g 1502 2168 N 253 188 60 -196 -254 -172 h
stroke
LT0
0.75 0.75 0.75 C 1502 2168 M
59 -180 V
1308 1800 L
-60 196 V
254 172 V
0 g 3467 884 N 253 116 60 -9 -254 -116 h
stroke
LT0
0.75 0.75 0.75 C 3467 884 M
59 -9 V
3273 759 L
-60 9 V
254 116 V
0 g 4493 882 N 254 116 60 -9 -254 -116 h
stroke
LT0
0.75 0.75 0.75 C 4493 882 M
60 -9 V
4299 757 L
-60 9 V
254 116 V
0 g 3526 875 N 254 116 59 -9 -253 -116 h
stroke
LT0
0.75 0.75 0.75 C 3526 875 M
60 -9 V
3332 750 L
-59 9 V
253 116 V
0 g 4553 873 N 253 117 60 -10 -254 -116 h
stroke
LT0
0.75 0.75 0.75 C 4553 873 M
59 -9 V
4359 747 L
-60 10 V
254 116 V
0 g 3586 866 N 253 117 60 -10 -254 -116 h
stroke
LT0
0.75 0.75 0.75 C 3586 866 M
59 -9 V
3392 740 L
-60 10 V
254 116 V
.6956 g 1636 2721 N 254 141 59 -221 -253 -130 h
stroke
LT0
0.75 0.75 0.75 C 1636 2721 M
60 -210 V
1442 2370 L
-59 221 V
253 130 V
0 g 4612 864 N 254 117 59 -9 -253 -117 h
stroke
LT0
0.75 0.75 0.75 C 4612 864 M
60 -9 V
4418 738 L
-59 9 V
253 117 V
0 g 3645 857 N 254 117 59 -9 -253 -117 h
stroke
LT0
0.75 0.75 0.75 C 3645 857 M
60 -9 V
3451 731 L
-59 9 V
253 117 V
0 g 4672 855 N 253 117 60 -9 -254 -117 h
stroke
LT0
0.75 0.75 0.75 C 4672 855 M
59 -9 V
4478 729 L
-60 9 V
254 117 V
.9244 g 1771 3274 N 253 115 60 -221 -254 -112 h
stroke
LT0
0.75 0.75 0.75 C 1771 3274 M
59 -218 V
1577 2941 L
-60 221 V
254 112 V
0 g 3705 848 N 253 116 60 -9 -254 -117 h
stroke
LT0
0.75 0.75 0.75 C 3705 848 M
59 -10 V
3511 722 L
-60 9 V
254 117 V
0 g 4731 846 N 254 116 59 -9 -253 -117 h
stroke
LT0
0.75 0.75 0.75 C 4731 846 M
60 -10 V
4537 720 L
-59 9 V
253 117 V
0 g 3764 838 N 253 116 59 -9 -253 -116 h
stroke
LT0
0.75 0.75 0.75 C 3764 838 M
59 -9 V
3570 713 L
-59 9 V
253 116 V
0 g 4791 836 N 253 116 60 -9 -254 -116 h
stroke
LT0
0.75 0.75 0.75 C 4791 836 M
59 -9 V
4597 711 L
-60 9 V
254 116 V
0 g 3823 829 N 252 116 60 -9 -253 -116 h
stroke
LT0
0.75 0.75 0.75 C 3823 829 M
59 -9 V
3630 704 L
-60 9 V
253 116 V
0 g 4850 827 N 254 116 59 -9 -253 -116 h
stroke
LT0
0.75 0.75 0.75 C 4850 827 M
60 -9 V
4656 702 L
-59 9 V
253 116 V
.5688 g 1442 2370 N 254 172 59 -223 -253 -151 h
stroke
LT0
0.75 0.75 0.75 C 1442 2370 M
60 -202 V
1248 1996 L
-59 223 V
253 151 V
0 g 3882 820 N 253 116 59 -9 -252 -116 h
stroke
LT0
0.75 0.75 0.75 C 3882 820 M
60 -9 V
3689 695 L
-59 9 V
252 116 V
0 g 4910 818 N 253 116 60 -9 -254 -116 h
stroke
LT0
0.75 0.75 0.75 C 4910 818 M
59 -9 V
4716 693 L
-60 9 V
254 116 V
0 g 3942 811 N 252 116 60 -9 -253 -116 h
stroke
LT0
0.75 0.75 0.75 C 3942 811 M
59 -9 V
3749 686 L
-60 9 V
253 116 V
0 g 4969 809 N 254 116 59 -9 -253 -116 h
stroke
LT0
0.75 0.75 0.75 C 4969 809 M
60 -9 V
4775 684 L
-59 9 V
253 116 V
0 g 4001 802 N 254 116 58 -9 -252 -116 h
stroke
LT0
0.75 0.75 0.75 C 4001 802 M
60 -9 V
3807 677 L
-58 9 V
252 116 V
.8083 g 1577 2941 N 253 130 60 -224 -254 -126 h
stroke
LT0
0.75 0.75 0.75 C 1577 2941 M
59 -220 V
1383 2591 L
-60 224 V
254 126 V
0 g 4061 793 N 253 116 60 -9 -254 -116 h
stroke
LT0
0.75 0.75 0.75 C 4061 793 M
59 -9 V
3867 668 L
-60 9 V
254 116 V
0 g 4120 784 N 254 116 59 -9 -253 -116 h
stroke
LT0
0.75 0.75 0.75 C 4120 784 M
60 -9 V
3926 659 L
-59 9 V
253 116 V
0 g 4180 775 N 253 117 60 -10 -254 -116 h
stroke
LT0
0.75 0.75 0.75 C 4180 775 M
59 -9 V
3986 649 L
-60 10 V
254 116 V
0 g 4239 766 N 253 117 60 -9 -253 -117 h
stroke
LT0
0.75 0.75 0.75 C 4239 766 M
60 -9 V
4046 640 L
-60 9 V
253 117 V
.6813 g 1383 2591 N 253 151 60 -225 -254 -147 h
stroke
LT0
0.75 0.75 0.75 C 1383 2591 M
59 -221 V
1189 2219 L
-60 225 V
254 147 V
0 g 4299 757 N 254 116 59 -9 -253 -117 h
stroke
LT0
0.75 0.75 0.75 C 4299 757 M
60 -10 V
4105 631 L
-59 9 V
253 117 V
0 g 4359 747 N 253 116 60 -9 -254 -116 h
stroke
LT0
0.75 0.75 0.75 C 4359 747 M
59 -9 V
4165 622 L
-60 9 V
254 116 V
.9229 g 1517 3162 N 254 126 59 -224 -253 -123 h
stroke
LT0
0.75 0.75 0.75 C 1517 3162 M
60 -221 V
1323 2815 L
-59 224 V
253 123 V
0 g 4418 738 N 254 116 59 -9 -253 -116 h
stroke
LT0
0.75 0.75 0.75 C 4418 738 M
60 -9 V
4224 613 L
-59 9 V
253 116 V
0 g 4478 729 N 253 116 60 -9 -254 -116 h
stroke
LT0
0.75 0.75 0.75 C 4478 729 M
59 -9 V
4284 604 L
-60 9 V
254 116 V
0 g 4537 720 N 254 116 59 -9 -253 -116 h
stroke
LT0
0.75 0.75 0.75 C 4537 720 M
60 -9 V
4343 595 L
-59 9 V
253 116 V
0 g 4597 711 N 253 116 60 -9 -254 -116 h
stroke
LT0
0.75 0.75 0.75 C 4597 711 M
59 -9 V
4403 586 L
-60 9 V
254 116 V
0 g 4656 702 N 254 116 59 -9 -253 -116 h
stroke
LT0
0.75 0.75 0.75 C 4656 702 M
60 -9 V
4462 577 L
-59 9 V
253 116 V
.7981 g 1323 2815 N 254 147 59 -233 -253 -138 h
stroke
LT0
0.75 0.75 0.75 C 1323 2815 M
60 -224 V
1129 2444 L
-59 233 V
253 138 V
0 g 4716 693 N 253 116 60 -9 -254 -116 h
stroke
LT0
0.75 0.75 0.75 C 4716 693 M
59 -9 V
4522 568 L
-60 9 V
254 116 V
.9158 g 1264 3039 N 253 138 60 -231 -254 -131 h
stroke
LT0
0.75 0.75 0.75 C 1264 3039 M
59 -224 V
1070 2677 L
-60 231 V
254 131 V
stroke
LTb
LCb setrgbcolor
4522 568 M
2028 929 V
stroke
LTb
LCb setrgbcolor
2140 932 M
1010 1104 L
stroke
LTb
LCb setrgbcolor
4522 568 M
2439 886 L
stroke
LTb
LCb setrgbcolor
1010 1104 M
486 223 V
stroke
LTb
LCb setrgbcolor
6550 1497 M
3753 1925 L
stroke
LTb
LCb setrgbcolor
1010 2963 M
0 -1859 V
stroke
LTb
LCb setrgbcolor
3038 3892 M
0 -22 V
stroke
LTb
LCb setrgbcolor
6550 3356 M
0 -1859 V
stroke
LTb
LCb setrgbcolor
1010 2963 M
2028 929 V
stroke
LTb
LCb setrgbcolor
6550 3356 M
3038 3892 L
stroke
LTa
LCa setrgbcolor
1248 1068 M
312 143 V
stroke
LTb
LCb setrgbcolor
1248 1068 M
60 27 V
stroke
LTb
LCb setrgbcolor
1169 1007 M
[ [(Times-Roman) 140.0 0.0 true true 0 ( 50)]
] -46.7 MRshow
1.000 UL
LTb
LCb setrgbcolor
1.000 UL
LTa
LCa setrgbcolor
1546 1022 M
119 55 V
stroke
LTb
LCb setrgbcolor
1546 1022 M
60 28 V
stroke
LTb
LCb setrgbcolor
1467 962 M
[ [(Times-Roman) 140.0 0.0 true true 0 ( 100)]
] -46.7 MRshow
1.000 UL
LTb
LCb setrgbcolor
1.000 UL
LTa
LCa setrgbcolor
1844 977 M
17 8 V
stroke
LTb
LCb setrgbcolor
1844 977 M
17 8 V
stroke
LTb
LCb setrgbcolor
1764 916 M
[ [(Times-Roman) 140.0 0.0 true true 0 ( 150)]
] -46.7 MRshow
1.000 UL
LTb
LCb setrgbcolor
1.000 UL
LTa
LCa setrgbcolor
3915 1745 M
253 116 V
stroke
LTb
LCb setrgbcolor
2062 871 M
[ [(Times-Roman) 140.0 0.0 true true 0 ( 200)]
] -46.7 MRshow
1.000 UL
LTb
LCb setrgbcolor
1.000 UL
LTb
LCb setrgbcolor
4109 1834 M
59 27 V
stroke
LTa
LCa setrgbcolor
4213 1699 M
253 117 V
stroke
LTa
LCa setrgbcolor
2439 886 M
254 116 V
stroke
LTb
LCb setrgbcolor
2439 886 M
60 27 V
stroke
LTb
LCb setrgbcolor
2360 825 M
[ [(Times-Roman) 140.0 0.0 true true 0 ( 250)]
] -46.7 MRshow
1.000 UL
LTb
LCb setrgbcolor
1.000 UL
LTb
LCb setrgbcolor
4407 1788 M
59 28 V
stroke
LTa
LCa setrgbcolor
4510 1654 M
254 116 V
stroke
LTa
LCa setrgbcolor
2737 841 M
507 232 V
stroke
LTb
LCb setrgbcolor
2737 841 M
59 27 V
stroke
LTb
LCb setrgbcolor
2657 780 M
[ [(Times-Roman) 140.0 0.0 true true 0 ( 300)]
] -46.7 MRshow
1.000 UL
LTb
LCb setrgbcolor
1.000 UL
LTb
LCb setrgbcolor
4704 1743 M
60 27 V
stroke
LTa
LCa setrgbcolor
4554 1492 M
507 233 V
stroke
LTa
LCa setrgbcolor
3034 795 M
760 349 V
stroke
LTb
LCb setrgbcolor
3034 795 M
60 27 V
stroke
LTb
LCb setrgbcolor
2955 734 M
[ [(Times-Roman) 140.0 0.0 true true 0 ( 350)]
] -46.7 MRshow
1.000 UL
LTb
LCb setrgbcolor
1.000 UL
LTb
LCb setrgbcolor
5002 1697 M
59 28 V
stroke
LTa
LCa setrgbcolor
4852 1447 M
507 232 V
stroke
LTa
LCa setrgbcolor
3332 750 M
1013 464 V
stroke
LTb
LCb setrgbcolor
3332 750 M
60 27 V
stroke
LTb
LCb setrgbcolor
3253 689 M
[ [(Times-Roman) 140.0 0.0 true true 0 ( 400)]
] -46.7 MRshow
1.000 UL
LTb
LCb setrgbcolor
1.000 UL
LTb
LCb setrgbcolor
5300 1652 M
59 27 V
stroke
LTa
LCa setrgbcolor
5150 1401 M
507 233 V
stroke
LTa
LCa setrgbcolor
3630 704 M
1013 465 V
stroke
LTb
LCb setrgbcolor
3630 704 M
59 27 V
stroke
LTb
LCb setrgbcolor
3550 643 M
[ [(Times-Roman) 140.0 0.0 true true 0 ( 450)]
] -46.7 MRshow
1.000 UL
LTb
LCb setrgbcolor
1.000 UL
LTb
LCb setrgbcolor
5597 1606 M
60 28 V
stroke
LTa
LCa setrgbcolor
3926 659 M
2028 929 V
stroke
LTb
LCb setrgbcolor
3926 659 M
60 27 V
stroke
LTb
LCb setrgbcolor
3847 598 M
[ [(Times-Roman) 140.0 0.0 true true 0 ( 500)]
] -46.7 MRshow
1.000 UL
LTb
LCb setrgbcolor
1.000 UL
LTb
LCb setrgbcolor
5895 1561 M
59 27 V
stroke
LCb setrgbcolor
2260 604 M
[ [(Times-Roman) 140.0 0.0 true true 0 (Max iterations)]
] -46.7 MCshow
LTb
1.000 UL
LTa
LCa setrgbcolor
2140 932 M
1010 1104 L
stroke
LTa
LCa setrgbcolor
4522 568 M
2439 886 L
stroke
LTb
LCb setrgbcolor
4522 568 M
-55 8 V
stroke
4595 549 M
[ [(Times-Roman) 140.0 0.0 true true 0 ( 10)]
] -46.7 MCshow
1.000 UL
LTb
LCb setrgbcolor
1.000 UL
LTb
LCb setrgbcolor
1065 1096 M
-55 8 V
stroke
LTa
LCa setrgbcolor
1587 1171 M
-323 50 V
stroke
LTa
LCa setrgbcolor
4775 684 M
2693 1002 L
stroke
LTb
LCb setrgbcolor
4775 684 M
-54 8 V
stroke
4848 665 M
[ [(Times-Roman) 140.0 0.0 true true 0 ( 20)]
] -46.7 MCshow
1.000 UL
LTb
LCb setrgbcolor
1.000 UL
LTb
LCb setrgbcolor
1318 1212 M
-54 9 V
stroke
LTa
LCa setrgbcolor
5029 800 M
3244 1073 L
stroke
LTb
LCb setrgbcolor
5029 800 M
-55 8 V
stroke
5102 782 M
[ [(Times-Roman) 140.0 0.0 true true 0 ( 30)]
] -46.7 MCshow
1.000 UL
LTb
LCb setrgbcolor
1.000 UL
LTa
LCa setrgbcolor
5282 916 M
3616 1171 L
stroke
LTb
LCb setrgbcolor
5282 916 M
-54 9 V
stroke
5355 898 M
[ [(Times-Roman) 140.0 0.0 true true 0 ( 40)]
] -46.7 MCshow
1.000 UL
LTb
LCb setrgbcolor
1.000 UL
LTa
LCa setrgbcolor
5536 1032 M
4166 1242 L
stroke
LTb
LCb setrgbcolor
5536 1032 M
-55 9 V
stroke
5609 1014 M
[ [(Times-Roman) 140.0 0.0 true true 0 ( 50)]
] -46.7 MCshow
1.000 UL
LTb
LCb setrgbcolor
1.000 UL
LTa
LCa setrgbcolor
5789 1149 M
-833 127 V
stroke
LTb
LCb setrgbcolor
5789 1149 M
-54 8 V
stroke
5862 1130 M
[ [(Times-Roman) 140.0 0.0 true true 0 ( 60)]
] -46.7 MCshow
1.000 UL
LTb
LCb setrgbcolor
1.000 UL
LTa
LCa setrgbcolor
6043 1265 M
4316 1529 L
stroke
LTb
LCb setrgbcolor
6043 1265 M
-55 8 V
stroke
6116 1246 M
[ [(Times-Roman) 140.0 0.0 true true 0 ( 70)]
] -46.7 MCshow
1.000 UL
LTb
LCb setrgbcolor
1.000 UL
LTa
LCa setrgbcolor
6296 1381 M
3915 1745 L
stroke
LTb
LCb setrgbcolor
6296 1381 M
-54 8 V
stroke
6369 1363 M
[ [(Times-Roman) 140.0 0.0 true true 0 ( 80)]
] -46.7 MCshow
1.000 UL
LTb
LCb setrgbcolor
1.000 UL
LTa
LCa setrgbcolor
6550 1497 M
3753 1925 L
stroke
LTb
LCb setrgbcolor
6550 1497 M
-55 9 V
stroke
6623 1479 M
[ [(Times-Roman) 140.0 0.0 true true 0 ( 90)]
] -46.7 MCshow
1.000 UL
LTb
LCb setrgbcolor
LCb setrgbcolor
6414 758 M
[ [(Times-Roman) 140.0 0.0 true true 0 (		Probability of incompleteness p1)]
] -46.7 MCshow
LTb
1.000 UL
LTa
LCa setrgbcolor
1010 1104 M
486 223 V
stroke
LTa
LCa setrgbcolor
6550 1497 M
3753 1925 L
stroke
LTb
LCb setrgbcolor
1073 1104 M
-63 0 V
stroke
884 1104 M
[ [(Times-Roman) 140.0 0.0 true true 0 ( 0)]
] -46.7 MRshow
1.000 UL
LTb
LCb setrgbcolor
1.000 UL
LTa
LCa setrgbcolor
1010 1311 M
407 187 V
stroke
LTa
LCa setrgbcolor
6550 1704 M
3536 2165 L
stroke
LTb
LCb setrgbcolor
1073 1311 M
-63 0 V
stroke
884 1311 M
[ [(Times-Roman) 140.0 0.0 true true 0 ( 10)]
] -46.7 MRshow
1.000 UL
LTb
LCb setrgbcolor
1.000 UL
LTa
LCa setrgbcolor
1010 1518 M
341 156 V
stroke
LTa
LCa setrgbcolor
6550 1910 M
3470 2380 L
stroke
LTb
LCb setrgbcolor
1073 1518 M
-63 0 V
stroke
884 1518 M
[ [(Times-Roman) 140.0 0.0 true true 0 ( 20)]
] -46.7 MRshow
1.000 UL
LTb
LCb setrgbcolor
1.000 UL
LTa
LCa setrgbcolor
1010 1724 M
282 129 V
stroke
LTa
LCa setrgbcolor
6550 2117 M
3406 2597 L
stroke
LTb
LCb setrgbcolor
1073 1724 M
-63 0 V
stroke
884 1724 M
[ [(Times-Roman) 140.0 0.0 true true 0 ( 30)]
] -46.7 MRshow
1.000 UL
LTb
LCb setrgbcolor
1.000 UL
LTa
LCa setrgbcolor
1010 1931 M
228 104 V
stroke
LTa
LCa setrgbcolor
6550 2323 M
3341 2813 L
stroke
LTb
LCb setrgbcolor
1073 1931 M
-63 0 V
stroke
884 1931 M
[ [(Times-Roman) 140.0 0.0 true true 0 ( 40)]
] -46.7 MRshow
1.000 UL
LTb
LCb setrgbcolor
1.000 UL
LTa
LCa setrgbcolor
1010 2137 M
179 82 V
stroke
LTa
LCa setrgbcolor
6550 2529 M
3278 3029 L
stroke
LTb
LCb setrgbcolor
1073 2137 M
-63 0 V
stroke
884 2137 M
[ [(Times-Roman) 140.0 0.0 true true 0 ( 50)]
] -46.7 MRshow
1.000 UL
LTb
LCb setrgbcolor
1.000 UL
LTa
LCa setrgbcolor
1010 2343 M
130 59 V
stroke
LTa
LCa setrgbcolor
6550 2736 M
3215 3246 L
stroke
LTb
LCb setrgbcolor
1073 2343 M
-63 0 V
stroke
884 2343 M
[ [(Times-Roman) 140.0 0.0 true true 0 ( 60)]
] -46.7 MRshow
1.000 UL
LTb
LCb setrgbcolor
1.000 UL
LTa
LCa setrgbcolor
1010 2550 M
83 37 V
stroke
LTa
LCa setrgbcolor
6550 2942 M
3153 3462 L
stroke
LTb
LCb setrgbcolor
1073 2550 M
-63 0 V
stroke
884 2550 M
[ [(Times-Roman) 140.0 0.0 true true 0 ( 70)]
] -46.7 MRshow
1.000 UL
LTb
LCb setrgbcolor
1.000 UL
LTa
LCa setrgbcolor
1010 2756 M
35 16 V
stroke
LTa
LCa setrgbcolor
6550 3149 M
3092 3678 L
stroke
LTb
LCb setrgbcolor
1049 2756 M
-39 0 V
stroke
LTb
LCb setrgbcolor
1065 2756 M
8 0 V
stroke
884 2756 M
[ [(Times-Roman) 140.0 0.0 true true 0 ( 80)]
] -46.7 MRshow
1.000 UL
LTb
LCb setrgbcolor
1.000 UL
LTa
LCa setrgbcolor
1010 2963 M
2028 929 V
stroke
LTa
LCa setrgbcolor
6550 3356 M
3038 3892 L
stroke
LTb
LCb setrgbcolor
1073 2963 M
-63 0 V
stroke
884 2963 M
[ [(Times-Roman) 140.0 0.0 true true 0 ( 90)]
] -46.7 MRshow
1.000 UL
LTb
LCb setrgbcolor
LCb setrgbcolor
422 2034 M
currentpoint gsave translate 90 rotate 0 0 moveto
[ [(Times-Roman) 140.0 0.0 true true 0 (Average number of blocking pairs)]
] -46.7 MCshow
grestore
LTb
stroke gsave	%% draw gray scale smooth box
maxcolors 0 gt {/imax maxcolors def} {/imax 1024 def} ifelse
6655 1914 translate 280 1383 scale 0 setlinewidth
/ystep 1 imax div def /y0 0 def /ii 0 def
{ y0 g 0 y0 N 1 0 V 0 ystep V -1 0 f
/y0 y0 ystep add def /ii ii 1 add def
ii imax ge {exit} if } loop
grestore 0 setgray
1.000 UL
LTb
LCb setrgbcolor
6655 1914 N
280 0 V
0 1383 V
-280 0 V
0 -1383 V
Z stroke
1.000 UL
LTb
LCb setrgbcolor
1.000 UL
LTb
LCb setrgbcolor
6935 1914 M
-63 0 V
stroke
7019 1914 M
[ [(Times-Roman) 140.0 0.0 true true 0 ( 0)]
] -46.7 MLshow
1.000 UL
LTb
LCb setrgbcolor
6655 1914 M
63 0 V
217 153 R
-63 0 V
stroke
7019 2067 M
[ [(Times-Roman) 140.0 0.0 true true 0 ( 10)]
] -46.7 MLshow
1.000 UL
LTb
LCb setrgbcolor
6655 2067 M
63 0 V
217 154 R
-63 0 V
stroke
7019 2221 M
[ [(Times-Roman) 140.0 0.0 true true 0 ( 20)]
] -46.7 MLshow
1.000 UL
LTb
LCb setrgbcolor
6655 2221 M
63 0 V
217 154 R
-63 0 V
stroke
7019 2375 M
[ [(Times-Roman) 140.0 0.0 true true 0 ( 30)]
] -46.7 MLshow
1.000 UL
LTb
LCb setrgbcolor
6655 2375 M
63 0 V
217 153 R
-63 0 V
stroke
7019 2528 M
[ [(Times-Roman) 140.0 0.0 true true 0 ( 40)]
] -46.7 MLshow
1.000 UL
LTb
LCb setrgbcolor
6655 2528 M
63 0 V
217 154 R
-63 0 V
stroke
7019 2682 M
[ [(Times-Roman) 140.0 0.0 true true 0 ( 50)]
] -46.7 MLshow
1.000 UL
LTb
LCb setrgbcolor
6655 2682 M
63 0 V
217 154 R
-63 0 V
stroke
7019 2836 M
[ [(Times-Roman) 140.0 0.0 true true 0 ( 60)]
] -46.7 MLshow
1.000 UL
LTb
LCb setrgbcolor
6655 2836 M
63 0 V
217 153 R
-63 0 V
stroke
7019 2989 M
[ [(Times-Roman) 140.0 0.0 true true 0 ( 70)]
] -46.7 MLshow
1.000 UL
LTb
LCb setrgbcolor
6655 2989 M
63 0 V
217 154 R
-63 0 V
stroke
7019 3143 M
[ [(Times-Roman) 140.0 0.0 true true 0 ( 80)]
] -46.7 MLshow
1.000 UL
LTb
LCb setrgbcolor
6655 3143 M
63 0 V
217 154 R
-63 0 V
stroke
7019 3297 M
[ [(Times-Roman) 140.0 0.0 true true 0 ( 90)]
] -46.7 MLshow
1.000 UL
LTb
LCb setrgbcolor
6655 3297 M
63 0 V
1.000 UP
stroke
grestore % colour palette end
stroke
grestore
end
showpage
%%Trailer
%%DocumentFonts: Times-Roman
