%!PS-Adobe-2.0 EPSF-2.0
%%Title: AS-SMTI-Runtime-vP2-P1-50.eps
%%Creator: gnuplot 4.6 patchlevel 6
%%CreationDate: Wed Apr 22 14:22:05 2015
%%DocumentFonts: (atend)
%%BoundingBox: 50 50 410 194
%%EndComments
%%BeginProlog
/gnudict 256 dict def
gnudict begin
%
% The following true/false flags may be edited by hand if desired.
% The unit line width and grayscale image gamma correction may also be changed.
%
/Color true def
/Blacktext false def
/Solid false def
/Dashlength 1 def
/Landscape false def
/Level1 false def
/Rounded false def
/ClipToBoundingBox false def
/SuppressPDFMark false def
/TransparentPatterns false def
/gnulinewidth 5.000 def
/userlinewidth gnulinewidth def
/Gamma 1.0 def
/BackgroundColor {-1.000 -1.000 -1.000} def
%
/vshift -40 def
/dl1 {
  10.0 Dashlength mul mul
  Rounded { currentlinewidth 0.75 mul sub dup 0 le { pop 0.01 } if } if
} def
/dl2 {
  10.0 Dashlength mul mul
  Rounded { currentlinewidth 0.75 mul add } if
} def
/hpt_ 31.5 def
/vpt_ 31.5 def
/hpt hpt_ def
/vpt vpt_ def
/doclip {
  ClipToBoundingBox {
    newpath 50 50 moveto 410 50 lineto 410 194 lineto 50 194 lineto closepath
    clip
  } if
} def
%
% Gnuplot Prolog Version 4.6 (September 2012)
%
%/SuppressPDFMark true def
%
/M {moveto} bind def
/L {lineto} bind def
/R {rmoveto} bind def
/V {rlineto} bind def
/N {newpath moveto} bind def
/Z {closepath} bind def
/C {setrgbcolor} bind def
/f {rlineto fill} bind def
/g {setgray} bind def
/Gshow {show} def   % May be redefined later in the file to support UTF-8
/vpt2 vpt 2 mul def
/hpt2 hpt 2 mul def
/Lshow {currentpoint stroke M 0 vshift R 
	Blacktext {gsave 0 setgray show grestore} {show} ifelse} def
/Rshow {currentpoint stroke M dup stringwidth pop neg vshift R
	Blacktext {gsave 0 setgray show grestore} {show} ifelse} def
/Cshow {currentpoint stroke M dup stringwidth pop -2 div vshift R 
	Blacktext {gsave 0 setgray show grestore} {show} ifelse} def
/UP {dup vpt_ mul /vpt exch def hpt_ mul /hpt exch def
  /hpt2 hpt 2 mul def /vpt2 vpt 2 mul def} def
/DL {Color {setrgbcolor Solid {pop []} if 0 setdash}
 {pop pop pop 0 setgray Solid {pop []} if 0 setdash} ifelse} def
/BL {stroke userlinewidth 2 mul setlinewidth
	Rounded {1 setlinejoin 1 setlinecap} if} def
/AL {stroke userlinewidth 2 div setlinewidth
	Rounded {1 setlinejoin 1 setlinecap} if} def
/UL {dup gnulinewidth mul /userlinewidth exch def
	dup 1 lt {pop 1} if 10 mul /udl exch def} def
/PL {stroke userlinewidth setlinewidth
	Rounded {1 setlinejoin 1 setlinecap} if} def
3.8 setmiterlimit
% Default Line colors
/LCw {1 1 1} def
/LCb {0 0 0} def
/LCa {0 0 0} def
/LC0 {1 0 0} def
/LC1 {0 1 0} def
/LC2 {0 0 1} def
/LC3 {1 0 1} def
/LC4 {0 1 1} def
/LC5 {1 1 0} def
/LC6 {0 0 0} def
/LC7 {1 0.3 0} def
/LC8 {0.5 0.5 0.5} def
% Default Line Types
/LTw {PL [] 1 setgray} def
/LTb {BL [] LCb DL} def
/LTa {AL [1 udl mul 2 udl mul] 0 setdash LCa setrgbcolor} def
/LT0 {PL [] LC0 DL} def
/LT1 {PL [4 dl1 2 dl2] LC1 DL} def
/LT2 {PL [2 dl1 3 dl2] LC2 DL} def
/LT3 {PL [1 dl1 1.5 dl2] LC3 DL} def
/LT4 {PL [6 dl1 2 dl2 1 dl1 2 dl2] LC4 DL} def
/LT5 {PL [3 dl1 3 dl2 1 dl1 3 dl2] LC5 DL} def
/LT6 {PL [2 dl1 2 dl2 2 dl1 6 dl2] LC6 DL} def
/LT7 {PL [1 dl1 2 dl2 6 dl1 2 dl2 1 dl1 2 dl2] LC7 DL} def
/LT8 {PL [2 dl1 2 dl2 2 dl1 2 dl2 2 dl1 2 dl2 2 dl1 4 dl2] LC8 DL} def
/Pnt {stroke [] 0 setdash gsave 1 setlinecap M 0 0 V stroke grestore} def
/Dia {stroke [] 0 setdash 2 copy vpt add M
  hpt neg vpt neg V hpt vpt neg V
  hpt vpt V hpt neg vpt V closepath stroke
  Pnt} def
/Pls {stroke [] 0 setdash vpt sub M 0 vpt2 V
  currentpoint stroke M
  hpt neg vpt neg R hpt2 0 V stroke
 } def
/Box {stroke [] 0 setdash 2 copy exch hpt sub exch vpt add M
  0 vpt2 neg V hpt2 0 V 0 vpt2 V
  hpt2 neg 0 V closepath stroke
  Pnt} def
/Crs {stroke [] 0 setdash exch hpt sub exch vpt add M
  hpt2 vpt2 neg V currentpoint stroke M
  hpt2 neg 0 R hpt2 vpt2 V stroke} def
/TriU {stroke [] 0 setdash 2 copy vpt 1.12 mul add M
  hpt neg vpt -1.62 mul V
  hpt 2 mul 0 V
  hpt neg vpt 1.62 mul V closepath stroke
  Pnt} def
/Star {2 copy Pls Crs} def
/BoxF {stroke [] 0 setdash exch hpt sub exch vpt add M
  0 vpt2 neg V hpt2 0 V 0 vpt2 V
  hpt2 neg 0 V closepath fill} def
/TriUF {stroke [] 0 setdash vpt 1.12 mul add M
  hpt neg vpt -1.62 mul V
  hpt 2 mul 0 V
  hpt neg vpt 1.62 mul V closepath fill} def
/TriD {stroke [] 0 setdash 2 copy vpt 1.12 mul sub M
  hpt neg vpt 1.62 mul V
  hpt 2 mul 0 V
  hpt neg vpt -1.62 mul V closepath stroke
  Pnt} def
/TriDF {stroke [] 0 setdash vpt 1.12 mul sub M
  hpt neg vpt 1.62 mul V
  hpt 2 mul 0 V
  hpt neg vpt -1.62 mul V closepath fill} def
/DiaF {stroke [] 0 setdash vpt add M
  hpt neg vpt neg V hpt vpt neg V
  hpt vpt V hpt neg vpt V closepath fill} def
/Pent {stroke [] 0 setdash 2 copy gsave
  translate 0 hpt M 4 {72 rotate 0 hpt L} repeat
  closepath stroke grestore Pnt} def
/PentF {stroke [] 0 setdash gsave
  translate 0 hpt M 4 {72 rotate 0 hpt L} repeat
  closepath fill grestore} def
/Circle {stroke [] 0 setdash 2 copy
  hpt 0 360 arc stroke Pnt} def
/CircleF {stroke [] 0 setdash hpt 0 360 arc fill} def
/C0 {BL [] 0 setdash 2 copy moveto vpt 90 450 arc} bind def
/C1 {BL [] 0 setdash 2 copy moveto
	2 copy vpt 0 90 arc closepath fill
	vpt 0 360 arc closepath} bind def
/C2 {BL [] 0 setdash 2 copy moveto
	2 copy vpt 90 180 arc closepath fill
	vpt 0 360 arc closepath} bind def
/C3 {BL [] 0 setdash 2 copy moveto
	2 copy vpt 0 180 arc closepath fill
	vpt 0 360 arc closepath} bind def
/C4 {BL [] 0 setdash 2 copy moveto
	2 copy vpt 180 270 arc closepath fill
	vpt 0 360 arc closepath} bind def
/C5 {BL [] 0 setdash 2 copy moveto
	2 copy vpt 0 90 arc
	2 copy moveto
	2 copy vpt 180 270 arc closepath fill
	vpt 0 360 arc} bind def
/C6 {BL [] 0 setdash 2 copy moveto
	2 copy vpt 90 270 arc closepath fill
	vpt 0 360 arc closepath} bind def
/C7 {BL [] 0 setdash 2 copy moveto
	2 copy vpt 0 270 arc closepath fill
	vpt 0 360 arc closepath} bind def
/C8 {BL [] 0 setdash 2 copy moveto
	2 copy vpt 270 360 arc closepath fill
	vpt 0 360 arc closepath} bind def
/C9 {BL [] 0 setdash 2 copy moveto
	2 copy vpt 270 450 arc closepath fill
	vpt 0 360 arc closepath} bind def
/C10 {BL [] 0 setdash 2 copy 2 copy moveto vpt 270 360 arc closepath fill
	2 copy moveto
	2 copy vpt 90 180 arc closepath fill
	vpt 0 360 arc closepath} bind def
/C11 {BL [] 0 setdash 2 copy moveto
	2 copy vpt 0 180 arc closepath fill
	2 copy moveto
	2 copy vpt 270 360 arc closepath fill
	vpt 0 360 arc closepath} bind def
/C12 {BL [] 0 setdash 2 copy moveto
	2 copy vpt 180 360 arc closepath fill
	vpt 0 360 arc closepath} bind def
/C13 {BL [] 0 setdash 2 copy moveto
	2 copy vpt 0 90 arc closepath fill
	2 copy moveto
	2 copy vpt 180 360 arc closepath fill
	vpt 0 360 arc closepath} bind def
/C14 {BL [] 0 setdash 2 copy moveto
	2 copy vpt 90 360 arc closepath fill
	vpt 0 360 arc} bind def
/C15 {BL [] 0 setdash 2 copy vpt 0 360 arc closepath fill
	vpt 0 360 arc closepath} bind def
/Rec {newpath 4 2 roll moveto 1 index 0 rlineto 0 exch rlineto
	neg 0 rlineto closepath} bind def
/Square {dup Rec} bind def
/Bsquare {vpt sub exch vpt sub exch vpt2 Square} bind def
/S0 {BL [] 0 setdash 2 copy moveto 0 vpt rlineto BL Bsquare} bind def
/S1 {BL [] 0 setdash 2 copy vpt Square fill Bsquare} bind def
/S2 {BL [] 0 setdash 2 copy exch vpt sub exch vpt Square fill Bsquare} bind def
/S3 {BL [] 0 setdash 2 copy exch vpt sub exch vpt2 vpt Rec fill Bsquare} bind def
/S4 {BL [] 0 setdash 2 copy exch vpt sub exch vpt sub vpt Square fill Bsquare} bind def
/S5 {BL [] 0 setdash 2 copy 2 copy vpt Square fill
	exch vpt sub exch vpt sub vpt Square fill Bsquare} bind def
/S6 {BL [] 0 setdash 2 copy exch vpt sub exch vpt sub vpt vpt2 Rec fill Bsquare} bind def
/S7 {BL [] 0 setdash 2 copy exch vpt sub exch vpt sub vpt vpt2 Rec fill
	2 copy vpt Square fill Bsquare} bind def
/S8 {BL [] 0 setdash 2 copy vpt sub vpt Square fill Bsquare} bind def
/S9 {BL [] 0 setdash 2 copy vpt sub vpt vpt2 Rec fill Bsquare} bind def
/S10 {BL [] 0 setdash 2 copy vpt sub vpt Square fill 2 copy exch vpt sub exch vpt Square fill
	Bsquare} bind def
/S11 {BL [] 0 setdash 2 copy vpt sub vpt Square fill 2 copy exch vpt sub exch vpt2 vpt Rec fill
	Bsquare} bind def
/S12 {BL [] 0 setdash 2 copy exch vpt sub exch vpt sub vpt2 vpt Rec fill Bsquare} bind def
/S13 {BL [] 0 setdash 2 copy exch vpt sub exch vpt sub vpt2 vpt Rec fill
	2 copy vpt Square fill Bsquare} bind def
/S14 {BL [] 0 setdash 2 copy exch vpt sub exch vpt sub vpt2 vpt Rec fill
	2 copy exch vpt sub exch vpt Square fill Bsquare} bind def
/S15 {BL [] 0 setdash 2 copy Bsquare fill Bsquare} bind def
/D0 {gsave translate 45 rotate 0 0 S0 stroke grestore} bind def
/D1 {gsave translate 45 rotate 0 0 S1 stroke grestore} bind def
/D2 {gsave translate 45 rotate 0 0 S2 stroke grestore} bind def
/D3 {gsave translate 45 rotate 0 0 S3 stroke grestore} bind def
/D4 {gsave translate 45 rotate 0 0 S4 stroke grestore} bind def
/D5 {gsave translate 45 rotate 0 0 S5 stroke grestore} bind def
/D6 {gsave translate 45 rotate 0 0 S6 stroke grestore} bind def
/D7 {gsave translate 45 rotate 0 0 S7 stroke grestore} bind def
/D8 {gsave translate 45 rotate 0 0 S8 stroke grestore} bind def
/D9 {gsave translate 45 rotate 0 0 S9 stroke grestore} bind def
/D10 {gsave translate 45 rotate 0 0 S10 stroke grestore} bind def
/D11 {gsave translate 45 rotate 0 0 S11 stroke grestore} bind def
/D12 {gsave translate 45 rotate 0 0 S12 stroke grestore} bind def
/D13 {gsave translate 45 rotate 0 0 S13 stroke grestore} bind def
/D14 {gsave translate 45 rotate 0 0 S14 stroke grestore} bind def
/D15 {gsave translate 45 rotate 0 0 S15 stroke grestore} bind def
/DiaE {stroke [] 0 setdash vpt add M
  hpt neg vpt neg V hpt vpt neg V
  hpt vpt V hpt neg vpt V closepath stroke} def
/BoxE {stroke [] 0 setdash exch hpt sub exch vpt add M
  0 vpt2 neg V hpt2 0 V 0 vpt2 V
  hpt2 neg 0 V closepath stroke} def
/TriUE {stroke [] 0 setdash vpt 1.12 mul add M
  hpt neg vpt -1.62 mul V
  hpt 2 mul 0 V
  hpt neg vpt 1.62 mul V closepath stroke} def
/TriDE {stroke [] 0 setdash vpt 1.12 mul sub M
  hpt neg vpt 1.62 mul V
  hpt 2 mul 0 V
  hpt neg vpt -1.62 mul V closepath stroke} def
/PentE {stroke [] 0 setdash gsave
  translate 0 hpt M 4 {72 rotate 0 hpt L} repeat
  closepath stroke grestore} def
/CircE {stroke [] 0 setdash 
  hpt 0 360 arc stroke} def
/Opaque {gsave closepath 1 setgray fill grestore 0 setgray closepath} def
/DiaW {stroke [] 0 setdash vpt add M
  hpt neg vpt neg V hpt vpt neg V
  hpt vpt V hpt neg vpt V Opaque stroke} def
/BoxW {stroke [] 0 setdash exch hpt sub exch vpt add M
  0 vpt2 neg V hpt2 0 V 0 vpt2 V
  hpt2 neg 0 V Opaque stroke} def
/TriUW {stroke [] 0 setdash vpt 1.12 mul add M
  hpt neg vpt -1.62 mul V
  hpt 2 mul 0 V
  hpt neg vpt 1.62 mul V Opaque stroke} def
/TriDW {stroke [] 0 setdash vpt 1.12 mul sub M
  hpt neg vpt 1.62 mul V
  hpt 2 mul 0 V
  hpt neg vpt -1.62 mul V Opaque stroke} def
/PentW {stroke [] 0 setdash gsave
  translate 0 hpt M 4 {72 rotate 0 hpt L} repeat
  Opaque stroke grestore} def
/CircW {stroke [] 0 setdash 
  hpt 0 360 arc Opaque stroke} def
/BoxFill {gsave Rec 1 setgray fill grestore} def
/Density {
  /Fillden exch def
  currentrgbcolor
  /ColB exch def /ColG exch def /ColR exch def
  /ColR ColR Fillden mul Fillden sub 1 add def
  /ColG ColG Fillden mul Fillden sub 1 add def
  /ColB ColB Fillden mul Fillden sub 1 add def
  ColR ColG ColB setrgbcolor} def
/BoxColFill {gsave Rec PolyFill} def
/PolyFill {gsave Density fill grestore grestore} def
/h {rlineto rlineto rlineto gsave closepath fill grestore} bind def
%
% PostScript Level 1 Pattern Fill routine for rectangles
% Usage: x y w h s a XX PatternFill
%	x,y = lower left corner of box to be filled
%	w,h = width and height of box
%	  a = angle in degrees between lines and x-axis
%	 XX = 0/1 for no/yes cross-hatch
%
/PatternFill {gsave /PFa [ 9 2 roll ] def
  PFa 0 get PFa 2 get 2 div add PFa 1 get PFa 3 get 2 div add translate
  PFa 2 get -2 div PFa 3 get -2 div PFa 2 get PFa 3 get Rec
  TransparentPatterns {} {gsave 1 setgray fill grestore} ifelse
  clip
  currentlinewidth 0.5 mul setlinewidth
  /PFs PFa 2 get dup mul PFa 3 get dup mul add sqrt def
  0 0 M PFa 5 get rotate PFs -2 div dup translate
  0 1 PFs PFa 4 get div 1 add floor cvi
	{PFa 4 get mul 0 M 0 PFs V} for
  0 PFa 6 get ne {
	0 1 PFs PFa 4 get div 1 add floor cvi
	{PFa 4 get mul 0 2 1 roll M PFs 0 V} for
 } if
  stroke grestore} def
%
/languagelevel where
 {pop languagelevel} {1} ifelse
 2 lt
	{/InterpretLevel1 true def}
	{/InterpretLevel1 Level1 def}
 ifelse
%
% PostScript level 2 pattern fill definitions
%
/Level2PatternFill {
/Tile8x8 {/PaintType 2 /PatternType 1 /TilingType 1 /BBox [0 0 8 8] /XStep 8 /YStep 8}
	bind def
/KeepColor {currentrgbcolor [/Pattern /DeviceRGB] setcolorspace} bind def
<< Tile8x8
 /PaintProc {0.5 setlinewidth pop 0 0 M 8 8 L 0 8 M 8 0 L stroke} 
>> matrix makepattern
/Pat1 exch def
<< Tile8x8
 /PaintProc {0.5 setlinewidth pop 0 0 M 8 8 L 0 8 M 8 0 L stroke
	0 4 M 4 8 L 8 4 L 4 0 L 0 4 L stroke}
>> matrix makepattern
/Pat2 exch def
<< Tile8x8
 /PaintProc {0.5 setlinewidth pop 0 0 M 0 8 L
	8 8 L 8 0 L 0 0 L fill}
>> matrix makepattern
/Pat3 exch def
<< Tile8x8
 /PaintProc {0.5 setlinewidth pop -4 8 M 8 -4 L
	0 12 M 12 0 L stroke}
>> matrix makepattern
/Pat4 exch def
<< Tile8x8
 /PaintProc {0.5 setlinewidth pop -4 0 M 8 12 L
	0 -4 M 12 8 L stroke}
>> matrix makepattern
/Pat5 exch def
<< Tile8x8
 /PaintProc {0.5 setlinewidth pop -2 8 M 4 -4 L
	0 12 M 8 -4 L 4 12 M 10 0 L stroke}
>> matrix makepattern
/Pat6 exch def
<< Tile8x8
 /PaintProc {0.5 setlinewidth pop -2 0 M 4 12 L
	0 -4 M 8 12 L 4 -4 M 10 8 L stroke}
>> matrix makepattern
/Pat7 exch def
<< Tile8x8
 /PaintProc {0.5 setlinewidth pop 8 -2 M -4 4 L
	12 0 M -4 8 L 12 4 M 0 10 L stroke}
>> matrix makepattern
/Pat8 exch def
<< Tile8x8
 /PaintProc {0.5 setlinewidth pop 0 -2 M 12 4 L
	-4 0 M 12 8 L -4 4 M 8 10 L stroke}
>> matrix makepattern
/Pat9 exch def
/Pattern1 {PatternBgnd KeepColor Pat1 setpattern} bind def
/Pattern2 {PatternBgnd KeepColor Pat2 setpattern} bind def
/Pattern3 {PatternBgnd KeepColor Pat3 setpattern} bind def
/Pattern4 {PatternBgnd KeepColor Landscape {Pat5} {Pat4} ifelse setpattern} bind def
/Pattern5 {PatternBgnd KeepColor Landscape {Pat4} {Pat5} ifelse setpattern} bind def
/Pattern6 {PatternBgnd KeepColor Landscape {Pat9} {Pat6} ifelse setpattern} bind def
/Pattern7 {PatternBgnd KeepColor Landscape {Pat8} {Pat7} ifelse setpattern} bind def
} def
%
%
%End of PostScript Level 2 code
%
/PatternBgnd {
  TransparentPatterns {} {gsave 1 setgray fill grestore} ifelse
} def
%
% Substitute for Level 2 pattern fill codes with
% grayscale if Level 2 support is not selected.
%
/Level1PatternFill {
/Pattern1 {0.250 Density} bind def
/Pattern2 {0.500 Density} bind def
/Pattern3 {0.750 Density} bind def
/Pattern4 {0.125 Density} bind def
/Pattern5 {0.375 Density} bind def
/Pattern6 {0.625 Density} bind def
/Pattern7 {0.875 Density} bind def
} def
%
% Now test for support of Level 2 code
%
Level1 {Level1PatternFill} {Level2PatternFill} ifelse
%
/Symbol-Oblique /Symbol findfont [1 0 .167 1 0 0] makefont
dup length dict begin {1 index /FID eq {pop pop} {def} ifelse} forall
currentdict end definefont pop
/MFshow {
   { dup 5 get 3 ge
     { 5 get 3 eq {gsave} {grestore} ifelse }
     {dup dup 0 get findfont exch 1 get scalefont setfont
     [ currentpoint ] exch dup 2 get 0 exch R dup 5 get 2 ne {dup dup 6
     get exch 4 get {Gshow} {stringwidth pop 0 R} ifelse }if dup 5 get 0 eq
     {dup 3 get {2 get neg 0 exch R pop} {pop aload pop M} ifelse} {dup 5
     get 1 eq {dup 2 get exch dup 3 get exch 6 get stringwidth pop -2 div
     dup 0 R} {dup 6 get stringwidth pop -2 div 0 R 6 get
     show 2 index {aload pop M neg 3 -1 roll neg R pop pop} {pop pop pop
     pop aload pop M} ifelse }ifelse }ifelse }
     ifelse }
   forall} def
/Gswidth {dup type /stringtype eq {stringwidth} {pop (n) stringwidth} ifelse} def
/MFwidth {0 exch { dup 5 get 3 ge { 5 get 3 eq { 0 } { pop } ifelse }
 {dup 3 get{dup dup 0 get findfont exch 1 get scalefont setfont
     6 get Gswidth pop add} {pop} ifelse} ifelse} forall} def
/MLshow { currentpoint stroke M
  0 exch R
  Blacktext {gsave 0 setgray MFshow grestore} {MFshow} ifelse } bind def
/MRshow { currentpoint stroke M
  exch dup MFwidth neg 3 -1 roll R
  Blacktext {gsave 0 setgray MFshow grestore} {MFshow} ifelse } bind def
/MCshow { currentpoint stroke M
  exch dup MFwidth -2 div 3 -1 roll R
  Blacktext {gsave 0 setgray MFshow grestore} {MFshow} ifelse } bind def
/XYsave    { [( ) 1 2 true false 3 ()] } bind def
/XYrestore { [( ) 1 2 true false 4 ()] } bind def
Level1 SuppressPDFMark or 
{} {
/SDict 10 dict def
systemdict /pdfmark known not {
  userdict /pdfmark systemdict /cleartomark get put
} if
SDict begin [
  /Title (AS-SMTI-Runtime-vP2-P1-50.eps)
  /Subject (gnuplot plot)
  /Creator (gnuplot 4.6 patchlevel 6)
  /Author (dannymunera)
%  /Producer (gnuplot)
%  /Keywords ()
  /CreationDate (Wed Apr 22 14:22:05 2015)
  /DOCINFO pdfmark
end
} ifelse
end
%%EndProlog
%%Page: 1 1
gnudict begin
gsave
doclip
50 50 translate
0.050 0.050 scale
0 setgray
newpath
(Times-Roman) findfont 120 scalefont setfont
BackgroundColor 0 lt 3 1 roll 0 lt exch 0 lt or or not {BackgroundColor C 1.000 0 0 7200.00 2880.00 BoxColFill} if
LCb setrgbcolor
LTb
gsave % colour palette begin
/maxcolors 0 def
/HSV2RGB {  exch dup 0.0 eq {pop exch pop dup dup} % achromatic gray
  { /HSVs exch def /HSVv exch def 6.0 mul dup floor dup 3 1 roll sub
     /HSVf exch def /HSVi exch cvi def /HSVp HSVv 1.0 HSVs sub mul def
	 /HSVq HSVv 1.0 HSVs HSVf mul sub mul def 
	 /HSVt HSVv 1.0 HSVs 1.0 HSVf sub mul sub mul def
	 /HSVi HSVi 6 mod def 0 HSVi eq {HSVv HSVt HSVp}
	 {1 HSVi eq {HSVq HSVv HSVp}{2 HSVi eq {HSVp HSVv HSVt}
	 {3 HSVi eq {HSVp HSVq HSVv}{4 HSVi eq {HSVt HSVp HSVv}
	 {HSVv HSVp HSVq} ifelse} ifelse} ifelse} ifelse} ifelse
  } ifelse} def
/Constrain {
  dup 0 lt {0 exch pop}{dup 1 gt {1 exch pop} if} ifelse} def
/YIQ2RGB {
  3 copy -1.702 mul exch -1.105 mul add add Constrain 4 1 roll
  3 copy -0.647 mul exch -0.272 mul add add Constrain 5 1 roll
  0.621 mul exch -0.956 mul add add Constrain 3 1 roll } def
/CMY2RGB {  1 exch sub exch 1 exch sub 3 2 roll 1 exch sub 3 1 roll exch } def
/XYZ2RGB {  3 copy -0.9017 mul exch -0.1187 mul add exch 0.0585 mul exch add
  Constrain 4 1 roll 3 copy -0.0279 mul exch 1.999 mul add exch
  -0.9844 mul add Constrain 5 1 roll -0.2891 mul exch -0.5338 mul add
  exch 1.91 mul exch add Constrain 3 1 roll} def
/SelectSpace {ColorSpace (HSV) eq {HSV2RGB}{ColorSpace (XYZ) eq {
  XYZ2RGB}{ColorSpace (CMY) eq {CMY2RGB}{ColorSpace (YIQ) eq {YIQ2RGB}
  if} ifelse} ifelse} ifelse} def
/InterpolatedColor false def
/pm3dround {maxcolors 0 gt {dup 1 ge
	{pop 1} {maxcolors mul floor maxcolors 1 sub div} ifelse} if} def
/pm3dGamma 1.0 1.5 Gamma mul div def
/ColorSpace (RGB) def
false { % COLOUR vs. GRAY map
  InterpolatedColor { %% Interpolation vs. RGB-Formula
    /g {stroke pm3dround /grayv exch def interpolate
        SelectSpace setrgbcolor} bind def
  }{
  /g {stroke pm3dround dup cF7 Constrain exch dup cF5 Constrain exch cF15 Constrain 
       SelectSpace setrgbcolor} bind def
  } ifelse
}{
  /g {stroke pm3dround pm3dGamma exp setgray} bind def
} ifelse
1.000 UL
LTb
LCb setrgbcolor
1.000 UP
LTb
1951 220 M
[ [(Times-Roman) 120.0 0.0 true true 0 (a\))]
] -40.0 MLshow
% Begin plot #1
% End plot #1
% Begin plot #2
1.000 UL
LT0
0.75 0.75 0.75 C 1.000 UL
LT0
0.75 0.75 0.75 C % End plot #2
.0093 g 2057 1199 N 91 48 66 -39 -91 -22 h
1.000 UL
LT0
0.75 0.75 0.75 C 2057 1199 M
66 -13 V
-91 -48 V
-66 39 V
91 22 V
.0307 g 1992 1213 N 91 22 65 -85 -91 49 h
stroke
LT0
0.75 0.75 0.75 C 1992 1213 M
65 -14 V
-91 -22 V
-65 85 V
91 -49 V
.0024 g 2123 1186 N 91 53 66 -19 -91 -48 h
stroke
LT0
0.75 0.75 0.75 C 2123 1186 M
66 -14 V
-91 -53 V
-66 19 V
91 48 V
.0663 g 1926 1227 N 91 -49 66 -102 -91 137 h
stroke
LT0
0.75 0.75 0.75 C 1926 1227 M
66 -14 V
-91 49 V
-66 102 V
91 -137 V
.0008 g 2189 1172 N 91 56 65 -16 -91 -53 h
stroke
LT0
0.75 0.75 0.75 C 2189 1172 M
65 -13 V
-91 -56 V
-65 16 V
91 53 V
.0003 g 2254 1159 N 91 56 66 -14 -91 -56 h
stroke
LT0
0.75 0.75 0.75 C 2254 1159 M
66 -14 V
-91 -56 V
-66 14 V
91 56 V
.1073 g 1860 1240 N 91 -137 65 -109 -90 233 h
stroke
LT0
0.75 0.75 0.75 C 1860 1240 M
66 -13 V
-91 137 V
-65 109 V
90 -233 V
0 g 2320 1145 N 91 57 66 -14 -91 -56 h
stroke
LT0
0.75 0.75 0.75 C 2320 1145 M
66 -13 V
-91 -57 V
-66 14 V
91 56 V
.1522 g 1796 1254 N 90 -233 65 -119 -91 338 h
stroke
LT0
0.75 0.75 0.75 C 1796 1254 M
64 -14 V
-90 233 V
-65 119 V
91 -338 V
0 g 2386 1132 N 91 56 66 -13 -91 -57 h
stroke
LT0
0.75 0.75 0.75 C 2386 1132 M
66 -14 V
-91 -56 V
-66 13 V
91 57 V
0 g 2452 1118 N 91 57 65 -14 -91 -56 h
stroke
LT0
0.75 0.75 0.75 C 2452 1118 M
65 -13 V
-91 -57 V
-65 14 V
91 56 V
.0271 g 2032 1138 N 91 29 66 -64 -91 16 h
stroke
LT0
0.75 0.75 0.75 C 2032 1138 M
66 -19 V
-91 -29 V
-66 64 V
91 -16 V
.0105 g 2098 1119 N 90 44 66 -31 -91 -29 h
stroke
LT0
0.75 0.75 0.75 C 2098 1119 M
65 -16 V
-90 -44 V
-66 31 V
91 29 V
.2011 g 1730 1267 N 91 -338 66 -128 -91 453 h
stroke
LT0
0.75 0.75 0.75 C 1730 1267 M
66 -13 V
-91 338 V
-66 128 V
91 -453 V
.0586 g 1966 1177 N 91 -16 66 -74 -91 51 h
stroke
LT0
0.75 0.75 0.75 C 1966 1177 M
66 -39 V
-91 16 V
-66 74 V
91 -51 V
0 g 2517 1105 N 91 56 66 -13 -91 -57 h
stroke
LT0
0.75 0.75 0.75 C 2517 1105 M
66 -14 V
-91 -56 V
-66 13 V
91 57 V
.0044 g 2163 1103 N 91 51 65 -21 -90 -44 h
stroke
LT0
0.75 0.75 0.75 C 2163 1103 M
66 -14 V
-91 -51 V
-65 21 V
90 44 V
.1106 g 1901 1262 N 91 -51 65 -91 -91 57 h
stroke
LT0
0.75 0.75 0.75 C 1901 1262 M
65 -85 V
-91 51 V
-65 91 V
91 -57 V
0 g 2583 1091 N 91 57 66 -14 -91 -56 h
stroke
LT0
0.75 0.75 0.75 C 2583 1091 M
66 -13 V
-91 -57 V
-66 14 V
91 56 V
.0019 g 2229 1089 N 91 53 66 -16 -91 -51 h
stroke
LT0
0.75 0.75 0.75 C 2229 1089 M
66 -14 V
-91 -53 V
-66 16 V
91 51 V
.2529 g 1664 1283 N 91 -453 66 -131 -91 568 h
stroke
LT0
0.75 0.75 0.75 C 1664 1283 M
66 -16 V
-91 453 V
-66 131 V
91 -568 V
.1819 g 1835 1364 N 91 -57 65 -97 -90 52 h
stroke
LT0
0.75 0.75 0.75 C 1835 1364 M
66 -102 V
-91 57 V
-65 97 V
90 -52 V
0 g 2649 1078 N 91 56 65 -13 -91 -57 h
stroke
LT0
0.75 0.75 0.75 C 2649 1078 M
65 -14 V
-91 -56 V
-65 13 V
91 57 V
.001 g 2295 1075 N 91 55 66 -15 -91 -53 h
stroke
LT0
0.75 0.75 0.75 C 2295 1075 M
66 -13 V
-91 -55 V
-66 15 V
91 53 V
.262 g 1770 1473 N 90 -52 66 -105 -91 48 h
stroke
LT0
0.75 0.75 0.75 C 1770 1473 M
65 -109 V
-90 52 V
-66 105 V
91 -48 V
0 g 2714 1064 N 91 56 66 -14 -91 -56 h
stroke
LT0
0.75 0.75 0.75 C 2714 1064 M
66 -14 V
-91 -56 V
-66 14 V
91 56 V
.0005 g 2361 1062 N 91 55 65 -14 -91 -55 h
stroke
LT0
0.75 0.75 0.75 C 2361 1062 M
65 -14 V
-91 -55 V
-65 14 V
91 55 V
.3239 g 1599 1376 N 91 -568 65 -135 -91 610 h
stroke
LT0
0.75 0.75 0.75 C 1599 1376 M
65 -93 V
-91 568 V
-65 135 V
91 -610 V
0 g 2780 1050 N 91 56 66 -13 -91 -56 h
stroke
LT0
0.75 0.75 0.75 C 2780 1050 M
66 -13 V
-91 -56 V
-66 13 V
91 56 V
.0004 g 2426 1048 N 91 56 66 -14 -91 -55 h
stroke
LT0
0.75 0.75 0.75 C 2426 1048 M
66 -13 V
-91 -56 V
-66 14 V
91 55 V
.035 g 2007 1090 N 92 31 65 -52 -91 -10 h
stroke
LT0
0.75 0.75 0.75 C 2007 1090 M
66 -31 V
-92 -31 V
-65 52 V
91 10 V
.3493 g 1705 1592 N 91 -48 65 -113 -91 42 h
stroke
LT0
0.75 0.75 0.75 C 1705 1592 M
65 -119 V
-91 48 V
-65 113 V
91 -42 V
.0718 g 1941 1154 N 91 10 66 -73 -91 -1 h
stroke
LT0
0.75 0.75 0.75 C 1941 1154 M
66 -64 V
-91 -10 V
-66 73 V
91 1 V
.0166 g 2073 1059 N 91 43 66 -33 -92 -31 h
stroke
LT0
0.75 0.75 0.75 C 2073 1059 M
65 -21 V
-91 -43 V
-66 33 V
92 31 V
0 g 2846 1037 N 91 56 65 -14 -91 -56 h
stroke
LT0
0.75 0.75 0.75 C 2846 1037 M
65 -14 V
-91 -56 V
-65 14 V
91 56 V
.0003 g 2492 1035 N 91 56 66 -14 -91 -56 h
stroke
LT0
0.75 0.75 0.75 C 2492 1035 M
66 -14 V
-91 -56 V
-66 14 V
91 56 V
.1248 g 1875 1228 N 91 1 65 -81 -90 6 h
stroke
LT0
0.75 0.75 0.75 C 1875 1228 M
66 -74 V
-91 -1 V
-65 81 V
90 -6 V
.437 g 1533 1573 N 91 -610 66 -137 -91 550 h
stroke
LT0
0.75 0.75 0.75 C 1533 1573 M
66 -197 V
-91 610 V
-66 137 V
91 -550 V
.0083 g 2138 1038 N 91 49 66 -22 -91 -43 h
stroke
LT0
0.75 0.75 0.75 C 2138 1038 M
66 -16 V
-91 -49 V
-66 22 V
91 43 V
.4428 g 1639 1720 N 91 -42 66 -115 -91 29 h
stroke
LT0
0.75 0.75 0.75 C 1639 1720 M
66 -128 V
-91 42 V
-66 115 V
91 -29 V
.185 g 1810 1319 N 90 -6 65 -80 -90 -5 h
stroke
LT0
0.75 0.75 0.75 C 1810 1319 M
65 -91 V
-90 6 V
-65 80 V
90 5 V
0 g 2911 1023 N 91 57 66 -14 -91 -56 h
stroke
LT0
0.75 0.75 0.75 C 2911 1023 M
66 -13 V
-91 -57 V
-66 14 V
91 56 V
.0002 g 2558 1021 N 91 56 65 -13 -91 -56 h
stroke
LT0
0.75 0.75 0.75 C 2558 1021 M
65 -13 V
-91 -56 V
-65 13 V
91 56 V
.0046 g 2204 1022 N 91 52 66 -18 -91 -49 h
stroke
LT0
0.75 0.75 0.75 C 2204 1022 M
66 -15 V
-91 -52 V
-66 18 V
91 49 V
.2529 g 1745 1416 N 90 5 66 -93 -91 -9 h
stroke
LT0
0.75 0.75 0.75 C 1745 1416 M
65 -97 V
-90 -5 V
-66 93 V
91 9 V
0 g 2977 1010 N 91 56 66 -13 -91 -57 h
stroke
LT0
0.75 0.75 0.75 C 2977 1010 M
66 -14 V
-91 -56 V
-66 13 V
91 57 V
.0002 g 2623 1008 N 91 56 66 -14 -91 -56 h
stroke
LT0
0.75 0.75 0.75 C 2623 1008 M
66 -14 V
-91 -56 V
-66 14 V
91 56 V
.0027 g 2270 1007 N 91 54 65 -16 -91 -52 h
stroke
LT0
0.75 0.75 0.75 C 2270 1007 M
65 -14 V
-91 -54 V
-65 16 V
91 52 V
.5406 g 1573 1851 N 91 -29 66 -122 -91 20 h
stroke
LT0
0.75 0.75 0.75 C 1573 1851 M
66 -131 V
-91 29 V
-66 122 V
91 -20 V
.5756 g 1467 1774 N 91 -550 66 -143 -91 492 h
stroke
LT0
0.75 0.75 0.75 C 1467 1774 M
66 -201 V
-91 550 V
-66 143 V
91 -492 V
.3274 g 1679 1521 N 91 9 66 -93 -91 -21 h
stroke
LT0
0.75 0.75 0.75 C 1679 1521 M
66 -105 V
-91 -9 V
-66 93 V
91 21 V
.0001 g 2689 994 N 91 57 66 -14 -91 -56 h
stroke
LT0
0.75 0.75 0.75 C 2689 994 M
66 -13 V
-91 -57 V
-66 14 V
91 56 V
.0018 g 2335 993 N 91 54 66 -14 -91 -54 h
stroke
LT0
0.75 0.75 0.75 C 2335 993 M
66 -14 V
-91 -54 V
-66 14 V
91 54 V
.0634 g 1916 1080 N 91 29 65 -54 -91 -27 h
stroke
LT0
0.75 0.75 0.75 C 1916 1080 M
65 -52 V
-91 -29 V
-65 54 V
91 27 V
.4083 g 1614 1634 N 91 21 65 -106 -91 -28 h
stroke
LT0
0.75 0.75 0.75 C 1614 1634 M
65 -113 V
-91 -21 V
-65 106 V
91 28 V
0 g 2755 981 N 91 56 65 -13 -91 -57 h
stroke
LT0
0.75 0.75 0.75 C 2755 981 M
65 -14 V
-91 -56 V
-65 13 V
91 57 V
.6428 g 1508 1986 N 91 -20 65 -128 -91 13 h
stroke
LT0
0.75 0.75 0.75 C 1508 1986 M
65 -135 V
-91 20 V
-65 128 V
91 -13 V
.0014 g 2401 979 N 91 54 66 -14 -91 -54 h
stroke
LT0
0.75 0.75 0.75 C 2401 979 M
66 -14 V
-91 -54 V
-66 14 V
91 54 V
.0352 g 1981 1028 N 91 38 66 -42 -91 -29 h
stroke
LT0
0.75 0.75 0.75 C 1981 1028 M
66 -33 V
-91 -38 V
-66 42 V
91 29 V
.107 g 1850 1153 N 91 27 65 -71 -90 -29 h
stroke
LT0
0.75 0.75 0.75 C 1850 1153 M
66 -73 V
-91 -27 V
-65 71 V
90 29 V
.0189 g 2047 995 N 91 48 66 -32 -91 -38 h
stroke
LT0
0.75 0.75 0.75 C 2047 995 M
66 -22 V
-91 -48 V
-66 32 V
91 38 V
.1613 g 1785 1234 N 90 29 66 -74 -91 -36 h
stroke
LT0
0.75 0.75 0.75 C 1785 1234 M
65 -81 V
-90 -29 V
-66 74 V
91 36 V
0 g 2820 967 N 91 56 66 -14 -91 -56 h
stroke
LT0
0.75 0.75 0.75 C 2820 967 M
66 -14 V
-91 -56 V
-66 14 V
91 56 V
.0011 g 2467 965 N 91 55 65 -14 -91 -54 h
stroke
LT0
0.75 0.75 0.75 C 2467 965 M
65 -13 V
-91 -55 V
-65 14 V
91 54 V
.2192 g 1720 1314 N 91 36 65 -80 -91 -36 h
stroke
LT0
0.75 0.75 0.75 C 1720 1314 M
65 -80 V
-91 -36 V
-65 80 V
91 36 V
.4961 g 1548 1749 N 91 28 66 -116 -91 -27 h
stroke
LT0
0.75 0.75 0.75 C 1548 1749 M
66 -115 V
-91 -28 V
-66 116 V
91 27 V
.01 g 2113 973 N 91 53 66 -23 -91 -48 h
stroke
LT0
0.75 0.75 0.75 C 2113 973 M
66 -18 V
-91 -53 V
-66 23 V
91 48 V
0 g 2886 953 N 91 56 66 -13 -91 -56 h
stroke
LT0
0.75 0.75 0.75 C 2886 953 M
66 -13 V
-91 -56 V
-66 13 V
91 56 V
.7495 g 1442 2123 N 91 -13 66 -134 -91 10 h
stroke
LT0
0.75 0.75 0.75 C 1442 2123 M
66 -137 V
-91 13 V
-66 134 V
91 -10 V
.0009 g 2532 952 N 91 55 66 -14 -91 -55 h
stroke
LT0
0.75 0.75 0.75 C 2532 952 M
66 -14 V
-91 -55 V
-66 14 V
91 55 V
.2821 g 1654 1407 N 91 36 66 -85 -91 -44 h
stroke
LT0
0.75 0.75 0.75 C 1654 1407 M
66 -93 V
-91 -36 V
-66 85 V
91 44 V
.0055 g 2179 955 N 91 54 65 -17 -91 -53 h
stroke
LT0
0.75 0.75 0.75 C 2179 955 M
65 -16 V
-91 -54 V
-65 17 V
91 53 V
.5892 g 1482 1871 N 91 27 66 -121 -91 -28 h
stroke
LT0
0.75 0.75 0.75 C 1482 1871 M
66 -122 V
-91 -27 V
-66 121 V
91 28 V
.0005 g 2598 938 N 91 56 66 -15 -91 -55 h
stroke
LT0
0.75 0.75 0.75 C 2598 938 M
66 -14 V
-91 -56 V
-66 15 V
91 55 V
.353 g 1588 1500 N 91 44 66 -101 -91 -36 h
stroke
LT0
0.75 0.75 0.75 C 1588 1500 M
66 -93 V
-91 -44 V
-66 101 V
91 36 V
.0034 g 2244 939 N 91 56 66 -16 -91 -54 h
stroke
LT0
0.75 0.75 0.75 C 2244 939 M
66 -14 V
-91 -56 V
-66 16 V
91 54 V
.0002 g 2664 924 N 91 56 65 -13 -91 -56 h
stroke
LT0
0.75 0.75 0.75 C 2664 924 M
65 -13 V
-91 -56 V
-65 13 V
91 56 V
.8604 g 1376 2266 N 91 -10 66 -139 -91 6 h
stroke
LT0
0.75 0.75 0.75 C 1376 2266 M
66 -143 V
-91 10 V
-66 139 V
91 -6 V
.0024 g 2310 925 N 91 56 66 -14 -91 -56 h
stroke
LT0
0.75 0.75 0.75 C 2310 925 M
66 -14 V
-91 -56 V
-66 14 V
91 56 V
.4315 g 1523 1606 N 91 36 65 -106 -91 -36 h
stroke
LT0
0.75 0.75 0.75 C 1523 1606 M
65 -106 V
-91 -36 V
-65 106 V
91 36 V
.0863 g 1825 1053 N 90 35 65 -57 -90 -32 h
stroke
LT0
0.75 0.75 0.75 C 1825 1053 M
65 -54 V
-90 -35 V
-65 57 V
90 32 V
.053 g 1890 999 N 91 44 65 -51 -90 -35 h
stroke
LT0
0.75 0.75 0.75 C 1890 999 M
66 -42 V
-91 -44 V
-65 51 V
90 35 V
.6869 g 1417 1999 N 91 28 65 -124 -91 -32 h
stroke
LT0
0.75 0.75 0.75 C 1417 1999 M
65 -128 V
-91 -28 V
-65 124 V
91 32 V
.1295 g 1760 1124 N 90 32 66 -67 -91 -36 h
stroke
LT0
0.75 0.75 0.75 C 1760 1124 M
65 -71 V
-90 -32 V
-66 67 V
91 36 V
.0291 g 1956 957 N 91 50 66 -38 -91 -44 h
stroke
LT0
0.75 0.75 0.75 C 1956 957 M
66 -32 V
-91 -50 V
-66 38 V
91 44 V
.0001 g 2729 911 N 91 56 66 -14 -91 -56 h
stroke
LT0
0.75 0.75 0.75 C 2729 911 M
66 -14 V
-91 -56 V
-66 14 V
91 56 V
.1796 g 1694 1198 N 91 36 66 -69 -91 -41 h
stroke
LT0
0.75 0.75 0.75 C 1694 1198 M
66 -74 V
-91 -36 V
-66 69 V
91 41 V
.0018 g 2376 911 N 91 57 65 -15 -91 -56 h
stroke
LT0
0.75 0.75 0.75 C 2376 911 M
65 -14 V
-91 -57 V
-65 15 V
91 56 V
.0145 g 2022 925 N 91 54 66 -27 -91 -50 h
stroke
LT0
0.75 0.75 0.75 C 2022 925 M
66 -23 V
-91 -54 V
-66 27 V
91 50 V
.235 g 1629 1278 N 91 41 65 -80 -91 -41 h
stroke
LT0
0.75 0.75 0.75 C 1629 1278 M
65 -80 V
-91 -41 V
-65 80 V
91 41 V
.5169 g 1457 1722 N 91 36 66 -111 -91 -41 h
stroke
LT0
0.75 0.75 0.75 C 1457 1722 M
66 -116 V
-91 -36 V
-66 111 V
91 41 V
.0001 g 2795 897 N 91 57 66 -14 -91 -56 h
stroke
LT0
0.75 0.75 0.75 C 2795 897 M
66 -13 V
-91 -57 V
-66 14 V
91 56 V
.0012 g 2441 897 N 91 57 66 -14 -91 -57 h
stroke
LT0
0.75 0.75 0.75 C 2441 897 M
66 -14 V
-91 -57 V
-66 14 V
91 57 V
.0075 g 2088 902 N 91 55 65 -18 -91 -54 h
stroke
LT0
0.75 0.75 0.75 C 2088 902 M
65 -17 V
-91 -55 V
-65 18 V
91 54 V
.2969 g 1563 1363 N 91 41 66 -88 -91 -38 h
stroke
LT0
0.75 0.75 0.75 C 1563 1363 M
66 -85 V
-91 -41 V
-66 88 V
91 38 V
.7901 g 1351 2133 N 91 32 66 -133 -91 -33 h
stroke
LT0
0.75 0.75 0.75 C 1351 2133 M
66 -134 V
-91 -32 V
-66 133 V
91 33 V
.0007 g 2507 883 N 91 56 66 -14 -91 -57 h
stroke
LT0
0.75 0.75 0.75 C 2507 883 M
66 -15 V
-91 -56 V
-66 14 V
91 57 V
.6076 g 1391 1843 N 91 41 66 -115 -91 -47 h
stroke
LT0
0.75 0.75 0.75 C 1391 1843 M
66 -121 V
-91 -41 V
-66 115 V
91 47 V
.0044 g 2153 885 N 91 56 66 -17 -91 -55 h
stroke
LT0
0.75 0.75 0.75 C 2153 885 M
66 -16 V
-91 -56 V
-66 17 V
91 55 V
.367 g 1497 1464 N 91 38 66 -96 -91 -43 h
stroke
LT0
0.75 0.75 0.75 C 1497 1464 M
66 -101 V
-91 -38 V
-66 96 V
91 43 V
.0003 g 2573 868 N 91 57 65 -14 -91 -56 h
stroke
LT0
0.75 0.75 0.75 C 2573 868 M
65 -13 V
-91 -57 V
-65 14 V
91 56 V
.0028 g 2219 869 N 91 56 66 -14 -91 -56 h
stroke
LT0
0.75 0.75 0.75 C 2219 869 M
66 -14 V
-91 -56 V
-66 14 V
91 56 V
.8992 g 1285 2272 N 91 33 66 -139 -91 -33 h
stroke
LT0
0.75 0.75 0.75 C 1285 2272 M
66 -139 V
-91 -33 V
-66 139 V
91 33 V
.4449 g 1432 1570 N 91 43 65 -100 -91 -49 h
stroke
LT0
0.75 0.75 0.75 C 1432 1570 M
65 -106 V
-91 -43 V
-65 100 V
91 49 V
.0639 g 1800 964 N 90 52 65 -57 -90 -46 h
stroke
LT0
0.75 0.75 0.75 C 1800 964 M
65 -51 V
-90 -52 V
-65 57 V
90 46 V
.0002 g 2638 855 N 91 56 66 -13 -91 -57 h
stroke
LT0
0.75 0.75 0.75 C 2638 855 M
66 -14 V
-91 -56 V
-66 13 V
91 57 V
.1031 g 1735 1021 N 90 46 66 -67 -91 -36 h
stroke
LT0
0.75 0.75 0.75 C 1735 1021 M
65 -57 V
-90 -46 V
-66 67 V
91 36 V
.7035 g 1326 1967 N 91 47 65 -127 -91 -44 h
stroke
LT0
0.75 0.75 0.75 C 1326 1967 M
65 -124 V
-91 -47 V
-65 127 V
91 44 V
.035 g 1865 913 N 91 53 65 -39 -90 -52 h
stroke
LT0
0.75 0.75 0.75 C 1865 913 M
66 -38 V
-91 -53 V
-65 39 V
90 52 V
.002 g 2285 855 N 91 56 65 -15 -91 -56 h
stroke
LT0
0.75 0.75 0.75 C 2285 855 M
65 -15 V
-91 -56 V
-65 15 V
91 56 V
.1491 g 1669 1088 N 91 36 66 -71 -91 -32 h
stroke
LT0
0.75 0.75 0.75 C 1669 1088 M
66 -67 V
-91 -36 V
-66 71 V
91 32 V
.0184 g 1931 875 N 91 51 66 -25 -91 -53 h
stroke
LT0
0.75 0.75 0.75 C 1931 875 M
66 -27 V
-91 -51 V
-66 25 V
91 53 V
.1982 g 1603 1157 N 91 32 66 -68 -91 -33 h
stroke
LT0
0.75 0.75 0.75 C 1603 1157 M
66 -69 V
-91 -32 V
-66 68 V
91 33 V
.0002 g 2704 841 N 91 56 66 -14 -91 -56 h
stroke
LT0
0.75 0.75 0.75 C 2704 841 M
66 -14 V
-91 -56 V
-66 14 V
91 56 V
.528 g 1366 1681 N 91 49 66 -110 -91 -50 h
stroke
LT0
0.75 0.75 0.75 C 1366 1681 M
66 -111 V
-91 -49 V
-66 110 V
91 50 V
.0012 g 2350 840 N 91 56 66 -14 -91 -56 h
stroke
LT0
0.75 0.75 0.75 C 2350 840 M
66 -14 V
-91 -56 V
-66 14 V
91 56 V
.2508 g 1538 1237 N 91 33 65 -74 -91 -39 h
stroke
LT0
0.75 0.75 0.75 C 1538 1237 M
65 -80 V
-91 -33 V
-65 74 V
91 39 V
.0105 g 1997 848 N 91 52 65 -19 -91 -51 h
stroke
LT0
0.75 0.75 0.75 C 1997 848 M
65 -18 V
-91 -52 V
-65 19 V
91 51 V
.8057 g 1260 2100 N 91 44 66 -131 -91 -46 h
stroke
LT0
0.75 0.75 0.75 C 1260 2100 M
66 -133 V
-91 -44 V
-66 131 V
91 46 V
.3107 g 1472 1325 N 91 39 66 -83 -91 -44 h
stroke
LT0
0.75 0.75 0.75 C 1472 1325 M
66 -88 V
-91 -39 V
-66 83 V
91 44 V
.0008 g 2416 826 N 91 56 66 -14 -91 -56 h
stroke
LT0
0.75 0.75 0.75 C 2416 826 M
66 -14 V
-91 -56 V
-66 14 V
91 56 V
.0069 g 2062 830 N 91 51 66 -16 -91 -52 h
stroke
LT0
0.75 0.75 0.75 C 2062 830 M
66 -17 V
-91 -51 V
-66 16 V
91 52 V
.6163 g 1300 1796 N 91 50 66 -116 -91 -49 h
stroke
LT0
0.75 0.75 0.75 C 1300 1796 M
66 -115 V
-91 -50 V
-66 116 V
91 49 V
.3791 g 1406 1421 N 91 44 66 -96 -91 -44 h
stroke
LT0
0.75 0.75 0.75 C 1406 1421 M
66 -96 V
-91 -44 V
-66 96 V
91 44 V
.0005 g 2482 812 N 91 56 65 -14 -91 -56 h
stroke
LT0
0.75 0.75 0.75 C 2482 812 M
65 -14 V
-91 -56 V
-65 14 V
91 56 V
.0045 g 2128 813 N 91 55 66 -18 -91 -51 h
stroke
LT0
0.75 0.75 0.75 C 2128 813 M
66 -14 V
-91 -55 V
-66 18 V
91 51 V
.9147 g 1194 2239 N 91 46 66 -142 -91 -43 h
stroke
LT0
0.75 0.75 0.75 C 1194 2239 M
66 -139 V
-91 -46 V
-66 142 V
91 43 V
.4547 g 1341 1521 N 91 44 65 -101 -91 -43 h
stroke
LT0
0.75 0.75 0.75 C 1341 1521 M
65 -100 V
-91 -44 V
-65 101 V
91 43 V
.0003 g 2547 798 N 91 57 66 -14 -91 -56 h
stroke
LT0
0.75 0.75 0.75 C 2547 798 M
66 -13 V
-91 -57 V
-66 14 V
91 56 V
.0733 g 1710 918 N 91 40 65 -52 -91 -45 h
stroke
LT0
0.75 0.75 0.75 C 1710 918 M
65 -57 V
-91 -40 V
-65 52 V
91 45 V
.1134 g 1644 985 N 91 45 66 -60 -91 -52 h
stroke
LT0
0.75 0.75 0.75 C 1644 985 M
66 -67 V
-91 -45 V
-66 60 V
91 52 V
.7111 g 1235 1923 N 91 49 65 -124 -91 -52 h
stroke
LT0
0.75 0.75 0.75 C 1235 1923 M
65 -127 V
-91 -49 V
-65 124 V
91 52 V
.0029 g 2194 799 N 91 54 65 -14 -91 -55 h
stroke
LT0
0.75 0.75 0.75 C 2194 799 M
65 -15 V
-91 -54 V
-65 14 V
91 55 V
.1601 g 1578 1056 N 91 52 66 -67 -91 -56 h
stroke
LT0
0.75 0.75 0.75 C 1578 1056 M
66 -71 V
-91 -52 V
-66 67 V
91 56 V
.0447 g 1775 861 N 90 36 66 -35 -91 -40 h
stroke
LT0
0.75 0.75 0.75 C 1775 861 M
65 -39 V
-90 -36 V
-66 35 V
91 40 V
.2105 g 1512 1124 N 91 56 66 -75 -91 -49 h
stroke
LT0
0.75 0.75 0.75 C 1512 1124 M
66 -68 V
-91 -56 V
-66 75 V
91 49 V
.0271 g 1840 822 N 91 46 65 -35 -90 -36 h
stroke
LT0
0.75 0.75 0.75 C 1840 822 M
66 -25 V
-91 -46 V
-65 35 V
90 36 V
.0002 g 2613 785 N 91 56 66 -13 -91 -57 h
stroke
LT0
0.75 0.75 0.75 C 2613 785 M
66 -14 V
-91 -56 V
-66 13 V
91 57 V
.0022 g 2259 784 N 91 55 66 -15 -91 -54 h
stroke
LT0
0.75 0.75 0.75 C 2259 784 M
66 -14 V
-91 -55 V
-66 15 V
91 54 V
.5355 g 1275 1631 N 91 43 66 -104 -91 -49 h
stroke
LT0
0.75 0.75 0.75 C 1275 1631 M
66 -110 V
-91 -43 V
-66 104 V
91 49 V
.2641 g 1447 1198 N 91 49 65 -79 -91 -44 h
stroke
LT0
0.75 0.75 0.75 C 1447 1198 M
65 -74 V
-91 -49 V
-65 79 V
91 44 V
.0156 g 1906 797 N 91 53 65 -26 -91 -46 h
stroke
LT0
0.75 0.75 0.75 C 1906 797 M
65 -19 V
-91 -53 V
-65 26 V
91 46 V
.8137 g 1169 2054 N 91 52 66 -135 -91 -48 h
stroke
LT0
0.75 0.75 0.75 C 1169 2054 M
66 -131 V
-91 -52 V
-66 135 V
91 48 V
.0018 g 2325 770 N 91 55 66 -14 -91 -55 h
stroke
LT0
0.75 0.75 0.75 C 2325 770 M
66 -14 V
-91 -55 V
-66 14 V
91 55 V
.3227 g 1381 1281 N 91 44 66 -83 -91 -44 h
stroke
LT0
0.75 0.75 0.75 C 1381 1281 M
66 -83 V
-91 -44 V
-66 83 V
91 44 V
.0094 g 1971 778 N 91 57 66 -20 -91 -53 h
stroke
LT0
0.75 0.75 0.75 C 1971 778 M
66 -16 V
-91 -57 V
-66 20 V
91 53 V
.6223 g 1209 1747 N 91 49 66 -115 -91 -50 h
stroke
LT0
0.75 0.75 0.75 C 1209 1747 M
66 -116 V
-91 -49 V
-66 115 V
91 50 V
.0013 g 2391 756 N 91 55 65 -14 -91 -55 h
stroke
LT0
0.75 0.75 0.75 C 2391 756 M
65 -14 V
-91 -55 V
-65 14 V
91 55 V
.3897 g 1315 1377 N 91 44 66 -94 -91 -46 h
stroke
LT0
0.75 0.75 0.75 C 1315 1377 M
66 -96 V
-91 -44 V
-66 94 V
91 46 V
.0058 g 2037 762 N 91 56 66 -17 -91 -57 h
stroke
LT0
0.75 0.75 0.75 C 2037 762 M
66 -18 V
-91 -56 V
-66 17 V
91 57 V
.0008 g 2456 742 N 91 55 66 -14 -91 -55 h
stroke
LT0
0.75 0.75 0.75 C 2456 742 M
66 -14 V
-91 -55 V
-66 14 V
91 55 V
.9231 g 1103 2196 N 91 48 66 -139 -91 -51 h
stroke
LT0
0.75 0.75 0.75 C 1103 2196 M
66 -142 V
-91 -48 V
-66 139 V
91 51 V
.4642 g 1250 1478 N 91 46 65 -97 -91 -50 h
stroke
LT0
0.75 0.75 0.75 C 1250 1478 M
65 -101 V
-91 -46 V
-65 97 V
91 50 V
.081 g 1619 873 N 91 52 65 -51 -91 -53 h
stroke
LT0
0.75 0.75 0.75 C 1619 873 M
65 -52 V
-91 -52 V
-65 51 V
91 53 V
.7158 g 1144 1871 N 91 50 65 -121 -91 -53 h
stroke
LT0
0.75 0.75 0.75 C 1144 1871 M
65 -124 V
-91 -50 V
-65 121 V
91 53 V
.0037 g 2103 744 N 91 57 65 -15 -91 -56 h
stroke
LT0
0.75 0.75 0.75 C 2103 744 M
65 -14 V
-91 -57 V
-65 15 V
91 56 V
.1206 g 1553 933 N 91 53 66 -69 -91 -44 h
stroke
LT0
0.75 0.75 0.75 C 1553 933 M
66 -60 V
-91 -53 V
-66 69 V
91 44 V
.0536 g 1684 821 N 91 57 66 -40 -91 -52 h
stroke
LT0
0.75 0.75 0.75 C 1684 821 M
66 -35 V
-91 -57 V
-66 40 V
91 52 V
.1659 g 1487 1000 N 91 44 66 -63 -91 -48 h
stroke
LT0
0.75 0.75 0.75 C 1487 1000 M
66 -67 V
-91 -44 V
-66 63 V
91 48 V
.0005 g 2522 728 N 91 56 66 -14 -91 -55 h
stroke
LT0
0.75 0.75 0.75 C 2522 728 M
66 -13 V
-91 -56 V
-66 14 V
91 55 V
.0343 g 1750 786 N 90 53 66 -31 -91 -57 h
stroke
LT0
0.75 0.75 0.75 C 1750 786 M
65 -35 V
-90 -53 V
-66 31 V
91 57 V
.2151 g 1421 1075 N 91 48 66 -71 -91 -52 h
stroke
LT0
0.75 0.75 0.75 C 1421 1075 M
66 -75 V
-91 -48 V
-66 71 V
91 52 V
.0027 g 2168 730 N 91 57 66 -15 -91 -57 h
stroke
LT0
0.75 0.75 0.75 C 2168 730 M
66 -15 V
-91 -57 V
-66 15 V
91 57 V
.5441 g 1184 1582 N 91 50 66 -110 -91 -44 h
stroke
LT0
0.75 0.75 0.75 C 1184 1582 M
66 -104 V
-91 -50 V
-66 110 V
91 44 V
.2703 g 1356 1154 N 91 52 65 -78 -91 -53 h
stroke
LT0
0.75 0.75 0.75 C 1356 1154 M
65 -79 V
-91 -52 V
-65 78 V
91 53 V
.0195 g 1815 751 N 90 55 65 -28 -90 -53 h
stroke
LT0
0.75 0.75 0.75 C 1815 751 M
65 -26 V
-90 -55 V
-65 28 V
90 53 V
.8178 g 1078 2006 N 91 53 66 -134 -91 -54 h
stroke
LT0
0.75 0.75 0.75 C 1078 2006 M
66 -135 V
-91 -53 V
-66 134 V
91 54 V
.0021 g 2234 715 N 91 57 66 -14 -91 -57 h
stroke
LT0
0.75 0.75 0.75 C 2234 715 M
66 -14 V
-91 -57 V
-66 14 V
91 57 V
.3306 g 1290 1237 N 91 53 66 -87 -91 -49 h
stroke
LT0
0.75 0.75 0.75 C 1290 1237 M
66 -83 V
-91 -53 V
-66 87 V
91 49 V
.0106 g 1880 725 N 91 55 65 -20 -90 -55 h
stroke
LT0
0.75 0.75 0.75 C 1880 725 M
66 -20 V
-91 -55 V
-65 20 V
90 55 V
.6292 g 1118 1697 N 91 44 66 -108 -91 -51 h
stroke
LT0
0.75 0.75 0.75 C 1118 1697 M
66 -115 V
-91 -44 V
-66 108 V
91 51 V
.0015 g 2300 701 N 91 57 65 -14 -91 -57 h
stroke
LT0
0.75 0.75 0.75 C 2300 701 M
65 -14 V
-91 -57 V
-65 14 V
91 57 V
.3964 g 1224 1331 N 91 49 66 -86 -91 -57 h
stroke
LT0
0.75 0.75 0.75 C 1224 1331 M
66 -94 V
-91 -49 V
-66 86 V
91 57 V
.0064 g 1946 705 N 91 55 66 -17 -91 -55 h
stroke
LT0
0.75 0.75 0.75 C 1946 705 M
66 -17 V
-91 -55 V
-66 17 V
91 55 V
.001 g 2365 687 N 91 57 66 -14 -91 -57 h
stroke
LT0
0.75 0.75 0.75 C 2365 687 M
66 -14 V
-91 -57 V
-66 14 V
91 57 V
.9277 g 1012 2145 N 91 54 66 -141 -91 -52 h
stroke
LT0
0.75 0.75 0.75 C 1012 2145 M
66 -139 V
-91 -54 V
-66 141 V
91 52 V
.4682 g 1159 1428 N 91 57 65 -100 -91 -54 h
stroke
LT0
0.75 0.75 0.75 C 1159 1428 M
65 -97 V
-91 -57 V
-65 100 V
91 54 V
.0043 g 2012 688 N 91 55 65 -15 -91 -55 h
stroke
LT0
0.75 0.75 0.75 C 2012 688 M
65 -15 V
-91 -55 V
-65 15 V
91 55 V
.7206 g 1053 1818 N 91 51 65 -122 -91 -50 h
stroke
LT0
0.75 0.75 0.75 C 1053 1818 M
65 -121 V
-91 -51 V
-65 122 V
91 50 V
.0879 g 1528 820 N 91 45 65 -52 -91 -44 h
stroke
LT0
0.75 0.75 0.75 C 1528 820 M
65 -51 V
-91 -45 V
-65 52 V
91 44 V
.1271 g 1462 889 N 91 44 66 -58 -91 -55 h
stroke
LT0
0.75 0.75 0.75 C 1462 889 M
66 -69 V
-91 -44 V
-66 58 V
91 55 V
.0578 g 1593 769 N 91 52 66 -47 -91 -45 h
stroke
LT0
0.75 0.75 0.75 C 1593 769 M
66 -40 V
-91 -52 V
-66 47 V
91 45 V
.1718 g 1396 952 N 91 55 66 -66 -91 -52 h
stroke
LT0
0.75 0.75 0.75 C 1396 952 M
66 -63 V
-91 -55 V
-66 66 V
91 52 V
.0007 g 2431 673 N 91 57 66 -14 -91 -57 h
stroke
LT0
0.75 0.75 0.75 C 2431 673 M
66 -14 V
-91 -57 V
-66 14 V
91 57 V
.0364 g 1659 729 N 91 53 66 -32 -91 -52 h
stroke
LT0
0.75 0.75 0.75 C 1659 729 M
66 -31 V
-91 -53 V
-66 32 V
91 52 V
.003 g 2077 673 N 91 55 66 -15 -91 -55 h
stroke
LT0
0.75 0.75 0.75 C 2077 673 M
66 -15 V
-91 -55 V
-66 15 V
91 55 V
.2206 g 1330 1023 N 91 52 66 -74 -91 -49 h
stroke
LT0
0.75 0.75 0.75 C 1330 1023 M
66 -71 V
-91 -52 V
-66 74 V
91 49 V
.548 g 1093 1538 N 91 54 66 -106 -91 -58 h
stroke
LT0
0.75 0.75 0.75 C 1093 1538 M
66 -110 V
-91 -54 V
-66 106 V
91 58 V
.2742 g 1265 1101 N 91 49 65 -73 -91 -54 h
stroke
LT0
0.75 0.75 0.75 C 1265 1101 M
65 -78 V
-91 -49 V
-65 73 V
91 54 V
.022 g 1725 698 N 91 53 65 -28 -91 -53 h
stroke
LT0
0.75 0.75 0.75 C 1725 698 M
65 -28 V
-91 -53 V
-65 28 V
91 53 V
.002 g 2143 658 N 91 56 66 -15 -91 -55 h
stroke
LT0
0.75 0.75 0.75 C 2143 658 M
66 -14 V
-91 -56 V
-66 15 V
91 55 V
.8218 g 987 1952 N 91 50 66 -133 -91 -51 h
stroke
LT0
0.75 0.75 0.75 C 987 1952 M
66 -134 V
-91 -50 V
-66 133 V
91 51 V
.3339 g 1199 1188 N 91 54 66 -86 -91 -55 h
stroke
LT0
0.75 0.75 0.75 C 1199 1188 M
66 -87 V
-91 -54 V
-66 86 V
91 55 V
.0121 g 1790 670 N 90 56 66 -23 -91 -53 h
stroke
LT0
0.75 0.75 0.75 C 1790 670 M
65 -20 V
-90 -56 V
-66 23 V
91 53 V
.6331 g 1027 1646 N 91 58 66 -112 -91 -54 h
stroke
LT0
0.75 0.75 0.75 C 1027 1646 M
66 -108 V
-91 -58 V
-66 112 V
91 54 V
.0014 g 2209 644 N 91 56 65 -14 -91 -56 h
stroke
LT0
0.75 0.75 0.75 C 2209 644 M
65 -14 V
-91 -56 V
-65 14 V
91 56 V
.0072 g 1855 650 N 91 56 65 -17 -90 -56 h
stroke
LT0
0.75 0.75 0.75 C 1855 650 M
66 -17 V
-91 -56 V
-65 17 V
90 56 V
.4006 g 1133 1274 N 91 55 66 -95 -91 -46 h
stroke
LT0
0.75 0.75 0.75 C 1133 1274 M
66 -86 V
-91 -55 V
-66 95 V
91 46 V
.0011 g 2274 630 N 91 56 66 -14 -91 -56 h
stroke
LT0
0.75 0.75 0.75 C 2274 630 M
66 -14 V
-91 -56 V
-66 14 V
91 56 V
.005 g 1921 633 N 91 57 65 -16 -91 -56 h
stroke
LT0
0.75 0.75 0.75 C 1921 633 M
65 -15 V
-91 -57 V
-65 16 V
91 56 V
.9314 g 921 2093 N 91 51 66 -141 -91 -51 h
stroke
LT0
0.75 0.75 0.75 C 921 2093 M
66 -141 V
-91 -51 V
-66 141 V
91 51 V
.093 g 1437 776 N 91 58 65 -55 -91 -55 h
stroke
LT0
0.75 0.75 0.75 C 1437 776 M
65 -52 V
-91 -58 V
-65 55 V
91 55 V
.4727 g 1068 1374 N 91 46 65 -98 -91 -48 h
stroke
LT0
0.75 0.75 0.75 C 1068 1374 M
65 -100 V
-91 -46 V
-65 98 V
91 48 V
.7245 g 962 1768 N 91 54 65 -123 -91 -53 h
stroke
LT0
0.75 0.75 0.75 C 962 1768 M
65 -122 V
-91 -54 V
-65 123 V
91 53 V
.1304 g 1371 834 N 91 55 66 -58 -91 -55 h
stroke
LT0
0.75 0.75 0.75 C 1371 834 M
66 -58 V
-91 -55 V
-66 58 V
91 55 V
.0625 g 1502 724 N 91 49 66 -38 -91 -58 h
stroke
LT0
0.75 0.75 0.75 C 1502 724 M
66 -47 V
-91 -49 V
-66 38 V
91 58 V
.1747 g 1305 900 N 91 55 66 -71 -91 -50 h
stroke
LT0
0.75 0.75 0.75 C 1305 900 M
66 -66 V
-91 -55 V
-66 71 V
91 50 V
.0007 g 2340 616 N 91 56 66 -14 -91 -56 h
stroke
LT0
0.75 0.75 0.75 C 2340 616 M
66 -14 V
-91 -56 V
-66 14 V
91 56 V
.0395 g 1568 677 N 91 57 66 -40 -91 -49 h
stroke
LT0
0.75 0.75 0.75 C 1568 677 M
66 -32 V
-91 -57 V
-66 40 V
91 49 V
.0035 g 1986 618 N 91 56 66 -14 -91 -57 h
stroke
LT0
0.75 0.75 0.75 C 1986 618 M
66 -15 V
-91 -56 V
-66 14 V
91 57 V
.225 g 1239 974 N 91 50 66 -70 -91 -54 h
stroke
LT0
0.75 0.75 0.75 C 1239 974 M
66 -74 V
-91 -50 V
-66 70 V
91 54 V
.5516 g 1002 1480 N 91 48 66 -106 -91 -48 h
stroke
LT0
0.75 0.75 0.75 C 1002 1480 M
66 -106 V
-91 -48 V
-66 106 V
91 48 V
.0234 g 1634 645 N 91 56 65 -27 -91 -57 h
stroke
LT0
0.75 0.75 0.75 C 1634 645 M
65 -28 V
-91 -56 V
-65 27 V
91 57 V
.2786 g 1174 1047 N 91 54 65 -79 -91 -48 h
stroke
LT0
0.75 0.75 0.75 C 1174 1047 M
65 -73 V
-91 -54 V
-65 79 V
91 48 V
.0023 g 2052 603 N 91 56 66 -15 -91 -56 h
stroke
LT0
0.75 0.75 0.75 C 2052 603 M
66 -15 V
-91 -56 V
-66 15 V
91 56 V
.8258 g 896 1901 N 91 53 66 -133 -91 -53 h
stroke
LT0
0.75 0.75 0.75 C 896 1901 M
66 -133 V
-91 -53 V
-66 133 V
91 53 V
.3377 g 1108 1133 N 91 48 66 -82 -91 -52 h
stroke
LT0
0.75 0.75 0.75 C 1108 1133 M
66 -86 V
-91 -48 V
-66 82 V
91 52 V
.0139 g 1699 617 N 91 53 66 -20 -91 -56 h
stroke
LT0
0.75 0.75 0.75 C 1699 617 M
66 -23 V
-91 -53 V
-66 20 V
91 56 V
.6364 g 936 1592 N 91 48 66 -110 -91 -50 h
stroke
LT0
0.75 0.75 0.75 C 936 1592 M
66 -112 V
-91 -48 V
-66 110 V
91 50 V
.0017 g 2118 588 N 91 56 65 -14 -91 -56 h
stroke
LT0
0.75 0.75 0.75 C 2118 588 M
65 -14 V
-91 -56 V
-65 14 V
91 56 V
.4039 g 1042 1228 N 91 52 66 -89 -91 -58 h
stroke
LT0
0.75 0.75 0.75 C 1042 1228 M
66 -95 V
-91 -52 V
-66 89 V
91 58 V
.0089 g 1765 594 N 90 53 66 -17 -91 -53 h
stroke
LT0
0.75 0.75 0.75 C 1765 594 M
65 -17 V
-90 -53 V
-66 17 V
91 53 V
.0013 g 2183 574 N 91 56 66 -14 -91 -56 h
stroke
LT0
0.75 0.75 0.75 C 2183 574 M
66 -14 V
-91 -56 V
-66 14 V
91 56 V
.0059 g 1830 577 N 91 55 64 -18 -90 -53 h
stroke
LT0
0.75 0.75 0.75 C 1830 577 M
65 -16 V
-91 -55 V
-64 18 V
90 53 V
.9349 g 830 2042 N 91 53 66 -140 -91 -54 h
stroke
LT0
0.75 0.75 0.75 C 830 2042 M
66 -141 V
-91 -53 V
-66 140 V
91 54 V
.4761 g 977 1326 N 91 58 65 -98 -91 -58 h
stroke
LT0
0.75 0.75 0.75 C 977 1326 M
65 -98 V
-91 -58 V
-65 98 V
91 58 V
.7275 g 871 1715 N 91 50 65 -119 -91 -54 h
stroke
LT0
0.75 0.75 0.75 C 871 1715 M
65 -123 V
-91 -50 V
-65 119 V
91 54 V
.0008 g 2249 560 N 91 56 66 -14 -91 -56 h
stroke
LT0
0.75 0.75 0.75 C 2249 560 M
66 -14 V
-91 -56 V
-66 14 V
91 56 V
.0038 g 1895 561 N 91 57 66 -16 -91 -55 h
stroke
LT0
0.75 0.75 0.75 C 1895 561 M
66 -14 V
-91 -57 V
-66 16 V
91 55 V
.5538 g 911 1432 N 91 58 66 -103 -91 -61 h
stroke
LT0
0.75 0.75 0.75 C 911 1432 M
66 -106 V
-91 -58 V
-66 103 V
91 61 V
.0024 g 1961 547 N 91 56 66 -14 -91 -57 h
stroke
LT0
0.75 0.75 0.75 C 1961 547 M
66 -15 V
-91 -56 V
-66 14 V
91 57 V
.8279 g 805 1848 N 91 54 66 -132 -91 -55 h
stroke
LT0
0.75 0.75 0.75 C 805 1848 M
66 -133 V
-91 -54 V
-66 132 V
91 55 V
.6383 g 845 1542 N 91 61 66 -114 -91 -57 h
stroke
LT0
0.75 0.75 0.75 C 845 1542 M
66 -110 V
-91 -61 V
-66 114 V
91 57 V
.0017 g 2027 532 N 91 57 65 -15 -91 -56 h
stroke
LT0
0.75 0.75 0.75 C 2027 532 M
65 -14 V
-91 -57 V
-65 15 V
91 56 V
.0013 g 2092 518 N 91 56 66 -13 -91 -57 h
stroke
LT0
0.75 0.75 0.75 C 2092 518 M
66 -14 V
-91 -56 V
-66 13 V
91 57 V
.9367 g 739 1988 N 91 55 66 -139 -91 -56 h
stroke
LT0
0.75 0.75 0.75 C 739 1988 M
66 -140 V
-91 -55 V
-66 139 V
91 56 V
.7292 g 780 1661 N 91 57 65 -119 -91 -57 h
stroke
LT0
0.75 0.75 0.75 C 780 1661 M
65 -119 V
-91 -57 V
-65 119 V
91 57 V
.0008 g 2158 504 N 91 57 66 -15 -91 -56 h
stroke
LT0
0.75 0.75 0.75 C 2158 504 M
66 -14 V
-91 -57 V
-66 15 V
91 56 V
.8289 g 714 1793 N 91 57 66 -134 -91 -55 h
stroke
LT0
0.75 0.75 0.75 C 714 1793 M
66 -132 V
-91 -57 V
-66 134 V
91 55 V
.9378 g 648 1932 N 91 55 66 -139 -91 -55 h
stroke
LT0
0.75 0.75 0.75 C 648 1932 M
66 -139 V
-91 -55 V
-66 139 V
91 55 V
stroke
LTb
LCb setrgbcolor
2861 884 M
182 112 V
stroke
LTb
LCb setrgbcolor
2133 433 M
454 281 V
stroke
LTb
LCb setrgbcolor
2133 433 M
557 758 L
stroke
LTb
LCb setrgbcolor
557 758 M
481 297 V
stroke
LTb
LCb setrgbcolor
3043 996 M
1992 1213 L
stroke
LTb
LCb setrgbcolor
557 1884 M
557 758 L
stroke
LTb
LCb setrgbcolor
1467 2447 M
0 -377 V
stroke
LTb
LCb setrgbcolor
3043 2122 M
0 -1126 V
stroke
LTb
LCb setrgbcolor
557 1884 M
910 563 V
stroke
LTb
LCb setrgbcolor
3043 2122 M
1467 2447 L
stroke
LTa
LCa setrgbcolor
820 704 M
336 208 V
stroke
LTb
LCb setrgbcolor
820 704 M
44 27 V
stroke
LTb
LCb setrgbcolor
770 641 M
[ [(Times-Roman) 120.0 0.0 true true 0 ( 50)]
] -40.0 MCshow
1.000 UL
LTb
LCb setrgbcolor
1.000 UL
LTa
LCa setrgbcolor
1148 636 M
173 107 V
stroke
LTb
LCb setrgbcolor
1148 636 M
45 27 V
stroke
LTb
LCb setrgbcolor
1098 573 M
[ [(Times-Roman) 120.0 0.0 true true 0 ( 100)]
] -40.0 MCshow
1.000 UL
LTb
LCb setrgbcolor
1.000 UL
LTa
LCa setrgbcolor
2295 1075 M
91 57 V
stroke
LTa
LCa setrgbcolor
1477 568 M
48 30 V
stroke
LTb
LCb setrgbcolor
1477 568 M
44 28 V
stroke
LTb
LCb setrgbcolor
1426 505 M
[ [(Times-Roman) 120.0 0.0 true true 0 ( 150)]
] -40.0 MCshow
1.000 UL
LTb
LCb setrgbcolor
1.000 UL
LTb
LCb setrgbcolor
2342 1104 M
44 28 V
stroke
LTa
LCa setrgbcolor
2623 1008 M
91 56 V
stroke
LTa
LCa setrgbcolor
1804 501 M
7 4 V
stroke
LTb
LCb setrgbcolor
1804 501 M
7 4 V
stroke
LTb
LCb setrgbcolor
1755 438 M
[ [(Times-Roman) 120.0 0.0 true true 0 ( 200)]
] -40.0 MCshow
1.000 UL
LTb
LCb setrgbcolor
1.000 UL
LTb
LCb setrgbcolor
2670 1037 M
44 27 V
stroke
LCb setrgbcolor
1118 455 M
[ [(Times-Roman) 120.0 0.0 true true 0 (Iterations)]
] -40.0 MCshow
LTb
1.000 UL
LTa
LCa setrgbcolor
2133 433 M
557 758 L
stroke
LTb
LCb setrgbcolor
2133 433 M
-55 11 V
stroke
2195 400 M
[ [(Times-Roman) 120.0 0.0 true true 0 ( 0)]
] -40.0 MCshow
1.000 UL
LTb
LCb setrgbcolor
1.000 UL
LTb
LCb setrgbcolor
612 747 M
-55 11 V
stroke
LTa
LCa setrgbcolor
1308 753 M
739 871 L
stroke
LTa
LCa setrgbcolor
2315 546 M
-1 0 V
stroke
LTb
LCb setrgbcolor
2315 546 M
-1 0 V
stroke
2377 513 M
[ [(Times-Roman) 120.0 0.0 true true 0 ( 0.2)]
] -40.0 MCshow
1.000 UL
LTb
LCb setrgbcolor
1.000 UL
LTb
LCb setrgbcolor
794 860 M
-55 11 V
stroke
LTa
LCa setrgbcolor
1132 940 M
921 983 L
stroke
LTa
LCa setrgbcolor
2497 658 M
-1 0 V
stroke
LTb
LCb setrgbcolor
2497 658 M
-1 0 V
stroke
2559 626 M
[ [(Times-Roman) 120.0 0.0 true true 0 ( 0.4)]
] -40.0 MCshow
1.000 UL
LTb
LCb setrgbcolor
1.000 UL
LTb
LCb setrgbcolor
976 972 M
-55 11 V
stroke
2741 738 M
[ [(Times-Roman) 120.0 0.0 true true 0 ( 0.6)]
] -40.0 MCshow
1.000 UL
LTb
LCb setrgbcolor
1.000 UL
LTa
LCa setrgbcolor
2861 884 M
-197 40 V
stroke
LTb
LCb setrgbcolor
2861 884 M
-55 11 V
stroke
2923 851 M
[ [(Times-Roman) 120.0 0.0 true true 0 ( 0.8)]
] -40.0 MCshow
1.000 UL
LTb
LCb setrgbcolor
1.000 UL
LTa
LCa setrgbcolor
3043 996 M
1992 1213 L
stroke
LTb
LCb setrgbcolor
3043 996 M
-55 11 V
stroke
3105 964 M
[ [(Times-Roman) 120.0 0.0 true true 0 ( 1)]
] -40.0 MCshow
1.000 UL
LTb
LCb setrgbcolor
LCb setrgbcolor
2982 633 M
[ [(Times-Roman) 120.0 0.0 true true 0 (p2)]
] -40.0 MCshow
LTb
1.000 UL
LTa
LCa setrgbcolor
557 758 M
481 297 V
stroke
LTa
LCa setrgbcolor
3043 996 M
1992 1213 L
stroke
LTb
LCb setrgbcolor
620 758 M
-63 0 V
stroke
431 758 M
[ [(Times-Roman) 120.0 0.0 true true 0 ( 0)]
] -40.0 MRshow
1.000 UL
LTb
LCb setrgbcolor
1.000 UL
LTa
LCa setrgbcolor
557 883 M
416 258 V
stroke
LTa
LCa setrgbcolor
3043 1121 M
1831 1371 L
stroke
LTb
LCb setrgbcolor
620 883 M
-63 0 V
stroke
431 883 M
[ [(Times-Roman) 120.0 0.0 true true 0 ( 10)]
] -40.0 MRshow
1.000 UL
LTb
LCb setrgbcolor
1.000 UL
LTa
LCa setrgbcolor
557 1008 M
355 220 V
stroke
LTa
LCa setrgbcolor
3043 1247 M
1748 1513 L
stroke
LTb
LCb setrgbcolor
620 1008 M
-63 0 V
stroke
431 1008 M
[ [(Times-Roman) 120.0 0.0 true true 0 ( 20)]
] -40.0 MRshow
1.000 UL
LTb
LCb setrgbcolor
1.000 UL
LTa
LCa setrgbcolor
557 1134 M
297 183 V
stroke
LTa
LCa setrgbcolor
3043 1372 M
1673 1654 L
stroke
LTb
LCb setrgbcolor
620 1134 M
-63 0 V
stroke
431 1134 M
[ [(Times-Roman) 120.0 0.0 true true 0 ( 30)]
] -40.0 MRshow
1.000 UL
LTb
LCb setrgbcolor
1.000 UL
LTa
LCa setrgbcolor
557 1259 M
242 149 V
stroke
LTa
LCa setrgbcolor
3043 1496 M
1602 1793 L
stroke
LTb
LCb setrgbcolor
620 1259 M
-63 0 V
stroke
431 1259 M
[ [(Times-Roman) 120.0 0.0 true true 0 ( 40)]
] -40.0 MRshow
1.000 UL
LTb
LCb setrgbcolor
1.000 UL
LTa
LCa setrgbcolor
557 1384 M
189 116 V
stroke
LTa
LCa setrgbcolor
3043 1621 M
1533 1933 L
stroke
LTb
LCb setrgbcolor
620 1384 M
-63 0 V
stroke
431 1384 M
[ [(Times-Roman) 120.0 0.0 true true 0 ( 50)]
] -40.0 MRshow
1.000 UL
LTb
LCb setrgbcolor
1.000 UL
LTa
LCa setrgbcolor
1467 2071 M
0 1 V
stroke
LTa
LCa setrgbcolor
557 1508 M
138 85 V
stroke
LTa
LCa setrgbcolor
3043 1746 M
1467 2072 L
stroke
LTb
LCb setrgbcolor
620 1508 M
-63 0 V
stroke
431 1508 M
[ [(Times-Roman) 120.0 0.0 true true 0 ( 60)]
] -40.0 MRshow
1.000 UL
LTb
LCb setrgbcolor
1.000 UL
LTa
LCa setrgbcolor
1421 2168 M
46 29 V
stroke
LTa
LCa setrgbcolor
557 1633 M
90 56 V
stroke
LTa
LCa setrgbcolor
3043 1872 M
1467 2197 L
stroke
LTb
LCb setrgbcolor
620 1633 M
-63 0 V
stroke
431 1633 M
[ [(Times-Roman) 120.0 0.0 true true 0 ( 70)]
] -40.0 MRshow
1.000 UL
LTb
LCb setrgbcolor
1.000 UL
LTa
LCa setrgbcolor
1377 2266 M
90 56 V
stroke
LTa
LCa setrgbcolor
557 1759 M
44 26 V
stroke
LTa
LCa setrgbcolor
3043 1997 M
1467 2322 L
stroke
LTb
LCb setrgbcolor
613 1759 M
-56 0 V
stroke
431 1759 M
[ [(Times-Roman) 120.0 0.0 true true 0 ( 80)]
] -40.0 MRshow
1.000 UL
LTb
LCb setrgbcolor
1.000 UL
LTa
LCa setrgbcolor
557 1884 M
910 563 V
stroke
LTa
LCa setrgbcolor
3043 2122 M
1467 2447 L
stroke
LTb
LCb setrgbcolor
620 1884 M
-63 0 V
stroke
431 1884 M
[ [(Times-Roman) 120.0 0.0 true true 0 ( 90)]
] -40.0 MRshow
1.000 UL
LTb
LCb setrgbcolor
LCb setrgbcolor
53 1321 M
currentpoint gsave translate 90 rotate 0 0 moveto
[ [(Times-Roman) 120.0 0.0 true true 0 (Avg. number of blocking pairs)]
] -40.0 MCshow
grestore
LTb
1.000 UP
grestore % colour palette end
gsave % colour palette begin
/maxcolors 0 def
/HSV2RGB {  exch dup 0.0 eq {pop exch pop dup dup} % achromatic gray
  { /HSVs exch def /HSVv exch def 6.0 mul dup floor dup 3 1 roll sub
     /HSVf exch def /HSVi exch cvi def /HSVp HSVv 1.0 HSVs sub mul def
	 /HSVq HSVv 1.0 HSVs HSVf mul sub mul def 
	 /HSVt HSVv 1.0 HSVs 1.0 HSVf sub mul sub mul def
	 /HSVi HSVi 6 mod def 0 HSVi eq {HSVv HSVt HSVp}
	 {1 HSVi eq {HSVq HSVv HSVp}{2 HSVi eq {HSVp HSVv HSVt}
	 {3 HSVi eq {HSVp HSVq HSVv}{4 HSVi eq {HSVt HSVp HSVv}
	 {HSVv HSVp HSVq} ifelse} ifelse} ifelse} ifelse} ifelse
  } ifelse} def
/Constrain {
  dup 0 lt {0 exch pop}{dup 1 gt {1 exch pop} if} ifelse} def
/YIQ2RGB {
  3 copy -1.702 mul exch -1.105 mul add add Constrain 4 1 roll
  3 copy -0.647 mul exch -0.272 mul add add Constrain 5 1 roll
  0.621 mul exch -0.956 mul add add Constrain 3 1 roll } def
/CMY2RGB {  1 exch sub exch 1 exch sub 3 2 roll 1 exch sub 3 1 roll exch } def
/XYZ2RGB {  3 copy -0.9017 mul exch -0.1187 mul add exch 0.0585 mul exch add
  Constrain 4 1 roll 3 copy -0.0279 mul exch 1.999 mul add exch
  -0.9844 mul add Constrain 5 1 roll -0.2891 mul exch -0.5338 mul add
  exch 1.91 mul exch add Constrain 3 1 roll} def
/SelectSpace {ColorSpace (HSV) eq {HSV2RGB}{ColorSpace (XYZ) eq {
  XYZ2RGB}{ColorSpace (CMY) eq {CMY2RGB}{ColorSpace (YIQ) eq {YIQ2RGB}
  if} ifelse} ifelse} ifelse} def
/InterpolatedColor false def
/pm3dround {maxcolors 0 gt {dup 1 ge
	{pop 1} {maxcolors mul floor maxcolors 1 sub div} ifelse} if} def
/pm3dGamma 1.0 1.5 Gamma mul div def
/ColorSpace (RGB) def
false { % COLOUR vs. GRAY map
  InterpolatedColor { %% Interpolation vs. RGB-Formula
    /g {stroke pm3dround /grayv exch def interpolate
        SelectSpace setrgbcolor} bind def
  }{
  /g {stroke pm3dround dup cF7 Constrain exch dup cF5 Constrain exch cF15 Constrain 
       SelectSpace setrgbcolor} bind def
  } ifelse
}{
  /g {stroke pm3dround pm3dGamma exp setgray} bind def
} ifelse
1.000 UL
LTb
LCb setrgbcolor
1.000 UP
LTb
5551 140 M
[ [(Times-Roman) 120.0 0.0 true true 0 (b\))]
] -40.0 MLshow
% Begin plot #1
% End plot #1
% Begin plot #2
1.000 UL
LT0
0.75 0.75 0.75 C 1.000 UL
LT0
0.75 0.75 0.75 C % End plot #2
.0218 g 5592 1213 N 91 33 65 -66 -91 19 h
1.000 UL
LT0
0.75 0.75 0.75 C 5592 1213 M
65 -14 V
-91 -33 V
-65 66 V
91 -19 V
.006 g 5657 1199 N 91 52 66 -32 -91 -33 h
stroke
LT0
0.75 0.75 0.75 C 5657 1199 M
66 -13 V
-91 -52 V
-66 32 V
91 33 V
.0012 g 5723 1186 N 91 55 66 -17 -91 -52 h
stroke
LT0
0.75 0.75 0.75 C 5723 1186 M
66 -14 V
-91 -55 V
-66 17 V
91 52 V
.0537 g 5526 1227 N 91 -19 66 -105 -91 110 h
stroke
LT0
0.75 0.75 0.75 C 5526 1227 M
66 -14 V
-91 19 V
-66 105 V
91 -110 V
.0004 g 5789 1172 N 91 56 65 -14 -91 -55 h
stroke
LT0
0.75 0.75 0.75 C 5789 1172 M
65 -13 V
-91 -56 V
-65 14 V
91 55 V
.0975 g 5460 1240 N 91 -110 65 -119 -90 216 h
stroke
LT0
0.75 0.75 0.75 C 5460 1240 M
66 -13 V
-91 110 V
-65 119 V
90 -216 V
.0001 g 5854 1159 N 91 56 66 -14 -91 -56 h
stroke
LT0
0.75 0.75 0.75 C 5854 1159 M
66 -14 V
-91 -56 V
-66 14 V
91 56 V
.0001 g 5920 1145 N 91 56 66 -13 -91 -56 h
stroke
LT0
0.75 0.75 0.75 C 5920 1145 M
66 -13 V
-91 -56 V
-66 13 V
91 56 V
.1497 g 5396 1254 N 90 -216 65 -142 -91 344 h
stroke
LT0
0.75 0.75 0.75 C 5396 1254 M
64 -14 V
-90 216 V
-65 142 V
91 -344 V
.0001 g 5986 1132 N 91 56 66 -14 -91 -56 h
stroke
LT0
0.75 0.75 0.75 C 5986 1132 M
66 -14 V
-91 -56 V
-66 14 V
91 56 V
.0159 g 5632 1134 N 91 45 66 -55 -91 -7 h
stroke
LT0
0.75 0.75 0.75 C 5632 1134 M
66 -17 V
-91 -45 V
-66 55 V
91 7 V
.0428 g 5566 1166 N 91 7 66 -72 -91 33 h
stroke
LT0
0.75 0.75 0.75 C 5566 1166 M
66 -32 V
-91 -7 V
-66 72 V
91 -33 V
0 g 6052 1118 N 91 57 65 -14 -91 -56 h
stroke
LT0
0.75 0.75 0.75 C 6052 1118 M
65 -13 V
-91 -57 V
-65 14 V
91 56 V
.0039 g 5698 1117 N 90 54 66 -23 -91 -45 h
stroke
LT0
0.75 0.75 0.75 C 5698 1117 M
65 -14 V
-90 -54 V
-66 23 V
91 45 V
.0883 g 5501 1232 N 91 -33 65 -89 -91 56 h
stroke
LT0
0.75 0.75 0.75 C 5501 1232 M
65 -66 V
-91 33 V
-65 89 V
91 -56 V
0 g 6117 1105 N 91 56 66 -13 -91 -57 h
stroke
LT0
0.75 0.75 0.75 C 6117 1105 M
66 -14 V
-91 -56 V
-66 13 V
91 57 V
.0013 g 5763 1103 N 91 54 65 -14 -90 -54 h
stroke
LT0
0.75 0.75 0.75 C 5763 1103 M
66 -14 V
-91 -54 V
-65 14 V
90 54 V
.2093 g 5330 1269 N 91 -344 66 -152 -91 481 h
stroke
LT0
0.75 0.75 0.75 C 5330 1269 M
66 -15 V
-91 344 V
-66 152 V
91 -481 V
0 g 6183 1091 N 91 57 66 -14 -91 -56 h
stroke
LT0
0.75 0.75 0.75 C 6183 1091 M
66 -13 V
-91 -57 V
-66 14 V
91 56 V
.1579 g 5435 1337 N 91 -56 65 -108 -90 59 h
stroke
LT0
0.75 0.75 0.75 C 5435 1337 M
66 -105 V
-91 56 V
-65 108 V
90 -59 V
.0008 g 5829 1089 N 91 56 66 -15 -91 -54 h
stroke
LT0
0.75 0.75 0.75 C 5829 1089 M
66 -13 V
-91 -56 V
-66 15 V
91 54 V
0 g 6249 1078 N 91 56 65 -13 -91 -57 h
stroke
LT0
0.75 0.75 0.75 C 6249 1078 M
65 -14 V
-91 -56 V
-65 13 V
91 57 V
.0006 g 5895 1076 N 91 55 66 -13 -91 -56 h
stroke
LT0
0.75 0.75 0.75 C 5895 1076 M
66 -14 V
-91 -55 V
-66 13 V
91 56 V
.2468 g 5370 1456 N 90 -59 66 -121 -91 61 h
stroke
LT0
0.75 0.75 0.75 C 5370 1456 M
65 -119 V
-90 59 V
-66 121 V
91 -61 V
0 g 6314 1064 N 91 56 66 -14 -91 -56 h
stroke
LT0
0.75 0.75 0.75 C 6314 1064 M
66 -14 V
-91 -56 V
-66 14 V
91 56 V
.2774 g 5264 1294 N 91 -481 66 -169 -91 625 h
stroke
LT0
0.75 0.75 0.75 C 5264 1294 M
66 -25 V
-91 481 V
-66 169 V
91 -625 V
.0006 g 5961 1062 N 91 55 65 -14 -91 -55 h
stroke
LT0
0.75 0.75 0.75 C 5961 1062 M
65 -14 V
-91 -55 V
-65 14 V
91 55 V
.017 g 5607 1072 N 92 43 65 -42 -91 -24 h
stroke
LT0
0.75 0.75 0.75 C 5607 1072 M
66 -23 V
-92 -43 V
-65 42 V
91 24 V
.0473 g 5541 1127 N 91 24 66 -71 -91 -8 h
stroke
LT0
0.75 0.75 0.75 C 5541 1127 M
66 -55 V
-91 -24 V
-66 71 V
91 8 V
0 g 6380 1050 N 91 56 66 -13 -91 -56 h
stroke
LT0
0.75 0.75 0.75 C 6380 1050 M
66 -13 V
-91 -56 V
-66 13 V
91 56 V
.0005 g 6026 1048 N 91 56 66 -14 -91 -55 h
stroke
LT0
0.75 0.75 0.75 C 6026 1048 M
66 -13 V
-91 -56 V
-66 14 V
91 55 V
.0968 g 5475 1199 N 91 8 65 -80 -90 0 h
stroke
LT0
0.75 0.75 0.75 C 5475 1199 M
66 -72 V
-91 -8 V
-65 80 V
90 0 V
.006 g 5673 1049 N 91 53 66 -24 -92 -43 h
stroke
LT0
0.75 0.75 0.75 C 5673 1049 M
65 -14 V
-91 -53 V
-66 24 V
92 43 V
.3511 g 5305 1598 N 91 -61 65 -140 -91 59 h
stroke
LT0
0.75 0.75 0.75 C 5305 1598 M
65 -142 V
-91 61 V
-65 140 V
91 -59 V
0 g 6446 1037 N 91 56 65 -14 -91 -56 h
stroke
LT0
0.75 0.75 0.75 C 6446 1037 M
65 -14 V
-91 -56 V
-65 14 V
91 56 V
.0004 g 6092 1035 N 91 55 66 -13 -91 -56 h
stroke
LT0
0.75 0.75 0.75 C 6092 1035 M
66 -14 V
-91 -55 V
-66 13 V
91 56 V
.1573 g 5410 1288 N 90 0 65 -86 -90 -3 h
stroke
LT0
0.75 0.75 0.75 C 5410 1288 M
65 -89 V
-90 0 V
-65 86 V
90 3 V
.0026 g 5738 1035 N 91 55 66 -17 -91 -53 h
stroke
LT0
0.75 0.75 0.75 C 5738 1035 M
66 -15 V
-91 -55 V
-66 17 V
91 53 V
0 g 6511 1023 N 91 57 66 -14 -91 -56 h
stroke
LT0
0.75 0.75 0.75 C 6511 1023 M
66 -13 V
-91 -57 V
-66 14 V
91 56 V
.383 g 5199 1451 N 91 -625 65 -178 -91 646 h
stroke
LT0
0.75 0.75 0.75 C 5199 1451 M
65 -157 V
-91 625 V
-65 178 V
91 -646 V
.0003 g 6158 1021 N 91 56 65 -14 -91 -55 h
stroke
LT0
0.75 0.75 0.75 C 6158 1021 M
65 -13 V
-91 -56 V
-65 14 V
91 55 V
.0014 g 5804 1020 N 91 56 66 -14 -91 -55 h
stroke
LT0
0.75 0.75 0.75 C 5804 1020 M
66 -13 V
-91 -56 V
-66 14 V
91 55 V
.2315 g 5345 1396 N 90 3 66 -105 -91 -6 h
stroke
LT0
0.75 0.75 0.75 C 5345 1396 M
65 -108 V
-90 -3 V
-66 105 V
91 6 V
0 g 6577 1010 N 91 56 66 -13 -91 -57 h
stroke
LT0
0.75 0.75 0.75 C 6577 1010 M
66 -14 V
-91 -56 V
-66 13 V
91 57 V
.4679 g 5239 1750 N 91 -59 66 -146 -91 53 h
stroke
LT0
0.75 0.75 0.75 C 5239 1750 M
66 -152 V
-91 59 V
-66 146 V
91 -53 V
.0001 g 6223 1008 N 91 56 66 -14 -91 -56 h
stroke
LT0
0.75 0.75 0.75 C 6223 1008 M
66 -14 V
-91 -56 V
-66 14 V
91 56 V
.0011 g 5870 1007 N 91 56 65 -14 -91 -56 h
stroke
LT0
0.75 0.75 0.75 C 5870 1007 M
65 -14 V
-91 -56 V
-65 14 V
91 56 V
.319 g 5279 1517 N 91 6 66 -112 -91 -15 h
stroke
LT0
0.75 0.75 0.75 C 5279 1517 M
66 -121 V
-91 -6 V
-66 112 V
91 15 V
0 g 6289 994 N 91 57 66 -14 -91 -56 h
stroke
LT0
0.75 0.75 0.75 C 6289 994 M
66 -13 V
-91 -57 V
-66 14 V
91 56 V
.0361 g 5516 1048 N 91 38 65 -46 -91 -34 h
stroke
LT0
0.75 0.75 0.75 C 5516 1048 M
65 -42 V
-91 -38 V
-65 46 V
91 34 V
.0009 g 5935 993 N 91 56 66 -14 -91 -56 h
stroke
LT0
0.75 0.75 0.75 C 5935 993 M
66 -14 V
-91 -56 V
-66 14 V
91 56 V
.074 g 5450 1119 N 91 34 65 -66 -90 -39 h
stroke
LT0
0.75 0.75 0.75 C 5450 1119 M
66 -71 V
-91 -34 V
-65 66 V
90 39 V
.0158 g 5581 1006 N 91 47 66 -33 -91 -38 h
stroke
LT0
0.75 0.75 0.75 C 5581 1006 M
66 -24 V
-91 -47 V
-66 33 V
91 38 V
.1281 g 5385 1199 N 90 39 66 -81 -91 -38 h
stroke
LT0
0.75 0.75 0.75 C 5385 1199 M
65 -80 V
-90 -39 V
-66 81 V
91 38 V
.5588 g 5133 1786 N 91 -646 66 -175 -91 486 h
stroke
LT0
0.75 0.75 0.75 C 5133 1786 M
66 -335 V
-91 646 V
-66 175 V
91 -486 V
0 g 6355 981 N 91 56 65 -13 -91 -57 h
stroke
LT0
0.75 0.75 0.75 C 6355 981 M
65 -14 V
-91 -56 V
-65 13 V
91 57 V
.0008 g 6001 979 N 91 57 66 -14 -91 -56 h
stroke
LT0
0.75 0.75 0.75 C 6001 979 M
66 -13 V
-91 -57 V
-66 14 V
91 56 V
.5939 g 5173 1919 N 91 -53 66 -155 -91 39 h
stroke
LT0
0.75 0.75 0.75 C 5173 1919 M
66 -169 V
-91 53 V
-66 155 V
91 -39 V
.0066 g 5647 982 N 91 52 66 -22 -91 -47 h
stroke
LT0
0.75 0.75 0.75 C 5647 982 M
66 -17 V
-91 -52 V
-66 22 V
91 47 V
.1895 g 5320 1285 N 91 38 65 -84 -91 -40 h
stroke
LT0
0.75 0.75 0.75 C 5320 1285 M
65 -86 V
-91 -38 V
-65 84 V
91 40 V
.4194 g 5214 1657 N 91 15 65 -132 -91 -23 h
stroke
LT0
0.75 0.75 0.75 C 5214 1657 M
65 -140 V
-91 -15 V
-65 132 V
91 23 V
.7566 g 5067 2137 N 91 -486 66 -85 -91 220 h
stroke
LT0
0.75 0.75 0.75 C 5067 2137 M
66 -351 V
-91 486 V
-66 85 V
91 -220 V
0 g 6420 967 N 91 56 66 -14 -91 -56 h
stroke
LT0
0.75 0.75 0.75 C 6420 967 M
66 -14 V
-91 -56 V
-66 14 V
91 56 V
.0006 g 6067 966 N 91 56 65 -13 -91 -57 h
stroke
LT0
0.75 0.75 0.75 C 6067 966 M
65 -14 V
-91 -56 V
-65 13 V
91 57 V
.0027 g 5713 965 N 91 56 66 -18 -91 -52 h
stroke
LT0
0.75 0.75 0.75 C 5713 965 M
66 -14 V
-91 -56 V
-66 18 V
91 52 V
0 g 6486 953 N 91 56 66 -13 -91 -56 h
stroke
LT0
0.75 0.75 0.75 C 6486 953 M
66 -13 V
-91 -56 V
-66 13 V
91 56 V
.2629 g 5254 1390 N 91 40 66 -110 -91 -35 h
stroke
LT0
0.75 0.75 0.75 C 5254 1390 M
66 -105 V
-91 -40 V
-66 110 V
91 35 V
.0004 g 6132 952 N 91 56 66 -14 -91 -56 h
stroke
LT0
0.75 0.75 0.75 C 6132 952 M
66 -14 V
-91 -56 V
-66 14 V
91 56 V
.0012 g 5779 951 N 91 56 65 -14 -91 -56 h
stroke
LT0
0.75 0.75 0.75 C 5779 951 M
65 -14 V
-91 -56 V
-65 14 V
91 56 V
.5339 g 5148 1803 N 91 23 66 -153 -91 -16 h
stroke
LT0
0.75 0.75 0.75 C 5148 1803 M
66 -146 V
-91 -23 V
-66 153 V
91 16 V
.0002 g 6198 938 N 91 56 66 -14 -91 -56 h
stroke
LT0
0.75 0.75 0.75 C 6198 938 M
66 -14 V
-91 -56 V
-66 14 V
91 56 V
.001 g 5844 937 N 91 56 66 -14 -91 -56 h
stroke
LT0
0.75 0.75 0.75 C 5844 937 M
66 -14 V
-91 -56 V
-66 14 V
91 56 V
.7314 g 5108 2097 N 91 -39 65 -173 -91 34 h
stroke
LT0
0.75 0.75 0.75 C 5108 2097 M
65 -178 V
-91 39 V
-65 173 V
91 -34 V
.0496 g 5425 1014 N 90 48 65 -50 -90 -44 h
stroke
LT0
0.75 0.75 0.75 C 5425 1014 M
65 -46 V
-90 -48 V
-65 50 V
90 44 V
.0883 g 5360 1080 N 90 44 66 -66 -91 -44 h
stroke
LT0
0.75 0.75 0.75 C 5360 1080 M
65 -66 V
-90 -44 V
-66 66 V
91 44 V
.3514 g 5188 1502 N 91 35 66 -123 -91 -24 h
stroke
LT0
0.75 0.75 0.75 C 5188 1502 M
66 -112 V
-91 -35 V
-66 123 V
91 24 V
.0244 g 5490 968 N 91 53 65 -38 -90 -48 h
stroke
LT0
0.75 0.75 0.75 C 5490 968 M
66 -33 V
-91 -53 V
-65 38 V
90 48 V
.1387 g 5294 1161 N 91 44 66 -68 -91 -57 h
stroke
LT0
0.75 0.75 0.75 C 5294 1161 M
66 -81 V
-91 -44 V
-66 68 V
91 57 V
.0002 g 6264 924 N 91 56 65 -13 -91 -56 h
stroke
LT0
0.75 0.75 0.75 C 6264 924 M
65 -13 V
-91 -56 V
-65 13 V
91 56 V
.0009 g 5910 923 N 91 56 66 -14 -91 -56 h
stroke
LT0
0.75 0.75 0.75 C 5910 923 M
66 -14 V
-91 -56 V
-66 14 V
91 56 V
.0101 g 5556 935 N 91 57 66 -26 -91 -53 h
stroke
LT0
0.75 0.75 0.75 C 5556 935 M
66 -22 V
-91 -57 V
-66 26 V
91 53 V
.1977 g 5229 1245 N 91 57 65 -87 -91 -54 h
stroke
LT0
0.75 0.75 0.75 C 5229 1245 M
65 -84 V
-91 -57 V
-65 87 V
91 54 V
.8634 g 5042 2272 N 91 -34 66 -123 -91 -18 h
stroke
LT0
0.75 0.75 0.75 C 5042 2272 M
66 -175 V
-91 34 V
-66 123 V
91 18 V
.9488 g 4976 2357 N 91 18 66 -56 -91 -47 h
stroke
LT0
0.75 0.75 0.75 C 4976 2357 M
66 -85 V
-91 -18 V
-66 56 V
91 47 V
.0002 g 6329 911 N 91 56 66 -14 -91 -56 h
stroke
LT0
0.75 0.75 0.75 C 6329 911 M
66 -14 V
-91 -56 V
-66 14 V
91 56 V
.0007 g 5976 909 N 91 57 65 -14 -91 -56 h
stroke
LT0
0.75 0.75 0.75 C 5976 909 M
65 -13 V
-91 -57 V
-65 14 V
91 56 V
.6552 g 5082 1958 N 91 16 66 -147 -91 -24 h
stroke
LT0
0.75 0.75 0.75 C 5082 1958 M
66 -155 V
-91 -16 V
-66 147 V
91 24 V
.0035 g 5622 913 N 91 57 66 -18 -91 -57 h
stroke
LT0
0.75 0.75 0.75 C 5622 913 M
66 -18 V
-91 -57 V
-66 18 V
91 57 V
.4492 g 5123 1634 N 91 24 65 -127 -91 -29 h
stroke
LT0
0.75 0.75 0.75 C 5123 1634 M
65 -132 V
-91 -24 V
-65 127 V
91 29 V
.2712 g 5163 1355 N 91 54 66 -104 -91 -60 h
stroke
LT0
0.75 0.75 0.75 C 5163 1355 M
66 -110 V
-91 -54 V
-66 104 V
91 60 V
.0001 g 6395 897 N 91 57 66 -14 -91 -56 h
stroke
LT0
0.75 0.75 0.75 C 6395 897 M
66 -13 V
-91 -57 V
-66 14 V
91 56 V
.0006 g 6041 896 N 91 56 66 -13 -91 -57 h
stroke
LT0
0.75 0.75 0.75 C 6041 896 M
66 -14 V
-91 -56 V
-66 13 V
91 57 V
.0011 g 5688 895 N 91 58 65 -15 -91 -57 h
stroke
LT0
0.75 0.75 0.75 C 5688 895 M
65 -14 V
-91 -58 V
-65 15 V
91 57 V
.0005 g 6107 882 N 91 56 66 -14 -91 -56 h
stroke
LT0
0.75 0.75 0.75 C 6107 882 M
66 -14 V
-91 -56 V
-66 14 V
91 56 V
.0008 g 5753 881 N 91 57 66 -13 -91 -58 h
stroke
LT0
0.75 0.75 0.75 C 5753 881 M
66 -14 V
-91 -57 V
-66 13 V
91 58 V
.5587 g 5057 1787 N 91 29 66 -137 -91 -45 h
stroke
LT0
0.75 0.75 0.75 C 5057 1787 M
66 -153 V
-91 -29 V
-66 137 V
91 45 V
.3621 g 5097 1478 N 91 60 66 -126 -91 -57 h
stroke
LT0
0.75 0.75 0.75 C 5097 1478 M
66 -123 V
-91 -60 V
-66 126 V
91 57 V
.0594 g 5335 970 N 90 50 66 -60 -91 -40 h
stroke
LT0
0.75 0.75 0.75 C 5335 970 M
65 -50 V
-90 -50 V
-66 60 V
91 40 V
.7843 g 5017 2131 N 91 24 65 -161 -91 -36 h
stroke
LT0
0.75 0.75 0.75 C 5017 2131 M
65 -173 V
-91 -24 V
-65 161 V
91 36 V
.0294 g 5400 920 N 90 52 65 -40 -90 -50 h
stroke
LT0
0.75 0.75 0.75 C 5400 920 M
65 -38 V
-90 -52 V
-65 40 V
90 50 V
.1011 g 5269 1036 N 91 40 66 -66 -91 -40 h
stroke
LT0
0.75 0.75 0.75 C 5269 1036 M
66 -66 V
-91 -40 V
-66 66 V
91 40 V
.0005 g 6173 868 N 91 56 65 -13 -91 -56 h
stroke
LT0
0.75 0.75 0.75 C 6173 868 M
65 -13 V
-91 -56 V
-65 13 V
91 56 V
.0007 g 5819 867 N 91 57 66 -14 -91 -57 h
stroke
LT0
0.75 0.75 0.75 C 5819 867 M
66 -14 V
-91 -57 V
-66 14 V
91 57 V
.0124 g 5465 882 N 91 54 65 -28 -90 -52 h
stroke
LT0
0.75 0.75 0.75 C 5465 882 M
66 -26 V
-91 -54 V
-65 28 V
90 52 V
.1518 g 5203 1104 N 91 40 66 -83 -91 -25 h
stroke
LT0
0.75 0.75 0.75 C 5203 1104 M
66 -68 V
-91 -40 V
-66 83 V
91 25 V
.0005 g 6238 855 N 91 56 66 -14 -91 -56 h
stroke
LT0
0.75 0.75 0.75 C 6238 855 M
66 -14 V
-91 -56 V
-66 14 V
91 56 V
.0005 g 5885 853 N 91 56 65 -13 -91 -57 h
stroke
LT0
0.75 0.75 0.75 C 5885 853 M
65 -14 V
-91 -56 V
-65 13 V
91 57 V
.9633 g 4885 2310 N 91 42 66 -45 -91 -53 h
stroke
LT0
0.75 0.75 0.75 C 4885 2310 M
66 -56 V
-91 -42 V
-66 45 V
91 53 V
.8998 g 4951 2254 N 91 36 66 -117 -91 -42 h
stroke
LT0
0.75 0.75 0.75 C 4951 2254 M
66 -123 V
-91 -36 V
-66 117 V
91 42 V
.4617 g 5032 1605 N 91 57 65 -126 -91 -58 h
stroke
LT0
0.75 0.75 0.75 C 5032 1605 M
65 -127 V
-91 -57 V
-65 126 V
91 58 V
.0042 g 5531 856 N 91 55 66 -19 -91 -54 h
stroke
LT0
0.75 0.75 0.75 C 5531 856 M
66 -18 V
-91 -55 V
-66 19 V
91 54 V
.2115 g 5138 1191 N 91 25 65 -85 -91 -27 h
stroke
LT0
0.75 0.75 0.75 C 5138 1191 M
65 -87 V
-91 -25 V
-65 85 V
91 27 V
.6776 g 4991 1934 N 91 45 66 -153 -91 -39 h
stroke
LT0
0.75 0.75 0.75 C 4991 1934 M
66 -147 V
-91 -45 V
-66 153 V
91 39 V
.0004 g 6304 841 N 91 55 66 -13 -91 -56 h
stroke
LT0
0.75 0.75 0.75 C 6304 841 M
66 -14 V
-91 -55 V
-66 13 V
91 56 V
.0004 g 5950 839 N 91 57 66 -14 -91 -56 h
stroke
LT0
0.75 0.75 0.75 C 5950 839 M
66 -13 V
-91 -57 V
-66 14 V
91 56 V
.0015 g 5597 838 N 91 54 65 -14 -91 -55 h
stroke
LT0
0.75 0.75 0.75 C 5597 838 M
65 -15 V
-91 -54 V
-65 14 V
91 55 V
.2831 g 5072 1295 N 91 27 66 -101 -91 -30 h
stroke
LT0
0.75 0.75 0.75 C 5072 1295 M
66 -104 V
-91 -27 V
-66 101 V
91 30 V
.0004 g 6016 826 N 91 57 66 -14 -91 -57 h
stroke
LT0
0.75 0.75 0.75 C 6016 826 M
66 -14 V
-91 -57 V
-66 14 V
91 57 V
.001 g 5662 823 N 91 56 66 -15 -91 -54 h
stroke
LT0
0.75 0.75 0.75 C 5662 823 M
66 -13 V
-91 -56 V
-66 15 V
91 54 V
.5679 g 4966 1742 N 91 58 66 -142 -91 -53 h
stroke
LT0
0.75 0.75 0.75 C 4966 1742 M
66 -137 V
-91 -58 V
-66 142 V
91 53 V
.0682 g 5244 930 N 91 46 66 -56 -91 -50 h
stroke
LT0
0.75 0.75 0.75 C 5244 930 M
66 -60 V
-91 -46 V
-66 56 V
91 50 V
.3705 g 5006 1421 N 91 30 66 -118 -91 -38 h
stroke
LT0
0.75 0.75 0.75 C 5006 1421 M
66 -126 V
-91 -30 V
-66 118 V
91 38 V
.0004 g 6082 812 N 91 57 65 -13 -91 -57 h
stroke
LT0
0.75 0.75 0.75 C 6082 812 M
65 -13 V
-91 -57 V
-65 13 V
91 57 V
.0363 g 5310 870 N 91 47 65 -41 -91 -46 h
stroke
LT0
0.75 0.75 0.75 C 5310 870 M
65 -40 V
-91 -47 V
-65 41 V
91 46 V
.8035 g 4926 2095 N 91 39 65 -160 -91 -40 h
stroke
LT0
0.75 0.75 0.75 C 4926 2095 M
65 -161 V
-91 -39 V
-65 160 V
91 40 V
.0005 g 5728 810 N 91 56 66 -14 -91 -56 h
stroke
LT0
0.75 0.75 0.75 C 5728 810 M
66 -14 V
-91 -56 V
-66 14 V
91 56 V
.1119 g 5178 996 N 91 50 66 -70 -91 -46 h
stroke
LT0
0.75 0.75 0.75 C 5178 996 M
66 -66 V
-91 -50 V
-66 70 V
91 46 V
.1653 g 5112 1079 N 91 46 66 -76 -91 -53 h
stroke
LT0
0.75 0.75 0.75 C 5112 1079 M
66 -83 V
-91 -46 V
-66 76 V
91 53 V
.0182 g 5375 830 N 90 46 66 -27 -91 -47 h
stroke
LT0
0.75 0.75 0.75 C 5375 830 M
65 -28 V
-90 -46 V
-66 27 V
91 47 V
.0005 g 6147 799 N 91 56 66 -13 -91 -57 h
stroke
LT0
0.75 0.75 0.75 C 6147 799 M
66 -14 V
-91 -56 V
-66 13 V
91 57 V
.0003 g 5794 796 N 91 57 65 -14 -91 -56 h
stroke
LT0
0.75 0.75 0.75 C 5794 796 M
65 -13 V
-91 -57 V
-65 14 V
91 56 V
.9668 g 4794 2257 N 91 55 66 -40 -91 -60 h
stroke
LT0
0.75 0.75 0.75 C 4794 2257 M
66 -45 V
-91 -55 V
-66 40 V
91 60 V
.9115 g 4860 2212 N 91 40 66 -102 -91 -55 h
stroke
LT0
0.75 0.75 0.75 C 4860 2212 M
66 -117 V
-91 -40 V
-66 102 V
91 55 V
.0084 g 5440 802 N 91 51 65 -24 -90 -46 h
stroke
LT0
0.75 0.75 0.75 C 5440 802 M
66 -19 V
-91 -51 V
-65 24 V
90 46 V
.2286 g 5047 1164 N 91 53 65 -95 -91 -43 h
stroke
LT0
0.75 0.75 0.75 C 5047 1164 M
65 -85 V
-91 -53 V
-65 95 V
91 43 V
.4692 g 4941 1547 N 91 38 65 -127 -91 -37 h
stroke
LT0
0.75 0.75 0.75 C 4941 1547 M
65 -126 V
-91 -38 V
-65 127 V
91 37 V
.6868 g 4900 1895 N 91 53 66 -158 -91 -48 h
stroke
LT0
0.75 0.75 0.75 C 4900 1895 M
66 -153 V
-91 -53 V
-66 158 V
91 48 V
.0005 g 6213 785 N 91 57 66 -14 -91 -56 h
stroke
LT0
0.75 0.75 0.75 C 6213 785 M
66 -13 V
-91 -57 V
-66 14 V
91 56 V
.0003 g 5859 783 N 91 56 66 -13 -91 -57 h
stroke
LT0
0.75 0.75 0.75 C 5859 783 M
66 -14 V
-91 -56 V
-66 13 V
91 57 V
.0037 g 5506 783 N 91 55 65 -18 -91 -51 h
stroke
LT0
0.75 0.75 0.75 C 5506 783 M
65 -14 V
-91 -55 V
-65 18 V
91 51 V
.3007 g 4981 1265 N 91 43 66 -99 -91 -45 h
stroke
LT0
0.75 0.75 0.75 C 4981 1265 M
66 -101 V
-91 -43 V
-66 99 V
91 45 V
.0003 g 5925 769 N 91 56 66 -14 -91 -56 h
stroke
LT0
0.75 0.75 0.75 C 5925 769 M
66 -14 V
-91 -56 V
-66 14 V
91 56 V
.0019 g 5571 769 N 91 56 66 -16 -91 -55 h
stroke
LT0
0.75 0.75 0.75 C 5571 769 M
66 -15 V
-91 -56 V
-66 16 V
91 55 V
.5758 g 4875 1689 N 91 37 66 -137 -91 -42 h
stroke
LT0
0.75 0.75 0.75 C 4875 1689 M
66 -142 V
-91 -37 V
-66 137 V
91 42 V
.073 g 5153 880 N 91 55 66 -59 -91 -52 h
stroke
LT0
0.75 0.75 0.75 C 5153 880 M
66 -56 V
-91 -55 V
-66 59 V
91 52 V
.0003 g 5991 755 N 91 56 65 -13 -91 -56 h
stroke
LT0
0.75 0.75 0.75 C 5991 755 M
65 -13 V
-91 -56 V
-65 13 V
91 56 V
.3838 g 4915 1383 N 91 45 66 -111 -91 -52 h
stroke
LT0
0.75 0.75 0.75 C 4915 1383 M
66 -118 V
-91 -45 V
-66 111 V
91 52 V
.0414 g 5219 824 N 91 55 65 -41 -91 -55 h
stroke
LT0
0.75 0.75 0.75 C 5219 824 M
65 -41 V
-91 -55 V
-65 41 V
91 55 V
.0008 g 5637 754 N 91 56 66 -14 -91 -56 h
stroke
LT0
0.75 0.75 0.75 C 5637 754 M
66 -14 V
-91 -56 V
-66 14 V
91 56 V
.8138 g 4835 2055 N 91 48 65 -155 -91 -53 h
stroke
LT0
0.75 0.75 0.75 C 4835 2055 M
65 -160 V
-91 -48 V
-65 155 V
91 53 V
.1175 g 5087 950 N 91 52 66 -71 -91 -51 h
stroke
LT0
0.75 0.75 0.75 C 5087 950 M
66 -70 V
-91 -52 V
-66 71 V
91 51 V
.0228 g 5284 783 N 91 57 66 -29 -91 -55 h
stroke
LT0
0.75 0.75 0.75 C 5284 783 M
66 -27 V
-91 -57 V
-66 29 V
91 55 V
.1702 g 5021 1026 N 91 51 66 -74 -91 -53 h
stroke
LT0
0.75 0.75 0.75 C 5021 1026 M
66 -76 V
-91 -51 V
-66 74 V
91 53 V
.0003 g 6056 742 N 91 57 66 -14 -91 -56 h
stroke
LT0
0.75 0.75 0.75 C 6056 742 M
66 -13 V
-91 -57 V
-66 14 V
91 56 V
.0003 g 5703 740 N 91 56 65 -14 -91 -56 h
stroke
LT0
0.75 0.75 0.75 C 5703 740 M
65 -14 V
-91 -56 V
-65 14 V
91 56 V
.9174 g 4769 2157 N 91 53 66 -104 -91 -51 h
stroke
LT0
0.75 0.75 0.75 C 4769 2157 M
66 -102 V
-91 -53 V
-66 104 V
91 51 V
.9685 g 4703 2197 N 91 51 66 -39 -91 -52 h
stroke
LT0
0.75 0.75 0.75 C 4703 2197 M
66 -40 V
-91 -51 V
-66 39 V
91 52 V
.0119 g 5350 756 N 90 56 66 -23 -91 -57 h
stroke
LT0
0.75 0.75 0.75 C 5350 756 M
65 -24 V
-90 -56 V
-66 23 V
91 57 V
.2325 g 4956 1121 N 91 53 65 -90 -91 -58 h
stroke
LT0
0.75 0.75 0.75 C 4956 1121 M
65 -95 V
-91 -53 V
-65 90 V
91 58 V
.6924 g 4809 1847 N 91 42 66 -143 -91 -57 h
stroke
LT0
0.75 0.75 0.75 C 4809 1847 M
66 -158 V
-91 -42 V
-66 143 V
91 57 V
.4794 g 4850 1510 N 91 52 65 -127 -91 -52 h
stroke
LT0
0.75 0.75 0.75 C 4850 1510 M
65 -127 V
-91 -52 V
-65 127 V
91 52 V
.0003 g 6122 729 N 91 57 66 -14 -91 -57 h
stroke
LT0
0.75 0.75 0.75 C 6122 729 M
66 -14 V
-91 -57 V
-66 14 V
91 57 V
.0003 g 5768 726 N 91 57 66 -14 -91 -56 h
stroke
LT0
0.75 0.75 0.75 C 5768 726 M
66 -13 V
-91 -57 V
-66 14 V
91 56 V
.0052 g 5415 732 N 90 57 65 -19 -90 -56 h
stroke
LT0
0.75 0.75 0.75 C 5415 732 M
65 -18 V
-90 -57 V
-65 19 V
90 56 V
.3061 g 4890 1220 N 91 58 66 -102 -91 -55 h
stroke
LT0
0.75 0.75 0.75 C 4890 1220 M
66 -99 V
-91 -58 V
-66 102 V
91 55 V
.0003 g 5834 713 N 91 56 66 -13 -91 -57 h
stroke
LT0
0.75 0.75 0.75 C 5834 713 M
66 -14 V
-91 -56 V
-66 13 V
91 57 V
.002 g 5480 714 N 91 57 65 -16 -90 -57 h
stroke
LT0
0.75 0.75 0.75 C 5480 714 M
66 -16 V
-91 -57 V
-65 16 V
90 57 V
.5859 g 4784 1647 N 91 52 66 -140 -91 -49 h
stroke
LT0
0.75 0.75 0.75 C 4784 1647 M
66 -137 V
-91 -52 V
-66 140 V
91 49 V
.0001 g 5900 699 N 91 57 65 -14 -91 -56 h
stroke
LT0
0.75 0.75 0.75 C 5900 699 M
65 -13 V
-91 -57 V
-65 14 V
91 56 V
.0775 g 5062 828 N 91 48 66 -57 -91 -50 h
stroke
LT0
0.75 0.75 0.75 C 5062 828 M
66 -59 V
-91 -48 V
-66 57 V
91 50 V
.0008 g 5546 698 N 91 56 66 -13 -91 -57 h
stroke
LT0
0.75 0.75 0.75 C 5546 698 M
66 -14 V
-91 -56 V
-66 13 V
91 57 V
.3887 g 4824 1331 N 91 55 66 -114 -91 -52 h
stroke
LT0
0.75 0.75 0.75 C 4824 1331 M
66 -111 V
-91 -55 V
-66 114 V
91 52 V
.8163 g 4744 2002 N 91 57 65 -156 -91 -56 h
stroke
LT0
0.75 0.75 0.75 C 4744 2002 M
65 -155 V
-91 -57 V
-65 156 V
91 56 V
.0453 g 5128 769 N 91 50 65 -43 -91 -48 h
stroke
LT0
0.75 0.75 0.75 C 5128 769 M
65 -41 V
-91 -50 V
-65 43 V
91 48 V
.122 g 4996 899 N 91 50 66 -68 -91 -53 h
stroke
LT0
0.75 0.75 0.75 C 4996 899 M
66 -71 V
-91 -50 V
-66 68 V
91 53 V
.024 g 5193 728 N 91 57 66 -36 -91 -50 h
stroke
LT0
0.75 0.75 0.75 C 5193 728 M
66 -29 V
-91 -57 V
-66 36 V
91 50 V
.0001 g 5965 686 N 91 57 66 -14 -91 -57 h
stroke
LT0
0.75 0.75 0.75 C 5965 686 M
66 -14 V
-91 -57 V
-66 14 V
91 57 V
.1757 g 4930 973 N 91 53 66 -83 -91 -44 h
stroke
LT0
0.75 0.75 0.75 C 4930 973 M
66 -74 V
-91 -53 V
-66 83 V
91 44 V
.0005 g 5612 684 N 91 56 65 -14 -91 -56 h
stroke
LT0
0.75 0.75 0.75 C 5612 684 M
65 -14 V
-91 -56 V
-65 14 V
91 56 V
.9714 g 4612 2145 N 91 54 66 -38 -91 -55 h
stroke
LT0
0.75 0.75 0.75 C 4612 2145 M
66 -39 V
-91 -54 V
-66 38 V
91 55 V
.9199 g 4678 2106 N 91 56 66 -106 -91 -54 h
stroke
LT0
0.75 0.75 0.75 C 4678 2106 M
66 -104 V
-91 -56 V
-66 106 V
91 54 V
.0116 g 5259 699 N 91 57 66 -23 -91 -57 h
stroke
LT0
0.75 0.75 0.75 C 5259 699 M
66 -23 V
-91 -57 V
-66 23 V
91 57 V
.2366 g 4865 1063 N 91 44 65 -82 -91 -52 h
stroke
LT0
0.75 0.75 0.75 C 4865 1063 M
65 -90 V
-91 -44 V
-65 82 V
91 52 V
.0001 g 6031 672 N 91 56 66 -13 -91 -57 h
stroke
LT0
0.75 0.75 0.75 C 6031 672 M
66 -14 V
-91 -56 V
-66 13 V
91 57 V
.6987 g 4718 1790 N 91 49 66 -143 -91 -49 h
stroke
LT0
0.75 0.75 0.75 C 4718 1790 M
66 -143 V
-91 -49 V
-66 143 V
91 49 V
.4846 g 4759 1458 N 91 52 65 -134 -91 -45 h
stroke
LT0
0.75 0.75 0.75 C 4759 1458 M
65 -127 V
-91 -52 V
-65 134 V
91 45 V
.0004 g 5677 670 N 91 56 66 -14 -91 -56 h
stroke
LT0
0.75 0.75 0.75 C 5677 670 M
66 -14 V
-91 -56 V
-66 14 V
91 56 V
.0054 g 5325 676 N 91 55 65 -17 -91 -57 h
stroke
LT0
0.75 0.75 0.75 C 5325 676 M
65 -19 V
-91 -55 V
-65 17 V
91 57 V
.0003 g 5743 656 N 91 56 66 -13 -91 -56 h
stroke
LT0
0.75 0.75 0.75 C 5743 656 M
66 -13 V
-91 -56 V
-66 13 V
91 56 V
.3095 g 4799 1165 N 91 52 66 -109 -91 -45 h
stroke
LT0
0.75 0.75 0.75 C 4799 1165 M
66 -102 V
-91 -52 V
-66 109 V
91 45 V
.002 g 5390 657 N 90 56 66 -17 -91 -55 h
stroke
LT0
0.75 0.75 0.75 C 5390 657 M
65 -16 V
-90 -56 V
-66 17 V
91 55 V
.5919 g 4693 1598 N 91 45 66 -134 -91 -51 h
stroke
LT0
0.75 0.75 0.75 C 4693 1598 M
66 -140 V
-91 -45 V
-66 134 V
91 51 V
.0002 g 5809 643 N 91 56 65 -14 -91 -56 h
stroke
LT0
0.75 0.75 0.75 C 5809 643 M
65 -14 V
-91 -56 V
-65 14 V
91 56 V
.0816 g 4971 778 N 91 53 66 -53 -91 -57 h
stroke
LT0
0.75 0.75 0.75 C 4971 778 M
66 -57 V
-91 -53 V
-66 53 V
91 57 V
.0007 g 5455 641 N 91 57 65 -14 -90 -56 h
stroke
LT0
0.75 0.75 0.75 C 5455 641 M
66 -13 V
-91 -57 V
-65 14 V
90 56 V
.049 g 5037 721 N 91 57 65 -47 -91 -53 h
stroke
LT0
0.75 0.75 0.75 C 5037 721 M
65 -43 V
-91 -57 V
-65 47 V
91 53 V
.1233 g 4905 846 N 91 57 66 -65 -91 -60 h
stroke
LT0
0.75 0.75 0.75 C 4905 846 M
66 -68 V
-91 -57 V
-66 65 V
91 60 V
.3952 g 4733 1279 N 91 45 66 -115 -91 -44 h
stroke
LT0
0.75 0.75 0.75 C 4733 1279 M
66 -114 V
-91 -45 V
-66 115 V
91 44 V
.8204 g 4653 1946 N 91 49 65 -161 -91 -44 h
stroke
LT0
0.75 0.75 0.75 C 4653 1946 M
65 -156 V
-91 -49 V
-65 161 V
91 44 V
.0264 g 5102 678 N 91 50 66 -29 -91 -57 h
stroke
LT0
0.75 0.75 0.75 C 5102 678 M
66 -36 V
-91 -50 V
-66 29 V
91 57 V
.177 g 4839 929 N 91 60 66 -81 -91 -62 h
stroke
LT0
0.75 0.75 0.75 C 4839 929 M
66 -83 V
-91 -60 V
-66 81 V
91 62 V
.0002 g 5874 629 N 91 55 66 -13 -91 -56 h
stroke
LT0
0.75 0.75 0.75 C 5874 629 M
66 -14 V
-91 -55 V
-66 13 V
91 56 V
.0005 g 5521 628 N 91 57 65 -14 -91 -57 h
stroke
LT0
0.75 0.75 0.75 C 5521 628 M
65 -14 V
-91 -57 V
-65 14 V
91 57 V
.971 g 4521 2090 N 91 59 66 -38 -91 -59 h
stroke
LT0
0.75 0.75 0.75 C 4521 2090 M
66 -38 V
-91 -59 V
-66 38 V
91 59 V
.9225 g 4587 2052 N 91 44 66 -91 -91 -59 h
stroke
LT0
0.75 0.75 0.75 C 4587 2052 M
66 -106 V
-91 -44 V
-66 91 V
91 59 V
.0122 g 5168 642 N 91 58 66 -31 -91 -50 h
stroke
LT0
0.75 0.75 0.75 C 5168 642 M
66 -23 V
-91 -58 V
-66 31 V
91 50 V
.2398 g 4774 1011 N 91 62 65 -91 -91 -53 h
stroke
LT0
0.75 0.75 0.75 C 4774 1011 M
65 -82 V
-91 -62 V
-65 91 V
91 53 V
.0002 g 5940 615 N 91 56 66 -14 -91 -55 h
stroke
LT0
0.75 0.75 0.75 C 5940 615 M
66 -13 V
-91 -56 V
-66 14 V
91 55 V
.0004 g 5586 614 N 91 56 66 -13 -91 -57 h
stroke
LT0
0.75 0.75 0.75 C 5586 614 M
66 -14 V
-91 -56 V
-66 13 V
91 57 V
.4921 g 4668 1413 N 91 44 65 -129 -91 -49 h
stroke
LT0
0.75 0.75 0.75 C 4668 1413 M
65 -134 V
-91 -44 V
-65 129 V
91 49 V
.0048 g 5234 619 N 91 58 65 -17 -91 -58 h
stroke
LT0
0.75 0.75 0.75 C 5234 619 M
65 -17 V
-91 -58 V
-65 17 V
91 58 V
.7069 g 4627 1741 N 91 51 66 -154 -91 -40 h
stroke
LT0
0.75 0.75 0.75 C 4627 1741 M
66 -143 V
-91 -51 V
-66 154 V
91 40 V
.3129 g 4708 1120 N 91 53 66 -101 -91 -61 h
stroke
LT0
0.75 0.75 0.75 C 4708 1120 M
66 -109 V
-91 -53 V
-66 101 V
91 61 V
.0003 g 5652 600 N 91 57 66 -14 -91 -56 h
stroke
LT0
0.75 0.75 0.75 C 5652 600 M
66 -13 V
-91 -57 V
-66 14 V
91 56 V
.0021 g 5299 602 N 91 56 66 -15 -91 -58 h
stroke
LT0
0.75 0.75 0.75 C 5299 602 M
66 -17 V
-91 -56 V
-66 15 V
91 58 V
.0002 g 5718 587 N 91 57 65 -14 -91 -57 h
stroke
LT0
0.75 0.75 0.75 C 5718 587 M
65 -14 V
-91 -57 V
-65 14 V
91 57 V
.5984 g 4602 1547 N 91 49 66 -133 -91 -50 h
stroke
LT0
0.75 0.75 0.75 C 4602 1547 M
66 -134 V
-91 -49 V
-66 133 V
91 50 V
.0007 g 5365 585 N 90 56 66 -14 -91 -56 h
stroke
LT0
0.75 0.75 0.75 C 5365 585 M
65 -14 V
-90 -56 V
-66 14 V
91 56 V
.3968 g 4642 1235 N 91 61 66 -108 -91 -68 h
stroke
LT0
0.75 0.75 0.75 C 4642 1235 M
66 -115 V
-91 -61 V
-66 108 V
91 68 V
.8296 g 4562 1902 N 91 40 65 -150 -91 -51 h
stroke
LT0
0.75 0.75 0.75 C 4562 1902 M
65 -161 V
-91 -40 V
-65 150 V
91 51 V
.0002 g 5783 573 N 91 57 66 -13 -91 -57 h
stroke
LT0
0.75 0.75 0.75 C 5783 573 M
66 -13 V
-91 -57 V
-66 13 V
91 57 V
.0004 g 5430 571 N 91 56 64 -14 -90 -56 h
stroke
LT0
0.75 0.75 0.75 C 5430 571 M
65 -14 V
-91 -56 V
-64 14 V
90 56 V
.9706 g 4430 2031 N 91 53 66 -35 -91 -56 h
stroke
LT0
0.75 0.75 0.75 C 4430 2031 M
66 -38 V
-91 -53 V
-66 35 V
91 56 V
.9265 g 4496 1993 N 91 51 66 -89 -91 -53 h
stroke
LT0
0.75 0.75 0.75 C 4496 1993 M
66 -91 V
-91 -51 V
-66 89 V
91 53 V
.0002 g 5849 560 N 91 57 66 -14 -91 -57 h
stroke
LT0
0.75 0.75 0.75 C 5849 560 M
66 -14 V
-91 -57 V
-66 14 V
91 57 V
.4913 g 4577 1364 N 91 68 65 -128 -91 -69 h
stroke
LT0
0.75 0.75 0.75 C 4577 1364 M
65 -129 V
-91 -68 V
-65 128 V
91 69 V
.0002 g 5495 557 N 91 57 66 -14 -91 -56 h
stroke
LT0
0.75 0.75 0.75 C 5495 557 M
66 -13 V
-91 -57 V
-66 14 V
91 56 V
.7119 g 4536 1701 N 91 50 66 -142 -91 -62 h
stroke
LT0
0.75 0.75 0.75 C 4536 1701 M
66 -154 V
-91 -50 V
-66 142 V
91 62 V
.0001 g 5561 544 N 91 56 66 -13 -91 -57 h
stroke
LT0
0.75 0.75 0.75 C 5561 544 M
66 -14 V
-91 -56 V
-66 13 V
91 57 V
0 g 5627 530 N 91 56 65 -14 -91 -56 h
stroke
LT0
0.75 0.75 0.75 C 5627 530 M
65 -14 V
-91 -56 V
-65 14 V
91 56 V
.5977 g 4511 1497 N 91 69 66 -142 -91 -60 h
stroke
LT0
0.75 0.75 0.75 C 4511 1497 M
66 -133 V
-91 -69 V
-66 142 V
91 60 V
.8325 g 4471 1851 N 91 62 65 -153 -91 -59 h
stroke
LT0
0.75 0.75 0.75 C 4471 1851 M
65 -150 V
-91 -62 V
-65 153 V
91 59 V
0 g 5692 516 N 91 57 66 -14 -91 -56 h
stroke
LT0
0.75 0.75 0.75 C 5692 516 M
66 -13 V
-91 -57 V
-66 14 V
91 56 V
.9278 g 4405 1940 N 91 59 66 -92 -91 -56 h
stroke
LT0
0.75 0.75 0.75 C 4405 1940 M
66 -89 V
-91 -59 V
-66 92 V
91 56 V
.9717 g 4339 1975 N 91 56 66 -36 -91 -55 h
stroke
LT0
0.75 0.75 0.75 C 4339 1975 M
66 -35 V
-91 -56 V
-66 36 V
91 55 V
0 g 5758 503 N 91 56 66 -13 -91 -57 h
stroke
LT0
0.75 0.75 0.75 C 5758 503 M
66 -14 V
-91 -56 V
-66 13 V
91 57 V
.7115 g 4445 1639 N 91 60 66 -148 -91 -54 h
stroke
LT0
0.75 0.75 0.75 C 4445 1639 M
66 -142 V
-91 -60 V
-66 148 V
91 54 V
.8305 g 4380 1792 N 91 54 65 -148 -91 -59 h
stroke
LT0
0.75 0.75 0.75 C 4380 1792 M
65 -153 V
-91 -54 V
-65 148 V
91 59 V
.9714 g 4248 1920 N 91 59 66 -38 -91 -57 h
stroke
LT0
0.75 0.75 0.75 C 4248 1920 M
66 -36 V
-91 -59 V
-66 38 V
91 57 V
.926 g 4314 1884 N 91 59 66 -92 -91 -59 h
stroke
LT0
0.75 0.75 0.75 C 4314 1884 M
66 -92 V
-91 -59 V
-66 92 V
91 59 V
stroke
LTb
LCb setrgbcolor
6097 658 M
546 338 V
stroke
LTb
LCb setrgbcolor
5733 433 M
273 169 V
stroke
LTb
LCb setrgbcolor
5733 433 M
4157 758 L
stroke
LTb
LCb setrgbcolor
4157 758 M
468 289 V
stroke
LTb
LCb setrgbcolor
6643 996 M
5592 1213 L
stroke
LTb
LCb setrgbcolor
4157 1884 M
0 -1126 V
stroke
LTb
LCb setrgbcolor
5067 2447 M
0 -243 V
stroke
LTb
LCb setrgbcolor
6643 2122 M
0 -1126 V
stroke
LTb
LCb setrgbcolor
5015 2415 M
52 32 V
stroke
LTb
LCb setrgbcolor
4157 1884 M
858 531 V
stroke
LTb
LCb setrgbcolor
6643 2122 M
5067 2447 L
stroke
LTa
LCa setrgbcolor
4420 704 M
308 191 V
stroke
LTb
LCb setrgbcolor
4420 704 M
44 27 V
stroke
LTb
LCb setrgbcolor
4370 641 M
[ [(Times-Roman) 120.0 0.0 true true 0 ( 50)]
] -40.0 MCshow
1.000 UL
LTb
LCb setrgbcolor
1.000 UL
LTa
LCa setrgbcolor
4748 636 M
135 83 V
stroke
LTb
LCb setrgbcolor
4748 636 M
45 27 V
stroke
LTb
LCb setrgbcolor
4698 573 M
[ [(Times-Roman) 120.0 0.0 true true 0 ( 100)]
] -40.0 MCshow
1.000 UL
LTb
LCb setrgbcolor
1.000 UL
LTa
LCa setrgbcolor
5077 568 M
21 14 V
stroke
LTb
LCb setrgbcolor
5077 568 M
21 14 V
stroke
LTb
LCb setrgbcolor
5026 505 M
[ [(Times-Roman) 120.0 0.0 true true 0 ( 150)]
] -40.0 MCshow
1.000 UL
LTb
LCb setrgbcolor
1.000 UL
LTa
LCa setrgbcolor
6223 1008 M
91 56 V
stroke
LTa
LCa setrgbcolor
5404 501 M
1 0 V
stroke
LTb
LCb setrgbcolor
5404 501 M
1 0 V
stroke
LTb
LCb setrgbcolor
5355 438 M
[ [(Times-Roman) 120.0 0.0 true true 0 ( 200)]
] -40.0 MCshow
1.000 UL
LTb
LCb setrgbcolor
1.000 UL
LTb
LCb setrgbcolor
6270 1037 M
44 27 V
stroke
LCb setrgbcolor
4718 455 M
[ [(Times-Roman) 120.0 0.0 true true 0 (Iterations)]
] -40.0 MCshow
LTb
1.000 UL
LTa
LCa setrgbcolor
5733 433 M
4157 758 L
stroke
LTb
LCb setrgbcolor
5733 433 M
-55 11 V
stroke
5795 400 M
[ [(Times-Roman) 120.0 0.0 true true 0 ( 0)]
] -40.0 MCshow
1.000 UL
LTb
LCb setrgbcolor
1.000 UL
LTb
LCb setrgbcolor
4212 747 M
-55 11 V
stroke
LTa
LCa setrgbcolor
4831 769 M
4339 871 L
stroke
LTa
LCa setrgbcolor
5915 546 M
-1 0 V
stroke
LTb
LCb setrgbcolor
5915 546 M
-1 0 V
stroke
5977 513 M
[ [(Times-Roman) 120.0 0.0 true true 0 ( 0.2)]
] -40.0 MCshow
1.000 UL
LTb
LCb setrgbcolor
1.000 UL
LTb
LCb setrgbcolor
4394 860 M
-55 11 V
stroke
LTa
LCa setrgbcolor
4690 949 M
-169 34 V
stroke
6159 626 M
[ [(Times-Roman) 120.0 0.0 true true 0 ( 0.4)]
] -40.0 MCshow
1.000 UL
LTb
LCb setrgbcolor
1.000 UL
LTb
LCb setrgbcolor
4576 972 M
-55 11 V
stroke
LTa
LCa setrgbcolor
6279 771 M
-1 0 V
stroke
LTb
LCb setrgbcolor
6279 771 M
-1 0 V
stroke
6341 738 M
[ [(Times-Roman) 120.0 0.0 true true 0 ( 0.6)]
] -40.0 MCshow
1.000 UL
LTb
LCb setrgbcolor
1.000 UL
LTa
LCa setrgbcolor
6461 884 M
-263 54 V
stroke
LTb
LCb setrgbcolor
6461 884 M
-55 11 V
stroke
6523 851 M
[ [(Times-Roman) 120.0 0.0 true true 0 ( 0.8)]
] -40.0 MCshow
1.000 UL
LTb
LCb setrgbcolor
1.000 UL
LTa
LCa setrgbcolor
6643 996 M
5592 1213 L
stroke
LTb
LCb setrgbcolor
6643 996 M
-55 11 V
stroke
6705 964 M
[ [(Times-Roman) 120.0 0.0 true true 0 ( 1)]
] -40.0 MCshow
1.000 UL
LTb
LCb setrgbcolor
LCb setrgbcolor
6582 633 M
[ [(Times-Roman) 120.0 0.0 true true 0 (p2)]
] -40.0 MCshow
LTb
1.000 UL
LTa
LCa setrgbcolor
4157 758 M
468 289 V
stroke
LTa
LCa setrgbcolor
6643 996 M
5592 1213 L
stroke
LTb
LCb setrgbcolor
4220 758 M
-63 0 V
stroke
4031 758 M
[ [(Times-Roman) 120.0 0.0 true true 0 ( 0)]
] -40.0 MRshow
1.000 UL
LTb
LCb setrgbcolor
1.000 UL
LTa
LCa setrgbcolor
4157 871 M
418 258 V
stroke
LTa
LCa setrgbcolor
6643 1109 M
5422 1361 L
stroke
LTb
LCb setrgbcolor
4220 871 M
-63 0 V
stroke
4031 871 M
[ [(Times-Roman) 120.0 0.0 true true 0 ( 5)]
] -40.0 MRshow
1.000 UL
LTb
LCb setrgbcolor
1.000 UL
LTa
LCa setrgbcolor
4157 983 M
371 230 V
stroke
LTa
LCa setrgbcolor
6643 1222 M
5356 1486 L
stroke
LTb
LCb setrgbcolor
4220 983 M
-63 0 V
stroke
4031 983 M
[ [(Times-Roman) 120.0 0.0 true true 0 ( 10)]
] -40.0 MRshow
1.000 UL
LTb
LCb setrgbcolor
1.000 UL
LTa
LCa setrgbcolor
4157 1096 M
327 202 V
stroke
LTa
LCa setrgbcolor
6643 1334 M
5299 1611 L
stroke
LTb
LCb setrgbcolor
4220 1096 M
-63 0 V
stroke
4031 1096 M
[ [(Times-Roman) 120.0 0.0 true true 0 ( 15)]
] -40.0 MRshow
1.000 UL
LTb
LCb setrgbcolor
1.000 UL
LTa
LCa setrgbcolor
4157 1209 M
287 177 V
stroke
LTa
LCa setrgbcolor
6643 1446 M
5246 1734 L
stroke
LTb
LCb setrgbcolor
4220 1209 M
-63 0 V
stroke
4031 1209 M
[ [(Times-Roman) 120.0 0.0 true true 0 ( 20)]
] -40.0 MRshow
1.000 UL
LTb
LCb setrgbcolor
1.000 UL
LTa
LCa setrgbcolor
4157 1321 M
247 152 V
stroke
LTa
LCa setrgbcolor
6643 1559 M
5198 1857 L
stroke
LTb
LCb setrgbcolor
4220 1321 M
-63 0 V
stroke
4031 1321 M
[ [(Times-Roman) 120.0 0.0 true true 0 ( 25)]
] -40.0 MRshow
1.000 UL
LTb
LCb setrgbcolor
1.000 UL
LTa
LCa setrgbcolor
4157 1434 M
208 128 V
stroke
LTa
LCa setrgbcolor
6643 1671 M
5151 1979 L
stroke
LTb
LCb setrgbcolor
4220 1434 M
-63 0 V
stroke
4031 1434 M
[ [(Times-Roman) 120.0 0.0 true true 0 ( 30)]
] -40.0 MRshow
1.000 UL
LTb
LCb setrgbcolor
1.000 UL
LTa
LCa setrgbcolor
4157 1546 M
169 104 V
stroke
LTa
LCa setrgbcolor
6643 1784 M
5106 2101 L
stroke
LTb
LCb setrgbcolor
4220 1546 M
-63 0 V
stroke
4031 1546 M
[ [(Times-Roman) 120.0 0.0 true true 0 ( 35)]
] -40.0 MRshow
1.000 UL
LTb
LCb setrgbcolor
1.000 UL
LTa
LCa setrgbcolor
5062 2219 M
5 3 V
stroke
LTa
LCa setrgbcolor
4157 1658 M
128 80 V
stroke
LTa
LCa setrgbcolor
6643 1897 M
5067 2222 L
stroke
LTb
LCb setrgbcolor
4220 1658 M
-63 0 V
stroke
4031 1658 M
[ [(Times-Roman) 120.0 0.0 true true 0 ( 40)]
] -40.0 MRshow
1.000 UL
LTb
LCb setrgbcolor
1.000 UL
LTa
LCa setrgbcolor
5018 2304 M
49 30 V
stroke
LTa
LCa setrgbcolor
4157 1771 M
73 45 V
stroke
LTa
LCa setrgbcolor
6643 2009 M
5067 2334 L
stroke
LTb
LCb setrgbcolor
4220 1771 M
-63 0 V
stroke
4031 1771 M
[ [(Times-Roman) 120.0 0.0 true true 0 ( 45)]
] -40.0 MRshow
1.000 UL
LTb
LCb setrgbcolor
1.000 UL
LTa
LCa setrgbcolor
5015 2415 M
52 32 V
stroke
LTa
LCa setrgbcolor
4157 1884 M
858 531 V
stroke
LTa
LCa setrgbcolor
6643 2122 M
5067 2447 L
stroke
LTb
LCb setrgbcolor
4220 1884 M
-63 0 V
stroke
4031 1884 M
[ [(Times-Roman) 120.0 0.0 true true 0 ( 50)]
] -40.0 MRshow
1.000 UL
LTb
LCb setrgbcolor
LCb setrgbcolor
3653 1321 M
currentpoint gsave translate 90 rotate 0 0 moveto
[ [(Times-Roman) 120.0 0.0 true true 0 (Avg. number of singles)]
] -40.0 MCshow
grestore
LTb
1.000 UP
grestore % colour palette end
stroke
grestore
end
showpage
%%Trailer
%%DocumentFonts: Times-Roman
