%!PS-Adobe-2.0 EPSF-2.0
%%Title: AS-SMTI-Runtime-vP1-P2-50.eps
%%Creator: gnuplot 4.6 patchlevel 6
%%CreationDate: Sun Oct 25 10:26:26 2015
%%DocumentFonts: (atend)
%%BoundingBox: 50 50 410 194
%%EndComments
%%BeginProlog
/gnudict 256 dict def
gnudict begin
%
% The following true/false flags may be edited by hand if desired.
% The unit line width and grayscale image gamma correction may also be changed.
%
/Color true def
/Blacktext false def
/Solid false def
/Dashlength 1 def
/Landscape false def
/Level1 false def
/Rounded false def
/ClipToBoundingBox false def
/SuppressPDFMark false def
/TransparentPatterns false def
/gnulinewidth 5.000 def
/userlinewidth gnulinewidth def
/Gamma 1.0 def
/BackgroundColor {-1.000 -1.000 -1.000} def
%
/vshift -40 def
/dl1 {
  10.0 Dashlength mul mul
  Rounded { currentlinewidth 0.75 mul sub dup 0 le { pop 0.01 } if } if
} def
/dl2 {
  10.0 Dashlength mul mul
  Rounded { currentlinewidth 0.75 mul add } if
} def
/hpt_ 31.5 def
/vpt_ 31.5 def
/hpt hpt_ def
/vpt vpt_ def
/doclip {
  ClipToBoundingBox {
    newpath 50 50 moveto 410 50 lineto 410 194 lineto 50 194 lineto closepath
    clip
  } if
} def
%
% Gnuplot Prolog Version 4.6 (September 2012)
%
%/SuppressPDFMark true def
%
/M {moveto} bind def
/L {lineto} bind def
/R {rmoveto} bind def
/V {rlineto} bind def
/N {newpath moveto} bind def
/Z {closepath} bind def
/C {setrgbcolor} bind def
/f {rlineto fill} bind def
/g {setgray} bind def
/Gshow {show} def   % May be redefined later in the file to support UTF-8
/vpt2 vpt 2 mul def
/hpt2 hpt 2 mul def
/Lshow {currentpoint stroke M 0 vshift R 
	Blacktext {gsave 0 setgray show grestore} {show} ifelse} def
/Rshow {currentpoint stroke M dup stringwidth pop neg vshift R
	Blacktext {gsave 0 setgray show grestore} {show} ifelse} def
/Cshow {currentpoint stroke M dup stringwidth pop -2 div vshift R 
	Blacktext {gsave 0 setgray show grestore} {show} ifelse} def
/UP {dup vpt_ mul /vpt exch def hpt_ mul /hpt exch def
  /hpt2 hpt 2 mul def /vpt2 vpt 2 mul def} def
/DL {Color {setrgbcolor Solid {pop []} if 0 setdash}
 {pop pop pop 0 setgray Solid {pop []} if 0 setdash} ifelse} def
/BL {stroke userlinewidth 2 mul setlinewidth
	Rounded {1 setlinejoin 1 setlinecap} if} def
/AL {stroke userlinewidth 2 div setlinewidth
	Rounded {1 setlinejoin 1 setlinecap} if} def
/UL {dup gnulinewidth mul /userlinewidth exch def
	dup 1 lt {pop 1} if 10 mul /udl exch def} def
/PL {stroke userlinewidth setlinewidth
	Rounded {1 setlinejoin 1 setlinecap} if} def
3.8 setmiterlimit
% Default Line colors
/LCw {1 1 1} def
/LCb {0 0 0} def
/LCa {0 0 0} def
/LC0 {1 0 0} def
/LC1 {0 1 0} def
/LC2 {0 0 1} def
/LC3 {1 0 1} def
/LC4 {0 1 1} def
/LC5 {1 1 0} def
/LC6 {0 0 0} def
/LC7 {1 0.3 0} def
/LC8 {0.5 0.5 0.5} def
% Default Line Types
/LTw {PL [] 1 setgray} def
/LTb {BL [] LCb DL} def
/LTa {AL [1 udl mul 2 udl mul] 0 setdash LCa setrgbcolor} def
/LT0 {PL [] LC0 DL} def
/LT1 {PL [4 dl1 2 dl2] LC1 DL} def
/LT2 {PL [2 dl1 3 dl2] LC2 DL} def
/LT3 {PL [1 dl1 1.5 dl2] LC3 DL} def
/LT4 {PL [6 dl1 2 dl2 1 dl1 2 dl2] LC4 DL} def
/LT5 {PL [3 dl1 3 dl2 1 dl1 3 dl2] LC5 DL} def
/LT6 {PL [2 dl1 2 dl2 2 dl1 6 dl2] LC6 DL} def
/LT7 {PL [1 dl1 2 dl2 6 dl1 2 dl2 1 dl1 2 dl2] LC7 DL} def
/LT8 {PL [2 dl1 2 dl2 2 dl1 2 dl2 2 dl1 2 dl2 2 dl1 4 dl2] LC8 DL} def
/Pnt {stroke [] 0 setdash gsave 1 setlinecap M 0 0 V stroke grestore} def
/Dia {stroke [] 0 setdash 2 copy vpt add M
  hpt neg vpt neg V hpt vpt neg V
  hpt vpt V hpt neg vpt V closepath stroke
  Pnt} def
/Pls {stroke [] 0 setdash vpt sub M 0 vpt2 V
  currentpoint stroke M
  hpt neg vpt neg R hpt2 0 V stroke
 } def
/Box {stroke [] 0 setdash 2 copy exch hpt sub exch vpt add M
  0 vpt2 neg V hpt2 0 V 0 vpt2 V
  hpt2 neg 0 V closepath stroke
  Pnt} def
/Crs {stroke [] 0 setdash exch hpt sub exch vpt add M
  hpt2 vpt2 neg V currentpoint stroke M
  hpt2 neg 0 R hpt2 vpt2 V stroke} def
/TriU {stroke [] 0 setdash 2 copy vpt 1.12 mul add M
  hpt neg vpt -1.62 mul V
  hpt 2 mul 0 V
  hpt neg vpt 1.62 mul V closepath stroke
  Pnt} def
/Star {2 copy Pls Crs} def
/BoxF {stroke [] 0 setdash exch hpt sub exch vpt add M
  0 vpt2 neg V hpt2 0 V 0 vpt2 V
  hpt2 neg 0 V closepath fill} def
/TriUF {stroke [] 0 setdash vpt 1.12 mul add M
  hpt neg vpt -1.62 mul V
  hpt 2 mul 0 V
  hpt neg vpt 1.62 mul V closepath fill} def
/TriD {stroke [] 0 setdash 2 copy vpt 1.12 mul sub M
  hpt neg vpt 1.62 mul V
  hpt 2 mul 0 V
  hpt neg vpt -1.62 mul V closepath stroke
  Pnt} def
/TriDF {stroke [] 0 setdash vpt 1.12 mul sub M
  hpt neg vpt 1.62 mul V
  hpt 2 mul 0 V
  hpt neg vpt -1.62 mul V closepath fill} def
/DiaF {stroke [] 0 setdash vpt add M
  hpt neg vpt neg V hpt vpt neg V
  hpt vpt V hpt neg vpt V closepath fill} def
/Pent {stroke [] 0 setdash 2 copy gsave
  translate 0 hpt M 4 {72 rotate 0 hpt L} repeat
  closepath stroke grestore Pnt} def
/PentF {stroke [] 0 setdash gsave
  translate 0 hpt M 4 {72 rotate 0 hpt L} repeat
  closepath fill grestore} def
/Circle {stroke [] 0 setdash 2 copy
  hpt 0 360 arc stroke Pnt} def
/CircleF {stroke [] 0 setdash hpt 0 360 arc fill} def
/C0 {BL [] 0 setdash 2 copy moveto vpt 90 450 arc} bind def
/C1 {BL [] 0 setdash 2 copy moveto
	2 copy vpt 0 90 arc closepath fill
	vpt 0 360 arc closepath} bind def
/C2 {BL [] 0 setdash 2 copy moveto
	2 copy vpt 90 180 arc closepath fill
	vpt 0 360 arc closepath} bind def
/C3 {BL [] 0 setdash 2 copy moveto
	2 copy vpt 0 180 arc closepath fill
	vpt 0 360 arc closepath} bind def
/C4 {BL [] 0 setdash 2 copy moveto
	2 copy vpt 180 270 arc closepath fill
	vpt 0 360 arc closepath} bind def
/C5 {BL [] 0 setdash 2 copy moveto
	2 copy vpt 0 90 arc
	2 copy moveto
	2 copy vpt 180 270 arc closepath fill
	vpt 0 360 arc} bind def
/C6 {BL [] 0 setdash 2 copy moveto
	2 copy vpt 90 270 arc closepath fill
	vpt 0 360 arc closepath} bind def
/C7 {BL [] 0 setdash 2 copy moveto
	2 copy vpt 0 270 arc closepath fill
	vpt 0 360 arc closepath} bind def
/C8 {BL [] 0 setdash 2 copy moveto
	2 copy vpt 270 360 arc closepath fill
	vpt 0 360 arc closepath} bind def
/C9 {BL [] 0 setdash 2 copy moveto
	2 copy vpt 270 450 arc closepath fill
	vpt 0 360 arc closepath} bind def
/C10 {BL [] 0 setdash 2 copy 2 copy moveto vpt 270 360 arc closepath fill
	2 copy moveto
	2 copy vpt 90 180 arc closepath fill
	vpt 0 360 arc closepath} bind def
/C11 {BL [] 0 setdash 2 copy moveto
	2 copy vpt 0 180 arc closepath fill
	2 copy moveto
	2 copy vpt 270 360 arc closepath fill
	vpt 0 360 arc closepath} bind def
/C12 {BL [] 0 setdash 2 copy moveto
	2 copy vpt 180 360 arc closepath fill
	vpt 0 360 arc closepath} bind def
/C13 {BL [] 0 setdash 2 copy moveto
	2 copy vpt 0 90 arc closepath fill
	2 copy moveto
	2 copy vpt 180 360 arc closepath fill
	vpt 0 360 arc closepath} bind def
/C14 {BL [] 0 setdash 2 copy moveto
	2 copy vpt 90 360 arc closepath fill
	vpt 0 360 arc} bind def
/C15 {BL [] 0 setdash 2 copy vpt 0 360 arc closepath fill
	vpt 0 360 arc closepath} bind def
/Rec {newpath 4 2 roll moveto 1 index 0 rlineto 0 exch rlineto
	neg 0 rlineto closepath} bind def
/Square {dup Rec} bind def
/Bsquare {vpt sub exch vpt sub exch vpt2 Square} bind def
/S0 {BL [] 0 setdash 2 copy moveto 0 vpt rlineto BL Bsquare} bind def
/S1 {BL [] 0 setdash 2 copy vpt Square fill Bsquare} bind def
/S2 {BL [] 0 setdash 2 copy exch vpt sub exch vpt Square fill Bsquare} bind def
/S3 {BL [] 0 setdash 2 copy exch vpt sub exch vpt2 vpt Rec fill Bsquare} bind def
/S4 {BL [] 0 setdash 2 copy exch vpt sub exch vpt sub vpt Square fill Bsquare} bind def
/S5 {BL [] 0 setdash 2 copy 2 copy vpt Square fill
	exch vpt sub exch vpt sub vpt Square fill Bsquare} bind def
/S6 {BL [] 0 setdash 2 copy exch vpt sub exch vpt sub vpt vpt2 Rec fill Bsquare} bind def
/S7 {BL [] 0 setdash 2 copy exch vpt sub exch vpt sub vpt vpt2 Rec fill
	2 copy vpt Square fill Bsquare} bind def
/S8 {BL [] 0 setdash 2 copy vpt sub vpt Square fill Bsquare} bind def
/S9 {BL [] 0 setdash 2 copy vpt sub vpt vpt2 Rec fill Bsquare} bind def
/S10 {BL [] 0 setdash 2 copy vpt sub vpt Square fill 2 copy exch vpt sub exch vpt Square fill
	Bsquare} bind def
/S11 {BL [] 0 setdash 2 copy vpt sub vpt Square fill 2 copy exch vpt sub exch vpt2 vpt Rec fill
	Bsquare} bind def
/S12 {BL [] 0 setdash 2 copy exch vpt sub exch vpt sub vpt2 vpt Rec fill Bsquare} bind def
/S13 {BL [] 0 setdash 2 copy exch vpt sub exch vpt sub vpt2 vpt Rec fill
	2 copy vpt Square fill Bsquare} bind def
/S14 {BL [] 0 setdash 2 copy exch vpt sub exch vpt sub vpt2 vpt Rec fill
	2 copy exch vpt sub exch vpt Square fill Bsquare} bind def
/S15 {BL [] 0 setdash 2 copy Bsquare fill Bsquare} bind def
/D0 {gsave translate 45 rotate 0 0 S0 stroke grestore} bind def
/D1 {gsave translate 45 rotate 0 0 S1 stroke grestore} bind def
/D2 {gsave translate 45 rotate 0 0 S2 stroke grestore} bind def
/D3 {gsave translate 45 rotate 0 0 S3 stroke grestore} bind def
/D4 {gsave translate 45 rotate 0 0 S4 stroke grestore} bind def
/D5 {gsave translate 45 rotate 0 0 S5 stroke grestore} bind def
/D6 {gsave translate 45 rotate 0 0 S6 stroke grestore} bind def
/D7 {gsave translate 45 rotate 0 0 S7 stroke grestore} bind def
/D8 {gsave translate 45 rotate 0 0 S8 stroke grestore} bind def
/D9 {gsave translate 45 rotate 0 0 S9 stroke grestore} bind def
/D10 {gsave translate 45 rotate 0 0 S10 stroke grestore} bind def
/D11 {gsave translate 45 rotate 0 0 S11 stroke grestore} bind def
/D12 {gsave translate 45 rotate 0 0 S12 stroke grestore} bind def
/D13 {gsave translate 45 rotate 0 0 S13 stroke grestore} bind def
/D14 {gsave translate 45 rotate 0 0 S14 stroke grestore} bind def
/D15 {gsave translate 45 rotate 0 0 S15 stroke grestore} bind def
/DiaE {stroke [] 0 setdash vpt add M
  hpt neg vpt neg V hpt vpt neg V
  hpt vpt V hpt neg vpt V closepath stroke} def
/BoxE {stroke [] 0 setdash exch hpt sub exch vpt add M
  0 vpt2 neg V hpt2 0 V 0 vpt2 V
  hpt2 neg 0 V closepath stroke} def
/TriUE {stroke [] 0 setdash vpt 1.12 mul add M
  hpt neg vpt -1.62 mul V
  hpt 2 mul 0 V
  hpt neg vpt 1.62 mul V closepath stroke} def
/TriDE {stroke [] 0 setdash vpt 1.12 mul sub M
  hpt neg vpt 1.62 mul V
  hpt 2 mul 0 V
  hpt neg vpt -1.62 mul V closepath stroke} def
/PentE {stroke [] 0 setdash gsave
  translate 0 hpt M 4 {72 rotate 0 hpt L} repeat
  closepath stroke grestore} def
/CircE {stroke [] 0 setdash 
  hpt 0 360 arc stroke} def
/Opaque {gsave closepath 1 setgray fill grestore 0 setgray closepath} def
/DiaW {stroke [] 0 setdash vpt add M
  hpt neg vpt neg V hpt vpt neg V
  hpt vpt V hpt neg vpt V Opaque stroke} def
/BoxW {stroke [] 0 setdash exch hpt sub exch vpt add M
  0 vpt2 neg V hpt2 0 V 0 vpt2 V
  hpt2 neg 0 V Opaque stroke} def
/TriUW {stroke [] 0 setdash vpt 1.12 mul add M
  hpt neg vpt -1.62 mul V
  hpt 2 mul 0 V
  hpt neg vpt 1.62 mul V Opaque stroke} def
/TriDW {stroke [] 0 setdash vpt 1.12 mul sub M
  hpt neg vpt 1.62 mul V
  hpt 2 mul 0 V
  hpt neg vpt -1.62 mul V Opaque stroke} def
/PentW {stroke [] 0 setdash gsave
  translate 0 hpt M 4 {72 rotate 0 hpt L} repeat
  Opaque stroke grestore} def
/CircW {stroke [] 0 setdash 
  hpt 0 360 arc Opaque stroke} def
/BoxFill {gsave Rec 1 setgray fill grestore} def
/Density {
  /Fillden exch def
  currentrgbcolor
  /ColB exch def /ColG exch def /ColR exch def
  /ColR ColR Fillden mul Fillden sub 1 add def
  /ColG ColG Fillden mul Fillden sub 1 add def
  /ColB ColB Fillden mul Fillden sub 1 add def
  ColR ColG ColB setrgbcolor} def
/BoxColFill {gsave Rec PolyFill} def
/PolyFill {gsave Density fill grestore grestore} def
/h {rlineto rlineto rlineto gsave closepath fill grestore} bind def
%
% PostScript Level 1 Pattern Fill routine for rectangles
% Usage: x y w h s a XX PatternFill
%	x,y = lower left corner of box to be filled
%	w,h = width and height of box
%	  a = angle in degrees between lines and x-axis
%	 XX = 0/1 for no/yes cross-hatch
%
/PatternFill {gsave /PFa [ 9 2 roll ] def
  PFa 0 get PFa 2 get 2 div add PFa 1 get PFa 3 get 2 div add translate
  PFa 2 get -2 div PFa 3 get -2 div PFa 2 get PFa 3 get Rec
  TransparentPatterns {} {gsave 1 setgray fill grestore} ifelse
  clip
  currentlinewidth 0.5 mul setlinewidth
  /PFs PFa 2 get dup mul PFa 3 get dup mul add sqrt def
  0 0 M PFa 5 get rotate PFs -2 div dup translate
  0 1 PFs PFa 4 get div 1 add floor cvi
	{PFa 4 get mul 0 M 0 PFs V} for
  0 PFa 6 get ne {
	0 1 PFs PFa 4 get div 1 add floor cvi
	{PFa 4 get mul 0 2 1 roll M PFs 0 V} for
 } if
  stroke grestore} def
%
/languagelevel where
 {pop languagelevel} {1} ifelse
 2 lt
	{/InterpretLevel1 true def}
	{/InterpretLevel1 Level1 def}
 ifelse
%
% PostScript level 2 pattern fill definitions
%
/Level2PatternFill {
/Tile8x8 {/PaintType 2 /PatternType 1 /TilingType 1 /BBox [0 0 8 8] /XStep 8 /YStep 8}
	bind def
/KeepColor {currentrgbcolor [/Pattern /DeviceRGB] setcolorspace} bind def
<< Tile8x8
 /PaintProc {0.5 setlinewidth pop 0 0 M 8 8 L 0 8 M 8 0 L stroke} 
>> matrix makepattern
/Pat1 exch def
<< Tile8x8
 /PaintProc {0.5 setlinewidth pop 0 0 M 8 8 L 0 8 M 8 0 L stroke
	0 4 M 4 8 L 8 4 L 4 0 L 0 4 L stroke}
>> matrix makepattern
/Pat2 exch def
<< Tile8x8
 /PaintProc {0.5 setlinewidth pop 0 0 M 0 8 L
	8 8 L 8 0 L 0 0 L fill}
>> matrix makepattern
/Pat3 exch def
<< Tile8x8
 /PaintProc {0.5 setlinewidth pop -4 8 M 8 -4 L
	0 12 M 12 0 L stroke}
>> matrix makepattern
/Pat4 exch def
<< Tile8x8
 /PaintProc {0.5 setlinewidth pop -4 0 M 8 12 L
	0 -4 M 12 8 L stroke}
>> matrix makepattern
/Pat5 exch def
<< Tile8x8
 /PaintProc {0.5 setlinewidth pop -2 8 M 4 -4 L
	0 12 M 8 -4 L 4 12 M 10 0 L stroke}
>> matrix makepattern
/Pat6 exch def
<< Tile8x8
 /PaintProc {0.5 setlinewidth pop -2 0 M 4 12 L
	0 -4 M 8 12 L 4 -4 M 10 8 L stroke}
>> matrix makepattern
/Pat7 exch def
<< Tile8x8
 /PaintProc {0.5 setlinewidth pop 8 -2 M -4 4 L
	12 0 M -4 8 L 12 4 M 0 10 L stroke}
>> matrix makepattern
/Pat8 exch def
<< Tile8x8
 /PaintProc {0.5 setlinewidth pop 0 -2 M 12 4 L
	-4 0 M 12 8 L -4 4 M 8 10 L stroke}
>> matrix makepattern
/Pat9 exch def
/Pattern1 {PatternBgnd KeepColor Pat1 setpattern} bind def
/Pattern2 {PatternBgnd KeepColor Pat2 setpattern} bind def
/Pattern3 {PatternBgnd KeepColor Pat3 setpattern} bind def
/Pattern4 {PatternBgnd KeepColor Landscape {Pat5} {Pat4} ifelse setpattern} bind def
/Pattern5 {PatternBgnd KeepColor Landscape {Pat4} {Pat5} ifelse setpattern} bind def
/Pattern6 {PatternBgnd KeepColor Landscape {Pat9} {Pat6} ifelse setpattern} bind def
/Pattern7 {PatternBgnd KeepColor Landscape {Pat8} {Pat7} ifelse setpattern} bind def
} def
%
%
%End of PostScript Level 2 code
%
/PatternBgnd {
  TransparentPatterns {} {gsave 1 setgray fill grestore} ifelse
} def
%
% Substitute for Level 2 pattern fill codes with
% grayscale if Level 2 support is not selected.
%
/Level1PatternFill {
/Pattern1 {0.250 Density} bind def
/Pattern2 {0.500 Density} bind def
/Pattern3 {0.750 Density} bind def
/Pattern4 {0.125 Density} bind def
/Pattern5 {0.375 Density} bind def
/Pattern6 {0.625 Density} bind def
/Pattern7 {0.875 Density} bind def
} def
%
% Now test for support of Level 2 code
%
Level1 {Level1PatternFill} {Level2PatternFill} ifelse
%
/Symbol-Oblique /Symbol findfont [1 0 .167 1 0 0] makefont
dup length dict begin {1 index /FID eq {pop pop} {def} ifelse} forall
currentdict end definefont pop
/MFshow {
   { dup 5 get 3 ge
     { 5 get 3 eq {gsave} {grestore} ifelse }
     {dup dup 0 get findfont exch 1 get scalefont setfont
     [ currentpoint ] exch dup 2 get 0 exch R dup 5 get 2 ne {dup dup 6
     get exch 4 get {Gshow} {stringwidth pop 0 R} ifelse }if dup 5 get 0 eq
     {dup 3 get {2 get neg 0 exch R pop} {pop aload pop M} ifelse} {dup 5
     get 1 eq {dup 2 get exch dup 3 get exch 6 get stringwidth pop -2 div
     dup 0 R} {dup 6 get stringwidth pop -2 div 0 R 6 get
     show 2 index {aload pop M neg 3 -1 roll neg R pop pop} {pop pop pop
     pop aload pop M} ifelse }ifelse }ifelse }
     ifelse }
   forall} def
/Gswidth {dup type /stringtype eq {stringwidth} {pop (n) stringwidth} ifelse} def
/MFwidth {0 exch { dup 5 get 3 ge { 5 get 3 eq { 0 } { pop } ifelse }
 {dup 3 get{dup dup 0 get findfont exch 1 get scalefont setfont
     6 get Gswidth pop add} {pop} ifelse} ifelse} forall} def
/MLshow { currentpoint stroke M
  0 exch R
  Blacktext {gsave 0 setgray MFshow grestore} {MFshow} ifelse } bind def
/MRshow { currentpoint stroke M
  exch dup MFwidth neg 3 -1 roll R
  Blacktext {gsave 0 setgray MFshow grestore} {MFshow} ifelse } bind def
/MCshow { currentpoint stroke M
  exch dup MFwidth -2 div 3 -1 roll R
  Blacktext {gsave 0 setgray MFshow grestore} {MFshow} ifelse } bind def
/XYsave    { [( ) 1 2 true false 3 ()] } bind def
/XYrestore { [( ) 1 2 true false 4 ()] } bind def
Level1 SuppressPDFMark or 
{} {
/SDict 10 dict def
systemdict /pdfmark known not {
  userdict /pdfmark systemdict /cleartomark get put
} if
SDict begin [
  /Title (AS-SMTI-Runtime-vP1-P2-50.eps)
  /Subject (gnuplot plot)
  /Creator (gnuplot 4.6 patchlevel 6)
  /Author (dannymunera)
%  /Producer (gnuplot)
%  /Keywords ()
  /CreationDate (Sun Oct 25 10:26:26 2015)
  /DOCINFO pdfmark
end
} ifelse
end
%%EndProlog
%%Page: 1 1
gnudict begin
gsave
doclip
50 50 translate
0.050 0.050 scale
0 setgray
newpath
(Times-Roman) findfont 120 scalefont setfont
BackgroundColor 0 lt 3 1 roll 0 lt exch 0 lt or or not {BackgroundColor C 1.000 0 0 7200.00 2880.00 BoxColFill} if
LCb setrgbcolor
LTb
gsave % colour palette begin
/maxcolors 0 def
/HSV2RGB {  exch dup 0.0 eq {pop exch pop dup dup} % achromatic gray
  { /HSVs exch def /HSVv exch def 6.0 mul dup floor dup 3 1 roll sub
     /HSVf exch def /HSVi exch cvi def /HSVp HSVv 1.0 HSVs sub mul def
	 /HSVq HSVv 1.0 HSVs HSVf mul sub mul def 
	 /HSVt HSVv 1.0 HSVs 1.0 HSVf sub mul sub mul def
	 /HSVi HSVi 6 mod def 0 HSVi eq {HSVv HSVt HSVp}
	 {1 HSVi eq {HSVq HSVv HSVp}{2 HSVi eq {HSVp HSVv HSVt}
	 {3 HSVi eq {HSVp HSVq HSVv}{4 HSVi eq {HSVt HSVp HSVv}
	 {HSVv HSVp HSVq} ifelse} ifelse} ifelse} ifelse} ifelse
  } ifelse} def
/Constrain {
  dup 0 lt {0 exch pop}{dup 1 gt {1 exch pop} if} ifelse} def
/YIQ2RGB {
  3 copy -1.702 mul exch -1.105 mul add add Constrain 4 1 roll
  3 copy -0.647 mul exch -0.272 mul add add Constrain 5 1 roll
  0.621 mul exch -0.956 mul add add Constrain 3 1 roll } def
/CMY2RGB {  1 exch sub exch 1 exch sub 3 2 roll 1 exch sub 3 1 roll exch } def
/XYZ2RGB {  3 copy -0.9017 mul exch -0.1187 mul add exch 0.0585 mul exch add
  Constrain 4 1 roll 3 copy -0.0279 mul exch 1.999 mul add exch
  -0.9844 mul add Constrain 5 1 roll -0.2891 mul exch -0.5338 mul add
  exch 1.91 mul exch add Constrain 3 1 roll} def
/SelectSpace {ColorSpace (HSV) eq {HSV2RGB}{ColorSpace (XYZ) eq {
  XYZ2RGB}{ColorSpace (CMY) eq {CMY2RGB}{ColorSpace (YIQ) eq {YIQ2RGB}
  if} ifelse} ifelse} ifelse} def
/InterpolatedColor true def
/grayindex {/gidx 0 def
  {GrayA gidx get grayv ge {exit} if /gidx gidx 1 add def} loop} def
/dgdx {grayv GrayA gidx get sub GrayA gidx 1 sub get
  GrayA gidx get sub div} def 
/redvalue {RedA gidx get RedA gidx 1 sub get
  RedA gidx get sub dgdxval mul add} def
/greenvalue {GreenA gidx get GreenA gidx 1 sub get
  GreenA gidx get sub dgdxval mul add} def
/bluevalue {BlueA gidx get BlueA gidx 1 sub get
  BlueA gidx get sub dgdxval mul add} def
/interpolate {
  grayindex grayv GrayA gidx get sub abs 1e-5 le
    {RedA gidx get GreenA gidx get BlueA gidx get}
    {/dgdxval dgdx def redvalue greenvalue bluevalue} ifelse} def
/GrayA [0 .7 1 ] def
/RedA [1 1 0 ] def
/GreenA [0 1 1 ] def
/BlueA [0 0 0 ] def
/pm3dround {maxcolors 0 gt {dup 1 ge
	{pop 1} {maxcolors mul floor maxcolors 1 sub div} ifelse} if} def
/pm3dGamma 1.0 1.5 Gamma mul div def
/ColorSpace (RGB) def
Color InterpolatedColor or { % COLOUR vs. GRAY map
  InterpolatedColor { %% Interpolation vs. RGB-Formula
    /g {stroke pm3dround /grayv exch def interpolate
        SelectSpace setrgbcolor} bind def
  }{
  /g {stroke pm3dround dup cF7 Constrain exch dup cF5 Constrain exch cF15 Constrain 
       SelectSpace setrgbcolor} bind def
  } ifelse
}{
  /g {stroke pm3dround pm3dGamma exp setgray} bind def
} ifelse
1.000 UL
LTb
LCb setrgbcolor
1.000 UP
LTb
1792 121 M
[ [(Times-Roman) 120.0 0.0 true true 0 (a\))]
] -40.0 MLshow
% Begin plot #1
% End plot #1
% Begin plot #2
1.000 UL
LT0
0.75 0.75 0.75 C 1.000 UL
LT0
0.75 0.75 0.75 C % End plot #2
.9859 g 2189 1173 N 113 53 66 -41 -114 -26 h
1.000 UL
LT0
0.75 0.75 0.75 C 2189 1173 M
65 -14 V
-113 -53 V
-66 41 V
114 26 V
.9663 g 2123 1192 N 114 26 66 -69 -114 24 h
stroke
LT0
0.75 0.75 0.75 C 2123 1192 M
66 -19 V
-114 -26 V
-66 69 V
114 -24 V
.9272 g 2057 1253 N 114 -24 65 -81 -113 44 h
stroke
LT0
0.75 0.75 0.75 C 2057 1253 M
66 -61 V
-114 24 V
-65 81 V
113 -44 V
.9945 g 2254 1159 N 114 63 65 -24 -113 -53 h
stroke
LT0
0.75 0.75 0.75 C 2254 1159 M
66 -14 V
-114 -63 V
-65 24 V
113 53 V
.9977 g 2320 1145 N 114 68 66 -18 -114 -63 h
stroke
LT0
0.75 0.75 0.75 C 2320 1145 M
66 -13 V
-114 -68 V
-66 18 V
114 63 V
.8586 g 1992 1379 N 113 -44 66 -95 -114 13 h
stroke
LT0
0.75 0.75 0.75 C 1992 1379 M
65 -126 V
-113 44 V
-66 95 V
114 -13 V
.9989 g 2386 1132 N 114 68 66 -14 -114 -68 h
stroke
LT0
0.75 0.75 0.75 C 2386 1132 M
66 -14 V
-114 -68 V
-66 14 V
114 68 V
.7704 g 1926 1505 N 114 -13 66 -103 -114 -10 h
stroke
LT0
0.75 0.75 0.75 C 1926 1505 M
66 -126 V
-114 13 V
-66 103 V
114 10 V
.9993 g 2452 1118 N 114 69 65 -14 -114 -68 h
stroke
LT0
0.75 0.75 0.75 C 2452 1118 M
65 -13 V
-114 -69 V
-65 14 V
114 68 V
.6781 g 1860 1634 N 114 10 64 -109 -112 -30 h
stroke
LT0
0.75 0.75 0.75 C 1860 1634 M
66 -129 V
-114 -10 V
-64 109 V
112 30 V
.9994 g 2517 1105 N 114 69 66 -14 -114 -69 h
stroke
LT0
0.75 0.75 0.75 C 2517 1105 M
66 -14 V
-114 -69 V
-66 14 V
114 69 V
.9997 g 2583 1091 N 114 71 66 -15 -114 -69 h
stroke
LT0
0.75 0.75 0.75 C 2583 1091 M
66 -13 V
-114 -71 V
-66 15 V
114 69 V
.5824 g 1796 1764 N 112 30 66 -118 -114 -42 h
stroke
LT0
0.75 0.75 0.75 C 1796 1764 M
64 -130 V
-112 -30 V
-66 118 V
114 42 V
.9528 g 2075 1147 N 114 32 66 -51 -114 -22 h
stroke
LT0
0.75 0.75 0.75 C 2075 1147 M
66 -41 V
-114 -32 V
-66 51 V
114 22 V
.9143 g 2009 1216 N 114 22 65 -67 -113 -24 h
stroke
LT0
0.75 0.75 0.75 C 2009 1216 M
66 -69 V
-114 -22 V
-65 67 V
113 24 V
.9758 g 2141 1106 N 113 50 66 -42 -114 -32 h
stroke
LT0
0.75 0.75 0.75 C 2141 1106 M
65 -24 V
-113 -50 V
-66 42 V
114 32 V
.9999 g 2649 1078 N 114 70 65 -13 -114 -71 h
stroke
LT0
0.75 0.75 0.75 C 2649 1078 M
65 -14 V
2600 994 L
-65 13 V
114 71 V
.8598 g 1944 1297 N 113 24 66 -83 -114 -22 h
stroke
LT0
0.75 0.75 0.75 C 1944 1297 M
65 -81 V
-113 -24 V
-66 83 V
114 22 V
.9879 g 2206 1082 N 114 57 65 -25 -113 -50 h
stroke
LT0
0.75 0.75 0.75 C 2206 1082 M
66 -18 V
-114 -57 V
-65 25 V
113 50 V
.4836 g 1730 1895 N 114 42 66 -122 -114 -51 h
stroke
LT0
0.75 0.75 0.75 C 1730 1895 M
66 -131 V
-114 -42 V
-66 122 V
114 51 V
1 g 2714 1064 N 114 70 66 -14 -114 -70 h
stroke
LT0
0.75 0.75 0.75 C 2714 1064 M
66 -14 V
2666 980 L
-66 14 V
114 70 V
.7956 g 1878 1392 N 114 22 65 -84 -113 -33 h
stroke
LT0
0.75 0.75 0.75 C 1878 1392 M
66 -95 V
-114 -22 V
-65 84 V
113 33 V
.9927 g 2272 1064 N 114 61 66 -18 -114 -57 h
stroke
LT0
0.75 0.75 0.75 C 2272 1064 M
66 -14 V
2224 989 L
-66 18 V
114 57 V
1 g 2780 1050 N 114 71 66 -14 -114 -70 h
stroke
LT0
0.75 0.75 0.75 C 2780 1050 M
66 -13 V
2732 966 L
-66 14 V
114 70 V
.9951 g 2338 1050 N 113 65 66 -18 -114 -61 h
stroke
LT0
0.75 0.75 0.75 C 2338 1050 M
65 -14 V
2290 971 L
-66 18 V
114 61 V
.7224 g 1812 1495 N 113 33 65 -100 -112 -36 h
stroke
LT0
0.75 0.75 0.75 C 1812 1495 M
66 -103 V
-113 -33 V
-65 100 V
112 36 V
.382 g 1664 2027 N 114 51 65 -127 -113 -56 h
stroke
LT0
0.75 0.75 0.75 C 1664 2027 M
66 -132 V
-114 -51 V
-65 127 V
113 56 V
1 g 2846 1037 N 114 70 65 -13 -114 -71 h
stroke
LT0
0.75 0.75 0.75 C 2846 1037 M
65 -14 V
2797 953 L
-65 13 V
114 71 V
.9968 g 2403 1036 N 114 67 65 -16 -113 -65 h
stroke
LT0
0.75 0.75 0.75 C 2403 1036 M
66 -14 V
2355 955 L
-65 16 V
113 65 V
.6423 g 1748 1604 N 112 36 66 -101 -114 -44 h
stroke
LT0
0.75 0.75 0.75 C 1748 1604 M
64 -109 V
-112 -36 V
-66 101 V
114 44 V
1 g 2911 1023 N 114 71 66 -14 -114 -70 h
stroke
LT0
0.75 0.75 0.75 C 2911 1023 M
66 -13 V
2863 939 L
-66 14 V
114 70 V
.9979 g 2469 1022 N 114 67 66 -15 -114 -67 h
stroke
LT0
0.75 0.75 0.75 C 2469 1022 M
66 -15 V
2421 940 L
-66 15 V
114 67 V
.2785 g 1599 2160 N 113 56 66 -128 -114 -61 h
stroke
LT0
0.75 0.75 0.75 C 1599 2160 M
65 -133 V
-113 -56 V
-66 128 V
114 61 V
.5579 g 1682 1722 N 114 44 66 -107 -114 -55 h
stroke
LT0
0.75 0.75 0.75 C 1682 1722 M
66 -118 V
-114 -44 V
-66 107 V
114 55 V
1 g 2977 1010 N 114 70 66 -13 -114 -71 h
stroke
LT0
0.75 0.75 0.75 C 2977 1010 M
66 -14 V
2929 926 L
-66 13 V
114 71 V
.9986 g 2535 1007 N 113 68 66 -14 -114 -67 h
stroke
LT0
0.75 0.75 0.75 C 2535 1007 M
65 -13 V
2487 926 L
-66 14 V
114 67 V
.9575 g 2027 1074 N 114 61 66 -47 -114 -56 h
stroke
LT0
0.75 0.75 0.75 C 2027 1074 M
66 -42 V
1979 971 L
-66 47 V
114 56 V
.9244 g 1961 1125 N 114 56 65 -63 -113 -44 h
stroke
LT0
0.75 0.75 0.75 C 1961 1125 M
66 -51 V
-114 -56 V
-65 63 V
113 44 V
.8811 g 1896 1192 N 113 44 65 -68 -113 -43 h
stroke
LT0
0.75 0.75 0.75 C 1896 1192 M
65 -67 V
-113 -44 V
-65 68 V
113 43 V
.9777 g 2093 1032 N 113 67 66 -31 -114 -61 h
stroke
LT0
0.75 0.75 0.75 C 2093 1032 M
65 -25 V
2045 940 L
-66 31 V
114 61 V
.8279 g 1830 1275 N 113 43 66 -76 -113 -50 h
stroke
LT0
0.75 0.75 0.75 C 1830 1275 M
66 -83 V
-113 -43 V
-66 76 V
113 50 V
.9989 g 2600 994 N 114 68 65 -14 -113 -68 h
stroke
LT0
0.75 0.75 0.75 C 2600 994 M
66 -14 V
2552 912 L
-65 14 V
113 68 V
.4676 g 1616 1844 N 114 55 65 -115 -113 -62 h
stroke
LT0
0.75 0.75 0.75 C 1616 1844 M
66 -122 V
-114 -55 V
-65 115 V
113 62 V
.1734 g 1533 2296 N 114 61 66 -131 -114 -66 h
stroke
LT0
0.75 0.75 0.75 C 1533 2296 M
66 -136 V
-114 -61 V
-66 131 V
114 66 V
.9871 g 2158 1007 N 114 72 65 -23 -113 -67 h
stroke
LT0
0.75 0.75 0.75 C 2158 1007 M
66 -18 V
2110 917 L
-65 23 V
113 67 V
.7677 g 1765 1359 N 113 50 65 -83 -113 -51 h
stroke
LT0
0.75 0.75 0.75 C 1765 1359 M
65 -84 V
-113 -50 V
-65 83 V
113 51 V
.9991 g 2666 980 N 114 68 66 -14 -114 -68 h
stroke
LT0
0.75 0.75 0.75 C 2666 980 M
66 -14 V
2618 898 L
-66 14 V
114 68 V
.9918 g 2224 989 N 114 70 66 -16 -114 -72 h
stroke
LT0
0.75 0.75 0.75 C 2224 989 M
66 -18 V
2176 901 L
-66 16 V
114 72 V
.6999 g 1700 1459 N 113 51 66 -92 -114 -59 h
stroke
LT0
0.75 0.75 0.75 C 1700 1459 M
65 -100 V
-113 -51 V
-66 92 V
114 59 V
.3716 g 1551 1971 N 113 62 66 -123 -114 -66 h
stroke
LT0
0.75 0.75 0.75 C 1551 1971 M
65 -127 V
-113 -62 V
-66 123 V
114 66 V
.9992 g 2732 966 N 113 69 66 -14 -114 -68 h
stroke
LT0
0.75 0.75 0.75 C 2732 966 M
65 -13 V
2684 884 L
-66 14 V
114 68 V
.066 g 1467 2434 N 114 66 65 -134 -113 -70 h
stroke
LT0
0.75 0.75 0.75 C 1467 2434 M
66 -138 V
-114 -66 V
-65 134 V
113 70 V
.9943 g 2290 971 N 113 69 66 -15 -114 -70 h
stroke
LT0
0.75 0.75 0.75 C 2290 971 M
65 -16 V
2242 886 L
-66 15 V
114 70 V
.6255 g 1634 1560 N 114 59 66 -95 -114 -65 h
stroke
LT0
0.75 0.75 0.75 C 1634 1560 M
66 -101 V
-114 -59 V
-66 95 V
114 65 V
.9994 g 2797 953 N 114 69 65 -14 -113 -69 h
stroke
LT0
0.75 0.75 0.75 C 2797 953 M
66 -14 V
2749 870 L
-65 14 V
113 69 V
.9958 g 2355 955 N 114 69 65 -15 -113 -69 h
stroke
LT0
0.75 0.75 0.75 C 2355 955 M
66 -15 V
2307 871 L
-65 15 V
113 69 V
.2724 g 1485 2099 N 114 66 66 -123 -114 -71 h
stroke
LT0
0.75 0.75 0.75 C 1485 2099 M
66 -128 V
-114 -66 V
-66 123 V
114 71 V
.5475 g 1568 1667 N 114 65 65 -102 -113 -70 h
stroke
LT0
0.75 0.75 0.75 C 1568 1667 M
66 -107 V
-114 -65 V
-65 102 V
113 70 V
.9995 g 2863 939 N 114 70 66 -14 -114 -69 h
stroke
LT0
0.75 0.75 0.75 C 2863 939 M
66 -13 V
2815 856 L
-66 14 V
114 69 V
.9969 g 2421 940 N 114 70 66 -15 -114 -69 h
stroke
LT0
0.75 0.75 0.75 C 2421 940 M
66 -14 V
2373 856 L
-66 15 V
114 69 V
.9096 g 1848 1081 N 113 54 65 -57 -113 -60 h
stroke
LT0
0.75 0.75 0.75 C 1848 1081 M
65 -63 V
1800 964 L
-65 57 V
113 60 V
.9459 g 1913 1018 N 114 58 65 -51 -113 -54 h
stroke
LT0
0.75 0.75 0.75 C 1913 1018 M
66 -47 V
1865 913 L
-65 51 V
113 54 V
.8649 g 1783 1149 N 113 60 66 -67 -114 -61 h
stroke
LT0
0.75 0.75 0.75 C 1783 1149 M
65 -68 V
-113 -60 V
-66 67 V
114 61 V
.9708 g 1979 971 N 114 65 66 -38 -114 -58 h
stroke
LT0
0.75 0.75 0.75 C 1979 971 M
66 -31 V
1931 875 L
-66 38 V
114 58 V
.9976 g 2487 926 N 113 70 66 -14 -114 -70 h
stroke
LT0
0.75 0.75 0.75 C 2487 926 M
65 -14 V
2439 842 L
-66 14 V
114 70 V
.8149 g 1717 1225 N 114 61 66 -69 -114 -68 h
stroke
LT0
0.75 0.75 0.75 C 1717 1225 M
66 -76 V
-114 -61 V
-66 69 V
114 68 V
.4623 g 1503 1782 N 113 70 66 -114 -114 -71 h
stroke
LT0
0.75 0.75 0.75 C 1503 1782 M
65 -115 V
-113 -70 V
-66 114 V
114 71 V
.1711 g 1419 2230 N 114 71 65 -129 -113 -73 h
stroke
LT0
0.75 0.75 0.75 C 1419 2230 M
66 -131 V
-114 -71 V
-65 129 V
113 73 V
.9852 g 2045 940 N 113 69 66 -27 -114 -65 h
stroke
LT0
0.75 0.75 0.75 C 2045 940 M
65 -23 V
1997 848 L
-66 27 V
114 65 V
.7586 g 1652 1308 N 114 68 65 -80 -114 -71 h
stroke
LT0
0.75 0.75 0.75 C 1652 1308 M
65 -83 V
-114 -68 V
-65 80 V
114 71 V
.9981 g 2552 912 N 114 71 65 -15 -113 -70 h
stroke
LT0
0.75 0.75 0.75 C 2552 912 M
66 -14 V
2504 827 L
-65 15 V
113 70 V
.9918 g 2110 917 N 114 71 65 -18 -113 -69 h
stroke
LT0
0.75 0.75 0.75 C 2110 917 M
66 -16 V
2062 830 L
-65 18 V
113 69 V
.6945 g 1586 1400 N 114 71 66 -88 -114 -75 h
stroke
LT0
0.75 0.75 0.75 C 1586 1400 M
66 -92 V
-114 -71 V
-66 88 V
114 75 V
.3706 g 1437 1905 N 114 71 66 -116 -114 -78 h
stroke
LT0
0.75 0.75 0.75 C 1437 1905 M
66 -123 V
-114 -71 V
-66 116 V
114 78 V
.9986 g 2618 898 N 114 71 66 -14 -114 -71 h
stroke
LT0
0.75 0.75 0.75 C 2618 898 M
66 -14 V
2570 813 L
-66 14 V
114 71 V
.066 g 1354 2364 N 113 73 66 -134 -114 -73 h
stroke
LT0
0.75 0.75 0.75 C 1354 2364 M
65 -134 V
-113 -73 V
-66 134 V
114 73 V
.9944 g 2176 901 N 114 73 66 -17 -114 -71 h
stroke
LT0
0.75 0.75 0.75 C 2176 901 M
66 -15 V
2128 813 L
-66 17 V
114 71 V
.6242 g 1520 1495 N 114 75 66 -96 -114 -74 h
stroke
LT0
0.75 0.75 0.75 C 1520 1495 M
66 -95 V
-114 -75 V
-66 96 V
114 74 V
.9989 g 2684 884 N 113 71 66 -14 -114 -71 h
stroke
LT0
0.75 0.75 0.75 C 2684 884 M
65 -14 V
2636 799 L
-66 14 V
114 71 V
.9961 g 2242 886 N 113 72 66 -14 -114 -73 h
stroke
LT0
0.75 0.75 0.75 C 2242 886 M
65 -15 V
2194 799 L
-66 14 V
114 73 V
.2756 g 1371 2028 N 114 78 65 -120 -113 -81 h
stroke
LT0
0.75 0.75 0.75 C 1371 2028 M
66 -123 V
-114 -78 V
-65 120 V
113 81 V
.5486 g 1455 1597 N 114 74 65 -100 -114 -76 h
stroke
LT0
0.75 0.75 0.75 C 1455 1597 M
65 -102 V
-114 -74 V
-65 100 V
114 76 V
.9992 g 2749 870 N 114 70 65 -13 -113 -71 h
stroke
LT0
0.75 0.75 0.75 C 2749 870 M
66 -14 V
2701 786 L
-65 13 V
113 71 V
.9971 g 2307 871 N 114 72 65 -15 -113 -72 h
stroke
LT0
0.75 0.75 0.75 C 2307 871 M
66 -15 V
2259 784 L
-65 15 V
113 72 V
.9035 g 1735 1021 N 113 71 66 -59 -114 -69 h
stroke
LT0
0.75 0.75 0.75 C 1735 1021 M
65 -57 V
1687 893 L
-66 59 V
114 69 V
.9394 g 1800 964 N 113 69 65 -49 -113 -71 h
stroke
LT0
0.75 0.75 0.75 C 1800 964 M
65 -51 V
1752 844 L
-65 49 V
113 71 V
.8605 g 1669 1088 N 114 69 66 -64 -114 -72 h
stroke
LT0
0.75 0.75 0.75 C 1669 1088 M
66 -67 V
1621 952 L
-66 64 V
114 72 V
.1766 g 1306 2157 N 113 81 66 -128 -114 -82 h
stroke
LT0
0.75 0.75 0.75 C 1306 2157 M
65 -129 V
-113 -81 V
-66 128 V
114 82 V
.4657 g 1389 1711 N 114 76 66 -110 -114 -80 h
stroke
LT0
0.75 0.75 0.75 C 1389 1711 M
66 -114 V
-114 -76 V
-66 110 V
114 80 V
.9654 g 1865 913 N 114 66 65 -35 -113 -69 h
stroke
LT0
0.75 0.75 0.75 C 1865 913 M
66 -38 V
1817 809 L
-65 35 V
113 69 V
.9979 g 2373 856 N 114 72 66 -14 -114 -72 h
stroke
LT0
0.75 0.75 0.75 C 2373 856 M
66 -14 V
2325 770 L
-66 14 V
114 72 V
.811 g 1603 1157 N 114 72 65 -78 -113 -63 h
stroke
LT0
0.75 0.75 0.75 C 1603 1157 M
66 -69 V
-114 -72 V
-65 78 V
113 63 V
.9823 g 1931 875 N 114 69 66 -30 -114 -66 h
stroke
LT0
0.75 0.75 0.75 C 1931 875 M
66 -27 V
1883 779 L
-66 30 V
114 66 V
.7562 g 1538 1237 N 113 63 66 -74 -114 -69 h
stroke
LT0
0.75 0.75 0.75 C 1538 1237 M
65 -80 V
-113 -63 V
-66 74 V
114 69 V
.9985 g 2439 842 N 113 71 66 -14 -114 -72 h
stroke
LT0
0.75 0.75 0.75 C 2439 842 M
65 -15 V
2391 756 L
-66 14 V
114 72 V
.9912 g 1997 848 N 114 70 65 -19 -114 -69 h
stroke
LT0
0.75 0.75 0.75 C 1997 848 M
65 -18 V
1948 760 L
-65 19 V
114 69 V
.3765 g 1323 1827 N 114 80 66 -116 -114 -80 h
stroke
LT0
0.75 0.75 0.75 C 1323 1827 M
66 -116 V
-114 -80 V
-66 116 V
114 80 V
.6958 g 1472 1325 N 114 69 66 -85 -114 -72 h
stroke
LT0
0.75 0.75 0.75 C 1472 1325 M
66 -88 V
-114 -69 V
-66 85 V
114 72 V
.0714 g 1240 2291 N 114 82 66 -138 -114 -78 h
stroke
LT0
0.75 0.75 0.75 C 1240 2291 M
66 -134 V
-114 -82 V
-66 138 V
114 78 V
.9989 g 2504 827 N 114 71 65 -14 -113 -71 h
stroke
LT0
0.75 0.75 0.75 C 2504 827 M
66 -14 V
2456 742 L
-65 14 V
113 71 V
.9948 g 2062 830 N 114 69 66 -16 -114 -70 h
stroke
LT0
0.75 0.75 0.75 C 2062 830 M
66 -17 V
2014 744 L
-66 16 V
114 70 V
.6271 g 1406 1421 N 114 72 65 -95 -113 -73 h
stroke
LT0
0.75 0.75 0.75 C 1406 1421 M
66 -96 V
-114 -72 V
-65 95 V
113 73 V
.9993 g 2570 813 N 114 71 66 -14 -114 -71 h
stroke
LT0
0.75 0.75 0.75 C 2570 813 M
66 -14 V
2522 728 L
-66 14 V
114 71 V
.2829 g 1258 1947 N 114 80 65 -124 -114 -76 h
stroke
LT0
0.75 0.75 0.75 C 1258 1947 M
65 -120 V
-114 -80 V
-65 124 V
114 76 V
.9968 g 2128 813 N 114 71 66 -16 -114 -69 h
stroke
LT0
0.75 0.75 0.75 C 2128 813 M
66 -14 V
2080 728 L
-66 16 V
114 69 V
.5515 g 1341 1521 N 113 73 66 -102 -114 -71 h
stroke
LT0
0.75 0.75 0.75 C 1341 1521 M
65 -100 V
-113 -73 V
-66 102 V
114 71 V
.9996 g 2636 799 N 113 71 66 -13 -114 -71 h
stroke
LT0
0.75 0.75 0.75 C 2636 799 M
65 -13 V
2588 715 L
-66 13 V
114 71 V
.9977 g 2194 799 N 114 70 65 -14 -114 -71 h
stroke
LT0
0.75 0.75 0.75 C 2194 799 M
65 -15 V
2145 714 L
-65 14 V
114 71 V
.9085 g 1621 952 N 114 81 66 -56 -114 -84 h
stroke
LT0
0.75 0.75 0.75 C 1621 952 M
66 -59 V
1573 812 L
-66 56 V
114 84 V
.9441 g 1687 893 N 113 82 66 -50 -114 -81 h
stroke
LT0
0.75 0.75 0.75 C 1687 893 M
65 -49 V
1639 762 L
-66 50 V
114 81 V
.8666 g 1555 1016 N 114 84 65 -63 -113 -85 h
stroke
LT0
0.75 0.75 0.75 C 1555 1016 M
66 -64 V
1507 868 L
-65 63 V
113 85 V
.9689 g 1752 844 N 113 80 65 -33 -113 -82 h
stroke
LT0
0.75 0.75 0.75 C 1752 844 M
65 -35 V
1704 729 L
-65 33 V
113 82 V
.8175 g 1490 1094 N 113 85 66 -71 -114 -92 h
stroke
LT0
0.75 0.75 0.75 C 1490 1094 M
65 -78 V
1442 931 L
-66 71 V
114 92 V
.4705 g 1275 1631 N 114 71 66 -105 -114 -76 h
stroke
LT0
0.75 0.75 0.75 C 1275 1631 M
66 -110 V
-114 -71 V
-66 105 V
114 76 V
.1826 g 1192 2075 N 114 76 66 -135 -114 -69 h
stroke
LT0
0.75 0.75 0.75 C 1192 2075 M
66 -128 V
-114 -76 V
-66 135 V
114 69 V
.9982 g 2259 784 N 114 70 66 -14 -114 -70 h
stroke
LT0
0.75 0.75 0.75 C 2259 784 M
66 -14 V
2211 700 L
-66 14 V
114 70 V
.763 g 1424 1168 N 114 92 66 -78 -114 -88 h
stroke
LT0
0.75 0.75 0.75 C 1424 1168 M
66 -74 V
-114 -92 V
-66 78 V
114 88 V
.9833 g 1817 809 N 113 71 66 -21 -113 -80 h
stroke
LT0
0.75 0.75 0.75 C 1817 809 M
66 -30 V
1770 708 L
-66 21 V
113 80 V
.7044 g 1358 1253 N 114 88 65 -81 -113 -92 h
stroke
LT0
0.75 0.75 0.75 C 1358 1253 M
66 -85 V
-114 -88 V
-65 81 V
113 92 V
.9986 g 2325 770 N 114 70 66 -14 -114 -70 h
stroke
LT0
0.75 0.75 0.75 C 2325 770 M
66 -14 V
2277 686 L
-66 14 V
114 70 V
.3834 g 1209 1747 N 114 76 65 -115 -113 -77 h
stroke
LT0
0.75 0.75 0.75 C 1209 1747 M
66 -116 V
-114 -76 V
-65 115 V
113 77 V
.9912 g 1883 779 N 113 71 65 -19 -113 -71 h
stroke
LT0
0.75 0.75 0.75 C 1883 779 M
65 -19 V
1835 689 L
-65 19 V
113 71 V
.6378 g 1293 1348 N 113 92 66 -93 -114 -94 h
stroke
LT0
0.75 0.75 0.75 C 1293 1348 M
65 -95 V
-113 -92 V
-66 93 V
114 94 V
.0749 g 1126 2213 N 114 69 66 -139 -114 -68 h
stroke
LT0
0.75 0.75 0.75 C 1126 2213 M
66 -138 V
-114 -69 V
-66 139 V
114 68 V
.9989 g 2391 756 N 114 69 65 -13 -114 -70 h
stroke
LT0
0.75 0.75 0.75 C 2391 756 M
65 -14 V
2342 673 L
-65 13 V
114 70 V
.9949 g 1948 760 N 114 72 65 -17 -113 -71 h
stroke
LT0
0.75 0.75 0.75 C 1948 760 M
66 -16 V
1900 672 L
-65 17 V
113 71 V
.5635 g 1227 1450 N 114 94 66 -99 -114 -97 h
stroke
LT0
0.75 0.75 0.75 C 1227 1450 M
66 -102 V
-114 -94 V
-66 99 V
114 97 V
.9992 g 2456 742 N 114 69 66 -14 -114 -69 h
stroke
LT0
0.75 0.75 0.75 C 2456 742 M
66 -14 V
2408 659 L
-66 14 V
114 69 V
.2886 g 1144 1871 N 113 77 66 -126 -114 -75 h
stroke
LT0
0.75 0.75 0.75 C 1144 1871 M
65 -124 V
-113 -77 V
-66 126 V
114 75 V
.9969 g 2014 744 N 114 70 66 -14 -114 -72 h
stroke
LT0
0.75 0.75 0.75 C 2014 744 M
66 -16 V
1966 658 L
-66 14 V
114 72 V
.9322 g 1507 868 N 114 108 65 -49 -113 -115 h
stroke
LT0
0.75 0.75 0.75 C 1507 868 M
66 -56 V
1459 704 L
-65 49 V
113 115 V
.892 g 1442 931 N 113 115 66 -67 -114 -111 h
stroke
LT0
0.75 0.75 0.75 C 1442 931 M
65 -63 V
1394 753 L
-66 67 V
114 111 V
.9623 g 1573 812 N 114 93 66 -35 -114 -108 h
stroke
LT0
0.75 0.75 0.75 C 1573 812 M
66 -50 V
1525 669 L
-66 35 V
114 108 V
.9994 g 2522 728 N 114 70 66 -14 -114 -69 h
stroke
LT0
0.75 0.75 0.75 C 2522 728 M
66 -13 V
2474 645 L
-66 14 V
114 69 V
.8427 g 1376 1002 N 114 111 66 -75 -114 -107 h
stroke
LT0
0.75 0.75 0.75 C 1376 1002 M
66 -71 V
1328 820 L
-66 75 V
114 107 V
.9978 g 2080 728 N 113 71 66 -15 -114 -70 h
stroke
LT0
0.75 0.75 0.75 C 2080 728 M
65 -14 V
2032 643 L
-66 15 V
114 70 V
.4826 g 1161 1555 N 114 97 65 -111 -113 -91 h
stroke
LT0
0.75 0.75 0.75 C 1161 1555 M
66 -105 V
-114 -97 V
-65 111 V
113 91 V
.9813 g 1639 762 N 113 82 66 -22 -114 -93 h
stroke
LT0
0.75 0.75 0.75 C 1639 762 M
65 -33 V
1591 647 L
-66 22 V
114 93 V
.7865 g 1310 1080 N 114 107 65 -84 -113 -101 h
stroke
LT0
0.75 0.75 0.75 C 1310 1080 M
66 -78 V
1262 895 L
-65 84 V
113 101 V
.1852 g 1078 2006 N 114 75 66 -136 -114 -74 h
stroke
LT0
0.75 0.75 0.75 C 1078 2006 M
66 -135 V
-114 -75 V
-66 136 V
114 74 V
.9983 g 2145 714 N 114 71 65 -14 -113 -71 h
stroke
LT0
0.75 0.75 0.75 C 2145 714 M
66 -14 V
2097 629 L
-65 14 V
113 71 V
.7265 g 1245 1161 N 113 101 66 -82 -114 -100 h
stroke
LT0
0.75 0.75 0.75 C 1245 1161 M
65 -81 V
1197 979 L
-66 82 V
114 100 V
.9901 g 1704 729 N 114 78 65 -17 -113 -82 h
stroke
LT0
0.75 0.75 0.75 C 1704 729 M
66 -21 V
1656 630 L
-65 17 V
113 82 V
.3938 g 1096 1670 N 113 91 66 -122 -114 -84 h
stroke
LT0
0.75 0.75 0.75 C 1096 1670 M
65 -115 V
-113 -91 V
-66 122 V
114 84 V
.9988 g 2211 700 N 114 71 66 -14 -114 -71 h
stroke
LT0
0.75 0.75 0.75 C 2211 700 M
66 -14 V
2163 615 L
-66 14 V
114 71 V
.6615 g 1179 1254 N 114 100 66 -91 -114 -102 h
stroke
LT0
0.75 0.75 0.75 C 1179 1254 M
66 -93 V
1131 1061 L
-66 91 V
114 102 V
.9943 g 1770 708 N 113 75 66 -16 -114 -78 h
stroke
LT0
0.75 0.75 0.75 C 1770 708 M
65 -19 V
1722 614 L
-66 16 V
114 78 V
.0751 g 1012 2145 N 114 74 65 -140 -113 -73 h
stroke
LT0
0.75 0.75 0.75 C 1012 2145 M
66 -139 V
964 1932 L
-65 140 V
113 73 V
.9991 g 2277 686 N 113 72 66 -14 -114 -71 h
stroke
LT0
0.75 0.75 0.75 C 2277 686 M
65 -13 V
2229 601 L
-66 14 V
114 71 V
.9967 g 1835 689 N 112 72 66 -14 -113 -75 h
stroke
LT0
0.75 0.75 0.75 C 1835 689 M
65 -17 V
1788 600 L
-66 14 V
113 75 V
.5883 g 1113 1353 N 114 102 65 -102 -113 -99 h
stroke
LT0
0.75 0.75 0.75 C 1113 1353 M
66 -99 V
1065 1152 L
-65 102 V
113 99 V
.9281 g 1328 820 N 114 100 66 -49 -114 -118 h
stroke
LT0
0.75 0.75 0.75 C 1328 820 M
66 -67 V
1280 653 L
-66 49 V
114 118 V
.8842 g 1262 895 N 114 118 66 -60 -114 -133 h
stroke
LT0
0.75 0.75 0.75 C 1262 895 M
66 -75 V
1214 702 L
-66 60 V
114 133 V
.2951 g 1030 1796 N 114 84 66 -135 -114 -75 h
stroke
LT0
0.75 0.75 0.75 C 1030 1796 M
66 -126 V
982 1586 L
-66 135 V
114 75 V
.9603 g 1394 753 N 113 84 66 -33 -114 -100 h
stroke
LT0
0.75 0.75 0.75 C 1394 753 M
65 -49 V
1346 620 L
-66 33 V
114 100 V
.9993 g 2342 673 N 114 72 65 -14 -113 -72 h
stroke
LT0
0.75 0.75 0.75 C 2342 673 M
66 -14 V
2294 587 L
-65 14 V
113 72 V
.8304 g 1197 979 N 114 133 65 -78 -114 -139 h
stroke
LT0
0.75 0.75 0.75 C 1197 979 M
65 -84 V
1148 762 L
-65 78 V
114 139 V
.9979 g 1900 672 N 114 72 64 -14 -112 -72 h
stroke
LT0
0.75 0.75 0.75 C 1900 672 M
66 -14 V
1852 586 L
-64 14 V
112 72 V
.9798 g 1459 704 N 114 75 65 -26 -113 -84 h
stroke
LT0
0.75 0.75 0.75 C 1459 704 M
66 -35 V
1411 594 L
-65 26 V
113 84 V
.7696 g 1131 1061 N 114 139 66 -85 -114 -136 h
stroke
LT0
0.75 0.75 0.75 C 1131 1061 M
66 -82 V
1083 840 L
-66 85 V
114 136 V
.505 g 1048 1464 N 113 99 66 -117 -114 -93 h
stroke
LT0
0.75 0.75 0.75 C 1048 1464 M
65 -111 V
-113 -99 V
-66 117 V
114 93 V
.9995 g 2408 659 N 114 71 66 -13 -114 -72 h
stroke
LT0
0.75 0.75 0.75 C 2408 659 M
66 -14 V
2360 574 L
-66 13 V
114 72 V
.9986 g 1966 658 N 114 71 66 -14 -114 -72 h
stroke
LT0
0.75 0.75 0.75 C 1966 658 M
66 -15 V
1918 572 L
-66 14 V
114 72 V
.9903 g 1525 669 N 114 72 66 -19 -114 -75 h
stroke
LT0
0.75 0.75 0.75 C 1525 669 M
66 -22 V
1477 575 L
-66 19 V
114 75 V
.7023 g 1065 1152 N 114 136 66 -100 -114 -127 h
stroke
LT0
0.75 0.75 0.75 C 1065 1152 M
66 -91 V
1017 925 L
-66 100 V
114 127 V
.1877 g 964 1932 N 114 75 65 -141 -113 -70 h
stroke
LT0
0.75 0.75 0.75 C 964 1932 M
66 -136 V
916 1721 L
-65 141 V
113 70 V
.9991 g 2032 643 N 113 71 66 -14 -114 -71 h
stroke
LT0
0.75 0.75 0.75 C 2032 643 M
65 -14 V
1984 558 L
-66 14 V
114 71 V
.9946 g 1591 647 N 113 70 66 -15 -114 -72 h
stroke
LT0
0.75 0.75 0.75 C 1591 647 M
65 -17 V
1543 560 L
-66 15 V
114 72 V
.4101 g 982 1586 N 114 93 66 -129 -114 -86 h
stroke
LT0
0.75 0.75 0.75 C 982 1586 M
66 -122 V
934 1371 L
-66 129 V
114 86 V
.9994 g 2097 629 N 114 71 65 -14 -113 -71 h
stroke
LT0
0.75 0.75 0.75 C 2097 629 M
66 -14 V
2049 544 L
-65 14 V
113 71 V
.624 g 1000 1254 N 114 127 65 -114 -114 -115 h
stroke
LT0
0.75 0.75 0.75 C 1000 1254 M
65 -102 V
951 1025 L
-65 114 V
114 115 V
.9967 g 1656 630 N 114 70 65 -16 -113 -70 h
stroke
LT0
0.75 0.75 0.75 C 1656 630 M
66 -16 V
1608 544 L
-65 16 V
113 70 V
.9996 g 2163 615 N 114 70 66 -13 -114 -71 h
stroke
LT0
0.75 0.75 0.75 C 2163 615 M
66 -14 V
2115 531 L
-66 13 V
114 71 V
.0756 g 899 2072 N 113 70 66 -143 -114 -67 h
stroke
LT0
0.75 0.75 0.75 C 899 2072 M
65 -140 V
851 1862 L
-66 143 V
114 67 V
.998 g 1722 614 N 114 71 66 -15 -114 -70 h
stroke
LT0
0.75 0.75 0.75 C 1722 614 M
66 -14 V
1674 529 L
-66 15 V
114 70 V
.3044 g 916 1721 N 114 86 65 -143 -113 -78 h
stroke
LT0
0.75 0.75 0.75 C 916 1721 M
66 -135 V
868 1500 L
-65 143 V
113 78 V
.9997 g 2229 601 N 113 70 66 -14 -114 -70 h
stroke
LT0
0.75 0.75 0.75 C 2229 601 M
65 -14 V
2181 517 L
-66 14 V
114 70 V
.534 g 934 1371 N 114 115 66 -127 -114 -105 h
stroke
LT0
0.75 0.75 0.75 C 934 1371 M
66 -117 V
886 1139 L
-66 127 V
114 105 V
.9988 g 1788 600 N 112 71 66 -14 -114 -71 h
stroke
LT0
0.75 0.75 0.75 C 1788 600 M
64 -14 V
1740 515 L
-66 14 V
114 71 V
.9998 g 2294 587 N 114 71 65 -14 -113 -70 h
stroke
LT0
0.75 0.75 0.75 C 2294 587 M
66 -13 V
2246 503 L
-65 14 V
113 70 V
.9992 g 1852 586 N 114 71 64 -14 -112 -71 h
stroke
LT0
0.75 0.75 0.75 C 1852 586 M
66 -14 V
1804 501 L
-64 14 V
112 71 V
.1917 g 851 1862 N 113 78 66 -143 -114 -76 h
stroke
LT0
0.75 0.75 0.75 C 851 1862 M
65 -141 V
803 1643 L
-66 143 V
114 76 V
.9995 g 1918 572 N 114 71 66 -14 -114 -71 h
stroke
LT0
0.75 0.75 0.75 C 1918 572 M
66 -14 V
1870 487 L
-66 14 V
114 71 V
.4312 g 868 1500 N 114 105 66 -143 -114 -91 h
stroke
LT0
0.75 0.75 0.75 C 868 1500 M
66 -129 V
820 1266 L
-66 143 V
114 91 V
.9997 g 1984 558 N 113 70 66 -13 -114 -71 h
stroke
LT0
0.75 0.75 0.75 C 1984 558 M
65 -14 V
1936 474 L
-66 13 V
114 71 V
.0771 g 785 2005 N 114 76 66 -144 -114 -75 h
stroke
LT0
0.75 0.75 0.75 C 785 2005 M
66 -143 V
737 1786 L
-66 144 V
114 75 V
.9997 g 2049 544 N 114 71 65 -14 -113 -70 h
stroke
LT0
0.75 0.75 0.75 C 2049 544 M
66 -13 V
2001 460 L
-65 14 V
113 70 V
.3187 g 803 1643 N 114 91 65 -144 -114 -90 h
stroke
LT0
0.75 0.75 0.75 C 803 1643 M
65 -143 V
754 1409 L
-65 144 V
114 90 V
.9998 g 2115 531 N 114 70 66 -13 -114 -71 h
stroke
LT0
0.75 0.75 0.75 C 2115 531 M
66 -14 V
2067 447 L
-66 13 V
114 71 V
.9999 g 2181 517 N 113 70 66 -14 -114 -70 h
stroke
LT0
0.75 0.75 0.75 C 2181 517 M
65 -14 V
2133 433 L
-66 14 V
114 70 V
.2019 g 737 1786 N 114 90 66 -150 -114 -83 h
stroke
LT0
0.75 0.75 0.75 C 737 1786 M
66 -143 V
689 1553 L
-66 150 V
114 83 V
.0842 g 671 1930 N 114 83 66 -148 -114 -79 h
stroke
LT0
0.75 0.75 0.75 C 671 1930 M
66 -144 V
623 1703 L
-66 148 V
114 79 V
stroke
LTb
LCb setrgbcolor
2133 433 M
910 563 V
stroke
LTb
LCb setrgbcolor
1935 474 M
557 758 L
stroke
LTb
LCb setrgbcolor
557 758 M
405 251 V
stroke
LTb
LCb setrgbcolor
3043 996 M
-788 163 V
stroke
LTb
LCb setrgbcolor
557 1884 M
557 758 L
stroke
LTb
LCb setrgbcolor
1467 2447 M
0 -13 V
stroke
LTb
LCb setrgbcolor
3043 2122 M
0 -1126 V
stroke
LTb
LCb setrgbcolor
557 1884 M
910 563 V
stroke
LTb
LCb setrgbcolor
3043 2122 M
1467 2447 L
stroke
LTa
LCa setrgbcolor
820 704 M
249 154 V
stroke
LTb
LCb setrgbcolor
820 704 M
44 27 V
stroke
LTb
LCb setrgbcolor
770 641 M
[ [(Times-Roman) 120.0 0.0 true true 0 ( 50)]
] -40.0 MCshow
1.000 UL
LTb
LCb setrgbcolor
1.000 UL
LTa
LCa setrgbcolor
1148 636 M
85 52 V
stroke
LTb
LCb setrgbcolor
1148 636 M
45 27 V
stroke
LTb
LCb setrgbcolor
1098 573 M
[ [(Times-Roman) 120.0 0.0 true true 0 ( 100)]
] -40.0 MCshow
1.000 UL
LTb
LCb setrgbcolor
1.000 UL
LTa
LCa setrgbcolor
1477 568 M
8 5 V
stroke
LTb
LCb setrgbcolor
1477 568 M
8 5 V
stroke
LTb
LCb setrgbcolor
1426 505 M
[ [(Times-Roman) 120.0 0.0 true true 0 ( 150)]
] -40.0 MCshow
1.000 UL
LTb
LCb setrgbcolor
1.000 UL
LTa
LCa setrgbcolor
2600 994 M
114 70 V
stroke
LTa
LCa setrgbcolor
1804 501 M
1 0 V
stroke
LTb
LCb setrgbcolor
1804 501 M
1 0 V
stroke
LTb
LCb setrgbcolor
1755 438 M
[ [(Times-Roman) 120.0 0.0 true true 0 ( 200)]
] -40.0 MCshow
1.000 UL
LTb
LCb setrgbcolor
1.000 UL
LTb
LCb setrgbcolor
2670 1037 M
44 27 V
stroke
LCb setrgbcolor
1118 455 M
[ [(Times-Roman) 120.0 0.0 true true 0 (Iterations)]
] -40.0 MCshow
LTb
1.000 UL
LTa
LCa setrgbcolor
1935 474 M
557 758 L
stroke
2195 400 M
[ [(Times-Roman) 120.0 0.0 true true 0 ( 0.1)]
] -40.0 MCshow
1.000 UL
LTb
LCb setrgbcolor
1.000 UL
LTb
LCb setrgbcolor
612 747 M
-55 11 V
stroke
LTa
LCa setrgbcolor
1086 837 M
785 899 L
stroke
LTa
LCa setrgbcolor
2360 574 M
stroke
LTb
LCb setrgbcolor
2360 574 M
stroke
2422 541 M
[ [(Times-Roman) 120.0 0.0 true true 0 ( 0.3)]
] -40.0 MCshow
1.000 UL
LTb
LCb setrgbcolor
1.000 UL
LTb
LCb setrgbcolor
839 888 M
-54 11 V
stroke
LTb
LCb setrgbcolor
2588 715 M
-1 0 V
stroke
2650 682 M
[ [(Times-Roman) 120.0 0.0 true true 0 ( 0.5)]
] -40.0 MCshow
1.000 UL
LTb
LCb setrgbcolor
1.000 UL
LTa
LCa setrgbcolor
2815 855 M
-1 1 V
stroke
LTb
LCb setrgbcolor
2815 855 M
-1 1 V
stroke
2877 823 M
[ [(Times-Roman) 120.0 0.0 true true 0 ( 0.7)]
] -40.0 MCshow
1.000 UL
LTb
LCb setrgbcolor
1.000 UL
LTa
LCa setrgbcolor
3043 996 M
-788 163 V
stroke
LTb
LCb setrgbcolor
3043 996 M
-55 11 V
stroke
3105 964 M
[ [(Times-Roman) 120.0 0.0 true true 0 ( 0.9)]
] -40.0 MCshow
1.000 UL
LTb
LCb setrgbcolor
LCb setrgbcolor
2982 633 M
[ [(Times-Roman) 120.0 0.0 true true 0 (p1)]
] -40.0 MCshow
LTb
1.000 UL
LTa
LCa setrgbcolor
557 758 M
405 251 V
stroke
LTa
LCa setrgbcolor
3043 996 M
-788 163 V
stroke
LTb
LCb setrgbcolor
620 758 M
-63 0 V
stroke
431 758 M
[ [(Times-Roman) 120.0 0.0 true true 0 ( 0)]
] -40.0 MRshow
1.000 UL
LTb
LCb setrgbcolor
1.000 UL
LTa
LCa setrgbcolor
557 883 M
351 217 V
stroke
LTa
LCa setrgbcolor
3043 1121 M
2016 1333 L
stroke
LTb
LCb setrgbcolor
620 883 M
-63 0 V
stroke
431 883 M
[ [(Times-Roman) 120.0 0.0 true true 0 ( 10)]
] -40.0 MRshow
1.000 UL
LTb
LCb setrgbcolor
1.000 UL
LTa
LCa setrgbcolor
557 1008 M
300 186 V
stroke
LTa
LCa setrgbcolor
3043 1247 M
1943 1472 L
stroke
LTb
LCb setrgbcolor
620 1008 M
-63 0 V
stroke
431 1008 M
[ [(Times-Roman) 120.0 0.0 true true 0 ( 20)]
] -40.0 MRshow
1.000 UL
LTb
LCb setrgbcolor
1.000 UL
LTa
LCa setrgbcolor
557 1134 M
252 156 V
stroke
LTa
LCa setrgbcolor
3043 1372 M
1872 1612 L
stroke
LTb
LCb setrgbcolor
620 1134 M
-63 0 V
stroke
431 1134 M
[ [(Times-Roman) 120.0 0.0 true true 0 ( 30)]
] -40.0 MRshow
1.000 UL
LTb
LCb setrgbcolor
1.000 UL
LTa
LCa setrgbcolor
557 1259 M
208 128 V
stroke
LTa
LCa setrgbcolor
3043 1496 M
1801 1752 L
stroke
LTb
LCb setrgbcolor
620 1259 M
-63 0 V
stroke
431 1259 M
[ [(Times-Roman) 120.0 0.0 true true 0 ( 40)]
] -40.0 MRshow
1.000 UL
LTb
LCb setrgbcolor
1.000 UL
LTa
LCa setrgbcolor
557 1384 M
163 100 V
stroke
LTa
LCa setrgbcolor
3043 1621 M
1732 1892 L
stroke
LTb
LCb setrgbcolor
620 1384 M
-63 0 V
stroke
431 1384 M
[ [(Times-Roman) 120.0 0.0 true true 0 ( 50)]
] -40.0 MRshow
1.000 UL
LTb
LCb setrgbcolor
1.000 UL
LTa
LCa setrgbcolor
557 1508 M
119 74 V
stroke
LTa
LCa setrgbcolor
3043 1746 M
1662 2031 L
stroke
LTb
LCb setrgbcolor
620 1508 M
-63 0 V
stroke
431 1508 M
[ [(Times-Roman) 120.0 0.0 true true 0 ( 60)]
] -40.0 MRshow
1.000 UL
LTb
LCb setrgbcolor
1.000 UL
LTa
LCa setrgbcolor
557 1633 M
76 47 V
stroke
LTa
LCa setrgbcolor
3043 1872 M
1594 2171 L
stroke
LTb
LCb setrgbcolor
620 1633 M
-63 0 V
stroke
431 1633 M
[ [(Times-Roman) 120.0 0.0 true true 0 ( 70)]
] -40.0 MRshow
1.000 UL
LTb
LCb setrgbcolor
1.000 UL
LTa
LCa setrgbcolor
557 1759 M
32 19 V
stroke
LTa
LCa setrgbcolor
3043 1997 M
1527 2310 L
stroke
LTb
LCb setrgbcolor
557 1759 M
41 0 V
stroke
LTb
LCb setrgbcolor
618 1759 M
2 0 V
stroke
431 1759 M
[ [(Times-Roman) 120.0 0.0 true true 0 ( 80)]
] -40.0 MRshow
1.000 UL
LTb
LCb setrgbcolor
1.000 UL
LTa
LCa setrgbcolor
557 1884 M
910 563 V
stroke
LTa
LCa setrgbcolor
3043 2122 M
1467 2447 L
stroke
LTb
LCb setrgbcolor
620 1884 M
-63 0 V
stroke
431 1884 M
[ [(Times-Roman) 120.0 0.0 true true 0 ( 90)]
] -40.0 MRshow
1.000 UL
LTb
LCb setrgbcolor
LCb setrgbcolor
53 1321 M
currentpoint gsave translate 90 rotate 0 0 moveto
[ [(Times-Roman) 120.0 0.0 true true 0 (Avg. number of blocking pairs)]
] -40.0 MCshow
grestore
LTb
1.000 UP
grestore % colour palette end
gsave % colour palette begin
/maxcolors 0 def
/HSV2RGB {  exch dup 0.0 eq {pop exch pop dup dup} % achromatic gray
  { /HSVs exch def /HSVv exch def 6.0 mul dup floor dup 3 1 roll sub
     /HSVf exch def /HSVi exch cvi def /HSVp HSVv 1.0 HSVs sub mul def
	 /HSVq HSVv 1.0 HSVs HSVf mul sub mul def 
	 /HSVt HSVv 1.0 HSVs 1.0 HSVf sub mul sub mul def
	 /HSVi HSVi 6 mod def 0 HSVi eq {HSVv HSVt HSVp}
	 {1 HSVi eq {HSVq HSVv HSVp}{2 HSVi eq {HSVp HSVv HSVt}
	 {3 HSVi eq {HSVp HSVq HSVv}{4 HSVi eq {HSVt HSVp HSVv}
	 {HSVv HSVp HSVq} ifelse} ifelse} ifelse} ifelse} ifelse
  } ifelse} def
/Constrain {
  dup 0 lt {0 exch pop}{dup 1 gt {1 exch pop} if} ifelse} def
/YIQ2RGB {
  3 copy -1.702 mul exch -1.105 mul add add Constrain 4 1 roll
  3 copy -0.647 mul exch -0.272 mul add add Constrain 5 1 roll
  0.621 mul exch -0.956 mul add add Constrain 3 1 roll } def
/CMY2RGB {  1 exch sub exch 1 exch sub 3 2 roll 1 exch sub 3 1 roll exch } def
/XYZ2RGB {  3 copy -0.9017 mul exch -0.1187 mul add exch 0.0585 mul exch add
  Constrain 4 1 roll 3 copy -0.0279 mul exch 1.999 mul add exch
  -0.9844 mul add Constrain 5 1 roll -0.2891 mul exch -0.5338 mul add
  exch 1.91 mul exch add Constrain 3 1 roll} def
/SelectSpace {ColorSpace (HSV) eq {HSV2RGB}{ColorSpace (XYZ) eq {
  XYZ2RGB}{ColorSpace (CMY) eq {CMY2RGB}{ColorSpace (YIQ) eq {YIQ2RGB}
  if} ifelse} ifelse} ifelse} def
/InterpolatedColor true def
/grayindex {/gidx 0 def
  {GrayA gidx get grayv ge {exit} if /gidx gidx 1 add def} loop} def
/dgdx {grayv GrayA gidx get sub GrayA gidx 1 sub get
  GrayA gidx get sub div} def 
/redvalue {RedA gidx get RedA gidx 1 sub get
  RedA gidx get sub dgdxval mul add} def
/greenvalue {GreenA gidx get GreenA gidx 1 sub get
  GreenA gidx get sub dgdxval mul add} def
/bluevalue {BlueA gidx get BlueA gidx 1 sub get
  BlueA gidx get sub dgdxval mul add} def
/interpolate {
  grayindex grayv GrayA gidx get sub abs 1e-5 le
    {RedA gidx get GreenA gidx get BlueA gidx get}
    {/dgdxval dgdx def redvalue greenvalue bluevalue} ifelse} def
/GrayA [0 .7 1 ] def
/RedA [1 1 0 ] def
/GreenA [0 1 1 ] def
/BlueA [0 0 0 ] def
/pm3dround {maxcolors 0 gt {dup 1 ge
	{pop 1} {maxcolors mul floor maxcolors 1 sub div} ifelse} if} def
/pm3dGamma 1.0 1.5 Gamma mul div def
/ColorSpace (RGB) def
Color InterpolatedColor or { % COLOUR vs. GRAY map
  InterpolatedColor { %% Interpolation vs. RGB-Formula
    /g {stroke pm3dround /grayv exch def interpolate
        SelectSpace setrgbcolor} bind def
  }{
  /g {stroke pm3dround dup cF7 Constrain exch dup cF5 Constrain exch cF15 Constrain 
       SelectSpace setrgbcolor} bind def
  } ifelse
}{
  /g {stroke pm3dround pm3dGamma exp setgray} bind def
} ifelse
1.000 UL
LTb
LCb setrgbcolor
1.000 UP
LTb
5392 121 M
[ [(Times-Roman) 120.0 0.0 true true 0 (b\))]
] -40.0 MLshow
% Begin plot #1
% End plot #1
% Begin plot #2
1.000 UL
LT0
0.75 0.75 0.75 C 1.000 UL
LT0
0.75 0.75 0.75 C % End plot #2
.9501 g 5723 1248 N 114 93 66 -49 -114 -62 h
1.000 UL
LT0
0.75 0.75 0.75 C 5723 1248 M
66 -18 V
-114 -93 V
-66 49 V
114 62 V
.9219 g 5657 1296 N 114 62 65 -66 -113 -44 h
stroke
LT0
0.75 0.75 0.75 C 5657 1296 M
66 -48 V
-114 -62 V
-65 66 V
113 44 V
.9625 g 5789 1230 N 113 108 66 -29 -114 -93 h
stroke
LT0
0.75 0.75 0.75 C 5789 1230 M
65 -14 V
5741 1108 L
-66 29 V
114 93 V
.8686 g 5592 1395 N 113 44 66 -81 -114 -62 h
stroke
LT0
0.75 0.75 0.75 C 5592 1395 M
65 -99 V
-113 -44 V
-66 81 V
114 62 V
.9674 g 5854 1216 N 114 111 65 -18 -113 -108 h
stroke
LT0
0.75 0.75 0.75 C 5854 1216 M
66 -15 V
5806 1090 L
-65 18 V
113 108 V
.7975 g 5526 1500 N 114 62 66 -89 -114 -78 h
stroke
LT0
0.75 0.75 0.75 C 5526 1500 M
66 -105 V
-114 -62 V
-66 89 V
114 78 V
.9691 g 5920 1201 N 114 111 66 -15 -114 -111 h
stroke
LT0
0.75 0.75 0.75 C 5920 1201 M
66 -15 V
5872 1075 L
-66 15 V
114 111 V
.7198 g 5460 1611 N 114 78 64 -97 -112 -92 h
stroke
LT0
0.75 0.75 0.75 C 5460 1611 M
66 -111 V
-114 -78 V
-64 97 V
112 92 V
.9699 g 5986 1186 N 114 111 66 -14 -114 -111 h
stroke
LT0
0.75 0.75 0.75 C 5986 1186 M
66 -14 V
5938 1061 L
-66 14 V
114 111 V
.6365 g 5396 1727 N 112 92 66 -105 -114 -103 h
stroke
LT0
0.75 0.75 0.75 C 5396 1727 M
64 -116 V
-112 -92 V
-66 105 V
114 103 V
.9708 g 6052 1172 N 114 110 65 -14 -114 -111 h
stroke
LT0
0.75 0.75 0.75 C 6052 1172 M
65 -15 V
6003 1047 L
-65 14 V
114 111 V
.5478 g 5330 1849 N 114 103 66 -111 -114 -114 h
stroke
LT0
0.75 0.75 0.75 C 5330 1849 M
66 -122 V
5282 1624 L
-66 111 V
114 114 V
.9715 g 6117 1157 N 114 110 66 -14 -114 -110 h
stroke
LT0
0.75 0.75 0.75 C 6117 1157 M
66 -14 V
6069 1033 L
-66 14 V
114 110 V
.9481 g 5609 1186 N 114 60 65 -51 -113 -58 h
stroke
LT0
0.75 0.75 0.75 C 5609 1186 M
66 -49 V
-114 -60 V
-65 51 V
113 58 V
.9094 g 5544 1252 N 113 58 66 -62 -114 -62 h
stroke
LT0
0.75 0.75 0.75 C 5544 1252 M
65 -66 V
-113 -58 V
-66 62 V
114 62 V
.9724 g 5675 1137 N 114 66 66 -35 -114 -60 h
stroke
LT0
0.75 0.75 0.75 C 5675 1137 M
66 -29 V
-114 -66 V
-66 35 V
114 60 V
.8593 g 5478 1333 N 114 62 65 -71 -113 -72 h
stroke
LT0
0.75 0.75 0.75 C 5478 1333 M
66 -81 V
-114 -62 V
-65 71 V
113 72 V
.9722 g 6183 1143 N 114 110 66 -15 -114 -110 h
stroke
LT0
0.75 0.75 0.75 C 6183 1143 M
66 -15 V
6135 1018 L
-66 15 V
114 110 V
.9845 g 5741 1108 N 113 75 66 -27 -114 -66 h
stroke
LT0
0.75 0.75 0.75 C 5741 1108 M
65 -18 V
-113 -75 V
-66 27 V
114 66 V
.7999 g 5412 1422 N 113 72 65 -82 -112 -79 h
stroke
LT0
0.75 0.75 0.75 C 5412 1422 M
66 -89 V
-113 -72 V
-65 82 V
112 79 V
.4547 g 5264 1973 N 114 114 65 -116 -113 -122 h
stroke
LT0
0.75 0.75 0.75 C 5264 1973 M
66 -124 V
5216 1735 L
-65 116 V
113 122 V
.9728 g 6249 1128 N 114 110 65 -14 -114 -110 h
stroke
LT0
0.75 0.75 0.75 C 6249 1128 M
65 -14 V
6200 1004 L
-65 14 V
114 110 V
.733 g 5348 1519 N 112 79 66 -86 -114 -90 h
stroke
LT0
0.75 0.75 0.75 C 5348 1519 M
64 -97 V
-112 -79 V
-66 86 V
114 90 V
.9893 g 5806 1090 N 114 76 65 -16 -113 -75 h
stroke
LT0
0.75 0.75 0.75 C 5806 1090 M
66 -15 V
5758 999 L
-65 16 V
113 75 V
.9733 g 6314 1114 N 114 108 66 -13 -114 -110 h
stroke
LT0
0.75 0.75 0.75 C 6314 1114 M
66 -15 V
6266 991 L
-66 13 V
114 110 V
.3586 g 5199 2104 N 113 122 66 -117 -114 -136 h
stroke
LT0
0.75 0.75 0.75 C 5199 2104 M
65 -131 V
5151 1851 L
-66 117 V
114 136 V
.9909 g 5872 1075 N 114 78 66 -16 -114 -76 h
stroke
LT0
0.75 0.75 0.75 C 5872 1075 M
66 -14 V
5824 983 L
-66 16 V
114 76 V
.6593 g 5282 1624 N 114 90 66 -96 -114 -99 h
stroke
LT0
0.75 0.75 0.75 C 5282 1624 M
66 -105 V
-114 -90 V
-66 96 V
114 99 V
.9737 g 6380 1099 N 114 108 66 -14 -114 -108 h
stroke
LT0
0.75 0.75 0.75 C 6380 1099 M
66 -14 V
6332 977 L
-66 14 V
114 108 V
.9922 g 5938 1061 N 113 79 66 -15 -114 -78 h
stroke
LT0
0.75 0.75 0.75 C 5938 1061 M
65 -14 V
5890 968 L
-66 15 V
114 78 V
.5801 g 5216 1735 N 114 99 65 -98 -113 -112 h
stroke
LT0
0.75 0.75 0.75 C 5216 1735 M
66 -111 V
-114 -99 V
-65 98 V
113 112 V
.2596 g 5133 2233 N 114 136 66 -124 -114 -141 h
stroke
LT0
0.75 0.75 0.75 C 5133 2233 M
66 -129 V
5085 1968 L
-66 124 V
114 141 V
.9741 g 6446 1085 N 114 108 65 -14 -114 -108 h
stroke
LT0
0.75 0.75 0.75 C 6446 1085 M
65 -14 V
6397 963 L
-65 14 V
114 108 V
.993 g 6003 1047 N 114 80 65 -15 -113 -79 h
stroke
LT0
0.75 0.75 0.75 C 6003 1047 M
66 -14 V
5955 953 L
-65 15 V
113 79 V
.9036 g 5430 1190 N 113 66 66 -58 -113 -70 h
stroke
LT0
0.75 0.75 0.75 C 5430 1190 M
66 -62 V
-113 -66 V
-66 58 V
113 70 V
.9405 g 5496 1128 N 113 63 65 -48 -113 -66 h
stroke
LT0
0.75 0.75 0.75 C 5496 1128 M
65 -51 V
-113 -63 V
-65 48 V
113 66 V
.4959 g 5151 1851 N 113 112 66 -109 -114 -119 h
stroke
LT0
0.75 0.75 0.75 C 5151 1851 M
65 -116 V
5103 1623 L
-66 109 V
114 119 V
.8598 g 5365 1261 N 113 70 65 -61 -113 -80 h
stroke
LT0
0.75 0.75 0.75 C 5365 1261 M
65 -71 V
-113 -70 V
-65 61 V
113 80 V
.9676 g 5561 1077 N 114 70 65 -42 -113 -63 h
stroke
LT0
0.75 0.75 0.75 C 5561 1077 M
66 -35 V
5513 972 L
-65 42 V
113 63 V
.8087 g 5300 1343 N 113 80 66 -72 -114 -90 h
stroke
LT0
0.75 0.75 0.75 C 5300 1343 M
65 -82 V
-113 -80 V
-66 72 V
114 90 V
.9744 g 6511 1071 N 114 108 66 -14 -114 -108 h
stroke
LT0
0.75 0.75 0.75 C 6511 1071 M
66 -14 V
6463 949 L
-66 14 V
114 108 V
.9934 g 6069 1033 N 114 78 66 -13 -114 -80 h
stroke
LT0
0.75 0.75 0.75 C 6069 1033 M
66 -15 V
6021 940 L
-66 13 V
114 80 V
.9845 g 5627 1042 N 114 70 66 -27 -114 -70 h
stroke
LT0
0.75 0.75 0.75 C 5627 1042 M
66 -27 V
5579 945 L
-66 27 V
114 70 V
.1579 g 5067 2367 N 114 141 65 -125 -113 -150 h
stroke
LT0
0.75 0.75 0.75 C 5067 2367 M
66 -134 V
5019 2092 L
-65 125 V
113 150 V
.7501 g 5234 1429 N 114 90 66 -78 -114 -98 h
stroke
LT0
0.75 0.75 0.75 C 5234 1429 M
66 -86 V
-114 -90 V
-66 78 V
114 98 V
.4075 g 5085 1968 N 114 119 66 -112 -114 -124 h
stroke
LT0
0.75 0.75 0.75 C 5085 1968 M
66 -117 V
5037 1732 L
-66 112 V
114 124 V
.9747 g 6577 1057 N 114 109 66 -14 -114 -108 h
stroke
LT0
0.75 0.75 0.75 C 6577 1057 M
66 -13 V
6529 935 L
-66 14 V
114 108 V
.9938 g 6135 1018 N 113 78 66 -14 -114 -78 h
stroke
LT0
0.75 0.75 0.75 C 6135 1018 M
65 -14 V
6087 926 L
-66 14 V
114 78 V
.6861 g 5168 1525 N 114 98 65 -81 -113 -113 h
stroke
LT0
0.75 0.75 0.75 C 5168 1525 M
66 -96 V
-114 -98 V
-65 81 V
113 113 V
.9925 g 5693 1015 N 113 74 66 -20 -114 -70 h
stroke
LT0
0.75 0.75 0.75 C 5693 1015 M
65 -16 V
5645 925 L
-66 20 V
114 70 V
.9941 g 6200 1004 N 114 79 65 -14 -113 -78 h
stroke
LT0
0.75 0.75 0.75 C 6200 1004 M
66 -13 V
6152 912 L
-65 14 V
113 78 V
.6169 g 5103 1623 N 113 113 66 -89 -114 -122 h
stroke
LT0
0.75 0.75 0.75 C 5103 1623 M
65 -98 V
5055 1412 L
-66 89 V
114 122 V
.9956 g 5758 999 N 114 74 65 -16 -113 -74 h
stroke
LT0
0.75 0.75 0.75 C 5758 999 M
66 -16 V
5710 909 L
-65 16 V
113 74 V
.3158 g 5019 2092 N 114 124 65 -114 -113 -134 h
stroke
LT0
0.75 0.75 0.75 C 5019 2092 M
66 -124 V
4971 1844 L
-65 114 V
113 134 V
.9943 g 6266 991 N 114 79 66 -14 -114 -79 h
stroke
LT0
0.75 0.75 0.75 C 6266 991 M
66 -14 V
6218 898 L
-66 14 V
114 79 V
.5423 g 5037 1732 N 114 122 66 -94 -114 -137 h
stroke
LT0
0.75 0.75 0.75 C 5037 1732 M
66 -109 V
4989 1501 L
-66 94 V
114 137 V
.9971 g 5824 983 N 114 73 66 -14 -114 -74 h
stroke
LT0
0.75 0.75 0.75 C 5824 983 M
66 -15 V
5776 895 L
-66 14 V
114 74 V
.2272 g 4954 2217 N 113 134 66 -90 -114 -169 h
stroke
LT0
0.75 0.75 0.75 C 4954 2217 M
65 -125 V
4906 1958 L
-66 90 V
114 169 V
.8759 g 5252 1181 N 114 99 65 -55 -114 -105 h
stroke
LT0
0.75 0.75 0.75 C 5252 1181 M
65 -61 V
-114 -99 V
-65 55 V
114 105 V
.9945 g 6332 977 N 113 78 66 -13 -114 -79 h
stroke
LT0
0.75 0.75 0.75 C 6332 977 M
65 -14 V
6284 885 L
-66 13 V
114 79 V
.8323 g 5186 1253 N 114 105 66 -64 -114 -113 h
stroke
LT0
0.75 0.75 0.75 C 5186 1253 M
66 -72 V
5138 1076 L
-66 64 V
114 113 V
.912 g 5317 1120 N 114 85 66 -44 -114 -99 h
stroke
LT0
0.75 0.75 0.75 C 5317 1120 M
66 -58 V
5269 977 L
-66 44 V
114 99 V
.9978 g 5890 968 N 113 72 66 -14 -114 -73 h
stroke
LT0
0.75 0.75 0.75 C 5890 968 M
65 -15 V
5842 881 L
-66 14 V
114 73 V
.462 g 4971 1844 N 114 137 65 -101 -113 -148 h
stroke
LT0
0.75 0.75 0.75 C 4971 1844 M
66 -112 V
4923 1595 L
-65 101 V
113 148 V
.9428 g 5383 1062 N 113 79 66 -42 -114 -85 h
stroke
LT0
0.75 0.75 0.75 C 5383 1062 M
65 -48 V
5335 935 L
-66 42 V
114 85 V
.7801 g 5120 1331 N 114 113 66 -76 -114 -115 h
stroke
LT0
0.75 0.75 0.75 C 5120 1331 M
66 -78 V
5072 1140 L
-66 76 V
114 115 V
.9679 g 5448 1014 N 113 71 65 -34 -113 -79 h
stroke
LT0
0.75 0.75 0.75 C 5448 1014 M
65 -42 V
5400 901 L
-65 34 V
113 79 V
.9947 g 6397 963 N 114 78 65 -14 -113 -78 h
stroke
LT0
0.75 0.75 0.75 C 6397 963 M
66 -14 V
6349 871 L
-65 14 V
113 78 V
.9981 g 5955 953 N 114 73 65 -14 -113 -72 h
stroke
LT0
0.75 0.75 0.75 C 5955 953 M
66 -13 V
5907 867 L
-65 14 V
113 72 V
.723 g 5055 1412 N 114 115 65 -76 -114 -120 h
stroke
LT0
0.75 0.75 0.75 C 5055 1412 M
65 -81 V
5006 1216 L
-65 76 V
114 120 V
.3802 g 4906 1958 N 113 148 66 -95 -114 -167 h
stroke
LT0
0.75 0.75 0.75 C 4906 1958 M
65 -114 V
4858 1696 L
-66 95 V
114 167 V
.3141 g 4840 2048 N 114 167 66 -54 -114 -203 h
stroke
LT0
0.75 0.75 0.75 C 4840 2048 M
66 -90 V
4792 1791 L
-66 54 V
114 203 V
.9848 g 5513 972 N 114 71 65 -27 -113 -71 h
stroke
LT0
0.75 0.75 0.75 C 5513 972 M
66 -27 V
5465 874 L
-65 27 V
113 71 V
.6613 g 4989 1501 N 114 120 66 -85 -114 -124 h
stroke
LT0
0.75 0.75 0.75 C 4989 1501 M
66 -89 V
4941 1292 L
-66 85 V
114 124 V
.9949 g 6463 949 N 114 78 66 -14 -114 -78 h
stroke
LT0
0.75 0.75 0.75 C 6463 949 M
66 -14 V
6415 857 L
-66 14 V
114 78 V
.9983 g 6021 940 N 114 72 66 -13 -114 -73 h
stroke
LT0
0.75 0.75 0.75 C 6021 940 M
66 -14 V
5973 854 L
-66 13 V
114 73 V
.9936 g 5579 945 N 114 71 66 -20 -114 -71 h
stroke
LT0
0.75 0.75 0.75 C 5579 945 M
66 -20 V
5531 854 L
-66 20 V
114 71 V
.5928 g 4923 1595 N 114 124 66 -93 -114 -125 h
stroke
LT0
0.75 0.75 0.75 C 4923 1595 M
66 -94 V
4875 1377 L
-66 93 V
114 125 V
.9984 g 6087 926 N 113 72 66 -14 -114 -72 h
stroke
LT0
0.75 0.75 0.75 C 6087 926 M
65 -14 V
6039 840 L
-66 14 V
114 72 V
.9977 g 5645 925 N 113 72 66 -17 -114 -71 h
stroke
LT0
0.75 0.75 0.75 C 5645 925 M
65 -16 V
5597 837 L
-66 17 V
114 71 V
.5201 g 4858 1696 N 114 125 65 -92 -114 -134 h
stroke
LT0
0.75 0.75 0.75 C 4858 1696 M
65 -101 V
4809 1470 L
-65 92 V
114 134 V
.454 g 4792 1791 N 114 134 66 -64 -114 -165 h
stroke
LT0
0.75 0.75 0.75 C 4792 1791 M
66 -95 V
4744 1562 L
-66 64 V
114 165 V
.4129 g 4726 1845 N 114 165 66 -27 -114 -192 h
stroke
LT0
0.75 0.75 0.75 C 4726 1845 M
66 -54 V
4678 1626 L
-66 27 V
114 192 V
.9986 g 6152 912 N 114 72 65 -14 -113 -72 h
stroke
LT0
0.75 0.75 0.75 C 6152 912 M
66 -14 V
6104 826 L
-65 14 V
113 72 V
.999 g 5710 909 N 114 72 65 -14 -113 -72 h
stroke
LT0
0.75 0.75 0.75 C 5710 909 M
66 -14 V
5662 823 L
-65 14 V
113 72 V
.8957 g 5138 1076 N 113 81 66 -51 -114 -85 h
stroke
LT0
0.75 0.75 0.75 C 5138 1076 M
65 -55 V
5090 940 L
-66 51 V
114 85 V
.8568 g 5072 1140 N 114 85 66 -60 -114 -89 h
stroke
LT0
0.75 0.75 0.75 C 5072 1140 M
66 -64 V
5024 991 L
-66 60 V
114 89 V
.9273 g 5203 1021 N 114 84 65 -47 -113 -81 h
stroke
LT0
0.75 0.75 0.75 C 5203 1021 M
66 -44 V
5155 893 L
-65 47 V
113 81 V
.9987 g 6218 898 N 114 72 66 -13 -114 -72 h
stroke
LT0
0.75 0.75 0.75 C 6218 898 M
66 -13 V
6170 813 L
-66 13 V
114 72 V
.8098 g 5006 1216 N 114 89 65 -66 -113 -99 h
stroke
LT0
0.75 0.75 0.75 C 5006 1216 M
66 -76 V
-114 -89 V
-65 66 V
113 99 V
.9992 g 5776 895 N 114 71 66 -13 -114 -72 h
stroke
LT0
0.75 0.75 0.75 C 5776 895 M
66 -14 V
5728 810 L
-66 13 V
114 72 V
.9529 g 5269 977 N 114 78 66 -36 -114 -84 h
stroke
LT0
0.75 0.75 0.75 C 5269 977 M
66 -42 V
5221 857 L
-66 36 V
114 84 V
.7581 g 4941 1292 N 113 99 66 -68 -114 -107 h
stroke
LT0
0.75 0.75 0.75 C 4941 1292 M
65 -76 V
-113 -99 V
-66 68 V
114 107 V
.7028 g 4875 1377 N 114 107 66 -74 -114 -118 h
stroke
LT0
0.75 0.75 0.75 C 4875 1377 M
66 -85 V
4827 1185 L
-66 74 V
114 118 V
.9727 g 5335 935 N 113 75 66 -31 -114 -78 h
stroke
LT0
0.75 0.75 0.75 C 5335 935 M
65 -34 V
5287 826 L
-66 31 V
114 78 V
.9989 g 6284 885 N 113 72 66 -14 -114 -72 h
stroke
LT0
0.75 0.75 0.75 C 6284 885 M
65 -14 V
6236 799 L
-66 14 V
114 72 V
.9993 g 5842 881 N 113 71 66 -14 -114 -71 h
stroke
LT0
0.75 0.75 0.75 C 5842 881 M
65 -14 V
5794 796 L
-66 14 V
114 71 V
.512 g 4612 1653 N 114 183 65 -21 -113 -189 h
stroke
LT0
0.75 0.75 0.75 C 4612 1653 M
66 -27 V
4564 1443 L
-65 21 V
113 189 V
.9865 g 5400 901 N 113 73 65 -25 -113 -75 h
stroke
LT0
0.75 0.75 0.75 C 5400 901 M
65 -27 V
5352 801 L
-65 25 V
113 75 V
.6399 g 4809 1470 N 114 118 65 -85 -113 -126 h
stroke
LT0
0.75 0.75 0.75 C 4809 1470 M
66 -93 V
4761 1259 L
-65 85 V
113 126 V
.5324 g 4678 1626 N 114 152 66 -33 -114 -183 h
stroke
LT0
0.75 0.75 0.75 C 4678 1626 M
66 -64 V
4630 1410 L
-66 33 V
114 183 V
.5773 g 4744 1562 N 113 126 66 -66 -114 -152 h
stroke
LT0
0.75 0.75 0.75 C 4744 1562 M
65 -92 V
4696 1344 L
-66 66 V
114 152 V
.9989 g 6349 871 N 114 72 65 -14 -113 -72 h
stroke
LT0
0.75 0.75 0.75 C 6349 871 M
66 -14 V
6301 785 L
-65 14 V
113 72 V
.9994 g 5907 867 N 114 72 65 -14 -113 -71 h
stroke
LT0
0.75 0.75 0.75 C 5907 867 M
66 -13 V
5859 782 L
-65 14 V
113 71 V
.9942 g 5465 874 N 114 70 65 -17 -113 -73 h
stroke
LT0
0.75 0.75 0.75 C 5465 874 M
66 -20 V
5417 784 L
-65 17 V
113 73 V
.9994 g 5973 854 N 114 71 66 -13 -114 -72 h
stroke
LT0
0.75 0.75 0.75 C 5973 854 M
66 -14 V
5925 769 L
-66 13 V
114 72 V
.6221 g 4499 1464 N 113 201 66 -19 -114 -203 h
stroke
LT0
0.75 0.75 0.75 C 4499 1464 M
65 -21 V
4451 1242 L
-66 19 V
114 203 V
.9979 g 5531 854 N 114 70 66 -17 -114 -70 h
stroke
LT0
0.75 0.75 0.75 C 5531 854 M
66 -17 V
5483 767 L
-66 17 V
114 70 V
.8418 g 4893 1117 N 113 113 66 -53 -114 -126 h
stroke
LT0
0.75 0.75 0.75 C 4893 1117 M
65 -66 V
4845 938 L
-66 53 V
114 126 V
.8808 g 4958 1051 N 114 103 65 -50 -113 -113 h
stroke
LT0
0.75 0.75 0.75 C 4958 1051 M
66 -60 V
4910 888 L
-65 50 V
113 113 V
.6328 g 4564 1443 N 114 196 65 -28 -113 -201 h
stroke
LT0
0.75 0.75 0.75 C 4564 1443 M
66 -33 V
4516 1214 L
-65 28 V
113 201 V
.7982 g 4827 1185 N 114 126 66 -63 -114 -131 h
stroke
LT0
0.75 0.75 0.75 C 4827 1185 M
66 -68 V
4779 991 L
-66 63 V
114 131 V
.9995 g 6039 840 N 113 71 66 -14 -114 -71 h
stroke
LT0
0.75 0.75 0.75 C 6039 840 M
65 -14 V
5991 755 L
-66 14 V
114 71 V
.9144 g 5024 991 N 114 97 66 -45 -114 -103 h
stroke
LT0
0.75 0.75 0.75 C 5024 991 M
66 -51 V
4976 843 L
-66 45 V
114 103 V
.7499 g 4761 1259 N 114 131 65 -67 -113 -138 h
stroke
LT0
0.75 0.75 0.75 C 4761 1259 M
66 -74 V
4713 1054 L
-65 67 V
113 138 V
.9995 g 5597 837 N 114 70 65 -14 -114 -70 h
stroke
LT0
0.75 0.75 0.75 C 5597 837 M
65 -14 V
5548 753 L
-65 14 V
114 70 V
.6993 g 4696 1344 N 113 138 66 -57 -114 -166 h
stroke
LT0
0.75 0.75 0.75 C 4696 1344 M
65 -85 V
4648 1121 L
-66 57 V
114 166 V
.6573 g 4630 1410 N 114 166 66 -36 -114 -196 h
stroke
LT0
0.75 0.75 0.75 C 4630 1410 M
66 -66 V
4582 1178 L
-66 36 V
114 196 V
.9428 g 5090 940 N 113 89 66 -39 -114 -97 h
stroke
LT0
0.75 0.75 0.75 C 5090 940 M
65 -47 V
5042 804 L
-66 39 V
114 97 V
.9996 g 6104 826 N 114 71 65 -13 -113 -71 h
stroke
LT0
0.75 0.75 0.75 C 6104 826 M
66 -13 V
6056 742 L
-65 13 V
113 71 V
.9643 g 5155 893 N 114 81 65 -28 -113 -89 h
stroke
LT0
0.75 0.75 0.75 C 5155 893 M
66 -36 V
5107 776 L
-65 28 V
113 89 V
.9998 g 5662 823 N 114 71 66 -14 -114 -70 h
stroke
LT0
0.75 0.75 0.75 C 5662 823 M
66 -13 V
5614 739 L
-66 14 V
114 70 V
.9794 g 5221 857 N 114 78 66 -28 -114 -81 h
stroke
LT0
0.75 0.75 0.75 C 5221 857 M
66 -31 V
5173 748 L
-66 28 V
114 81 V
.7286 g 4385 1261 N 114 176 66 -16 -114 -179 h
stroke
LT0
0.75 0.75 0.75 C 4385 1261 M
66 -19 V
4337 1066 L
-66 16 V
114 179 V
.9997 g 6170 813 N 114 71 66 -14 -114 -71 h
stroke
LT0
0.75 0.75 0.75 C 6170 813 M
66 -14 V
6122 728 L
-66 14 V
114 71 V
.9999 g 5728 810 N 114 71 66 -14 -114 -71 h
stroke
LT0
0.75 0.75 0.75 C 5728 810 M
66 -14 V
5680 725 L
-66 14 V
114 71 V
.9905 g 5287 826 N 113 75 66 -22 -114 -78 h
stroke
LT0
0.75 0.75 0.75 C 5287 826 M
65 -25 V
5239 726 L
-66 22 V
114 78 V
.736 g 4451 1242 N 113 172 66 -24 -114 -176 h
stroke
LT0
0.75 0.75 0.75 C 4451 1242 M
65 -28 V
4403 1042 L
-66 24 V
114 176 V
.7513 g 4516 1214 N 114 171 65 -35 -113 -172 h
stroke
LT0
0.75 0.75 0.75 C 4516 1214 M
66 -36 V
4468 1007 L
-65 35 V
113 172 V
.9997 g 6236 799 N 113 70 66 -13 -114 -71 h
stroke
LT0
0.75 0.75 0.75 C 6236 799 M
65 -14 V
6188 715 L
-66 13 V
114 71 V
.9999 g 5794 796 N 114 70 65 -13 -114 -71 h
stroke
LT0
0.75 0.75 0.75 C 5794 796 M
65 -14 V
5745 712 L
-65 13 V
114 71 V
.7759 g 4582 1178 N 114 152 66 -38 -114 -171 h
stroke
LT0
0.75 0.75 0.75 C 4582 1178 M
66 -57 V
4534 969 L
-66 38 V
114 171 V
.9963 g 5352 801 N 113 74 65 -16 -113 -75 h
stroke
LT0
0.75 0.75 0.75 C 5352 801 M
65 -17 V
5304 710 L
-65 16 V
113 75 V
.8099 g 4648 1121 N 113 131 66 -46 -114 -152 h
stroke
LT0
0.75 0.75 0.75 C 4648 1121 M
65 -67 V
4600 923 L
-66 46 V
114 152 V
.8331 g 4271 1082 N 114 199 66 -17 -114 -198 h
stroke
LT0
0.75 0.75 0.75 C 4271 1082 M
66 -16 V
4223 867 L
-66 17 V
114 198 V
.8466 g 4713 1054 N 114 111 65 -43 -113 -131 h
stroke
LT0
0.75 0.75 0.75 C 4713 1054 M
66 -63 V
4665 880 L
-65 43 V
113 131 V
.8803 g 4779 991 N 114 104 66 -46 -114 -111 h
stroke
LT0
0.75 0.75 0.75 C 4779 991 M
66 -53 V
4731 834 L
-66 46 V
114 111 V
.9999 g 5859 782 N 114 71 66 -14 -114 -70 h
stroke
LT0
0.75 0.75 0.75 C 5859 782 M
66 -13 V
5811 698 L
-66 14 V
114 70 V
.9109 g 4845 938 N 113 97 66 -43 -114 -104 h
stroke
LT0
0.75 0.75 0.75 C 4845 938 M
65 -50 V
4797 791 L
-66 43 V
114 104 V
.9986 g 5417 784 N 113 71 66 -14 -113 -74 h
stroke
LT0
0.75 0.75 0.75 C 5417 784 M
66 -17 V
5370 696 L
-66 14 V
113 74 V
.8381 g 4337 1066 N 114 195 66 -20 -114 -199 h
stroke
LT0
0.75 0.75 0.75 C 4337 1066 M
66 -24 V
4289 847 L
-66 20 V
114 199 V
.9379 g 4910 888 N 114 91 65 -39 -113 -97 h
stroke
LT0
0.75 0.75 0.75 C 4910 888 M
66 -45 V
4862 752 L
-65 39 V
113 97 V
.9608 g 4976 843 N 114 86 66 -34 -114 -91 h
stroke
LT0
0.75 0.75 0.75 C 4976 843 M
66 -39 V
4928 718 L
-66 34 V
114 91 V
.9999 g 5925 769 N 114 70 66 -13 -114 -71 h
stroke
LT0
0.75 0.75 0.75 C 5925 769 M
66 -14 V
5877 685 L
-66 13 V
114 71 V
.8489 g 4403 1042 N 114 184 65 -24 -114 -195 h
stroke
LT0
0.75 0.75 0.75 C 4403 1042 M
65 -35 V
4354 823 L
-65 24 V
114 195 V
.9996 g 5483 767 N 113 71 65 -14 -113 -71 h
stroke
LT0
0.75 0.75 0.75 C 5483 767 M
65 -14 V
5435 682 L
-65 14 V
113 71 V
.9779 g 5042 804 N 113 87 66 -29 -114 -86 h
stroke
LT0
0.75 0.75 0.75 C 5042 804 M
65 -28 V
4994 689 L
-66 29 V
114 86 V
.8638 g 4468 1007 N 114 171 66 -25 -114 -184 h
stroke
LT0
0.75 0.75 0.75 C 4468 1007 M
66 -38 V
4420 798 L
-66 25 V
114 184 V
.9999 g 5991 755 N 114 71 65 -14 -114 -70 h
stroke
LT0
0.75 0.75 0.75 C 5991 755 M
65 -13 V
5942 671 L
-65 14 V
114 70 V
.9999 g 5548 753 N 114 70 65 -13 -113 -71 h
stroke
LT0
0.75 0.75 0.75 C 5548 753 M
66 -14 V
5500 669 L
-65 13 V
113 71 V
.9889 g 5107 776 N 114 79 65 -20 -113 -87 h
stroke
LT0
0.75 0.75 0.75 C 5107 776 M
66 -28 V
5059 669 L
-65 20 V
113 87 V
.8824 g 4534 969 N 114 155 66 -30 -114 -171 h
stroke
LT0
0.75 0.75 0.75 C 4534 969 M
66 -46 V
4486 768 L
-66 30 V
114 171 V
.9999 g 6056 742 N 114 70 66 -13 -114 -71 h
stroke
LT0
0.75 0.75 0.75 C 6056 742 M
66 -14 V
6008 658 L
-66 13 V
114 71 V
.9037 g 4600 923 N 114 142 65 -30 -114 -155 h
stroke
LT0
0.75 0.75 0.75 C 4600 923 M
65 -43 V
4551 738 L
-65 30 V
114 155 V
1 g 5614 739 N 114 70 66 -14 -114 -70 h
stroke
LT0
0.75 0.75 0.75 C 5614 739 M
66 -14 V
5566 655 L
-66 14 V
114 70 V
.9957 g 5173 748 N 114 73 66 -16 -114 -79 h
stroke
LT0
0.75 0.75 0.75 C 5173 748 M
66 -22 V
5125 653 L
-66 16 V
114 79 V
.9247 g 4665 880 N 114 125 66 -29 -114 -142 h
stroke
LT0
0.75 0.75 0.75 C 4665 880 M
66 -46 V
4617 709 L
-66 29 V
114 142 V
.9999 g 6122 728 N 114 71 66 -14 -114 -70 h
stroke
LT0
0.75 0.75 0.75 C 6122 728 M
66 -13 V
6074 644 L
-66 14 V
114 70 V
1 g 5680 725 N 113 71 66 -14 -114 -70 h
stroke
LT0
0.75 0.75 0.75 C 5680 725 M
65 -13 V
5632 641 L
-66 14 V
114 70 V
.9459 g 4731 834 N 114 114 66 -32 -114 -125 h
stroke
LT0
0.75 0.75 0.75 C 4731 834 M
66 -43 V
4683 677 L
-66 32 V
114 125 V
.9989 g 5239 726 N 113 71 66 -14 -114 -73 h
stroke
LT0
0.75 0.75 0.75 C 5239 726 M
65 -16 V
5191 639 L
-66 14 V
114 73 V
.9652 g 4797 791 N 114 103 65 -28 -114 -114 h
stroke
LT0
0.75 0.75 0.75 C 4797 791 M
65 -39 V
4748 649 L
-65 28 V
114 114 V
1 g 5745 712 N 114 70 65 -13 -113 -71 h
stroke
LT0
0.75 0.75 0.75 C 5745 712 M
66 -14 V
5697 628 L
-65 13 V
113 71 V
.9998 g 5304 710 N 114 71 65 -14 -113 -71 h
stroke
LT0
0.75 0.75 0.75 C 5304 710 M
66 -14 V
5256 625 L
-65 14 V
113 71 V
.9806 g 4862 752 N 114 91 66 -22 -114 -103 h
stroke
LT0
0.75 0.75 0.75 C 4862 752 M
66 -34 V
4814 627 L
-66 22 V
114 103 V
1 g 5811 698 N 114 71 66 -14 -114 -70 h
stroke
LT0
0.75 0.75 0.75 C 5811 698 M
66 -13 V
5763 614 L
-66 14 V
114 70 V
.9999 g 5370 696 N 113 70 66 -13 -114 -71 h
stroke
LT0
0.75 0.75 0.75 C 5370 696 M
65 -14 V
5322 612 L
-66 13 V
114 71 V
.9911 g 4928 718 N 114 78 66 -16 -114 -91 h
stroke
LT0
0.75 0.75 0.75 C 4928 718 M
66 -29 V
4880 611 L
-66 16 V
114 91 V
1 g 5877 685 N 113 70 66 -13 -114 -71 h
stroke
LT0
0.75 0.75 0.75 C 5877 685 M
65 -14 V
5829 601 L
-66 13 V
114 71 V
1 g 5435 682 N 112 71 66 -14 -113 -70 h
stroke
LT0
0.75 0.75 0.75 C 5435 682 M
65 -13 V
5388 598 L
-66 14 V
113 70 V
.9968 g 4994 689 N 113 73 66 -15 -114 -78 h
stroke
LT0
0.75 0.75 0.75 C 4994 689 M
65 -20 V
4946 596 L
-66 15 V
114 78 V
1 g 5942 671 N 114 71 65 -14 -113 -70 h
stroke
LT0
0.75 0.75 0.75 C 5942 671 M
66 -13 V
5894 587 L
-65 14 V
113 70 V
1 g 5500 669 N 114 70 64 -13 -112 -71 h
stroke
LT0
0.75 0.75 0.75 C 5500 669 M
66 -14 V
5452 585 L
-64 13 V
112 71 V
.999 g 5059 669 N 114 71 65 -14 -113 -73 h
stroke
LT0
0.75 0.75 0.75 C 5059 669 M
66 -16 V
5011 582 L
-65 14 V
113 73 V
1 g 6008 658 N 114 70 66 -13 -114 -71 h
stroke
LT0
0.75 0.75 0.75 C 6008 658 M
66 -14 V
5960 574 L
-66 13 V
114 71 V
1 g 5566 655 N 114 70 66 -14 -114 -70 h
stroke
LT0
0.75 0.75 0.75 C 5566 655 M
66 -14 V
5518 571 L
-66 14 V
114 70 V
.9999 g 5125 653 N 114 71 66 -14 -114 -71 h
stroke
LT0
0.75 0.75 0.75 C 5125 653 M
66 -14 V
5077 568 L
-66 14 V
114 71 V
1 g 5632 641 N 113 71 66 -14 -114 -70 h
stroke
LT0
0.75 0.75 0.75 C 5632 641 M
65 -13 V
5584 557 L
-66 14 V
114 70 V
1 g 5191 639 N 113 70 66 -13 -114 -71 h
stroke
LT0
0.75 0.75 0.75 C 5191 639 M
65 -14 V
5143 555 L
-66 13 V
114 71 V
1 g 5697 628 N 114 70 65 -13 -113 -71 h
stroke
LT0
0.75 0.75 0.75 C 5697 628 M
66 -14 V
5649 544 L
-65 13 V
113 71 V
1 g 5256 625 N 114 71 65 -14 -113 -70 h
stroke
LT0
0.75 0.75 0.75 C 5256 625 M
66 -13 V
5208 541 L
-65 14 V
113 70 V
1 g 5763 614 N 114 71 66 -14 -114 -70 h
stroke
LT0
0.75 0.75 0.75 C 5763 614 M
66 -13 V
5715 530 L
-66 14 V
114 70 V
1 g 5322 612 N 114 70 66 -13 -114 -71 h
stroke
LT0
0.75 0.75 0.75 C 5322 612 M
66 -14 V
5274 528 L
-66 13 V
114 71 V
1 g 5829 601 N 113 70 66 -13 -114 -71 h
stroke
LT0
0.75 0.75 0.75 C 5829 601 M
65 -14 V
5781 517 L
-66 13 V
114 71 V
1 g 5388 598 N 112 71 66 -14 -114 -70 h
stroke
LT0
0.75 0.75 0.75 C 5388 598 M
64 -13 V
5340 514 L
-66 14 V
114 70 V
1 g 5894 587 N 114 71 65 -14 -113 -70 h
stroke
LT0
0.75 0.75 0.75 C 5894 587 M
66 -13 V
5846 503 L
-65 14 V
113 70 V
1 g 5452 585 N 114 70 64 -13 -112 -71 h
stroke
LT0
0.75 0.75 0.75 C 5452 585 M
66 -14 V
5404 501 L
-64 13 V
112 71 V
1 g 5518 571 N 114 70 66 -14 -114 -70 h
stroke
LT0
0.75 0.75 0.75 C 5518 571 M
66 -14 V
5470 487 L
-66 14 V
114 70 V
1 g 5584 557 N 113 70 66 -13 -114 -70 h
stroke
LT0
0.75 0.75 0.75 C 5584 557 M
65 -13 V
5536 474 L
-66 13 V
114 70 V
1 g 5649 544 N 114 70 65 -14 -113 -70 h
stroke
LT0
0.75 0.75 0.75 C 5649 544 M
66 -14 V
5601 460 L
-65 14 V
113 70 V
1 g 5715 530 N 114 71 66 -14 -114 -70 h
stroke
LT0
0.75 0.75 0.75 C 5715 530 M
66 -13 V
5667 446 L
-66 14 V
114 70 V
1 g 5781 517 N 113 70 66 -13 -114 -71 h
stroke
LT0
0.75 0.75 0.75 C 5781 517 M
65 -14 V
5733 433 L
-66 13 V
114 71 V
stroke
LTb
LCb setrgbcolor
5733 433 M
910 563 V
stroke
LTb
LCb setrgbcolor
5077 568 M
4157 758 L
stroke
LTb
LCb setrgbcolor
5733 433 M
5208 541 L
stroke
LTb
LCb setrgbcolor
4157 758 M
140 86 V
stroke
LTb
LCb setrgbcolor
6643 996 M
-41 9 V
stroke
LTb
LCb setrgbcolor
4157 1884 M
0 -1126 V
stroke
LTb
LCb setrgbcolor
5067 2447 M
0 -80 V
stroke
LTb
LCb setrgbcolor
6643 2122 M
0 -1126 V
stroke
LTb
LCb setrgbcolor
4157 1884 M
910 563 V
stroke
LTb
LCb setrgbcolor
6643 2122 M
5067 2447 L
stroke
LTa
LCa setrgbcolor
4420 704 M
88 54 V
stroke
LTb
LCb setrgbcolor
4420 704 M
44 27 V
stroke
LTb
LCb setrgbcolor
4370 641 M
[ [(Times-Roman) 120.0 0.0 true true 0 ( 50)]
] -40.0 MCshow
1.000 UL
LTb
LCb setrgbcolor
1.000 UL
LTa
LCa setrgbcolor
4748 636 M
14 9 V
stroke
LTb
LCb setrgbcolor
4748 636 M
14 9 V
stroke
LTb
LCb setrgbcolor
4698 573 M
[ [(Times-Roman) 120.0 0.0 true true 0 ( 100)]
] -40.0 MCshow
1.000 UL
LTb
LCb setrgbcolor
1.000 UL
LTa
LCa setrgbcolor
5077 568 M
114 71 V
stroke
LTb
LCb setrgbcolor
5077 568 M
44 28 V
stroke
LTb
LCb setrgbcolor
5026 505 M
[ [(Times-Roman) 120.0 0.0 true true 0 ( 150)]
] -40.0 MCshow
1.000 UL
LTb
LCb setrgbcolor
1.000 UL
LTa
LCa setrgbcolor
5404 501 M
341 211 V
stroke
LTb
LCb setrgbcolor
5404 501 M
44 27 V
stroke
LTb
LCb setrgbcolor
5355 438 M
[ [(Times-Roman) 120.0 0.0 true true 0 ( 200)]
] -40.0 MCshow
1.000 UL
LTb
LCb setrgbcolor
LCb setrgbcolor
4718 455 M
[ [(Times-Roman) 120.0 0.0 true true 0 (Iterations)]
] -40.0 MCshow
LTb
1.000 UL
LTa
LCa setrgbcolor
5077 568 M
4157 758 L
stroke
LTa
LCa setrgbcolor
5733 433 M
5208 541 L
stroke
LTb
LCb setrgbcolor
5733 433 M
-55 11 V
stroke
5795 400 M
[ [(Times-Roman) 120.0 0.0 true true 0 ( 0.1)]
] -40.0 MCshow
1.000 UL
LTb
LCb setrgbcolor
1.000 UL
LTb
LCb setrgbcolor
4212 747 M
-55 11 V
stroke
LTa
LCa setrgbcolor
5960 574 M
5435 682 L
stroke
LTb
LCb setrgbcolor
5960 574 M
-54 11 V
stroke
6022 541 M
[ [(Times-Roman) 120.0 0.0 true true 0 ( 0.3)]
] -40.0 MCshow
1.000 UL
LTb
LCb setrgbcolor
1.000 UL
LTb
LCb setrgbcolor
6188 715 M
-1 0 V
stroke
6250 682 M
[ [(Times-Roman) 120.0 0.0 true true 0 ( 0.5)]
] -40.0 MCshow
1.000 UL
LTb
LCb setrgbcolor
1.000 UL
LTa
LCa setrgbcolor
6415 855 M
-2 1 V
stroke
LTb
LCb setrgbcolor
6415 855 M
-2 1 V
stroke
6477 823 M
[ [(Times-Roman) 120.0 0.0 true true 0 ( 0.7)]
] -40.0 MCshow
1.000 UL
LTb
LCb setrgbcolor
1.000 UL
LTa
LCa setrgbcolor
6643 996 M
-41 9 V
stroke
LTb
LCb setrgbcolor
6643 996 M
-41 9 V
stroke
6705 964 M
[ [(Times-Roman) 120.0 0.0 true true 0 ( 0.9)]
] -40.0 MCshow
1.000 UL
LTb
LCb setrgbcolor
LCb setrgbcolor
6582 633 M
[ [(Times-Roman) 120.0 0.0 true true 0 (p1)]
] -40.0 MCshow
LTb
1.000 UL
LTa
LCa setrgbcolor
4157 758 M
140 86 V
stroke
LTa
LCa setrgbcolor
6643 996 M
-41 9 V
stroke
LTb
LCb setrgbcolor
4220 758 M
-63 0 V
stroke
4031 758 M
[ [(Times-Roman) 120.0 0.0 true true 0 ( 0)]
] -40.0 MRshow
1.000 UL
LTb
LCb setrgbcolor
1.000 UL
LTa
LCa setrgbcolor
6643 1121 M
5635 1329 L
stroke
4031 883 M
[ [(Times-Roman) 120.0 0.0 true true 0 ( 10)]
] -40.0 MRshow
1.000 UL
LTb
LCb setrgbcolor
1.000 UL
LTa
LCa setrgbcolor
4157 1008 M
111 69 V
stroke
LTa
LCa setrgbcolor
6643 1247 M
5543 1472 L
stroke
LTb
LCb setrgbcolor
4220 1008 M
-63 0 V
stroke
4031 1008 M
[ [(Times-Roman) 120.0 0.0 true true 0 ( 20)]
] -40.0 MRshow
1.000 UL
LTb
LCb setrgbcolor
1.000 UL
LTa
LCa setrgbcolor
4157 1134 M
239 148 V
stroke
LTa
LCa setrgbcolor
6643 1372 M
5458 1615 L
stroke
LTb
LCb setrgbcolor
4220 1134 M
-63 0 V
stroke
4031 1134 M
[ [(Times-Roman) 120.0 0.0 true true 0 ( 30)]
] -40.0 MRshow
1.000 UL
LTb
LCb setrgbcolor
1.000 UL
LTa
LCa setrgbcolor
4157 1259 M
346 213 V
stroke
LTa
LCa setrgbcolor
6643 1496 M
5380 1757 L
stroke
LTb
LCb setrgbcolor
4220 1259 M
-63 0 V
stroke
4031 1259 M
[ [(Times-Roman) 120.0 0.0 true true 0 ( 40)]
] -40.0 MRshow
1.000 UL
LTb
LCb setrgbcolor
1.000 UL
LTa
LCa setrgbcolor
4157 1384 M
466 287 V
stroke
LTa
LCa setrgbcolor
6643 1621 M
5305 1897 L
stroke
LTb
LCb setrgbcolor
4220 1384 M
-63 0 V
stroke
4031 1384 M
[ [(Times-Roman) 120.0 0.0 true true 0 ( 50)]
] -40.0 MRshow
1.000 UL
LTb
LCb setrgbcolor
1.000 UL
LTa
LCa setrgbcolor
4157 1508 M
583 361 V
stroke
LTa
LCa setrgbcolor
6643 1746 M
5232 2038 L
stroke
LTb
LCb setrgbcolor
4220 1508 M
-63 0 V
stroke
4031 1508 M
[ [(Times-Roman) 120.0 0.0 true true 0 ( 60)]
] -40.0 MRshow
1.000 UL
LTb
LCb setrgbcolor
1.000 UL
LTa
LCa setrgbcolor
4157 1633 M
692 429 V
stroke
LTa
LCa setrgbcolor
6643 1872 M
5161 2177 L
stroke
LTb
LCb setrgbcolor
4220 1633 M
-63 0 V
stroke
4031 1633 M
[ [(Times-Roman) 120.0 0.0 true true 0 ( 70)]
] -40.0 MRshow
1.000 UL
LTb
LCb setrgbcolor
1.000 UL
LTa
LCa setrgbcolor
4157 1759 M
846 523 V
stroke
LTa
LCa setrgbcolor
6643 1997 M
5092 2317 L
stroke
LTb
LCb setrgbcolor
4220 1759 M
-63 0 V
stroke
4031 1759 M
[ [(Times-Roman) 120.0 0.0 true true 0 ( 80)]
] -40.0 MRshow
1.000 UL
LTb
LCb setrgbcolor
1.000 UL
LTa
LCa setrgbcolor
4157 1884 M
910 563 V
stroke
LTa
LCa setrgbcolor
6643 2122 M
5067 2447 L
stroke
LTb
LCb setrgbcolor
4220 1884 M
-63 0 V
stroke
4031 1884 M
[ [(Times-Roman) 120.0 0.0 true true 0 ( 90)]
] -40.0 MRshow
1.000 UL
LTb
LCb setrgbcolor
LCb setrgbcolor
3653 1321 M
currentpoint gsave translate 90 rotate 0 0 moveto
[ [(Times-Roman) 120.0 0.0 true true 0 (Avg. number of singles)]
] -40.0 MCshow
grestore
LTb
1.000 UP
grestore % colour palette end
stroke
grestore
end
showpage
%%Trailer
%%DocumentFonts: Times-Roman
