%!PS-Adobe-2.0 EPSF-2.0
%%Title: AS-SMTI-Runtime-vP2-P1-90.eps
%%Creator: gnuplot 4.6 patchlevel 6
%%CreationDate: Wed Apr 22 14:22:05 2015
%%DocumentFonts: (atend)
%%BoundingBox: 50 50 410 194
%%EndComments
%%BeginProlog
/gnudict 256 dict def
gnudict begin
%
% The following true/false flags may be edited by hand if desired.
% The unit line width and grayscale image gamma correction may also be changed.
%
/Color true def
/Blacktext false def
/Solid false def
/Dashlength 1 def
/Landscape false def
/Level1 false def
/Rounded false def
/ClipToBoundingBox false def
/SuppressPDFMark false def
/TransparentPatterns false def
/gnulinewidth 5.000 def
/userlinewidth gnulinewidth def
/Gamma 1.0 def
/BackgroundColor {-1.000 -1.000 -1.000} def
%
/vshift -40 def
/dl1 {
  10.0 Dashlength mul mul
  Rounded { currentlinewidth 0.75 mul sub dup 0 le { pop 0.01 } if } if
} def
/dl2 {
  10.0 Dashlength mul mul
  Rounded { currentlinewidth 0.75 mul add } if
} def
/hpt_ 31.5 def
/vpt_ 31.5 def
/hpt hpt_ def
/vpt vpt_ def
/doclip {
  ClipToBoundingBox {
    newpath 50 50 moveto 410 50 lineto 410 194 lineto 50 194 lineto closepath
    clip
  } if
} def
%
% Gnuplot Prolog Version 4.6 (September 2012)
%
%/SuppressPDFMark true def
%
/M {moveto} bind def
/L {lineto} bind def
/R {rmoveto} bind def
/V {rlineto} bind def
/N {newpath moveto} bind def
/Z {closepath} bind def
/C {setrgbcolor} bind def
/f {rlineto fill} bind def
/g {setgray} bind def
/Gshow {show} def   % May be redefined later in the file to support UTF-8
/vpt2 vpt 2 mul def
/hpt2 hpt 2 mul def
/Lshow {currentpoint stroke M 0 vshift R 
	Blacktext {gsave 0 setgray show grestore} {show} ifelse} def
/Rshow {currentpoint stroke M dup stringwidth pop neg vshift R
	Blacktext {gsave 0 setgray show grestore} {show} ifelse} def
/Cshow {currentpoint stroke M dup stringwidth pop -2 div vshift R 
	Blacktext {gsave 0 setgray show grestore} {show} ifelse} def
/UP {dup vpt_ mul /vpt exch def hpt_ mul /hpt exch def
  /hpt2 hpt 2 mul def /vpt2 vpt 2 mul def} def
/DL {Color {setrgbcolor Solid {pop []} if 0 setdash}
 {pop pop pop 0 setgray Solid {pop []} if 0 setdash} ifelse} def
/BL {stroke userlinewidth 2 mul setlinewidth
	Rounded {1 setlinejoin 1 setlinecap} if} def
/AL {stroke userlinewidth 2 div setlinewidth
	Rounded {1 setlinejoin 1 setlinecap} if} def
/UL {dup gnulinewidth mul /userlinewidth exch def
	dup 1 lt {pop 1} if 10 mul /udl exch def} def
/PL {stroke userlinewidth setlinewidth
	Rounded {1 setlinejoin 1 setlinecap} if} def
3.8 setmiterlimit
% Default Line colors
/LCw {1 1 1} def
/LCb {0 0 0} def
/LCa {0 0 0} def
/LC0 {1 0 0} def
/LC1 {0 1 0} def
/LC2 {0 0 1} def
/LC3 {1 0 1} def
/LC4 {0 1 1} def
/LC5 {1 1 0} def
/LC6 {0 0 0} def
/LC7 {1 0.3 0} def
/LC8 {0.5 0.5 0.5} def
% Default Line Types
/LTw {PL [] 1 setgray} def
/LTb {BL [] LCb DL} def
/LTa {AL [1 udl mul 2 udl mul] 0 setdash LCa setrgbcolor} def
/LT0 {PL [] LC0 DL} def
/LT1 {PL [4 dl1 2 dl2] LC1 DL} def
/LT2 {PL [2 dl1 3 dl2] LC2 DL} def
/LT3 {PL [1 dl1 1.5 dl2] LC3 DL} def
/LT4 {PL [6 dl1 2 dl2 1 dl1 2 dl2] LC4 DL} def
/LT5 {PL [3 dl1 3 dl2 1 dl1 3 dl2] LC5 DL} def
/LT6 {PL [2 dl1 2 dl2 2 dl1 6 dl2] LC6 DL} def
/LT7 {PL [1 dl1 2 dl2 6 dl1 2 dl2 1 dl1 2 dl2] LC7 DL} def
/LT8 {PL [2 dl1 2 dl2 2 dl1 2 dl2 2 dl1 2 dl2 2 dl1 4 dl2] LC8 DL} def
/Pnt {stroke [] 0 setdash gsave 1 setlinecap M 0 0 V stroke grestore} def
/Dia {stroke [] 0 setdash 2 copy vpt add M
  hpt neg vpt neg V hpt vpt neg V
  hpt vpt V hpt neg vpt V closepath stroke
  Pnt} def
/Pls {stroke [] 0 setdash vpt sub M 0 vpt2 V
  currentpoint stroke M
  hpt neg vpt neg R hpt2 0 V stroke
 } def
/Box {stroke [] 0 setdash 2 copy exch hpt sub exch vpt add M
  0 vpt2 neg V hpt2 0 V 0 vpt2 V
  hpt2 neg 0 V closepath stroke
  Pnt} def
/Crs {stroke [] 0 setdash exch hpt sub exch vpt add M
  hpt2 vpt2 neg V currentpoint stroke M
  hpt2 neg 0 R hpt2 vpt2 V stroke} def
/TriU {stroke [] 0 setdash 2 copy vpt 1.12 mul add M
  hpt neg vpt -1.62 mul V
  hpt 2 mul 0 V
  hpt neg vpt 1.62 mul V closepath stroke
  Pnt} def
/Star {2 copy Pls Crs} def
/BoxF {stroke [] 0 setdash exch hpt sub exch vpt add M
  0 vpt2 neg V hpt2 0 V 0 vpt2 V
  hpt2 neg 0 V closepath fill} def
/TriUF {stroke [] 0 setdash vpt 1.12 mul add M
  hpt neg vpt -1.62 mul V
  hpt 2 mul 0 V
  hpt neg vpt 1.62 mul V closepath fill} def
/TriD {stroke [] 0 setdash 2 copy vpt 1.12 mul sub M
  hpt neg vpt 1.62 mul V
  hpt 2 mul 0 V
  hpt neg vpt -1.62 mul V closepath stroke
  Pnt} def
/TriDF {stroke [] 0 setdash vpt 1.12 mul sub M
  hpt neg vpt 1.62 mul V
  hpt 2 mul 0 V
  hpt neg vpt -1.62 mul V closepath fill} def
/DiaF {stroke [] 0 setdash vpt add M
  hpt neg vpt neg V hpt vpt neg V
  hpt vpt V hpt neg vpt V closepath fill} def
/Pent {stroke [] 0 setdash 2 copy gsave
  translate 0 hpt M 4 {72 rotate 0 hpt L} repeat
  closepath stroke grestore Pnt} def
/PentF {stroke [] 0 setdash gsave
  translate 0 hpt M 4 {72 rotate 0 hpt L} repeat
  closepath fill grestore} def
/Circle {stroke [] 0 setdash 2 copy
  hpt 0 360 arc stroke Pnt} def
/CircleF {stroke [] 0 setdash hpt 0 360 arc fill} def
/C0 {BL [] 0 setdash 2 copy moveto vpt 90 450 arc} bind def
/C1 {BL [] 0 setdash 2 copy moveto
	2 copy vpt 0 90 arc closepath fill
	vpt 0 360 arc closepath} bind def
/C2 {BL [] 0 setdash 2 copy moveto
	2 copy vpt 90 180 arc closepath fill
	vpt 0 360 arc closepath} bind def
/C3 {BL [] 0 setdash 2 copy moveto
	2 copy vpt 0 180 arc closepath fill
	vpt 0 360 arc closepath} bind def
/C4 {BL [] 0 setdash 2 copy moveto
	2 copy vpt 180 270 arc closepath fill
	vpt 0 360 arc closepath} bind def
/C5 {BL [] 0 setdash 2 copy moveto
	2 copy vpt 0 90 arc
	2 copy moveto
	2 copy vpt 180 270 arc closepath fill
	vpt 0 360 arc} bind def
/C6 {BL [] 0 setdash 2 copy moveto
	2 copy vpt 90 270 arc closepath fill
	vpt 0 360 arc closepath} bind def
/C7 {BL [] 0 setdash 2 copy moveto
	2 copy vpt 0 270 arc closepath fill
	vpt 0 360 arc closepath} bind def
/C8 {BL [] 0 setdash 2 copy moveto
	2 copy vpt 270 360 arc closepath fill
	vpt 0 360 arc closepath} bind def
/C9 {BL [] 0 setdash 2 copy moveto
	2 copy vpt 270 450 arc closepath fill
	vpt 0 360 arc closepath} bind def
/C10 {BL [] 0 setdash 2 copy 2 copy moveto vpt 270 360 arc closepath fill
	2 copy moveto
	2 copy vpt 90 180 arc closepath fill
	vpt 0 360 arc closepath} bind def
/C11 {BL [] 0 setdash 2 copy moveto
	2 copy vpt 0 180 arc closepath fill
	2 copy moveto
	2 copy vpt 270 360 arc closepath fill
	vpt 0 360 arc closepath} bind def
/C12 {BL [] 0 setdash 2 copy moveto
	2 copy vpt 180 360 arc closepath fill
	vpt 0 360 arc closepath} bind def
/C13 {BL [] 0 setdash 2 copy moveto
	2 copy vpt 0 90 arc closepath fill
	2 copy moveto
	2 copy vpt 180 360 arc closepath fill
	vpt 0 360 arc closepath} bind def
/C14 {BL [] 0 setdash 2 copy moveto
	2 copy vpt 90 360 arc closepath fill
	vpt 0 360 arc} bind def
/C15 {BL [] 0 setdash 2 copy vpt 0 360 arc closepath fill
	vpt 0 360 arc closepath} bind def
/Rec {newpath 4 2 roll moveto 1 index 0 rlineto 0 exch rlineto
	neg 0 rlineto closepath} bind def
/Square {dup Rec} bind def
/Bsquare {vpt sub exch vpt sub exch vpt2 Square} bind def
/S0 {BL [] 0 setdash 2 copy moveto 0 vpt rlineto BL Bsquare} bind def
/S1 {BL [] 0 setdash 2 copy vpt Square fill Bsquare} bind def
/S2 {BL [] 0 setdash 2 copy exch vpt sub exch vpt Square fill Bsquare} bind def
/S3 {BL [] 0 setdash 2 copy exch vpt sub exch vpt2 vpt Rec fill Bsquare} bind def
/S4 {BL [] 0 setdash 2 copy exch vpt sub exch vpt sub vpt Square fill Bsquare} bind def
/S5 {BL [] 0 setdash 2 copy 2 copy vpt Square fill
	exch vpt sub exch vpt sub vpt Square fill Bsquare} bind def
/S6 {BL [] 0 setdash 2 copy exch vpt sub exch vpt sub vpt vpt2 Rec fill Bsquare} bind def
/S7 {BL [] 0 setdash 2 copy exch vpt sub exch vpt sub vpt vpt2 Rec fill
	2 copy vpt Square fill Bsquare} bind def
/S8 {BL [] 0 setdash 2 copy vpt sub vpt Square fill Bsquare} bind def
/S9 {BL [] 0 setdash 2 copy vpt sub vpt vpt2 Rec fill Bsquare} bind def
/S10 {BL [] 0 setdash 2 copy vpt sub vpt Square fill 2 copy exch vpt sub exch vpt Square fill
	Bsquare} bind def
/S11 {BL [] 0 setdash 2 copy vpt sub vpt Square fill 2 copy exch vpt sub exch vpt2 vpt Rec fill
	Bsquare} bind def
/S12 {BL [] 0 setdash 2 copy exch vpt sub exch vpt sub vpt2 vpt Rec fill Bsquare} bind def
/S13 {BL [] 0 setdash 2 copy exch vpt sub exch vpt sub vpt2 vpt Rec fill
	2 copy vpt Square fill Bsquare} bind def
/S14 {BL [] 0 setdash 2 copy exch vpt sub exch vpt sub vpt2 vpt Rec fill
	2 copy exch vpt sub exch vpt Square fill Bsquare} bind def
/S15 {BL [] 0 setdash 2 copy Bsquare fill Bsquare} bind def
/D0 {gsave translate 45 rotate 0 0 S0 stroke grestore} bind def
/D1 {gsave translate 45 rotate 0 0 S1 stroke grestore} bind def
/D2 {gsave translate 45 rotate 0 0 S2 stroke grestore} bind def
/D3 {gsave translate 45 rotate 0 0 S3 stroke grestore} bind def
/D4 {gsave translate 45 rotate 0 0 S4 stroke grestore} bind def
/D5 {gsave translate 45 rotate 0 0 S5 stroke grestore} bind def
/D6 {gsave translate 45 rotate 0 0 S6 stroke grestore} bind def
/D7 {gsave translate 45 rotate 0 0 S7 stroke grestore} bind def
/D8 {gsave translate 45 rotate 0 0 S8 stroke grestore} bind def
/D9 {gsave translate 45 rotate 0 0 S9 stroke grestore} bind def
/D10 {gsave translate 45 rotate 0 0 S10 stroke grestore} bind def
/D11 {gsave translate 45 rotate 0 0 S11 stroke grestore} bind def
/D12 {gsave translate 45 rotate 0 0 S12 stroke grestore} bind def
/D13 {gsave translate 45 rotate 0 0 S13 stroke grestore} bind def
/D14 {gsave translate 45 rotate 0 0 S14 stroke grestore} bind def
/D15 {gsave translate 45 rotate 0 0 S15 stroke grestore} bind def
/DiaE {stroke [] 0 setdash vpt add M
  hpt neg vpt neg V hpt vpt neg V
  hpt vpt V hpt neg vpt V closepath stroke} def
/BoxE {stroke [] 0 setdash exch hpt sub exch vpt add M
  0 vpt2 neg V hpt2 0 V 0 vpt2 V
  hpt2 neg 0 V closepath stroke} def
/TriUE {stroke [] 0 setdash vpt 1.12 mul add M
  hpt neg vpt -1.62 mul V
  hpt 2 mul 0 V
  hpt neg vpt 1.62 mul V closepath stroke} def
/TriDE {stroke [] 0 setdash vpt 1.12 mul sub M
  hpt neg vpt 1.62 mul V
  hpt 2 mul 0 V
  hpt neg vpt -1.62 mul V closepath stroke} def
/PentE {stroke [] 0 setdash gsave
  translate 0 hpt M 4 {72 rotate 0 hpt L} repeat
  closepath stroke grestore} def
/CircE {stroke [] 0 setdash 
  hpt 0 360 arc stroke} def
/Opaque {gsave closepath 1 setgray fill grestore 0 setgray closepath} def
/DiaW {stroke [] 0 setdash vpt add M
  hpt neg vpt neg V hpt vpt neg V
  hpt vpt V hpt neg vpt V Opaque stroke} def
/BoxW {stroke [] 0 setdash exch hpt sub exch vpt add M
  0 vpt2 neg V hpt2 0 V 0 vpt2 V
  hpt2 neg 0 V Opaque stroke} def
/TriUW {stroke [] 0 setdash vpt 1.12 mul add M
  hpt neg vpt -1.62 mul V
  hpt 2 mul 0 V
  hpt neg vpt 1.62 mul V Opaque stroke} def
/TriDW {stroke [] 0 setdash vpt 1.12 mul sub M
  hpt neg vpt 1.62 mul V
  hpt 2 mul 0 V
  hpt neg vpt -1.62 mul V Opaque stroke} def
/PentW {stroke [] 0 setdash gsave
  translate 0 hpt M 4 {72 rotate 0 hpt L} repeat
  Opaque stroke grestore} def
/CircW {stroke [] 0 setdash 
  hpt 0 360 arc Opaque stroke} def
/BoxFill {gsave Rec 1 setgray fill grestore} def
/Density {
  /Fillden exch def
  currentrgbcolor
  /ColB exch def /ColG exch def /ColR exch def
  /ColR ColR Fillden mul Fillden sub 1 add def
  /ColG ColG Fillden mul Fillden sub 1 add def
  /ColB ColB Fillden mul Fillden sub 1 add def
  ColR ColG ColB setrgbcolor} def
/BoxColFill {gsave Rec PolyFill} def
/PolyFill {gsave Density fill grestore grestore} def
/h {rlineto rlineto rlineto gsave closepath fill grestore} bind def
%
% PostScript Level 1 Pattern Fill routine for rectangles
% Usage: x y w h s a XX PatternFill
%	x,y = lower left corner of box to be filled
%	w,h = width and height of box
%	  a = angle in degrees between lines and x-axis
%	 XX = 0/1 for no/yes cross-hatch
%
/PatternFill {gsave /PFa [ 9 2 roll ] def
  PFa 0 get PFa 2 get 2 div add PFa 1 get PFa 3 get 2 div add translate
  PFa 2 get -2 div PFa 3 get -2 div PFa 2 get PFa 3 get Rec
  TransparentPatterns {} {gsave 1 setgray fill grestore} ifelse
  clip
  currentlinewidth 0.5 mul setlinewidth
  /PFs PFa 2 get dup mul PFa 3 get dup mul add sqrt def
  0 0 M PFa 5 get rotate PFs -2 div dup translate
  0 1 PFs PFa 4 get div 1 add floor cvi
	{PFa 4 get mul 0 M 0 PFs V} for
  0 PFa 6 get ne {
	0 1 PFs PFa 4 get div 1 add floor cvi
	{PFa 4 get mul 0 2 1 roll M PFs 0 V} for
 } if
  stroke grestore} def
%
/languagelevel where
 {pop languagelevel} {1} ifelse
 2 lt
	{/InterpretLevel1 true def}
	{/InterpretLevel1 Level1 def}
 ifelse
%
% PostScript level 2 pattern fill definitions
%
/Level2PatternFill {
/Tile8x8 {/PaintType 2 /PatternType 1 /TilingType 1 /BBox [0 0 8 8] /XStep 8 /YStep 8}
	bind def
/KeepColor {currentrgbcolor [/Pattern /DeviceRGB] setcolorspace} bind def
<< Tile8x8
 /PaintProc {0.5 setlinewidth pop 0 0 M 8 8 L 0 8 M 8 0 L stroke} 
>> matrix makepattern
/Pat1 exch def
<< Tile8x8
 /PaintProc {0.5 setlinewidth pop 0 0 M 8 8 L 0 8 M 8 0 L stroke
	0 4 M 4 8 L 8 4 L 4 0 L 0 4 L stroke}
>> matrix makepattern
/Pat2 exch def
<< Tile8x8
 /PaintProc {0.5 setlinewidth pop 0 0 M 0 8 L
	8 8 L 8 0 L 0 0 L fill}
>> matrix makepattern
/Pat3 exch def
<< Tile8x8
 /PaintProc {0.5 setlinewidth pop -4 8 M 8 -4 L
	0 12 M 12 0 L stroke}
>> matrix makepattern
/Pat4 exch def
<< Tile8x8
 /PaintProc {0.5 setlinewidth pop -4 0 M 8 12 L
	0 -4 M 12 8 L stroke}
>> matrix makepattern
/Pat5 exch def
<< Tile8x8
 /PaintProc {0.5 setlinewidth pop -2 8 M 4 -4 L
	0 12 M 8 -4 L 4 12 M 10 0 L stroke}
>> matrix makepattern
/Pat6 exch def
<< Tile8x8
 /PaintProc {0.5 setlinewidth pop -2 0 M 4 12 L
	0 -4 M 8 12 L 4 -4 M 10 8 L stroke}
>> matrix makepattern
/Pat7 exch def
<< Tile8x8
 /PaintProc {0.5 setlinewidth pop 8 -2 M -4 4 L
	12 0 M -4 8 L 12 4 M 0 10 L stroke}
>> matrix makepattern
/Pat8 exch def
<< Tile8x8
 /PaintProc {0.5 setlinewidth pop 0 -2 M 12 4 L
	-4 0 M 12 8 L -4 4 M 8 10 L stroke}
>> matrix makepattern
/Pat9 exch def
/Pattern1 {PatternBgnd KeepColor Pat1 setpattern} bind def
/Pattern2 {PatternBgnd KeepColor Pat2 setpattern} bind def
/Pattern3 {PatternBgnd KeepColor Pat3 setpattern} bind def
/Pattern4 {PatternBgnd KeepColor Landscape {Pat5} {Pat4} ifelse setpattern} bind def
/Pattern5 {PatternBgnd KeepColor Landscape {Pat4} {Pat5} ifelse setpattern} bind def
/Pattern6 {PatternBgnd KeepColor Landscape {Pat9} {Pat6} ifelse setpattern} bind def
/Pattern7 {PatternBgnd KeepColor Landscape {Pat8} {Pat7} ifelse setpattern} bind def
} def
%
%
%End of PostScript Level 2 code
%
/PatternBgnd {
  TransparentPatterns {} {gsave 1 setgray fill grestore} ifelse
} def
%
% Substitute for Level 2 pattern fill codes with
% grayscale if Level 2 support is not selected.
%
/Level1PatternFill {
/Pattern1 {0.250 Density} bind def
/Pattern2 {0.500 Density} bind def
/Pattern3 {0.750 Density} bind def
/Pattern4 {0.125 Density} bind def
/Pattern5 {0.375 Density} bind def
/Pattern6 {0.625 Density} bind def
/Pattern7 {0.875 Density} bind def
} def
%
% Now test for support of Level 2 code
%
Level1 {Level1PatternFill} {Level2PatternFill} ifelse
%
/Symbol-Oblique /Symbol findfont [1 0 .167 1 0 0] makefont
dup length dict begin {1 index /FID eq {pop pop} {def} ifelse} forall
currentdict end definefont pop
/MFshow {
   { dup 5 get 3 ge
     { 5 get 3 eq {gsave} {grestore} ifelse }
     {dup dup 0 get findfont exch 1 get scalefont setfont
     [ currentpoint ] exch dup 2 get 0 exch R dup 5 get 2 ne {dup dup 6
     get exch 4 get {Gshow} {stringwidth pop 0 R} ifelse }if dup 5 get 0 eq
     {dup 3 get {2 get neg 0 exch R pop} {pop aload pop M} ifelse} {dup 5
     get 1 eq {dup 2 get exch dup 3 get exch 6 get stringwidth pop -2 div
     dup 0 R} {dup 6 get stringwidth pop -2 div 0 R 6 get
     show 2 index {aload pop M neg 3 -1 roll neg R pop pop} {pop pop pop
     pop aload pop M} ifelse }ifelse }ifelse }
     ifelse }
   forall} def
/Gswidth {dup type /stringtype eq {stringwidth} {pop (n) stringwidth} ifelse} def
/MFwidth {0 exch { dup 5 get 3 ge { 5 get 3 eq { 0 } { pop } ifelse }
 {dup 3 get{dup dup 0 get findfont exch 1 get scalefont setfont
     6 get Gswidth pop add} {pop} ifelse} ifelse} forall} def
/MLshow { currentpoint stroke M
  0 exch R
  Blacktext {gsave 0 setgray MFshow grestore} {MFshow} ifelse } bind def
/MRshow { currentpoint stroke M
  exch dup MFwidth neg 3 -1 roll R
  Blacktext {gsave 0 setgray MFshow grestore} {MFshow} ifelse } bind def
/MCshow { currentpoint stroke M
  exch dup MFwidth -2 div 3 -1 roll R
  Blacktext {gsave 0 setgray MFshow grestore} {MFshow} ifelse } bind def
/XYsave    { [( ) 1 2 true false 3 ()] } bind def
/XYrestore { [( ) 1 2 true false 4 ()] } bind def
Level1 SuppressPDFMark or 
{} {
/SDict 10 dict def
systemdict /pdfmark known not {
  userdict /pdfmark systemdict /cleartomark get put
} if
SDict begin [
  /Title (AS-SMTI-Runtime-vP2-P1-90.eps)
  /Subject (gnuplot plot)
  /Creator (gnuplot 4.6 patchlevel 6)
  /Author (dannymunera)
%  /Producer (gnuplot)
%  /Keywords ()
  /CreationDate (Wed Apr 22 14:22:05 2015)
  /DOCINFO pdfmark
end
} ifelse
end
%%EndProlog
%%Page: 1 1
gnudict begin
gsave
doclip
50 50 translate
0.050 0.050 scale
0 setgray
newpath
(Times-Roman) findfont 120 scalefont setfont
BackgroundColor 0 lt 3 1 roll 0 lt exch 0 lt or or not {BackgroundColor C 1.000 0 0 7200.00 2880.00 BoxColFill} if
LCb setrgbcolor
LTb
gsave % colour palette begin
/maxcolors 0 def
/HSV2RGB {  exch dup 0.0 eq {pop exch pop dup dup} % achromatic gray
  { /HSVs exch def /HSVv exch def 6.0 mul dup floor dup 3 1 roll sub
     /HSVf exch def /HSVi exch cvi def /HSVp HSVv 1.0 HSVs sub mul def
	 /HSVq HSVv 1.0 HSVs HSVf mul sub mul def 
	 /HSVt HSVv 1.0 HSVs 1.0 HSVf sub mul sub mul def
	 /HSVi HSVi 6 mod def 0 HSVi eq {HSVv HSVt HSVp}
	 {1 HSVi eq {HSVq HSVv HSVp}{2 HSVi eq {HSVp HSVv HSVt}
	 {3 HSVi eq {HSVp HSVq HSVv}{4 HSVi eq {HSVt HSVp HSVv}
	 {HSVv HSVp HSVq} ifelse} ifelse} ifelse} ifelse} ifelse
  } ifelse} def
/Constrain {
  dup 0 lt {0 exch pop}{dup 1 gt {1 exch pop} if} ifelse} def
/YIQ2RGB {
  3 copy -1.702 mul exch -1.105 mul add add Constrain 4 1 roll
  3 copy -0.647 mul exch -0.272 mul add add Constrain 5 1 roll
  0.621 mul exch -0.956 mul add add Constrain 3 1 roll } def
/CMY2RGB {  1 exch sub exch 1 exch sub 3 2 roll 1 exch sub 3 1 roll exch } def
/XYZ2RGB {  3 copy -0.9017 mul exch -0.1187 mul add exch 0.0585 mul exch add
  Constrain 4 1 roll 3 copy -0.0279 mul exch 1.999 mul add exch
  -0.9844 mul add Constrain 5 1 roll -0.2891 mul exch -0.5338 mul add
  exch 1.91 mul exch add Constrain 3 1 roll} def
/SelectSpace {ColorSpace (HSV) eq {HSV2RGB}{ColorSpace (XYZ) eq {
  XYZ2RGB}{ColorSpace (CMY) eq {CMY2RGB}{ColorSpace (YIQ) eq {YIQ2RGB}
  if} ifelse} ifelse} ifelse} def
/InterpolatedColor false def
/pm3dround {maxcolors 0 gt {dup 1 ge
	{pop 1} {maxcolors mul floor maxcolors 1 sub div} ifelse} if} def
/pm3dGamma 1.0 1.5 Gamma mul div def
/ColorSpace (RGB) def
false { % COLOUR vs. GRAY map
  InterpolatedColor { %% Interpolation vs. RGB-Formula
    /g {stroke pm3dround /grayv exch def interpolate
        SelectSpace setrgbcolor} bind def
  }{
  /g {stroke pm3dround dup cF7 Constrain exch dup cF5 Constrain exch cF15 Constrain 
       SelectSpace setrgbcolor} bind def
  } ifelse
}{
  /g {stroke pm3dround pm3dGamma exp setgray} bind def
} ifelse
1.000 UL
LTb
LCb setrgbcolor
1.000 UP
LTb
1951 230 M
[ [(Times-Roman) 120.0 0.0 true true 0 (a\))]
] -40.0 MLshow
% Begin plot #1
% End plot #1
% Begin plot #2
1.000 UL
LT0
0.75 0.75 0.75 C 1.000 UL
LT0
0.75 0.75 0.75 C % End plot #2
.0143 g 1926 1231 N 91 55 66 -71 -91 -2 h
1.000 UL
LT0
0.75 0.75 0.75 C 1926 1231 M
66 -18 V
-91 -55 V
-66 71 V
91 2 V
.0004 g 1992 1213 N 91 56 65 -15 -91 -55 h
stroke
LT0
0.75 0.75 0.75 C 1992 1213 M
65 -14 V
-91 -56 V
-65 15 V
91 55 V
0 g 2057 1199 N 91 56 66 -13 -91 -56 h
stroke
LT0
0.75 0.75 0.75 C 2057 1199 M
66 -13 V
-91 -56 V
-66 13 V
91 56 V
.0787 g 1860 1336 N 91 2 65 -151 -90 44 h
stroke
LT0
0.75 0.75 0.75 C 1860 1336 M
66 -105 V
-91 -2 V
-65 151 V
90 -44 V
0 g 2123 1186 N 91 56 66 -14 -91 -56 h
stroke
LT0
0.75 0.75 0.75 C 2123 1186 M
66 -14 V
-91 -56 V
-66 14 V
91 56 V
0 g 2189 1172 N 91 57 65 -14 -91 -56 h
stroke
LT0
0.75 0.75 0.75 C 2189 1172 M
65 -13 V
-91 -57 V
-65 14 V
91 56 V
0 g 2254 1159 N 91 56 66 -13 -91 -57 h
stroke
LT0
0.75 0.75 0.75 C 2254 1159 M
66 -14 V
-91 -56 V
-66 13 V
91 57 V
.0066 g 1901 1158 N 91 56 65 -41 -91 -30 h
stroke
LT0
0.75 0.75 0.75 C 1901 1158 M
65 -15 V
-91 -56 V
-65 41 V
91 30 V
.1938 g 1796 1501 N 90 -44 65 -150 -91 29 h
stroke
LT0
0.75 0.75 0.75 C 1796 1501 M
64 -165 V
-90 44 V
-65 150 V
91 -29 V
0 g 2320 1145 N 91 57 66 -14 -91 -56 h
stroke
LT0
0.75 0.75 0.75 C 2320 1145 M
66 -13 V
-91 -57 V
-66 14 V
91 56 V
.0001 g 1966 1143 N 91 57 66 -14 -91 -56 h
stroke
LT0
0.75 0.75 0.75 C 1966 1143 M
66 -13 V
-91 -57 V
-66 14 V
91 56 V
.0506 g 1835 1229 N 91 30 65 -126 -90 25 h
stroke
LT0
0.75 0.75 0.75 C 1835 1229 M
66 -71 V
-91 -30 V
-65 126 V
90 -25 V
0 g 2386 1132 N 91 56 66 -13 -91 -57 h
stroke
LT0
0.75 0.75 0.75 C 2386 1132 M
66 -14 V
-91 -56 V
-66 13 V
91 57 V
0 g 2032 1130 N 91 56 66 -13 -91 -57 h
stroke
LT0
0.75 0.75 0.75 C 2032 1130 M
66 -14 V
-91 -56 V
-66 13 V
91 57 V
.3178 g 1730 1654 N 91 -29 66 -143 -91 19 h
stroke
LT0
0.75 0.75 0.75 C 1730 1654 M
66 -153 V
-91 29 V
-66 143 V
91 -19 V
0 g 2452 1118 N 91 57 65 -14 -91 -56 h
stroke
LT0
0.75 0.75 0.75 C 2452 1118 M
65 -13 V
-91 -57 V
-65 14 V
91 56 V
0 g 2098 1116 N 90 56 66 -14 -91 -56 h
stroke
LT0
0.75 0.75 0.75 C 2098 1116 M
65 -14 V
-90 -56 V
-66 14 V
91 56 V
.1476 g 1770 1380 N 90 -25 66 -144 -91 18 h
stroke
LT0
0.75 0.75 0.75 C 1770 1380 M
65 -151 V
-90 25 V
-66 144 V
91 -18 V
0 g 2517 1105 N 91 56 66 -13 -91 -57 h
stroke
LT0
0.75 0.75 0.75 C 2517 1105 M
66 -14 V
-91 -56 V
-66 13 V
91 57 V
0 g 2163 1102 N 91 56 65 -13 -90 -56 h
stroke
LT0
0.75 0.75 0.75 C 2163 1102 M
66 -13 V
-91 -56 V
-65 13 V
90 56 V
.4343 g 1664 1799 N 91 -19 66 -137 -91 11 h
stroke
LT0
0.75 0.75 0.75 C 1664 1799 M
66 -145 V
-91 19 V
-66 137 V
91 -11 V
0 g 2583 1091 N 91 57 66 -14 -91 -56 h
stroke
LT0
0.75 0.75 0.75 C 2583 1091 M
66 -13 V
-91 -57 V
-66 14 V
91 56 V
0 g 2229 1089 N 91 56 66 -14 -91 -56 h
stroke
LT0
0.75 0.75 0.75 C 2229 1089 M
66 -14 V
-91 -56 V
-66 14 V
91 56 V
.0249 g 1810 1128 N 90 49 65 -83 -90 -7 h
stroke
LT0
0.75 0.75 0.75 C 1810 1128 M
65 -41 V
-90 -49 V
-65 83 V
90 7 V
.0018 g 1875 1087 N 91 56 65 -21 -90 -49 h
stroke
LT0
0.75 0.75 0.75 C 1875 1087 M
66 -14 V
-91 -56 V
-65 21 V
90 49 V
.2639 g 1705 1530 N 91 -18 65 -132 -91 0 h
stroke
LT0
0.75 0.75 0.75 C 1705 1530 M
65 -150 V
-91 18 V
-65 132 V
91 0 V
0 g 2649 1078 N 91 56 65 -13 -91 -57 h
stroke
LT0
0.75 0.75 0.75 C 2649 1078 M
65 -14 V
-91 -56 V
-65 13 V
91 57 V
0 g 2295 1075 N 91 57 66 -14 -91 -56 h
stroke
LT0
0.75 0.75 0.75 C 2295 1075 M
66 -13 V
-91 -57 V
-66 14 V
91 56 V
0 g 1941 1073 N 91 57 66 -14 -91 -56 h
stroke
LT0
0.75 0.75 0.75 C 1941 1073 M
66 -13 V
-91 -57 V
-66 14 V
91 56 V
.5466 g 1599 1941 N 91 -11 65 -137 -91 6 h
stroke
LT0
0.75 0.75 0.75 C 1599 1941 M
65 -142 V
-91 11 V
-65 137 V
91 -6 V
0 g 2714 1064 N 91 56 66 -14 -91 -56 h
stroke
LT0
0.75 0.75 0.75 C 2714 1064 M
66 -14 V
-91 -56 V
-66 14 V
91 56 V
.0973 g 1745 1254 N 90 7 66 -130 -91 -3 h
stroke
LT0
0.75 0.75 0.75 C 1745 1254 M
65 -126 V
-90 -7 V
-66 130 V
91 3 V
0 g 2361 1062 N 91 56 65 -13 -91 -57 h
stroke
LT0
0.75 0.75 0.75 C 2361 1062 M
65 -14 V
-91 -56 V
-65 13 V
91 57 V
0 g 2007 1060 N 92 56 65 -13 -91 -57 h
stroke
LT0
0.75 0.75 0.75 C 2007 1060 M
66 -14 V
-92 -56 V
-65 13 V
91 57 V
.3752 g 1639 1673 N 91 0 66 -129 -91 -14 h
stroke
LT0
0.75 0.75 0.75 C 1639 1673 M
66 -143 V
-91 0 V
-66 129 V
91 14 V
0 g 2780 1050 N 91 56 66 -13 -91 -56 h
stroke
LT0
0.75 0.75 0.75 C 2780 1050 M
66 -13 V
-91 -56 V
-66 13 V
91 56 V
0 g 2426 1048 N 91 57 66 -14 -91 -56 h
stroke
LT0
0.75 0.75 0.75 C 2426 1048 M
66 -13 V
-91 -57 V
-66 14 V
91 56 V
0 g 2073 1046 N 91 57 66 -14 -92 -56 h
stroke
LT0
0.75 0.75 0.75 C 2073 1046 M
65 -13 V
-91 -57 V
-66 14 V
92 56 V
.6567 g 1533 2079 N 91 -6 66 -134 -91 2 h
stroke
LT0
0.75 0.75 0.75 C 1533 2079 M
66 -138 V
-91 6 V
-66 134 V
91 -2 V
.2026 g 1679 1398 N 91 3 66 -129 -91 -18 h
stroke
LT0
0.75 0.75 0.75 C 1679 1398 M
66 -144 V
-91 -3 V
-66 129 V
91 18 V
0 g 2846 1037 N 91 56 65 -14 -91 -56 h
stroke
LT0
0.75 0.75 0.75 C 2846 1037 M
65 -14 V
-91 -56 V
-65 14 V
91 56 V
0 g 2492 1035 N 91 56 66 -13 -91 -57 h
stroke
LT0
0.75 0.75 0.75 C 2492 1035 M
66 -14 V
-91 -56 V
-66 13 V
91 57 V
0 g 2138 1033 N 91 56 66 -13 -91 -57 h
stroke
LT0
0.75 0.75 0.75 C 2138 1033 M
66 -14 V
-91 -56 V
-66 13 V
91 57 V
.4833 g 1573 1810 N 91 14 66 -131 -91 -20 h
stroke
LT0
0.75 0.75 0.75 C 1573 1810 M
66 -137 V
-91 -14 V
-66 131 V
91 20 V
.0076 g 1785 1038 N 90 54 66 -36 -91 -39 h
stroke
LT0
0.75 0.75 0.75 C 1785 1038 M
65 -21 V
-90 -54 V
-66 36 V
91 39 V
0 g 2911 1023 N 91 57 66 -14 -91 -56 h
stroke
LT0
0.75 0.75 0.75 C 2911 1023 M
66 -13 V
-91 -57 V
-66 14 V
91 56 V
0 g 2558 1021 N 91 57 65 -14 -91 -56 h
stroke
LT0
0.75 0.75 0.75 C 2558 1021 M
65 -13 V
-91 -57 V
-65 14 V
91 56 V
0 g 2204 1019 N 91 56 66 -14 -91 -56 h
stroke
LT0
0.75 0.75 0.75 C 2204 1019 M
66 -14 V
-91 -56 V
-66 14 V
91 56 V
.0497 g 1720 1121 N 91 39 65 -104 -91 -18 h
stroke
LT0
0.75 0.75 0.75 C 1720 1121 M
65 -83 V
-91 -39 V
-65 104 V
91 18 V
.7656 g 1467 2218 N 91 -2 66 -133 -91 -4 h
stroke
LT0
0.75 0.75 0.75 C 1467 2218 M
66 -139 V
-91 2 V
-66 133 V
91 4 V
.0006 g 1850 1017 N 91 56 65 -16 -90 -54 h
stroke
LT0
0.75 0.75 0.75 C 1850 1017 M
66 -14 V
-91 -56 V
-65 16 V
90 54 V
.3087 g 1614 1530 N 91 18 65 -126 -91 -24 h
stroke
LT0
0.75 0.75 0.75 C 1614 1530 M
65 -132 V
-91 -18 V
-65 126 V
91 24 V
0 g 2977 1010 N 91 56 66 -13 -91 -57 h
stroke
LT0
0.75 0.75 0.75 C 2977 1010 M
66 -14 V
-91 -56 V
-66 13 V
91 57 V
0 g 2623 1008 N 91 56 66 -13 -91 -57 h
stroke
LT0
0.75 0.75 0.75 C 2623 1008 M
66 -14 V
-91 -56 V
-66 13 V
91 57 V
0 g 2270 1005 N 91 56 65 -13 -91 -56 h
stroke
LT0
0.75 0.75 0.75 C 2270 1005 M
65 -13 V
-91 -56 V
-65 13 V
91 56 V
.59 g 1508 1947 N 91 20 65 -130 -91 -27 h
stroke
LT0
0.75 0.75 0.75 C 1508 1947 M
65 -137 V
-91 -20 V
-65 130 V
91 27 V
.0001 g 1916 1003 N 91 56 65 -13 -91 -56 h
stroke
LT0
0.75 0.75 0.75 C 1916 1003 M
65 -13 V
-91 -56 V
-65 13 V
91 56 V
.136 g 1654 1251 N 91 18 66 -125 -91 -23 h
stroke
LT0
0.75 0.75 0.75 C 1654 1251 M
66 -130 V
-91 -18 V
-66 125 V
91 23 V
0 g 2689 994 N 91 57 66 -14 -91 -56 h
stroke
LT0
0.75 0.75 0.75 C 2689 994 M
66 -13 V
-91 -57 V
-66 14 V
91 56 V
0 g 2335 992 N 91 56 66 -14 -91 -56 h
stroke
LT0
0.75 0.75 0.75 C 2335 992 M
66 -14 V
-91 -56 V
-66 14 V
91 56 V
0 g 1981 990 N 91 56 66 -14 -91 -56 h
stroke
LT0
0.75 0.75 0.75 C 1981 990 M
66 -14 V
-91 -56 V
-66 14 V
91 56 V
.4112 g 1548 1659 N 91 24 66 -126 -91 -27 h
stroke
LT0
0.75 0.75 0.75 C 1548 1659 M
66 -129 V
-91 -24 V
-66 126 V
91 27 V
0 g 2755 981 N 91 56 65 -13 -91 -57 h
stroke
LT0
0.75 0.75 0.75 C 2755 981 M
65 -14 V
-91 -56 V
-65 13 V
91 57 V
.6955 g 1442 2081 N 91 27 66 -129 -91 -32 h
stroke
LT0
0.75 0.75 0.75 C 1442 2081 M
66 -134 V
-91 -27 V
-66 129 V
91 32 V
0 g 2401 978 N 91 56 66 -13 -91 -56 h
stroke
LT0
0.75 0.75 0.75 C 2401 978 M
66 -13 V
-91 -56 V
-66 13 V
91 56 V
0 g 2047 976 N 91 57 66 -14 -91 -56 h
stroke
LT0
0.75 0.75 0.75 C 2047 976 M
66 -13 V
-91 -57 V
-66 14 V
91 56 V
.2362 g 1588 1380 N 91 23 66 -122 -91 -30 h
stroke
LT0
0.75 0.75 0.75 C 1588 1380 M
66 -129 V
-91 -23 V
-66 122 V
91 30 V
.0179 g 1694 999 N 91 53 66 -56 -91 -33 h
stroke
LT0
0.75 0.75 0.75 C 1694 999 M
66 -36 V
-91 -53 V
-66 56 V
91 33 V
0 g 2820 967 N 91 56 66 -14 -91 -56 h
stroke
LT0
0.75 0.75 0.75 C 2820 967 M
66 -14 V
-91 -56 V
-66 14 V
91 56 V
.5126 g 1482 1790 N 91 27 66 -125 -91 -33 h
stroke
LT0
0.75 0.75 0.75 C 1482 1790 M
66 -131 V
-91 -27 V
-66 125 V
91 33 V
0 g 2467 965 N 91 56 65 -14 -91 -56 h
stroke
LT0
0.75 0.75 0.75 C 2467 965 M
65 -14 V
-91 -56 V
-65 14 V
91 56 V
0 g 2113 963 N 91 56 66 -13 -91 -57 h
stroke
LT0
0.75 0.75 0.75 C 2113 963 M
66 -14 V
-91 -56 V
-66 13 V
91 57 V
.0019 g 1760 963 N 90 56 66 -19 -91 -53 h
stroke
LT0
0.75 0.75 0.75 C 1760 963 M
65 -16 V
-90 -56 V
-66 19 V
91 53 V
.8006 g 1376 2214 N 91 32 66 -131 -91 -34 h
stroke
LT0
0.75 0.75 0.75 C 1376 2214 M
66 -133 V
-91 -32 V
-66 131 V
91 34 V
0 g 2886 953 N 91 56 66 -13 -91 -56 h
stroke
LT0
0.75 0.75 0.75 C 2886 953 M
66 -13 V
-91 -56 V
-66 13 V
91 56 V
.0749 g 1629 1103 N 91 33 65 -114 -91 -23 h
stroke
LT0
0.75 0.75 0.75 C 1629 1103 M
65 -104 V
-91 -33 V
-65 114 V
91 23 V
0 g 2532 951 N 91 57 66 -14 -91 -56 h
stroke
LT0
0.75 0.75 0.75 C 2532 951 M
66 -13 V
-91 -57 V
-66 14 V
91 56 V
.3347 g 1523 1506 N 91 30 65 -119 -91 -37 h
stroke
LT0
0.75 0.75 0.75 C 1523 1506 M
65 -126 V
-91 -30 V
-65 119 V
91 37 V
0 g 2179 949 N 91 57 65 -14 -91 -56 h
stroke
LT0
0.75 0.75 0.75 C 2179 949 M
65 -13 V
-91 -57 V
-65 14 V
91 56 V
.0002 g 1825 947 N 90 57 65 -14 -90 -56 h
stroke
LT0
0.75 0.75 0.75 C 1825 947 M
65 -13 V
-90 -57 V
-65 14 V
90 56 V
.6143 g 1417 1920 N 91 33 65 -127 -91 -36 h
stroke
LT0
0.75 0.75 0.75 C 1417 1920 M
65 -130 V
-91 -33 V
-65 127 V
91 36 V
0 g 2598 938 N 91 56 66 -13 -91 -57 h
stroke
LT0
0.75 0.75 0.75 C 2598 938 M
66 -14 V
-91 -56 V
-66 13 V
91 57 V
0 g 2244 936 N 91 56 66 -13 -91 -57 h
stroke
LT0
0.75 0.75 0.75 C 2244 936 M
66 -14 V
-91 -56 V
-66 13 V
91 57 V
0 g 1890 934 N 91 56 65 -13 -90 -57 h
stroke
LT0
0.75 0.75 0.75 C 1890 934 M
66 -14 V
-91 -56 V
-65 13 V
90 57 V
.1649 g 1563 1228 N 91 23 66 -117 -91 -31 h
stroke
LT0
0.75 0.75 0.75 C 1563 1228 M
66 -125 V
-91 -23 V
-66 117 V
91 31 V
.4326 g 1457 1632 N 91 37 66 -122 -91 -41 h
stroke
LT0
0.75 0.75 0.75 C 1457 1632 M
66 -126 V
-91 -37 V
-66 122 V
91 41 V
0 g 2664 924 N 91 57 65 -14 -91 -56 h
stroke
LT0
0.75 0.75 0.75 C 2664 924 M
65 -13 V
-91 -57 V
-65 14 V
91 56 V
0 g 2310 922 N 91 57 66 -14 -91 -56 h
stroke
LT0
0.75 0.75 0.75 C 2310 922 M
66 -13 V
-91 -57 V
-66 14 V
91 56 V
0 g 1956 920 N 91 56 66 -14 -91 -56 h
stroke
LT0
0.75 0.75 0.75 C 1956 920 M
66 -14 V
-91 -56 V
-66 14 V
91 56 V
.7163 g 1351 2049 N 91 36 66 -128 -91 -37 h
stroke
LT0
0.75 0.75 0.75 C 1351 2049 M
66 -129 V
-91 -36 V
-66 128 V
91 37 V
0 g 2729 911 N 91 56 66 -13 -91 -57 h
stroke
LT0
0.75 0.75 0.75 C 2729 911 M
66 -14 V
-91 -56 V
-66 13 V
91 57 V
.0292 g 1603 966 N 91 48 66 -63 -91 -41 h
stroke
LT0
0.75 0.75 0.75 C 1603 966 M
66 -56 V
-91 -48 V
-66 63 V
91 41 V
.2596 g 1497 1350 N 91 31 66 -117 -91 -36 h
stroke
LT0
0.75 0.75 0.75 C 1497 1350 M
66 -122 V
-91 -31 V
-66 117 V
91 36 V
0 g 2376 909 N 91 56 65 -13 -91 -57 h
stroke
LT0
0.75 0.75 0.75 C 2376 909 M
65 -14 V
-91 -56 V
-65 13 V
91 57 V
0 g 2022 906 N 91 57 66 -14 -91 -56 h
stroke
LT0
0.75 0.75 0.75 C 2022 906 M
66 -13 V
-91 -57 V
-66 14 V
91 56 V
.5306 g 1391 1757 N 91 41 66 -123 -91 -43 h
stroke
LT0
0.75 0.75 0.75 C 1391 1757 M
66 -125 V
-91 -41 V
-66 123 V
91 43 V
.0046 g 1669 910 N 91 55 66 -26 -91 -48 h
stroke
LT0
0.75 0.75 0.75 C 1669 910 M
66 -19 V
-91 -55 V
-66 26 V
91 48 V
0 g 2795 897 N 91 57 66 -14 -91 -56 h
stroke
LT0
0.75 0.75 0.75 C 2795 897 M
66 -13 V
-91 -57 V
-66 14 V
91 56 V
0 g 2441 895 N 91 56 66 -14 -91 -56 h
stroke
LT0
0.75 0.75 0.75 C 2441 895 M
66 -14 V
-91 -56 V
-66 14 V
91 56 V
.8188 g 1285 2180 N 91 37 66 -128 -91 -40 h
stroke
LT0
0.75 0.75 0.75 C 1285 2180 M
66 -131 V
-91 -37 V
-66 128 V
91 40 V
0 g 2088 893 N 91 56 65 -13 -91 -57 h
stroke
LT0
0.75 0.75 0.75 C 2088 893 M
65 -14 V
-91 -56 V
-65 13 V
91 57 V
.0006 g 1735 891 N 90 56 66 -15 -91 -55 h
stroke
LT0
0.75 0.75 0.75 C 1735 891 M
65 -14 V
-90 -56 V
-66 15 V
91 55 V
.0943 g 1538 1080 N 91 41 65 -114 -91 -41 h
stroke
LT0
0.75 0.75 0.75 C 1538 1080 M
65 -114 V
-91 -41 V
-65 114 V
91 41 V
.3535 g 1432 1469 N 91 36 65 -118 -91 -37 h
stroke
LT0
0.75 0.75 0.75 C 1432 1469 M
65 -119 V
-91 -36 V
-65 118 V
91 37 V
.6294 g 1326 1884 N 91 43 65 -125 -91 -45 h
stroke
LT0
0.75 0.75 0.75 C 1326 1884 M
65 -127 V
-91 -43 V
-65 125 V
91 45 V
0 g 2507 881 N 91 56 66 -13 -91 -56 h
stroke
LT0
0.75 0.75 0.75 C 2507 881 M
66 -13 V
-91 -56 V
-66 13 V
91 56 V
0 g 2153 879 N 91 57 66 -14 -91 -56 h
stroke
LT0
0.75 0.75 0.75 C 2153 879 M
66 -13 V
-91 -57 V
-66 14 V
91 56 V
.0001 g 1800 877 N 90 57 65 -14 -90 -56 h
stroke
LT0
0.75 0.75 0.75 C 1800 877 M
65 -13 V
-90 -57 V
-65 14 V
90 56 V
.1836 g 1472 1197 N 91 41 66 -113 -91 -45 h
stroke
LT0
0.75 0.75 0.75 C 1472 1197 M
66 -117 V
-91 -41 V
-66 113 V
91 45 V
0 g 2573 868 N 91 56 65 -14 -91 -56 h
stroke
LT0
0.75 0.75 0.75 C 2573 868 M
65 -14 V
-91 -56 V
-65 14 V
91 56 V
.4477 g 1366 1591 N 91 37 66 -118 -91 -41 h
stroke
LT0
0.75 0.75 0.75 C 1366 1591 M
66 -122 V
-91 -37 V
-66 118 V
91 41 V
0 g 2219 866 N 91 56 66 -13 -91 -57 h
stroke
LT0
0.75 0.75 0.75 C 2219 866 M
66 -14 V
-91 -56 V
-66 13 V
91 57 V
.0001 g 1865 864 N 91 56 65 -13 -90 -57 h
stroke
LT0
0.75 0.75 0.75 C 1865 864 M
66 -14 V
-91 -56 V
-65 13 V
90 57 V
.7295 g 1260 2012 N 91 45 66 -126 -91 -47 h
stroke
LT0
0.75 0.75 0.75 C 1260 2012 M
66 -128 V
-91 -45 V
-66 126 V
91 47 V
0 g 2638 854 N 91 57 66 -14 -91 -56 h
stroke
LT0
0.75 0.75 0.75 C 2638 854 M
66 -13 V
-91 -57 V
-66 14 V
91 56 V
0 g 2285 852 N 91 57 65 -14 -91 -56 h
stroke
LT0
0.75 0.75 0.75 C 2285 852 M
65 -13 V
-91 -57 V
-65 14 V
91 56 V
.2734 g 1406 1314 N 91 45 66 -112 -91 -50 h
stroke
LT0
0.75 0.75 0.75 C 1406 1314 M
66 -117 V
-91 -45 V
-66 112 V
91 50 V
.0001 g 1931 850 N 91 56 66 -14 -91 -56 h
stroke
LT0
0.75 0.75 0.75 C 1931 850 M
66 -14 V
-91 -56 V
-66 14 V
91 56 V
.0098 g 1578 862 N 91 52 66 -31 -91 -47 h
stroke
LT0
0.75 0.75 0.75 C 1578 862 M
66 -26 V
-91 -52 V
-66 31 V
91 47 V
.042 g 1512 925 N 91 47 66 -79 -91 -31 h
stroke
LT0
0.75 0.75 0.75 C 1512 925 M
66 -63 V
-91 -47 V
-66 79 V
91 31 V
.5431 g 1300 1714 N 91 41 66 -120 -91 -44 h
stroke
LT0
0.75 0.75 0.75 C 1300 1714 M
66 -123 V
-91 -41 V
-66 120 V
91 44 V
0 g 2704 841 N 91 56 66 -13 -91 -57 h
stroke
LT0
0.75 0.75 0.75 C 2704 841 M
66 -14 V
-91 -56 V
-66 13 V
91 57 V
0 g 2350 839 N 91 56 66 -13 -91 -57 h
stroke
LT0
0.75 0.75 0.75 C 2350 839 M
66 -14 V
-91 -56 V
-66 13 V
91 57 V
0 g 1997 836 N 91 56 65 -13 -91 -56 h
stroke
LT0
0.75 0.75 0.75 C 1997 836 M
65 -13 V
-91 -56 V
-65 13 V
91 56 V
.8302 g 1194 2140 N 91 47 66 -126 -91 -49 h
stroke
LT0
0.75 0.75 0.75 C 1194 2140 M
66 -128 V
-91 -47 V
-66 126 V
91 49 V
.002 g 1644 836 N 91 56 66 -19 -91 -52 h
stroke
LT0
0.75 0.75 0.75 C 1644 836 M
66 -15 V
-91 -56 V
-66 19 V
91 52 V
.3643 g 1341 1432 N 91 50 65 -116 -91 -52 h
stroke
LT0
0.75 0.75 0.75 C 1341 1432 M
65 -118 V
-91 -50 V
-65 116 V
91 52 V
.1105 g 1447 1039 N 91 31 65 -107 -91 -38 h
stroke
LT0
0.75 0.75 0.75 C 1447 1039 M
65 -114 V
-91 -31 V
-65 107 V
91 38 V
0 g 2416 825 N 91 57 66 -14 -91 -56 h
stroke
LT0
0.75 0.75 0.75 C 2416 825 M
66 -13 V
-91 -57 V
-66 14 V
91 56 V
0 g 2062 823 N 91 56 66 -14 -91 -56 h
stroke
LT0
0.75 0.75 0.75 C 2062 823 M
66 -14 V
-91 -56 V
-66 14 V
91 56 V
.6397 g 1235 1839 N 91 44 65 -122 -91 -47 h
stroke
LT0
0.75 0.75 0.75 C 1235 1839 M
65 -125 V
-91 -44 V
-65 122 V
91 47 V
.0004 g 1710 821 N 91 56 65 -14 -91 -56 h
stroke
LT0
0.75 0.75 0.75 C 1710 821 M
65 -14 V
-91 -56 V
-65 14 V
91 56 V
0 g 2482 812 N 91 56 65 -13 -91 -57 h
stroke
LT0
0.75 0.75 0.75 C 2482 812 M
65 -14 V
-91 -56 V
-65 13 V
91 57 V
.4566 g 1275 1550 N 91 52 66 -116 -91 -54 h
stroke
LT0
0.75 0.75 0.75 C 1275 1550 M
66 -118 V
-91 -52 V
-66 116 V
91 54 V
.1967 g 1381 1152 N 91 38 66 -109 -91 -42 h
stroke
LT0
0.75 0.75 0.75 C 1381 1152 M
66 -113 V
-91 -38 V
-66 109 V
91 42 V
0 g 2128 809 N 91 56 66 -13 -91 -56 h
stroke
LT0
0.75 0.75 0.75 C 2128 809 M
66 -13 V
-91 -56 V
-66 13 V
91 56 V
.0002 g 1775 807 N 90 57 66 -14 -91 -56 h
stroke
LT0
0.75 0.75 0.75 C 1775 807 M
65 -13 V
-90 -57 V
-66 14 V
91 56 V
.7377 g 1169 1965 N 91 47 66 -124 -91 -49 h
stroke
LT0
0.75 0.75 0.75 C 1169 1965 M
66 -126 V
-91 -47 V
-66 124 V
91 49 V
0 g 2547 798 N 91 56 66 -14 -91 -56 h
stroke
LT0
0.75 0.75 0.75 C 2547 798 M
66 -14 V
-91 -56 V
-66 14 V
91 56 V
0 g 2194 796 N 91 56 65 -14 -91 -56 h
stroke
LT0
0.75 0.75 0.75 C 2194 796 M
65 -14 V
-91 -56 V
-65 14 V
91 56 V
.0001 g 1840 794 N 91 56 65 -13 -90 -57 h
stroke
LT0
0.75 0.75 0.75 C 1840 794 M
66 -14 V
-91 -56 V
-65 13 V
90 57 V
.2825 g 1315 1264 N 91 42 66 -106 -91 -48 h
stroke
LT0
0.75 0.75 0.75 C 1315 1264 M
66 -112 V
-91 -42 V
-66 106 V
91 48 V
.0141 g 1487 815 N 91 57 66 -37 -91 -51 h
stroke
LT0
0.75 0.75 0.75 C 1487 815 M
66 -31 V
-91 -57 V
-66 37 V
91 51 V
.5503 g 1209 1670 N 91 54 66 -120 -91 -54 h
stroke
LT0
0.75 0.75 0.75 C 1209 1670 M
66 -120 V
-91 -54 V
-66 120 V
91 54 V
.0527 g 1421 894 N 91 51 66 -82 -91 -48 h
stroke
LT0
0.75 0.75 0.75 C 1421 894 M
66 -79 V
-91 -51 V
-66 82 V
91 48 V
0 g 2613 784 N 91 56 66 -13 -91 -56 h
stroke
LT0
0.75 0.75 0.75 C 2613 784 M
66 -13 V
-91 -56 V
-66 13 V
91 56 V
0 g 2259 782 N 91 57 66 -14 -91 -56 h
stroke
LT0
0.75 0.75 0.75 C 2259 782 M
66 -13 V
-91 -57 V
-66 14 V
91 56 V
0 g 1906 780 N 91 57 65 -14 -91 -56 h
stroke
LT0
0.75 0.75 0.75 C 1906 780 M
65 -13 V
-91 -57 V
-65 14 V
91 56 V
.0028 g 1553 784 N 91 57 66 -19 -91 -57 h
stroke
LT0
0.75 0.75 0.75 C 1553 784 M
66 -19 V
-91 -57 V
-66 19 V
91 57 V
.8368 g 1103 2091 N 91 49 66 -125 -91 -50 h
stroke
LT0
0.75 0.75 0.75 C 1103 2091 M
66 -126 V
-91 -49 V
-66 125 V
91 50 V
.3702 g 1250 1380 N 91 48 65 -115 -91 -49 h
stroke
LT0
0.75 0.75 0.75 C 1250 1380 M
65 -116 V
-91 -48 V
-65 115 V
91 49 V
.1236 g 1356 1001 N 91 48 65 -106 -91 -49 h
stroke
LT0
0.75 0.75 0.75 C 1356 1001 M
65 -107 V
-91 -48 V
-65 106 V
91 49 V
0 g 2325 769 N 91 56 66 -13 -91 -57 h
stroke
LT0
0.75 0.75 0.75 C 2325 769 M
66 -14 V
-91 -56 V
-66 13 V
91 57 V
0 g 1971 767 N 91 56 66 -13 -91 -57 h
stroke
LT0
0.75 0.75 0.75 C 1971 767 M
66 -14 V
-91 -56 V
-66 13 V
91 57 V
.6454 g 1144 1792 N 91 54 65 -121 -91 -55 h
stroke
LT0
0.75 0.75 0.75 C 1144 1792 M
65 -122 V
-91 -54 V
-65 121 V
91 55 V
.0004 g 1619 765 N 91 56 65 -13 -91 -57 h
stroke
LT0
0.75 0.75 0.75 C 1619 765 M
65 -14 V
-91 -56 V
-65 13 V
91 57 V
0 g 2391 755 N 91 57 65 -14 -91 -56 h
stroke
LT0
0.75 0.75 0.75 C 2391 755 M
65 -13 V
-91 -57 V
-65 14 V
91 56 V
0 g 2037 753 N 91 57 66 -14 -91 -56 h
stroke
LT0
0.75 0.75 0.75 C 2037 753 M
66 -13 V
-91 -57 V
-66 14 V
91 56 V
.4612 g 1184 1496 N 91 49 66 -116 -91 -49 h
stroke
LT0
0.75 0.75 0.75 C 1184 1496 M
66 -116 V
-91 -49 V
-66 116 V
91 49 V
.0001 g 1684 751 N 91 56 66 -14 -91 -56 h
stroke
LT0
0.75 0.75 0.75 C 1684 751 M
66 -14 V
-91 -56 V
-66 14 V
91 56 V
.2078 g 1290 1110 N 91 49 66 -111 -91 -47 h
stroke
LT0
0.75 0.75 0.75 C 1290 1110 M
66 -109 V
-91 -49 V
-66 111 V
91 47 V
.7424 g 1078 1916 N 91 55 66 -125 -91 -54 h
stroke
LT0
0.75 0.75 0.75 C 1078 1916 M
66 -124 V
-91 -55 V
-66 125 V
91 54 V
0 g 2456 742 N 91 56 66 -13 -91 -57 h
stroke
LT0
0.75 0.75 0.75 C 2456 742 M
66 -14 V
-91 -56 V
-66 13 V
91 57 V
0 g 2103 740 N 91 56 65 -13 -91 -57 h
stroke
LT0
0.75 0.75 0.75 C 2103 740 M
65 -14 V
-91 -56 V
-65 13 V
91 57 V
0 g 1750 737 N 90 57 66 -14 -91 -56 h
stroke
LT0
0.75 0.75 0.75 C 1750 737 M
65 -13 V
-90 -57 V
-66 14 V
91 56 V
.0177 g 1396 764 N 91 54 66 -44 -91 -47 h
stroke
LT0
0.75 0.75 0.75 C 1396 764 M
66 -37 V
-91 -54 V
-66 44 V
91 47 V
.292 g 1224 1216 N 91 47 66 -107 -91 -46 h
stroke
LT0
0.75 0.75 0.75 C 1224 1216 M
66 -106 V
-91 -47 V
-66 107 V
91 46 V
.554 g 1118 1616 N 91 49 66 -119 -91 -50 h
stroke
LT0
0.75 0.75 0.75 C 1118 1616 M
66 -120 V
-91 -49 V
-66 119 V
91 50 V
0 g 2522 728 N 91 57 66 -14 -91 -56 h
stroke
LT0
0.75 0.75 0.75 C 2522 728 M
66 -13 V
-91 -57 V
-66 14 V
91 56 V
0 g 2168 726 N 91 56 66 -14 -91 -56 h
stroke
LT0
0.75 0.75 0.75 C 2168 726 M
66 -14 V
-91 -56 V
-66 14 V
91 56 V
0 g 1815 724 N 90 56 65 -13 -90 -57 h
stroke
LT0
0.75 0.75 0.75 C 1815 724 M
65 -14 V
-90 -56 V
-65 13 V
90 57 V
.0623 g 1330 846 N 91 47 66 -93 -91 -36 h
stroke
LT0
0.75 0.75 0.75 C 1330 846 M
66 -82 V
-91 -47 V
-66 93 V
91 36 V
.0037 g 1462 727 N 91 54 66 -19 -91 -54 h
stroke
LT0
0.75 0.75 0.75 C 1462 727 M
66 -19 V
-91 -54 V
-66 19 V
91 54 V
.841 g 1012 2041 N 91 54 66 -125 -91 -54 h
stroke
LT0
0.75 0.75 0.75 C 1012 2041 M
66 -125 V
-91 -54 V
-66 125 V
91 54 V
0 g 2234 712 N 91 56 66 -13 -91 -56 h
stroke
LT0
0.75 0.75 0.75 C 2234 712 M
66 -13 V
-91 -56 V
-66 13 V
91 56 V
.3782 g 1159 1331 N 91 46 65 -115 -91 -46 h
stroke
LT0
0.75 0.75 0.75 C 1159 1331 M
65 -115 V
-91 -46 V
-65 115 V
91 46 V
0 g 1880 710 N 91 57 65 -14 -90 -56 h
stroke
LT0
0.75 0.75 0.75 C 1880 710 M
66 -13 V
-91 -57 V
-65 14 V
90 56 V
.0009 g 1528 708 N 91 56 65 -15 -91 -54 h
stroke
LT0
0.75 0.75 0.75 C 1528 708 M
65 -13 V
-91 -56 V
-65 15 V
91 54 V
.6489 g 1053 1737 N 91 50 65 -121 -91 -50 h
stroke
LT0
0.75 0.75 0.75 C 1053 1737 M
65 -121 V
-91 -50 V
-65 121 V
91 50 V
.1362 g 1265 952 N 91 36 65 -106 -91 -36 h
stroke
LT0
0.75 0.75 0.75 C 1265 952 M
65 -106 V
-91 -36 V
-65 106 V
91 36 V
0 g 2300 699 N 91 56 65 -14 -91 -56 h
stroke
LT0
0.75 0.75 0.75 C 2300 699 M
65 -14 V
-91 -56 V
-65 14 V
91 56 V
0 g 1946 697 N 91 56 66 -13 -91 -57 h
stroke
LT0
0.75 0.75 0.75 C 1946 697 M
66 -14 V
-91 -56 V
-66 13 V
91 57 V
.0002 g 1593 695 N 91 56 66 -14 -91 -56 h
stroke
LT0
0.75 0.75 0.75 C 1593 695 M
66 -14 V
-91 -56 V
-66 14 V
91 56 V
.4687 g 1093 1447 N 91 46 66 -116 -91 -46 h
stroke
LT0
0.75 0.75 0.75 C 1093 1447 M
66 -116 V
-91 -46 V
-66 116 V
91 46 V
.2192 g 1199 1063 N 91 36 66 -106 -91 -41 h
stroke
LT0
0.75 0.75 0.75 C 1199 1063 M
66 -111 V
-91 -36 V
-66 106 V
91 41 V
0 g 2365 685 N 91 57 66 -14 -91 -56 h
stroke
LT0
0.75 0.75 0.75 C 2365 685 M
66 -13 V
-91 -57 V
-66 14 V
91 56 V
.7456 g 987 1862 N 91 50 66 -123 -91 -52 h
stroke
LT0
0.75 0.75 0.75 C 987 1862 M
66 -125 V
-91 -50 V
-66 123 V
91 52 V
0 g 2012 683 N 91 57 65 -14 -91 -56 h
stroke
LT0
0.75 0.75 0.75 C 2012 683 M
65 -13 V
-91 -57 V
-65 14 V
91 56 V
0 g 1659 681 N 91 56 66 -14 -91 -56 h
stroke
LT0
0.75 0.75 0.75 C 1659 681 M
66 -14 V
-91 -56 V
-66 14 V
91 56 V
.0257 g 1305 717 N 91 49 66 -53 -91 -40 h
stroke
LT0
0.75 0.75 0.75 C 1305 717 M
66 -44 V
-91 -49 V
-66 53 V
91 40 V
0 g 2431 672 N 91 56 66 -13 -91 -57 h
stroke
LT0
0.75 0.75 0.75 C 2431 672 M
66 -14 V
-91 -56 V
-66 13 V
91 57 V
.5605 g 1027 1566 N 91 46 66 -115 -91 -50 h
stroke
LT0
0.75 0.75 0.75 C 1027 1566 M
66 -119 V
-91 -46 V
-66 115 V
91 50 V
.3032 g 1133 1170 N 91 41 66 -108 -91 -40 h
stroke
LT0
0.75 0.75 0.75 C 1133 1170 M
66 -107 V
-91 -41 V
-66 108 V
91 40 V
0 g 2077 670 N 91 56 66 -13 -91 -57 h
stroke
LT0
0.75 0.75 0.75 C 2077 670 M
66 -14 V
-91 -56 V
-66 13 V
91 57 V
0 g 1725 667 N 91 56 65 -13 -91 -56 h
stroke
LT0
0.75 0.75 0.75 C 1725 667 M
65 -13 V
-91 -56 V
-65 13 V
91 56 V
.0068 g 1371 673 N 91 54 66 -24 -91 -49 h
stroke
LT0
0.75 0.75 0.75 C 1371 673 M
66 -19 V
-91 -54 V
-66 24 V
91 49 V
.0756 g 1239 810 N 91 40 66 -90 -91 -43 h
stroke
LT0
0.75 0.75 0.75 C 1239 810 M
66 -93 V
-91 -40 V
-66 90 V
91 43 V
.8439 g 921 1987 N 91 52 66 -124 -91 -53 h
stroke
LT0
0.75 0.75 0.75 C 921 1987 M
66 -125 V
-91 -52 V
-66 124 V
91 53 V
0 g 2143 656 N 91 57 66 -14 -91 -56 h
stroke
LT0
0.75 0.75 0.75 C 2143 656 M
66 -13 V
-91 -57 V
-66 14 V
91 56 V
0 g 1790 654 N 90 56 66 -14 -91 -56 h
stroke
LT0
0.75 0.75 0.75 C 1790 654 M
65 -14 V
-90 -56 V
-66 14 V
91 56 V
.3885 g 1068 1285 N 91 40 65 -108 -91 -47 h
stroke
LT0
0.75 0.75 0.75 C 1068 1285 M
65 -115 V
-91 -40 V
-65 108 V
91 47 V
.002 g 1437 654 N 91 56 65 -17 -91 -54 h
stroke
LT0
0.75 0.75 0.75 C 1437 654 M
65 -15 V
-91 -56 V
-65 17 V
91 54 V
.6539 g 962 1687 N 91 50 65 -118 -91 -53 h
stroke
LT0
0.75 0.75 0.75 C 962 1687 M
65 -121 V
-91 -50 V
-65 118 V
91 53 V
.151 g 1174 916 N 91 43 65 -105 -91 -44 h
stroke
LT0
0.75 0.75 0.75 C 1174 916 M
65 -106 V
-91 -43 V
-65 105 V
91 44 V
0 g 2209 643 N 91 56 65 -13 -91 -57 h
stroke
LT0
0.75 0.75 0.75 C 2209 643 M
65 -14 V
-91 -56 V
-65 13 V
91 57 V
0 g 1855 640 N 91 57 65 -14 -90 -56 h
stroke
LT0
0.75 0.75 0.75 C 1855 640 M
66 -13 V
-91 -57 V
-65 14 V
90 56 V
.0004 g 1502 639 N 91 57 66 -15 -91 -56 h
stroke
LT0
0.75 0.75 0.75 C 1502 639 M
66 -14 V
-91 -57 V
-66 15 V
91 56 V
.477 g 1002 1401 N 91 47 66 -115 -91 -48 h
stroke
LT0
0.75 0.75 0.75 C 1002 1401 M
66 -116 V
-91 -47 V
-66 115 V
91 48 V
.2321 g 1108 1022 N 91 44 66 -103 -91 -47 h
stroke
LT0
0.75 0.75 0.75 C 1108 1022 M
66 -106 V
-91 -44 V
-66 103 V
91 47 V
0 g 2274 629 N 91 56 66 -14 -91 -56 h
stroke
LT0
0.75 0.75 0.75 C 2274 629 M
66 -14 V
-91 -56 V
-66 14 V
91 56 V
.7491 g 896 1810 N 91 53 66 -122 -91 -54 h
stroke
LT0
0.75 0.75 0.75 C 896 1810 M
66 -123 V
-91 -53 V
-66 122 V
91 54 V
0 g 1921 627 N 91 56 65 -13 -91 -57 h
stroke
LT0
0.75 0.75 0.75 C 1921 627 M
65 -14 V
-91 -56 V
-65 13 V
91 57 V
0 g 1568 625 N 91 56 66 -13 -91 -57 h
stroke
LT0
0.75 0.75 0.75 C 1568 625 M
66 -14 V
-91 -56 V
-66 13 V
91 57 V
0 g 2340 615 N 91 56 66 -13 -91 -56 h
stroke
LT0
0.75 0.75 0.75 C 2340 615 M
66 -13 V
-91 -56 V
-66 13 V
91 56 V
0 g 1986 613 N 91 57 66 -14 -91 -56 h
stroke
LT0
0.75 0.75 0.75 C 1986 613 M
66 -13 V
-91 -57 V
-66 14 V
91 56 V
.5676 g 936 1516 N 91 48 66 -114 -91 -49 h
stroke
LT0
0.75 0.75 0.75 C 936 1516 M
66 -115 V
-91 -48 V
-66 114 V
91 49 V
.314 g 1042 1130 N 91 47 66 -106 -91 -49 h
stroke
LT0
0.75 0.75 0.75 C 1042 1130 M
66 -108 V
-91 -47 V
-66 106 V
91 49 V
0 g 1634 611 N 91 57 65 -14 -91 -56 h
stroke
LT0
0.75 0.75 0.75 C 1634 611 M
65 -13 V
-91 -57 V
-65 14 V
91 56 V
.8466 g 830 1934 N 91 54 66 -124 -91 -54 h
stroke
LT0
0.75 0.75 0.75 C 830 1934 M
66 -124 V
-91 -54 V
-66 124 V
91 54 V
0 g 2052 600 N 91 56 66 -13 -91 -57 h
stroke
LT0
0.75 0.75 0.75 C 2052 600 M
66 -14 V
-91 -56 V
-66 13 V
91 57 V
0 g 1699 598 N 91 56 66 -13 -91 -57 h
stroke
LT0
0.75 0.75 0.75 C 1699 598 M
66 -14 V
-91 -56 V
-66 13 V
91 57 V
.3969 g 977 1238 N 91 49 65 -105 -91 -52 h
stroke
LT0
0.75 0.75 0.75 C 977 1238 M
65 -108 V
-91 -49 V
-65 105 V
91 52 V
.6592 g 871 1634 N 91 49 65 -117 -91 -50 h
stroke
LT0
0.75 0.75 0.75 C 871 1634 M
65 -118 V
-91 -49 V
-65 117 V
91 50 V
0 g 2118 586 N 91 57 65 -14 -91 -56 h
stroke
LT0
0.75 0.75 0.75 C 2118 586 M
65 -13 V
-91 -57 V
-65 14 V
91 56 V
0 g 1765 584 N 90 56 66 -14 -91 -56 h
stroke
LT0
0.75 0.75 0.75 C 1765 584 M
65 -14 V
-90 -56 V
-66 14 V
91 56 V
.4826 g 911 1353 N 91 52 66 -112 -91 -55 h
stroke
LT0
0.75 0.75 0.75 C 911 1353 M
66 -115 V
-91 -52 V
-66 112 V
91 55 V
0 g 2183 573 N 91 56 66 -13 -91 -57 h
stroke
LT0
0.75 0.75 0.75 C 2183 573 M
66 -14 V
-91 -56 V
-66 13 V
91 57 V
0 g 1830 570 N 91 56 64 -13 -90 -56 h
stroke
LT0
0.75 0.75 0.75 C 1830 570 M
65 -13 V
-91 -56 V
-64 13 V
90 56 V
.7525 g 805 1756 N 91 50 66 -118 -91 -54 h
stroke
LT0
0.75 0.75 0.75 C 805 1756 M
66 -122 V
-91 -50 V
-66 118 V
91 54 V
0 g 2249 559 N 91 57 66 -14 -91 -56 h
stroke
LT0
0.75 0.75 0.75 C 2249 559 M
66 -13 V
-91 -57 V
-66 14 V
91 56 V
0 g 1895 557 N 91 56 66 -14 -91 -56 h
stroke
LT0
0.75 0.75 0.75 C 1895 557 M
66 -14 V
-91 -56 V
-66 14 V
91 56 V
.5717 g 845 1467 N 91 55 66 -115 -91 -54 h
stroke
LT0
0.75 0.75 0.75 C 845 1467 M
66 -114 V
-91 -55 V
-66 115 V
91 54 V
.8486 g 739 1880 N 91 54 66 -124 -91 -54 h
stroke
LT0
0.75 0.75 0.75 C 739 1880 M
66 -124 V
-91 -54 V
-66 124 V
91 54 V
0 g 1961 543 N 91 56 66 -13 -91 -56 h
stroke
LT0
0.75 0.75 0.75 C 1961 543 M
66 -13 V
-91 -56 V
-66 13 V
91 56 V
.6626 g 780 1584 N 91 54 65 -116 -91 -55 h
stroke
LT0
0.75 0.75 0.75 C 780 1584 M
65 -117 V
-91 -54 V
-65 116 V
91 55 V
0 g 2027 530 N 91 56 65 -14 -91 -56 h
stroke
LT0
0.75 0.75 0.75 C 2027 530 M
65 -14 V
-91 -56 V
-65 14 V
91 56 V
0 g 2092 516 N 91 57 66 -14 -91 -56 h
stroke
LT0
0.75 0.75 0.75 C 2092 516 M
66 -13 V
-91 -57 V
-66 14 V
91 56 V
.7552 g 714 1702 N 91 55 66 -119 -91 -54 h
stroke
LT0
0.75 0.75 0.75 C 714 1702 M
66 -118 V
-91 -55 V
-66 119 V
91 54 V
0 g 2158 503 N 91 56 66 -13 -91 -57 h
stroke
LT0
0.75 0.75 0.75 C 2158 503 M
66 -14 V
-91 -56 V
-66 13 V
91 57 V
.8505 g 648 1826 N 91 54 66 -123 -91 -55 h
stroke
LT0
0.75 0.75 0.75 C 648 1826 M
66 -124 V
-91 -54 V
-66 123 V
91 55 V
stroke
LTb
LCb setrgbcolor
2133 433 M
910 563 V
stroke
LTb
LCb setrgbcolor
2133 433 M
557 758 L
stroke
LTb
LCb setrgbcolor
557 758 M
430 266 V
stroke
LTb
LCb setrgbcolor
3043 996 M
1992 1213 L
stroke
LTb
LCb setrgbcolor
557 1884 M
557 758 L
stroke
LTb
LCb setrgbcolor
1467 2447 M
0 -229 V
stroke
LTb
LCb setrgbcolor
3043 2122 M
0 -1126 V
stroke
LTb
LCb setrgbcolor
557 1884 M
910 563 V
stroke
LTb
LCb setrgbcolor
3043 2122 M
1467 2447 L
stroke
LTa
LCa setrgbcolor
820 704 M
265 164 V
stroke
LTb
LCb setrgbcolor
820 704 M
44 27 V
stroke
LTb
LCb setrgbcolor
770 641 M
[ [(Times-Roman) 120.0 0.0 true true 0 ( 50)]
] -40.0 MCshow
1.000 UL
LTb
LCb setrgbcolor
1.000 UL
LTa
LCa setrgbcolor
1966 1143 M
91 56 V
stroke
LTa
LCa setrgbcolor
1148 636 M
67 41 V
stroke
LTb
LCb setrgbcolor
1148 636 M
45 27 V
stroke
LTb
LCb setrgbcolor
1098 573 M
[ [(Times-Roman) 120.0 0.0 true true 0 ( 100)]
] -40.0 MCshow
1.000 UL
LTb
LCb setrgbcolor
1.000 UL
LTb
LCb setrgbcolor
2013 1172 M
44 27 V
stroke
LTa
LCa setrgbcolor
1931 850 M
455 282 V
stroke
LTa
LCa setrgbcolor
1477 568 M
182 113 V
stroke
LTb
LCb setrgbcolor
1477 568 M
44 28 V
stroke
LTb
LCb setrgbcolor
1426 505 M
[ [(Times-Roman) 120.0 0.0 true true 0 ( 150)]
] -40.0 MCshow
1.000 UL
LTb
LCb setrgbcolor
1.000 UL
LTb
LCb setrgbcolor
2342 1104 M
44 28 V
stroke
LTa
LCa setrgbcolor
1804 501 M
910 563 V
stroke
LTb
LCb setrgbcolor
1804 501 M
44 27 V
stroke
LTb
LCb setrgbcolor
1755 438 M
[ [(Times-Roman) 120.0 0.0 true true 0 ( 200)]
] -40.0 MCshow
1.000 UL
LTb
LCb setrgbcolor
1.000 UL
LTb
LCb setrgbcolor
2670 1037 M
44 27 V
stroke
LCb setrgbcolor
1118 455 M
[ [(Times-Roman) 120.0 0.0 true true 0 (Iterations)]
] -40.0 MCshow
LTb
1.000 UL
LTa
LCa setrgbcolor
2133 433 M
557 758 L
stroke
LTb
LCb setrgbcolor
2133 433 M
-55 11 V
stroke
2195 400 M
[ [(Times-Roman) 120.0 0.0 true true 0 ( 0)]
] -40.0 MCshow
1.000 UL
LTb
LCb setrgbcolor
1.000 UL
LTb
LCb setrgbcolor
612 747 M
-55 11 V
stroke
LTa
LCa setrgbcolor
1134 789 M
739 871 L
stroke
LTa
LCa setrgbcolor
2315 546 M
1659 681 L
stroke
LTb
LCb setrgbcolor
2315 546 M
-55 11 V
stroke
2377 513 M
[ [(Times-Roman) 120.0 0.0 true true 0 ( 0.2)]
] -40.0 MCshow
1.000 UL
LTb
LCb setrgbcolor
1.000 UL
LTb
LCb setrgbcolor
794 860 M
-55 11 V
stroke
LTa
LCa setrgbcolor
1026 962 M
921 983 L
stroke
LTa
LCa setrgbcolor
2497 658 M
1971 767 L
stroke
LTb
LCb setrgbcolor
2497 658 M
-55 11 V
stroke
2559 626 M
[ [(Times-Roman) 120.0 0.0 true true 0 ( 0.4)]
] -40.0 MCshow
1.000 UL
LTb
LCb setrgbcolor
1.000 UL
LTb
LCb setrgbcolor
976 972 M
-55 11 V
stroke
LTa
LCa setrgbcolor
2679 771 M
1956 920 L
stroke
LTb
LCb setrgbcolor
2679 771 M
-55 11 V
stroke
2741 738 M
[ [(Times-Roman) 120.0 0.0 true true 0 ( 0.6)]
] -40.0 MCshow
1.000 UL
LTb
LCb setrgbcolor
1.000 UL
LTa
LCa setrgbcolor
2861 884 M
-920 189 V
stroke
LTb
LCb setrgbcolor
2861 884 M
-55 11 V
stroke
2923 851 M
[ [(Times-Roman) 120.0 0.0 true true 0 ( 0.8)]
] -40.0 MCshow
1.000 UL
LTb
LCb setrgbcolor
1.000 UL
LTa
LCa setrgbcolor
3043 996 M
1992 1213 L
stroke
LTb
LCb setrgbcolor
3043 996 M
-55 11 V
stroke
3105 964 M
[ [(Times-Roman) 120.0 0.0 true true 0 ( 1)]
] -40.0 MCshow
1.000 UL
LTb
LCb setrgbcolor
LCb setrgbcolor
2982 633 M
[ [(Times-Roman) 120.0 0.0 true true 0 (p2)]
] -40.0 MCshow
LTb
1.000 UL
LTa
LCa setrgbcolor
557 758 M
430 266 V
stroke
LTa
LCa setrgbcolor
3043 996 M
1992 1213 L
stroke
LTb
LCb setrgbcolor
620 758 M
-63 0 V
stroke
431 758 M
[ [(Times-Roman) 120.0 0.0 true true 0 ( 0)]
] -40.0 MRshow
1.000 UL
LTb
LCb setrgbcolor
1.000 UL
LTa
LCa setrgbcolor
557 871 M
379 234 V
stroke
LTa
LCa setrgbcolor
3043 1109 M
1853 1354 L
stroke
LTb
LCb setrgbcolor
620 871 M
-63 0 V
stroke
431 871 M
[ [(Times-Roman) 120.0 0.0 true true 0 ( 10)]
] -40.0 MRshow
1.000 UL
LTb
LCb setrgbcolor
1.000 UL
LTa
LCa setrgbcolor
557 983 M
329 204 V
stroke
LTa
LCa setrgbcolor
3043 1222 M
1805 1476 L
stroke
LTb
LCb setrgbcolor
620 983 M
-63 0 V
stroke
431 983 M
[ [(Times-Roman) 120.0 0.0 true true 0 ( 20)]
] -40.0 MRshow
1.000 UL
LTb
LCb setrgbcolor
1.000 UL
LTa
LCa setrgbcolor
557 1096 M
280 173 V
stroke
LTa
LCa setrgbcolor
3043 1334 M
1754 1599 L
stroke
LTb
LCb setrgbcolor
620 1096 M
-63 0 V
stroke
431 1096 M
[ [(Times-Roman) 120.0 0.0 true true 0 ( 30)]
] -40.0 MRshow
1.000 UL
LTb
LCb setrgbcolor
1.000 UL
LTa
LCa setrgbcolor
557 1209 M
232 143 V
stroke
LTa
LCa setrgbcolor
3043 1446 M
1699 1723 L
stroke
LTb
LCb setrgbcolor
620 1209 M
-63 0 V
stroke
431 1209 M
[ [(Times-Roman) 120.0 0.0 true true 0 ( 40)]
] -40.0 MRshow
1.000 UL
LTb
LCb setrgbcolor
1.000 UL
LTa
LCa setrgbcolor
557 1321 M
185 115 V
stroke
LTa
LCa setrgbcolor
3043 1559 M
1642 1848 L
stroke
LTb
LCb setrgbcolor
620 1321 M
-63 0 V
stroke
431 1321 M
[ [(Times-Roman) 120.0 0.0 true true 0 ( 50)]
] -40.0 MRshow
1.000 UL
LTb
LCb setrgbcolor
1.000 UL
LTa
LCa setrgbcolor
557 1434 M
138 84 V
stroke
LTa
LCa setrgbcolor
3043 1671 M
1584 1972 L
stroke
LTb
LCb setrgbcolor
620 1434 M
-63 0 V
stroke
431 1434 M
[ [(Times-Roman) 120.0 0.0 true true 0 ( 60)]
] -40.0 MRshow
1.000 UL
LTb
LCb setrgbcolor
1.000 UL
LTa
LCa setrgbcolor
557 1546 M
91 56 V
stroke
LTa
LCa setrgbcolor
3043 1784 M
1524 2097 L
stroke
LTb
LCb setrgbcolor
620 1546 M
-63 0 V
stroke
431 1546 M
[ [(Times-Roman) 120.0 0.0 true true 0 ( 70)]
] -40.0 MRshow
1.000 UL
LTb
LCb setrgbcolor
1.000 UL
LTa
LCa setrgbcolor
1462 2218 M
5 4 V
stroke
LTa
LCa setrgbcolor
557 1658 M
46 28 V
stroke
LTa
LCa setrgbcolor
3043 1897 M
1467 2222 L
stroke
LTb
LCb setrgbcolor
557 1658 M
61 0 V
stroke
431 1658 M
[ [(Times-Roman) 120.0 0.0 true true 0 ( 80)]
] -40.0 MRshow
1.000 UL
LTb
LCb setrgbcolor
1.000 UL
LTa
LCa setrgbcolor
563 1775 M
904 559 V
stroke
LTa
LCa setrgbcolor
3043 2009 M
1467 2334 L
stroke
LTb
LCb setrgbcolor
558 1771 M
62 0 V
stroke
431 1771 M
[ [(Times-Roman) 120.0 0.0 true true 0 ( 90)]
] -40.0 MRshow
1.000 UL
LTb
LCb setrgbcolor
1.000 UL
LTa
LCa setrgbcolor
557 1884 M
910 563 V
stroke
LTa
LCa setrgbcolor
3043 2122 M
1467 2447 L
stroke
LTb
LCb setrgbcolor
620 1884 M
-63 0 V
stroke
431 1884 M
[ [(Times-Roman) 120.0 0.0 true true 0 ( 100)]
] -40.0 MRshow
1.000 UL
LTb
LCb setrgbcolor
LCb setrgbcolor
53 1321 M
currentpoint gsave translate 90 rotate 0 0 moveto
[ [(Times-Roman) 120.0 0.0 true true 0 (Avg. number of blocking pairs)]
] -40.0 MCshow
grestore
LTb
1.000 UP
grestore % colour palette end
gsave % colour palette begin
/maxcolors 0 def
/HSV2RGB {  exch dup 0.0 eq {pop exch pop dup dup} % achromatic gray
  { /HSVs exch def /HSVv exch def 6.0 mul dup floor dup 3 1 roll sub
     /HSVf exch def /HSVi exch cvi def /HSVp HSVv 1.0 HSVs sub mul def
	 /HSVq HSVv 1.0 HSVs HSVf mul sub mul def 
	 /HSVt HSVv 1.0 HSVs 1.0 HSVf sub mul sub mul def
	 /HSVi HSVi 6 mod def 0 HSVi eq {HSVv HSVt HSVp}
	 {1 HSVi eq {HSVq HSVv HSVp}{2 HSVi eq {HSVp HSVv HSVt}
	 {3 HSVi eq {HSVp HSVq HSVv}{4 HSVi eq {HSVt HSVp HSVv}
	 {HSVv HSVp HSVq} ifelse} ifelse} ifelse} ifelse} ifelse
  } ifelse} def
/Constrain {
  dup 0 lt {0 exch pop}{dup 1 gt {1 exch pop} if} ifelse} def
/YIQ2RGB {
  3 copy -1.702 mul exch -1.105 mul add add Constrain 4 1 roll
  3 copy -0.647 mul exch -0.272 mul add add Constrain 5 1 roll
  0.621 mul exch -0.956 mul add add Constrain 3 1 roll } def
/CMY2RGB {  1 exch sub exch 1 exch sub 3 2 roll 1 exch sub 3 1 roll exch } def
/XYZ2RGB {  3 copy -0.9017 mul exch -0.1187 mul add exch 0.0585 mul exch add
  Constrain 4 1 roll 3 copy -0.0279 mul exch 1.999 mul add exch
  -0.9844 mul add Constrain 5 1 roll -0.2891 mul exch -0.5338 mul add
  exch 1.91 mul exch add Constrain 3 1 roll} def
/SelectSpace {ColorSpace (HSV) eq {HSV2RGB}{ColorSpace (XYZ) eq {
  XYZ2RGB}{ColorSpace (CMY) eq {CMY2RGB}{ColorSpace (YIQ) eq {YIQ2RGB}
  if} ifelse} ifelse} ifelse} def
/InterpolatedColor false def
/pm3dround {maxcolors 0 gt {dup 1 ge
	{pop 1} {maxcolors mul floor maxcolors 1 sub div} ifelse} if} def
/pm3dGamma 1.0 1.5 Gamma mul div def
/ColorSpace (RGB) def
false { % COLOUR vs. GRAY map
  InterpolatedColor { %% Interpolation vs. RGB-Formula
    /g {stroke pm3dround /grayv exch def interpolate
        SelectSpace setrgbcolor} bind def
  }{
  /g {stroke pm3dround dup cF7 Constrain exch dup cF5 Constrain exch cF15 Constrain 
       SelectSpace setrgbcolor} bind def
  } ifelse
}{
  /g {stroke pm3dround pm3dGamma exp setgray} bind def
} ifelse
1.000 UL
LTb
LCb setrgbcolor
1.000 UP
LTb
5551 220 M
[ [(Times-Roman) 120.0 0.0 true true 0 (b\))]
] -40.0 MLshow
% Begin plot #1
% End plot #1
% Begin plot #2
1.000 UL
LT0
0.75 0.75 0.75 C 1.000 UL
LT0
0.75 0.75 0.75 C % End plot #2
.0806 g 5526 1313 N 91 57 66 -64 -91 -17 h
1.000 UL
LT0
0.75 0.75 0.75 C 5526 1313 M
66 -24 V
-91 -57 V
-66 64 V
91 17 V
.0637 g 5592 1289 N 91 57 65 -21 -91 -57 h
stroke
LT0
0.75 0.75 0.75 C 5592 1289 M
65 -21 V
-91 -57 V
-65 21 V
91 57 V
.0585 g 5657 1268 N 91 59 66 -19 -91 -57 h
stroke
LT0
0.75 0.75 0.75 C 5657 1268 M
66 -17 V
-91 -59 V
-66 19 V
91 57 V
.1397 g 5460 1414 N 91 17 65 -131 -90 13 h
stroke
LT0
0.75 0.75 0.75 C 5460 1414 M
66 -101 V
-91 -17 V
-65 131 V
90 -13 V
.0542 g 5723 1251 N 91 57 66 -18 -91 -59 h
stroke
LT0
0.75 0.75 0.75 C 5723 1251 M
66 -20 V
-91 -57 V
-66 18 V
91 59 V
.0505 g 5789 1231 N 91 56 65 -16 -91 -57 h
stroke
LT0
0.75 0.75 0.75 C 5789 1231 M
65 -17 V
-91 -56 V
-65 16 V
91 57 V
.2429 g 5396 1562 N 90 -13 65 -138 -91 3 h
stroke
LT0
0.75 0.75 0.75 C 5396 1562 M
64 -148 V
-90 13 V
-65 138 V
91 -3 V
.0474 g 5854 1214 N 91 53 66 -16 -91 -56 h
stroke
LT0
0.75 0.75 0.75 C 5854 1214 M
66 -19 V
-91 -53 V
-66 16 V
91 56 V
.0657 g 5501 1232 N 91 60 65 -39 -91 -42 h
stroke
LT0
0.75 0.75 0.75 C 5501 1232 M
65 -21 V
-91 -60 V
-65 39 V
91 42 V
.0445 g 5920 1195 N 91 50 66 -15 -91 -53 h
stroke
LT0
0.75 0.75 0.75 C 5920 1195 M
66 -18 V
-91 -50 V
-66 15 V
91 53 V
.0567 g 5566 1211 N 91 57 66 -16 -91 -60 h
stroke
LT0
0.75 0.75 0.75 C 5566 1211 M
66 -19 V
-91 -57 V
-66 16 V
91 60 V
.1057 g 5435 1296 N 91 42 65 -110 -90 4 h
stroke
LT0
0.75 0.75 0.75 C 5435 1296 M
66 -64 V
-91 -42 V
-65 110 V
90 -4 V
.3595 g 5330 1713 N 91 -3 66 -141 -91 -7 h
stroke
LT0
0.75 0.75 0.75 C 5330 1713 M
66 -151 V
-91 3 V
-66 141 V
91 7 V
.042 g 5986 1177 N 91 50 66 -16 -91 -50 h
stroke
LT0
0.75 0.75 0.75 C 5986 1177 M
66 -16 V
-91 -50 V
-66 16 V
91 50 V
.0536 g 5632 1192 N 91 55 66 -16 -91 -57 h
stroke
LT0
0.75 0.75 0.75 C 5632 1192 M
66 -18 V
-91 -55 V
-66 16 V
91 57 V
.0397 g 6052 1161 N 91 50 65 -16 -91 -50 h
stroke
LT0
0.75 0.75 0.75 C 6052 1161 M
65 -16 V
-91 -50 V
-65 16 V
91 50 V
.1894 g 5370 1427 N 90 -4 66 -126 -91 -1 h
stroke
LT0
0.75 0.75 0.75 C 5370 1427 M
65 -131 V
-90 4 V
-66 126 V
91 1 V
.051 g 5698 1174 N 90 55 66 -16 -91 -55 h
stroke
LT0
0.75 0.75 0.75 C 5698 1174 M
65 -16 V
-90 -55 V
-66 16 V
91 55 V
.0377 g 6117 1145 N 91 49 66 -15 -91 -50 h
stroke
LT0
0.75 0.75 0.75 C 6117 1145 M
66 -16 V
-91 -49 V
-66 15 V
91 50 V
.4764 g 5264 1863 N 91 7 66 -139 -91 -18 h
stroke
LT0
0.75 0.75 0.75 C 5264 1863 M
66 -150 V
-91 -7 V
-66 139 V
91 18 V
.0491 g 5763 1158 N 91 54 65 -15 -90 -55 h
stroke
LT0
0.75 0.75 0.75 C 5763 1158 M
66 -16 V
-91 -54 V
-65 15 V
90 55 V
.0359 g 6183 1129 N 91 50 66 -16 -91 -49 h
stroke
LT0
0.75 0.75 0.75 C 6183 1129 M
66 -15 V
-91 -50 V
-66 16 V
91 49 V
.2938 g 5305 1565 N 91 1 65 -128 -91 -11 h
stroke
LT0
0.75 0.75 0.75 C 5305 1565 M
65 -138 V
-91 -1 V
-65 128 V
91 11 V
.0478 g 5829 1142 N 91 54 66 -15 -91 -54 h
stroke
LT0
0.75 0.75 0.75 C 5829 1142 M
66 -15 V
-91 -54 V
-66 15 V
91 54 V
.0788 g 5410 1190 N 90 50 65 -73 -90 -16 h
stroke
LT0
0.75 0.75 0.75 C 5410 1190 M
65 -39 V
-90 -50 V
-65 73 V
90 16 V
.0576 g 5475 1151 N 91 55 65 -21 -90 -50 h
stroke
LT0
0.75 0.75 0.75 C 5475 1151 M
66 -16 V
-91 -55 V
-65 21 V
90 50 V
.0341 g 6249 1114 N 91 50 65 -16 -91 -50 h
stroke
LT0
0.75 0.75 0.75 C 6249 1114 M
65 -16 V
-91 -50 V
-65 16 V
91 50 V
.0461 g 5895 1127 N 91 53 66 -15 -91 -54 h
stroke
LT0
0.75 0.75 0.75 C 5895 1127 M
66 -16 V
-91 -53 V
-66 15 V
91 54 V
.5941 g 5199 2015 N 91 18 65 -144 -91 -26 h
stroke
LT0
0.75 0.75 0.75 C 5199 2015 M
65 -152 V
-91 -18 V
-65 144 V
91 26 V
.0543 g 5541 1135 N 91 55 66 -16 -91 -55 h
stroke
LT0
0.75 0.75 0.75 C 5541 1135 M
66 -16 V
-91 -55 V
-66 16 V
91 55 V
.032 g 6314 1098 N 91 48 66 -15 -91 -50 h
stroke
LT0
0.75 0.75 0.75 C 6314 1098 M
66 -17 V
-91 -48 V
-66 15 V
91 50 V
.1411 g 5345 1300 N 90 16 66 -113 -91 -13 h
stroke
LT0
0.75 0.75 0.75 C 5345 1300 M
65 -110 V
-90 -16 V
-66 113 V
91 13 V
.4009 g 5239 1706 N 91 11 66 -129 -91 -23 h
stroke
LT0
0.75 0.75 0.75 C 5239 1706 M
66 -141 V
-91 -11 V
-66 129 V
91 23 V
.0443 g 5961 1111 N 91 51 65 -14 -91 -53 h
stroke
LT0
0.75 0.75 0.75 C 5961 1111 M
65 -16 V
-91 -51 V
-65 14 V
91 53 V
.0523 g 5607 1119 N 92 54 65 -15 -91 -55 h
stroke
LT0
0.75 0.75 0.75 C 5607 1119 M
66 -16 V
-92 -54 V
-65 15 V
91 55 V
.0301 g 6380 1081 N 91 48 66 -15 -91 -48 h
stroke
LT0
0.75 0.75 0.75 C 6380 1081 M
66 -15 V
-91 -48 V
-66 15 V
91 48 V
.0429 g 6026 1095 N 91 52 66 -16 -91 -51 h
stroke
LT0
0.75 0.75 0.75 C 6026 1095 M
66 -15 V
-91 -52 V
-66 16 V
91 51 V
.2329 g 5279 1426 N 91 13 66 -120 -91 -19 h
stroke
LT0
0.75 0.75 0.75 C 5279 1426 M
66 -126 V
-91 -13 V
-66 120 V
91 19 V
.7133 g 5133 2165 N 91 26 66 -145 -91 -31 h
stroke
LT0
0.75 0.75 0.75 C 5133 2165 M
66 -150 V
-91 -26 V
-66 145 V
91 31 V
.0509 g 5673 1103 N 91 54 66 -15 -92 -54 h
stroke
LT0
0.75 0.75 0.75 C 5673 1103 M
65 -15 V
-91 -54 V
-66 15 V
92 54 V
.0289 g 6446 1066 N 91 47 65 -14 -91 -48 h
stroke
LT0
0.75 0.75 0.75 C 6446 1066 M
65 -15 V
-91 -47 V
-65 14 V
91 48 V
.5098 g 5173 1845 N 91 23 66 -136 -91 -26 h
stroke
LT0
0.75 0.75 0.75 C 5173 1845 M
66 -139 V
-91 -23 V
-66 136 V
91 26 V
.0413 g 6092 1080 N 91 50 66 -14 -91 -52 h
stroke
LT0
0.75 0.75 0.75 C 6092 1080 M
66 -16 V
-91 -50 V
-66 14 V
91 52 V
.0495 g 5738 1088 N 91 55 66 -16 -91 -54 h
stroke
LT0
0.75 0.75 0.75 C 5738 1088 M
66 -15 V
-91 -55 V
-66 16 V
91 54 V
.0279 g 6511 1051 N 91 48 66 -16 -91 -47 h
stroke
LT0
0.75 0.75 0.75 C 6511 1051 M
66 -15 V
-91 -48 V
-66 16 V
91 47 V
.0606 g 5385 1101 N 90 59 66 -32 -91 -48 h
stroke
LT0
0.75 0.75 0.75 C 5385 1101 M
65 -21 V
-90 -59 V
-66 32 V
91 48 V
.3313 g 5214 1554 N 91 19 65 -122 -91 -25 h
stroke
LT0
0.75 0.75 0.75 C 5214 1554 M
65 -128 V
-91 -19 V
-65 122 V
91 25 V
.0965 g 5320 1174 N 91 48 65 -90 -91 -31 h
stroke
LT0
0.75 0.75 0.75 C 5320 1174 M
65 -73 V
-91 -48 V
-65 90 V
91 31 V
.0399 g 6158 1064 N 91 49 65 -15 -91 -50 h
stroke
LT0
0.75 0.75 0.75 C 6158 1064 M
65 -16 V
-91 -49 V
-65 15 V
91 50 V
.0479 g 5804 1073 N 91 55 66 -15 -91 -55 h
stroke
LT0
0.75 0.75 0.75 C 5804 1073 M
66 -15 V
-91 -55 V
-66 15 V
91 55 V
.0266 g 6577 1036 N 91 47 66 -14 -91 -48 h
stroke
LT0
0.75 0.75 0.75 C 6577 1036 M
66 -15 V
-91 -47 V
-66 14 V
91 48 V
.0538 g 5450 1080 N 91 59 65 -16 -90 -59 h
stroke
LT0
0.75 0.75 0.75 C 5450 1080 M
66 -16 V
-91 -59 V
-65 16 V
90 59 V
.8329 g 5067 2319 N 91 31 66 -144 -91 -41 h
stroke
LT0
0.75 0.75 0.75 C 5067 2319 M
66 -154 V
-91 -31 V
-66 144 V
91 41 V
.6206 g 5108 1989 N 91 26 65 -134 -91 -36 h
stroke
LT0
0.75 0.75 0.75 C 5108 1989 M
65 -144 V
-91 -26 V
-65 134 V
91 36 V
.0384 g 6223 1048 N 91 49 66 -15 -91 -49 h
stroke
LT0
0.75 0.75 0.75 C 6223 1048 M
66 -15 V
-91 -49 V
-66 15 V
91 49 V
.1698 g 5254 1287 N 91 31 66 -108 -91 -36 h
stroke
LT0
0.75 0.75 0.75 C 5254 1287 M
66 -113 V
-91 -31 V
-66 108 V
91 36 V
.0469 g 5870 1058 N 91 55 65 -14 -91 -55 h
stroke
LT0
0.75 0.75 0.75 C 5870 1058 M
65 -14 V
-91 -55 V
-65 14 V
91 55 V
.052 g 5516 1064 N 91 59 65 -15 -91 -59 h
stroke
LT0
0.75 0.75 0.75 C 5516 1064 M
65 -15 V
-91 -59 V
-65 15 V
91 59 V
.4317 g 5148 1683 N 91 25 66 -125 -91 -29 h
stroke
LT0
0.75 0.75 0.75 C 5148 1683 M
66 -129 V
-91 -25 V
-66 125 V
91 29 V
.0371 g 6289 1033 N 91 49 66 -15 -91 -49 h
stroke
LT0
0.75 0.75 0.75 C 6289 1033 M
66 -15 V
-91 -49 V
-66 15 V
91 49 V
.0459 g 5935 1044 N 91 54 66 -15 -91 -55 h
stroke
LT0
0.75 0.75 0.75 C 5935 1044 M
66 -16 V
-91 -54 V
-66 15 V
91 55 V
.0507 g 5581 1049 N 91 59 66 -15 -91 -59 h
stroke
LT0
0.75 0.75 0.75 C 5581 1049 M
66 -15 V
-91 -59 V
-66 15 V
91 59 V
.2588 g 5188 1407 N 91 36 66 -115 -91 -41 h
stroke
LT0
0.75 0.75 0.75 C 5188 1407 M
66 -120 V
-91 -36 V
-66 115 V
91 41 V
.7331 g 5042 2134 N 91 36 66 -137 -91 -44 h
stroke
LT0
0.75 0.75 0.75 C 5042 2134 M
66 -145 V
-91 -36 V
-66 137 V
91 44 V
.0361 g 6355 1018 N 91 50 65 -15 -91 -49 h
stroke
LT0
0.75 0.75 0.75 C 6355 1018 M
65 -14 V
-91 -50 V
-65 15 V
91 49 V
.0447 g 6001 1028 N 91 54 66 -14 -91 -54 h
stroke
LT0
0.75 0.75 0.75 C 6001 1028 M
66 -14 V
-91 -54 V
-66 14 V
91 54 V
.0492 g 5647 1034 N 91 58 66 -15 -91 -59 h
stroke
LT0
0.75 0.75 0.75 C 5647 1034 M
66 -16 V
-91 -58 V
-66 15 V
91 59 V
.5348 g 5082 1819 N 91 29 66 -129 -91 -36 h
stroke
LT0
0.75 0.75 0.75 C 5082 1819 M
66 -136 V
-91 -29 V
-66 129 V
91 36 V
.066 g 5294 1053 N 91 55 66 -48 -91 -39 h
stroke
LT0
0.75 0.75 0.75 C 5294 1053 M
66 -32 V
-91 -55 V
-66 48 V
91 39 V
.0351 g 6420 1004 N 91 48 66 -14 -91 -50 h
stroke
LT0
0.75 0.75 0.75 C 6420 1004 M
66 -16 V
-91 -48 V
-66 14 V
91 50 V
.0438 g 6067 1014 N 91 54 65 -15 -91 -54 h
stroke
LT0
0.75 0.75 0.75 C 6067 1014 M
65 -15 V
-91 -54 V
-65 15 V
91 54 V
.3525 g 5123 1529 N 91 41 65 -118 -91 -45 h
stroke
LT0
0.75 0.75 0.75 C 5123 1529 M
65 -122 V
-91 -41 V
-65 118 V
91 45 V
.0475 g 5713 1018 N 91 59 66 -16 -91 -58 h
stroke
LT0
0.75 0.75 0.75 C 5713 1018 M
66 -15 V
-91 -59 V
-66 16 V
91 58 V
.0527 g 5360 1021 N 90 57 66 -18 -91 -55 h
stroke
LT0
0.75 0.75 0.75 C 5360 1021 M
65 -16 V
-90 -57 V
-66 18 V
91 55 V
.1135 g 5229 1143 N 91 39 65 -99 -91 -30 h
stroke
LT0
0.75 0.75 0.75 C 5229 1143 M
65 -90 V
-91 -39 V
-65 99 V
91 30 V
.0342 g 6486 988 N 91 48 66 -14 -91 -48 h
stroke
LT0
0.75 0.75 0.75 C 6486 988 M
66 -14 V
-91 -48 V
-66 14 V
91 48 V
.847 g 4976 2278 N 91 44 66 -142 -91 -46 h
stroke
LT0
0.75 0.75 0.75 C 4976 2278 M
66 -144 V
-91 -44 V
-66 142 V
91 46 V
.0427 g 6132 999 N 91 54 66 -15 -91 -54 h
stroke
LT0
0.75 0.75 0.75 C 6132 999 M
66 -15 V
-91 -54 V
-66 15 V
91 54 V
.0464 g 5779 1003 N 91 60 65 -15 -91 -59 h
stroke
LT0
0.75 0.75 0.75 C 5779 1003 M
65 -14 V
-91 -60 V
-65 15 V
91 59 V
.6413 g 5017 1953 N 91 36 65 -135 -91 -35 h
stroke
LT0
0.75 0.75 0.75 C 5017 1953 M
65 -134 V
-91 -36 V
-65 135 V
91 35 V
.0507 g 5425 1005 N 90 56 65 -14 -90 -57 h
stroke
LT0
0.75 0.75 0.75 C 5425 1005 M
65 -15 V
-90 -56 V
-65 14 V
90 57 V
.1911 g 5163 1251 N 91 30 66 -107 -91 -31 h
stroke
LT0
0.75 0.75 0.75 C 5163 1251 M
66 -108 V
-91 -30 V
-66 107 V
91 31 V
.4502 g 5057 1654 N 91 45 66 -127 -91 -43 h
stroke
LT0
0.75 0.75 0.75 C 5057 1654 M
66 -125 V
-91 -45 V
-66 127 V
91 43 V
.0418 g 6198 984 N 91 53 66 -14 -91 -54 h
stroke
LT0
0.75 0.75 0.75 C 6198 984 M
66 -15 V
-91 -53 V
-66 14 V
91 54 V
.0455 g 5844 989 N 91 59 66 -14 -91 -60 h
stroke
LT0
0.75 0.75 0.75 C 5844 989 M
66 -15 V
-91 -59 V
-66 14 V
91 60 V
.0496 g 5490 990 N 91 56 65 -15 -90 -56 h
stroke
LT0
0.75 0.75 0.75 C 5490 990 M
66 -15 V
-91 -56 V
-65 15 V
90 56 V
.0411 g 6264 969 N 91 52 65 -14 -91 -53 h
stroke
LT0
0.75 0.75 0.75 C 6264 969 M
65 -15 V
-91 -52 V
-65 14 V
91 53 V
.0447 g 5910 974 N 91 59 66 -14 -91 -59 h
stroke
LT0
0.75 0.75 0.75 C 5910 974 M
66 -14 V
-91 -59 V
-66 14 V
91 59 V
.2769 g 5097 1366 N 91 31 66 -111 -91 -35 h
stroke
LT0
0.75 0.75 0.75 C 5097 1366 M
66 -115 V
-91 -31 V
-66 111 V
91 35 V
.7493 g 4951 2090 N 91 35 66 -135 -91 -37 h
stroke
LT0
0.75 0.75 0.75 C 4951 2090 M
66 -137 V
-91 -35 V
-66 135 V
91 37 V
.0484 g 5556 975 N 91 55 66 -14 -91 -56 h
stroke
LT0
0.75 0.75 0.75 C 5556 975 M
66 -15 V
-91 -55 V
-66 14 V
91 56 V
.5508 g 4991 1783 N 91 43 66 -126 -91 -46 h
stroke
LT0
0.75 0.75 0.75 C 4991 1783 M
66 -129 V
-91 -43 V
-66 126 V
91 46 V
.0726 g 5203 1014 N 91 55 66 -56 -91 -47 h
stroke
LT0
0.75 0.75 0.75 C 5203 1014 M
66 -48 V
-91 -55 V
-66 56 V
91 47 V
.0404 g 6329 954 N 91 52 66 -14 -91 -52 h
stroke
LT0
0.75 0.75 0.75 C 6329 954 M
66 -14 V
-91 -52 V
-66 14 V
91 52 V
.0439 g 5976 960 N 91 58 65 -14 -91 -59 h
stroke
LT0
0.75 0.75 0.75 C 5976 960 M
65 -15 V
-91 -58 V
-65 14 V
91 59 V
.0472 g 5622 960 N 91 54 66 -15 -91 -55 h
stroke
LT0
0.75 0.75 0.75 C 5622 960 M
66 -16 V
-91 -54 V
-66 15 V
91 55 V
.0527 g 5269 966 N 91 58 66 -21 -91 -55 h
stroke
LT0
0.75 0.75 0.75 C 5269 966 M
66 -18 V
-91 -58 V
-66 21 V
91 55 V
.367 g 5032 1484 N 91 35 65 -114 -91 -39 h
stroke
LT0
0.75 0.75 0.75 C 5032 1484 M
65 -118 V
-91 -35 V
-65 114 V
91 39 V
.0399 g 6395 940 N 91 52 66 -14 -91 -52 h
stroke
LT0
0.75 0.75 0.75 C 6395 940 M
66 -14 V
-91 -52 V
-66 14 V
91 52 V
.1282 g 5138 1113 N 91 47 65 -102 -91 -44 h
stroke
LT0
0.75 0.75 0.75 C 5138 1113 M
65 -99 V
-91 -47 V
-65 102 V
91 44 V
.0432 g 6041 945 N 91 57 66 -14 -91 -58 h
stroke
LT0
0.75 0.75 0.75 C 6041 945 M
66 -15 V
-91 -57 V
-66 14 V
91 58 V
.8592 g 4885 2232 N 91 37 66 -135 -91 -44 h
stroke
LT0
0.75 0.75 0.75 C 4885 2232 M
66 -142 V
-91 -37 V
-66 135 V
91 44 V
.046 g 5688 944 N 91 54 65 -15 -91 -54 h
stroke
LT0
0.75 0.75 0.75 C 5688 944 M
65 -15 V
-91 -54 V
-65 15 V
91 54 V
.0494 g 5335 948 N 90 60 66 -16 -91 -58 h
stroke
LT0
0.75 0.75 0.75 C 5335 948 M
65 -14 V
-90 -60 V
-66 16 V
91 58 V
.654 g 4926 1918 N 91 46 65 -130 -91 -51 h
stroke
LT0
0.75 0.75 0.75 C 4926 1918 M
65 -135 V
-91 -46 V
-65 130 V
91 51 V
.0427 g 6107 930 N 91 57 66 -14 -91 -57 h
stroke
LT0
0.75 0.75 0.75 C 6107 930 M
66 -14 V
-91 -57 V
-66 14 V
91 57 V
.2066 g 5072 1220 N 91 44 66 -100 -91 -51 h
stroke
LT0
0.75 0.75 0.75 C 5072 1220 M
66 -107 V
-91 -44 V
-66 100 V
91 51 V
.0451 g 5753 929 N 91 54 66 -14 -91 -54 h
stroke
LT0
0.75 0.75 0.75 C 5753 929 M
66 -14 V
-91 -54 V
-66 14 V
91 54 V
.4622 g 4966 1611 N 91 39 66 -122 -91 -44 h
stroke
LT0
0.75 0.75 0.75 C 4966 1611 M
66 -127 V
-91 -39 V
-66 122 V
91 44 V
.0482 g 5400 934 N 90 60 65 -15 -90 -60 h
stroke
LT0
0.75 0.75 0.75 C 5400 934 M
65 -15 V
-90 -60 V
-65 15 V
90 60 V
.0422 g 6173 916 N 91 58 65 -15 -91 -57 h
stroke
LT0
0.75 0.75 0.75 C 6173 916 M
65 -14 V
-91 -58 V
-65 15 V
91 57 V
.0444 g 5819 915 N 91 55 66 -15 -91 -54 h
stroke
LT0
0.75 0.75 0.75 C 5819 915 M
66 -14 V
-91 -55 V
-66 15 V
91 54 V
.2888 g 5006 1331 N 91 51 66 -107 -91 -55 h
stroke
LT0
0.75 0.75 0.75 C 5006 1331 M
66 -111 V
-91 -51 V
-66 107 V
91 55 V
.0473 g 5465 919 N 91 60 65 -14 -90 -60 h
stroke
LT0
0.75 0.75 0.75 C 5465 919 M
66 -14 V
-91 -60 V
-65 14 V
90 60 V
.7605 g 4860 2053 N 91 51 66 -135 -91 -51 h
stroke
LT0
0.75 0.75 0.75 C 4860 2053 M
66 -135 V
-91 -51 V
-66 135 V
91 51 V
.0417 g 6238 902 N 91 58 66 -14 -91 -58 h
stroke
LT0
0.75 0.75 0.75 C 6238 902 M
66 -14 V
-91 -58 V
-66 14 V
91 58 V
.5612 g 4900 1737 N 91 44 66 -125 -91 -45 h
stroke
LT0
0.75 0.75 0.75 C 4900 1737 M
66 -126 V
-91 -44 V
-66 125 V
91 45 V
.0438 g 5885 901 N 91 55 65 -14 -91 -55 h
stroke
LT0
0.75 0.75 0.75 C 5885 901 M
65 -14 V
-91 -55 V
-65 14 V
91 55 V
.0802 g 5112 967 N 91 50 66 -67 -91 -39 h
stroke
LT0
0.75 0.75 0.75 C 5112 967 M
66 -56 V
-91 -50 V
-66 67 V
91 39 V
.0467 g 5531 905 N 91 59 66 -14 -91 -60 h
stroke
LT0
0.75 0.75 0.75 C 5531 905 M
66 -15 V
-91 -59 V
-66 14 V
91 60 V
.0546 g 5178 911 N 91 54 66 -25 -91 -50 h
stroke
LT0
0.75 0.75 0.75 C 5178 911 M
66 -21 V
-91 -54 V
-66 25 V
91 50 V
.3771 g 4941 1445 N 91 55 65 -119 -91 -50 h
stroke
LT0
0.75 0.75 0.75 C 4941 1445 M
65 -114 V
-91 -55 V
-65 119 V
91 50 V
.0413 g 6304 888 N 91 58 66 -14 -91 -58 h
stroke
LT0
0.75 0.75 0.75 C 6304 888 M
66 -14 V
-91 -58 V
-66 14 V
91 58 V
.0432 g 5950 887 N 91 55 66 -14 -91 -55 h
stroke
LT0
0.75 0.75 0.75 C 5950 887 M
66 -14 V
-91 -55 V
-66 14 V
91 55 V
.1391 g 5047 1069 N 91 39 65 -95 -91 -46 h
stroke
LT0
0.75 0.75 0.75 C 5047 1069 M
65 -102 V
-91 -39 V
-65 95 V
91 46 V
.0461 g 5597 890 N 91 58 65 -14 -91 -59 h
stroke
LT0
0.75 0.75 0.75 C 5597 890 M
65 -15 V
-91 -58 V
-65 14 V
91 59 V
.8683 g 4794 2188 N 91 51 66 -134 -91 -52 h
stroke
LT0
0.75 0.75 0.75 C 4794 2188 M
66 -135 V
-91 -51 V
-66 134 V
91 52 V
.049 g 5244 890 N 91 55 66 -17 -91 -54 h
stroke
LT0
0.75 0.75 0.75 C 5244 890 M
66 -16 V
-91 -55 V
-66 17 V
91 54 V
.6626 g 4835 1867 N 91 45 65 -130 -91 -45 h
stroke
LT0
0.75 0.75 0.75 C 4835 1867 M
65 -130 V
-91 -45 V
-65 130 V
91 45 V
.0427 g 6016 873 N 91 55 66 -14 -91 -55 h
stroke
LT0
0.75 0.75 0.75 C 6016 873 M
66 -14 V
-91 -55 V
-66 14 V
91 55 V
.0454 g 5662 875 N 91 58 66 -14 -91 -58 h
stroke
LT0
0.75 0.75 0.75 C 5662 875 M
66 -14 V
-91 -58 V
-66 14 V
91 58 V
.2154 g 4981 1169 N 91 46 66 -101 -91 -45 h
stroke
LT0
0.75 0.75 0.75 C 4981 1169 M
66 -100 V
-91 -46 V
-66 101 V
91 45 V
.4711 g 4875 1567 N 91 50 66 -120 -91 -52 h
stroke
LT0
0.75 0.75 0.75 C 4875 1567 M
66 -122 V
-91 -50 V
-66 120 V
91 52 V
.0472 g 5310 874 N 91 55 65 -15 -91 -55 h
stroke
LT0
0.75 0.75 0.75 C 5310 874 M
65 -15 V
-91 -55 V
-65 15 V
91 55 V
.0422 g 6082 859 N 91 54 65 -14 -91 -55 h
stroke
LT0
0.75 0.75 0.75 C 6082 859 M
65 -15 V
-91 -54 V
-65 14 V
91 55 V
.0448 g 5728 861 N 91 57 66 -14 -91 -58 h
stroke
LT0
0.75 0.75 0.75 C 5728 861 M
66 -15 V
-91 -57 V
-66 14 V
91 58 V
.0464 g 5375 859 N 90 55 66 -14 -91 -55 h
stroke
LT0
0.75 0.75 0.75 C 5375 859 M
65 -14 V
-90 -55 V
-66 14 V
91 55 V
.7668 g 4769 2002 N 91 45 66 -129 -91 -51 h
stroke
LT0
0.75 0.75 0.75 C 4769 2002 M
66 -135 V
-91 -45 V
-66 129 V
91 51 V
.2956 g 4915 1276 N 91 45 66 -108 -91 -44 h
stroke
LT0
0.75 0.75 0.75 C 4915 1276 M
66 -107 V
-91 -45 V
-66 108 V
91 44 V
.0417 g 6147 844 N 91 54 66 -14 -91 -54 h
stroke
LT0
0.75 0.75 0.75 C 6147 844 M
66 -14 V
-91 -54 V
-66 14 V
91 54 V
.5677 g 4809 1692 N 91 52 66 -122 -91 -55 h
stroke
LT0
0.75 0.75 0.75 C 4809 1692 M
66 -125 V
-91 -52 V
-66 122 V
91 55 V
.0443 g 5794 846 N 91 57 65 -14 -91 -57 h
stroke
LT0
0.75 0.75 0.75 C 5794 846 M
65 -14 V
-91 -57 V
-65 14 V
91 57 V
.0458 g 5440 845 N 91 55 65 -14 -90 -55 h
stroke
LT0
0.75 0.75 0.75 C 5440 845 M
66 -14 V
-91 -55 V
-65 14 V
90 55 V
.0876 g 5021 928 N 91 52 66 -68 -91 -51 h
stroke
LT0
0.75 0.75 0.75 C 5021 928 M
66 -67 V
-91 -52 V
-66 68 V
91 51 V
.0574 g 5087 861 N 91 57 66 -30 -91 -52 h
stroke
LT0
0.75 0.75 0.75 C 5087 861 M
66 -25 V
-91 -57 V
-66 30 V
91 52 V
.0414 g 6213 830 N 91 54 66 -14 -91 -54 h
stroke
LT0
0.75 0.75 0.75 C 6213 830 M
66 -14 V
-91 -54 V
-66 14 V
91 54 V
.3828 g 4850 1395 N 91 44 65 -113 -91 -50 h
stroke
LT0
0.75 0.75 0.75 C 4850 1395 M
65 -119 V
-91 -44 V
-65 113 V
91 50 V
.0438 g 5859 832 N 91 57 66 -14 -91 -57 h
stroke
LT0
0.75 0.75 0.75 C 5859 832 M
66 -14 V
-91 -57 V
-66 14 V
91 57 V
.0455 g 5506 831 N 91 55 65 -14 -91 -55 h
stroke
LT0
0.75 0.75 0.75 C 5506 831 M
65 -14 V
-91 -55 V
-65 14 V
91 55 V
.1475 g 4956 1023 N 91 51 65 -94 -91 -52 h
stroke
LT0
0.75 0.75 0.75 C 4956 1023 M
65 -95 V
-91 -51 V
-65 94 V
91 52 V
.8729 g 4703 2136 N 91 51 66 -134 -91 -51 h
stroke
LT0
0.75 0.75 0.75 C 4703 2136 M
66 -134 V
-91 -51 V
-66 134 V
91 51 V
.0497 g 5153 836 N 91 57 66 -17 -91 -57 h
stroke
LT0
0.75 0.75 0.75 C 5153 836 M
66 -17 V
-91 -57 V
-66 17 V
91 57 V
.6681 g 4744 1822 N 91 55 65 -130 -91 -55 h
stroke
LT0
0.75 0.75 0.75 C 4744 1822 M
65 -130 V
-91 -55 V
-65 130 V
91 55 V
.0433 g 5925 818 N 91 57 66 -14 -91 -57 h
stroke
LT0
0.75 0.75 0.75 C 5925 818 M
66 -14 V
-91 -57 V
-66 14 V
91 57 V
.045 g 5571 817 N 91 56 66 -15 -91 -55 h
stroke
LT0
0.75 0.75 0.75 C 5571 817 M
66 -14 V
-91 -56 V
-66 15 V
91 55 V
.0479 g 5219 819 N 91 56 65 -14 -91 -57 h
stroke
LT0
0.75 0.75 0.75 C 5219 819 M
65 -15 V
-91 -56 V
-65 14 V
91 57 V
.223 g 4890 1124 N 91 52 66 -105 -91 -48 h
stroke
LT0
0.75 0.75 0.75 C 4890 1124 M
66 -101 V
-91 -52 V
-66 105 V
91 48 V
.4757 g 4784 1515 N 91 50 66 -119 -91 -51 h
stroke
LT0
0.75 0.75 0.75 C 4784 1515 M
66 -120 V
-91 -50 V
-66 119 V
91 51 V
.0428 g 5991 804 N 91 57 65 -14 -91 -57 h
stroke
LT0
0.75 0.75 0.75 C 5991 804 M
65 -14 V
-91 -57 V
-65 14 V
91 57 V
.0447 g 5637 803 N 91 55 66 -13 -91 -56 h
stroke
LT0
0.75 0.75 0.75 C 5637 803 M
66 -14 V
-91 -55 V
-66 13 V
91 56 V
.0471 g 5284 804 N 91 56 66 -14 -91 -56 h
stroke
LT0
0.75 0.75 0.75 C 5284 804 M
66 -14 V
-91 -56 V
-66 14 V
91 56 V
.7717 g 4678 1951 N 91 55 66 -131 -91 -53 h
stroke
LT0
0.75 0.75 0.75 C 4678 1951 M
66 -129 V
-91 -55 V
-66 131 V
91 53 V
.3041 g 4824 1232 N 91 48 66 -106 -91 -50 h
stroke
LT0
0.75 0.75 0.75 C 4824 1232 M
66 -108 V
-91 -48 V
-66 106 V
91 50 V
.0424 g 6056 790 N 91 57 66 -14 -91 -57 h
stroke
LT0
0.75 0.75 0.75 C 6056 790 M
66 -14 V
-91 -57 V
-66 14 V
91 57 V
.5713 g 4718 1637 N 91 51 66 -122 -91 -51 h
stroke
LT0
0.75 0.75 0.75 C 4718 1637 M
66 -122 V
-91 -51 V
-66 122 V
91 51 V
.0445 g 5703 789 N 91 55 65 -14 -91 -55 h
stroke
LT0
0.75 0.75 0.75 C 5703 789 M
65 -14 V
-91 -55 V
-65 14 V
91 55 V
.0465 g 5350 790 N 90 56 66 -14 -91 -56 h
stroke
LT0
0.75 0.75 0.75 C 5350 790 M
65 -14 V
-90 -56 V
-66 14 V
91 56 V
.0604 g 4996 809 N 91 54 66 -36 -91 -48 h
stroke
LT0
0.75 0.75 0.75 C 4996 809 M
66 -30 V
-91 -54 V
-66 36 V
91 48 V
.0958 g 4930 877 N 91 48 66 -79 -91 -37 h
stroke
LT0
0.75 0.75 0.75 C 4930 877 M
66 -68 V
-91 -48 V
-66 79 V
91 37 V
.0421 g 6122 776 N 91 56 66 -13 -91 -57 h
stroke
LT0
0.75 0.75 0.75 C 6122 776 M
66 -14 V
-91 -56 V
-66 13 V
91 57 V
.0441 g 5768 775 N 91 55 66 -14 -91 -55 h
stroke
LT0
0.75 0.75 0.75 C 5768 775 M
66 -14 V
-91 -55 V
-66 14 V
91 55 V
.3903 g 4759 1345 N 91 50 65 -115 -91 -48 h
stroke
LT0
0.75 0.75 0.75 C 4759 1345 M
65 -113 V
-91 -50 V
-65 115 V
91 48 V
.0462 g 5415 776 N 90 56 65 -14 -90 -56 h
stroke
LT0
0.75 0.75 0.75 C 5415 776 M
65 -14 V
-90 -56 V
-65 14 V
90 56 V
.8764 g 4612 2085 N 91 53 66 -132 -91 -55 h
stroke
LT0
0.75 0.75 0.75 C 4612 2085 M
66 -134 V
-91 -53 V
-66 132 V
91 55 V
.0503 g 5062 779 N 91 55 66 -18 -91 -54 h
stroke
LT0
0.75 0.75 0.75 C 5062 779 M
66 -17 V
-91 -55 V
-66 18 V
91 54 V
.1581 g 4865 971 N 91 37 65 -94 -91 -37 h
stroke
LT0
0.75 0.75 0.75 C 4865 971 M
65 -94 V
-91 -37 V
-65 94 V
91 37 V
.6707 g 4653 1767 N 91 51 65 -128 -91 -53 h
stroke
LT0
0.75 0.75 0.75 C 4653 1767 M
65 -130 V
-91 -51 V
-65 128 V
91 53 V
.0436 g 5834 761 N 91 55 66 -14 -91 -55 h
stroke
LT0
0.75 0.75 0.75 C 5834 761 M
66 -14 V
-91 -55 V
-66 14 V
91 55 V
.0459 g 5480 762 N 91 55 65 -14 -90 -56 h
stroke
LT0
0.75 0.75 0.75 C 5480 762 M
66 -15 V
-91 -55 V
-65 14 V
90 56 V
.0484 g 5128 762 N 91 55 65 -14 -91 -55 h
stroke
LT0
0.75 0.75 0.75 C 5128 762 M
65 -14 V
-91 -55 V
-65 14 V
91 55 V
.4819 g 4693 1464 N 91 48 66 -119 -91 -48 h
stroke
LT0
0.75 0.75 0.75 C 4693 1464 M
66 -119 V
-91 -48 V
-66 119 V
91 48 V
.2325 g 4799 1076 N 91 37 66 -97 -91 -45 h
stroke
LT0
0.75 0.75 0.75 C 4799 1076 M
66 -105 V
-91 -37 V
-66 97 V
91 45 V
.0433 g 5900 747 N 91 55 65 -14 -91 -55 h
stroke
LT0
0.75 0.75 0.75 C 5900 747 M
65 -14 V
-91 -55 V
-65 14 V
91 55 V
.0455 g 5546 747 N 91 55 66 -13 -91 -55 h
stroke
LT0
0.75 0.75 0.75 C 5546 747 M
66 -13 V
-91 -55 V
-66 13 V
91 55 V
.0479 g 5193 748 N 91 55 66 -14 -91 -55 h
stroke
LT0
0.75 0.75 0.75 C 5193 748 M
66 -14 V
-91 -55 V
-66 14 V
91 55 V
.774 g 4587 1898 N 91 53 66 -131 -91 -53 h
stroke
LT0
0.75 0.75 0.75 C 4587 1898 M
66 -131 V
-91 -53 V
-66 131 V
91 53 V
.0431 g 5965 733 N 91 55 66 -14 -91 -55 h
stroke
LT0
0.75 0.75 0.75 C 5965 733 M
66 -14 V
-91 -55 V
-66 14 V
91 55 V
.3127 g 4733 1182 N 91 45 66 -107 -91 -44 h
stroke
LT0
0.75 0.75 0.75 C 4733 1182 M
66 -106 V
-91 -45 V
-66 107 V
91 44 V
.0454 g 5612 734 N 91 55 65 -14 -91 -55 h
stroke
LT0
0.75 0.75 0.75 C 5612 734 M
65 -14 V
-91 -55 V
-65 14 V
91 55 V
.577 g 4627 1586 N 91 48 66 -121 -91 -49 h
stroke
LT0
0.75 0.75 0.75 C 4627 1586 M
66 -122 V
-91 -48 V
-66 121 V
91 49 V
.0476 g 5259 734 N 91 55 66 -14 -91 -55 h
stroke
LT0
0.75 0.75 0.75 C 5259 734 M
66 -14 V
-91 -55 V
-66 14 V
91 55 V
.0653 g 4905 761 N 91 54 66 -42 -91 -48 h
stroke
LT0
0.75 0.75 0.75 C 4905 761 M
66 -36 V
-91 -54 V
-66 42 V
91 48 V
.0428 g 6031 719 N 91 55 66 -13 -91 -55 h
stroke
LT0
0.75 0.75 0.75 C 6031 719 M
66 -13 V
-91 -55 V
-66 13 V
91 55 V
.1051 g 4839 840 N 91 48 66 -77 -91 -50 h
stroke
LT0
0.75 0.75 0.75 C 4839 840 M
66 -79 V
-91 -48 V
-66 77 V
91 50 V
.0449 g 5677 720 N 91 56 66 -15 -91 -55 h
stroke
LT0
0.75 0.75 0.75 C 5677 720 M
66 -14 V
-91 -56 V
-66 15 V
91 55 V
.0474 g 5325 720 N 91 54 65 -13 -91 -55 h
stroke
LT0
0.75 0.75 0.75 C 5325 720 M
65 -14 V
-91 -54 V
-65 13 V
91 55 V
.3981 g 4668 1297 N 91 44 65 -111 -91 -48 h
stroke
LT0
0.75 0.75 0.75 C 4668 1297 M
65 -115 V
-91 -44 V
-65 111 V
91 48 V
.0516 g 4971 725 N 91 56 66 -20 -91 -54 h
stroke
LT0
0.75 0.75 0.75 C 4971 725 M
66 -18 V
-91 -56 V
-66 20 V
91 54 V
.8789 g 4521 2030 N 91 53 66 -132 -91 -53 h
stroke
LT0
0.75 0.75 0.75 C 4521 2030 M
66 -132 V
-91 -53 V
-66 132 V
91 53 V
.1696 g 4774 934 N 91 50 65 -95 -91 -49 h
stroke
LT0
0.75 0.75 0.75 C 4774 934 M
65 -94 V
-91 -50 V
-65 95 V
91 49 V
.675 g 4562 1714 N 91 49 65 -124 -91 -53 h
stroke
LT0
0.75 0.75 0.75 C 4562 1714 M
65 -128 V
-91 -49 V
-65 124 V
91 53 V
.0444 g 5743 706 N 91 55 66 -13 -91 -56 h
stroke
LT0
0.75 0.75 0.75 C 5743 706 M
66 -14 V
-91 -55 V
-66 13 V
91 56 V
.0473 g 5390 706 N 90 54 66 -14 -91 -54 h
stroke
LT0
0.75 0.75 0.75 C 5390 706 M
65 -14 V
-90 -54 V
-66 14 V
91 54 V
.0486 g 5037 707 N 91 57 65 -15 -91 -56 h
stroke
LT0
0.75 0.75 0.75 C 5037 707 M
65 -14 V
-91 -57 V
-65 15 V
91 56 V
.4886 g 4602 1416 N 91 48 66 -117 -91 -50 h
stroke
LT0
0.75 0.75 0.75 C 4602 1416 M
66 -119 V
-91 -48 V
-66 117 V
91 50 V
.243 g 4708 1031 N 91 49 66 -99 -91 -47 h
stroke
LT0
0.75 0.75 0.75 C 4708 1031 M
66 -97 V
-91 -49 V
-66 99 V
91 47 V
.0442 g 5809 692 N 91 55 65 -14 -91 -55 h
stroke
LT0
0.75 0.75 0.75 C 5809 692 M
65 -14 V
-91 -55 V
-65 14 V
91 55 V
.047 g 5455 692 N 91 55 65 -14 -90 -54 h
stroke
LT0
0.75 0.75 0.75 C 5455 692 M
66 -13 V
-91 -55 V
-65 14 V
90 54 V
.0479 g 5102 693 N 91 57 66 -14 -91 -57 h
stroke
LT0
0.75 0.75 0.75 C 5102 693 M
66 -14 V
-91 -57 V
-66 14 V
91 57 V
.7765 g 4496 1845 N 91 53 66 -129 -91 -55 h
stroke
LT0
0.75 0.75 0.75 C 4496 1845 M
66 -131 V
-91 -53 V
-66 129 V
91 55 V
.0441 g 5874 678 N 91 55 66 -14 -91 -55 h
stroke
LT0
0.75 0.75 0.75 C 5874 678 M
66 -14 V
-91 -55 V
-66 14 V
91 55 V
.3212 g 4642 1138 N 91 47 66 -103 -91 -51 h
stroke
LT0
0.75 0.75 0.75 C 4642 1138 M
66 -107 V
-91 -47 V
-66 103 V
91 51 V
.0467 g 5521 679 N 91 55 65 -14 -91 -55 h
stroke
LT0
0.75 0.75 0.75 C 5521 679 M
65 -14 V
-91 -55 V
-65 14 V
91 55 V
.0477 g 5168 679 N 91 57 66 -14 -91 -57 h
stroke
LT0
0.75 0.75 0.75 C 5168 679 M
66 -14 V
-91 -57 V
-66 14 V
91 57 V
.5828 g 4536 1537 N 91 50 66 -120 -91 -51 h
stroke
LT0
0.75 0.75 0.75 C 4536 1537 M
66 -121 V
-91 -50 V
-66 120 V
91 51 V
.0439 g 5940 664 N 91 56 66 -14 -91 -55 h
stroke
LT0
0.75 0.75 0.75 C 5940 664 M
66 -13 V
-91 -56 V
-66 14 V
91 55 V
.0464 g 5586 665 N 91 53 66 -13 -91 -55 h
stroke
LT0
0.75 0.75 0.75 C 5586 665 M
66 -15 V
-91 -53 V
-66 13 V
91 55 V
.0477 g 5234 665 N 91 58 65 -14 -91 -57 h
stroke
LT0
0.75 0.75 0.75 C 5234 665 M
65 -13 V
-91 -58 V
-65 14 V
91 57 V
.4044 g 4577 1249 N 91 51 65 -109 -91 -53 h
stroke
LT0
0.75 0.75 0.75 C 4577 1249 M
65 -111 V
-91 -51 V
-65 109 V
91 53 V
.8809 g 4430 1977 N 91 55 66 -132 -91 -55 h
stroke
LT0
0.75 0.75 0.75 C 4430 1977 M
66 -132 V
-91 -55 V
-66 132 V
91 55 V
.6794 g 4471 1661 N 91 51 65 -123 -91 -52 h
stroke
LT0
0.75 0.75 0.75 C 4471 1661 M
65 -124 V
-91 -51 V
-65 123 V
91 52 V
.046 g 5652 650 N 91 54 66 -14 -91 -53 h
stroke
LT0
0.75 0.75 0.75 C 5652 650 M
66 -13 V
-91 -54 V
-66 14 V
91 53 V
.0477 g 5299 652 N 91 57 66 -13 -91 -58 h
stroke
LT0
0.75 0.75 0.75 C 5299 652 M
66 -14 V
-91 -57 V
-66 13 V
91 58 V
.4929 g 4511 1366 N 91 53 66 -116 -91 -54 h
stroke
LT0
0.75 0.75 0.75 C 4511 1366 M
66 -117 V
-91 -53 V
-66 116 V
91 54 V
.0458 g 5718 637 N 91 54 65 -14 -91 -54 h
stroke
LT0
0.75 0.75 0.75 C 5718 637 M
65 -14 V
-91 -54 V
-65 14 V
91 54 V
.0476 g 5365 638 N 90 57 66 -14 -91 -57 h
stroke
LT0
0.75 0.75 0.75 C 5365 638 M
65 -14 V
-90 -57 V
-66 14 V
91 57 V
.7793 g 4405 1790 N 91 52 66 -128 -91 -53 h
stroke
LT0
0.75 0.75 0.75 C 4405 1790 M
66 -129 V
-91 -52 V
-66 128 V
91 53 V
.0456 g 5783 623 N 91 54 66 -14 -91 -54 h
stroke
LT0
0.75 0.75 0.75 C 5783 623 M
66 -14 V
-91 -54 V
-66 14 V
91 54 V
.0474 g 5430 624 N 91 56 64 -13 -90 -57 h
stroke
LT0
0.75 0.75 0.75 C 5430 624 M
65 -14 V
-91 -56 V
-64 13 V
90 57 V
.5859 g 4445 1486 N 91 54 66 -119 -91 -55 h
stroke
LT0
0.75 0.75 0.75 C 4445 1486 M
66 -120 V
-91 -54 V
-66 119 V
91 55 V
.0454 g 5849 609 N 91 53 66 -13 -91 -54 h
stroke
LT0
0.75 0.75 0.75 C 5849 609 M
66 -14 V
-91 -53 V
-66 13 V
91 54 V
.0473 g 5495 610 N 91 57 66 -14 -91 -56 h
stroke
LT0
0.75 0.75 0.75 C 5495 610 M
66 -13 V
-91 -57 V
-66 14 V
91 56 V
.8825 g 4339 1922 N 91 53 66 -130 -91 -55 h
stroke
LT0
0.75 0.75 0.75 C 4339 1922 M
66 -132 V
-91 -53 V
-66 130 V
91 55 V
.6819 g 4380 1609 N 91 55 65 -123 -91 -55 h
stroke
LT0
0.75 0.75 0.75 C 4380 1609 M
65 -123 V
-91 -55 V
-65 123 V
91 55 V
.0472 g 5561 597 N 91 56 66 -13 -91 -57 h
stroke
LT0
0.75 0.75 0.75 C 5561 597 M
66 -14 V
-91 -56 V
-66 13 V
91 57 V
.0471 g 5627 583 N 91 56 65 -14 -91 -56 h
stroke
LT0
0.75 0.75 0.75 C 5627 583 M
65 -14 V
-91 -56 V
-65 14 V
91 56 V
.7817 g 4314 1737 N 91 55 66 -129 -91 -54 h
stroke
LT0
0.75 0.75 0.75 C 4314 1737 M
66 -128 V
-91 -55 V
-66 129 V
91 54 V
.047 g 5692 569 N 91 55 66 -13 -91 -56 h
stroke
LT0
0.75 0.75 0.75 C 5692 569 M
66 -14 V
-91 -55 V
-66 13 V
91 56 V
.0469 g 5758 555 N 91 56 66 -14 -91 -55 h
stroke
LT0
0.75 0.75 0.75 C 5758 555 M
66 -13 V
-91 -56 V
-66 14 V
91 55 V
.8844 g 4248 1867 N 91 54 66 -130 -91 -54 h
stroke
LT0
0.75 0.75 0.75 C 4248 1867 M
66 -130 V
-91 -54 V
-66 130 V
91 54 V
stroke
LTb
LCb setrgbcolor
5733 433 M
910 563 V
stroke
LTb
LCb setrgbcolor
5733 433 M
4157 758 L
stroke
LTb
LCb setrgbcolor
4157 758 M
433 268 V
stroke
LTb
LCb setrgbcolor
6643 996 M
-34 7 V
stroke
LTb
LCb setrgbcolor
4157 1884 M
0 -1126 V
stroke
LTb
LCb setrgbcolor
5067 2447 M
0 -128 V
stroke
LTb
LCb setrgbcolor
6643 2122 M
0 -1126 V
stroke
LTb
LCb setrgbcolor
4157 1884 M
910 563 V
stroke
LTb
LCb setrgbcolor
6643 2122 M
5067 2447 L
stroke
LTa
LCa setrgbcolor
4420 704 M
272 168 V
stroke
LTb
LCb setrgbcolor
4420 704 M
44 27 V
stroke
LTb
LCb setrgbcolor
4370 641 M
[ [(Times-Roman) 120.0 0.0 true true 0 ( 50)]
] -40.0 MCshow
1.000 UL
LTb
LCb setrgbcolor
1.000 UL
LTa
LCa setrgbcolor
4748 636 M
95 59 V
stroke
LTb
LCb setrgbcolor
4748 636 M
45 27 V
stroke
LTb
LCb setrgbcolor
4698 573 M
[ [(Times-Roman) 120.0 0.0 true true 0 ( 100)]
] -40.0 MCshow
1.000 UL
LTb
LCb setrgbcolor
1.000 UL
LTa
LCa setrgbcolor
5077 568 M
64 40 V
stroke
LTb
LCb setrgbcolor
5077 568 M
44 28 V
stroke
LTb
LCb setrgbcolor
5026 505 M
[ [(Times-Roman) 120.0 0.0 true true 0 ( 150)]
] -40.0 MCshow
1.000 UL
LTb
LCb setrgbcolor
1.000 UL
LTa
LCa setrgbcolor
5404 501 M
65 40 V
stroke
LTb
LCb setrgbcolor
5404 501 M
44 27 V
stroke
LTb
LCb setrgbcolor
5355 438 M
[ [(Times-Roman) 120.0 0.0 true true 0 ( 200)]
] -40.0 MCshow
1.000 UL
LTb
LCb setrgbcolor
LCb setrgbcolor
4718 455 M
[ [(Times-Roman) 120.0 0.0 true true 0 (Iterations)]
] -40.0 MCshow
LTb
1.000 UL
LTa
LCa setrgbcolor
5733 433 M
4157 758 L
stroke
LTb
LCb setrgbcolor
5733 433 M
-55 11 V
stroke
5795 400 M
[ [(Times-Roman) 120.0 0.0 true true 0 ( 0)]
] -40.0 MCshow
1.000 UL
LTb
LCb setrgbcolor
1.000 UL
LTb
LCb setrgbcolor
4212 747 M
-55 11 V
stroke
LTa
LCa setrgbcolor
4752 786 M
-413 85 V
stroke
LTa
LCa setrgbcolor
5915 546 M
-63 12 V
stroke
LTb
LCb setrgbcolor
5915 546 M
-55 11 V
stroke
5977 513 M
[ [(Times-Roman) 120.0 0.0 true true 0 ( 0.2)]
] -40.0 MCshow
1.000 UL
LTb
LCb setrgbcolor
1.000 UL
LTb
LCb setrgbcolor
4394 860 M
-55 11 V
stroke
LTa
LCa setrgbcolor
4633 960 M
-112 23 V
stroke
LTa
LCa setrgbcolor
6097 658 M
-59 12 V
stroke
LTb
LCb setrgbcolor
6097 658 M
-55 11 V
stroke
6159 626 M
[ [(Times-Roman) 120.0 0.0 true true 0 ( 0.4)]
] -40.0 MCshow
1.000 UL
LTb
LCb setrgbcolor
1.000 UL
LTb
LCb setrgbcolor
4576 972 M
-55 11 V
stroke
LTa
LCa setrgbcolor
6279 771 M
-57 12 V
stroke
LTb
LCb setrgbcolor
6279 771 M
-55 11 V
stroke
6341 738 M
[ [(Times-Roman) 120.0 0.0 true true 0 ( 0.6)]
] -40.0 MCshow
1.000 UL
LTb
LCb setrgbcolor
1.000 UL
LTa
LCa setrgbcolor
6461 884 M
-55 11 V
stroke
LTb
LCb setrgbcolor
6461 884 M
-55 11 V
stroke
6523 851 M
[ [(Times-Roman) 120.0 0.0 true true 0 ( 0.8)]
] -40.0 MCshow
1.000 UL
LTb
LCb setrgbcolor
1.000 UL
LTa
LCa setrgbcolor
6643 996 M
-34 7 V
stroke
LTb
LCb setrgbcolor
6643 996 M
-34 7 V
stroke
6705 964 M
[ [(Times-Roman) 120.0 0.0 true true 0 ( 1)]
] -40.0 MCshow
1.000 UL
LTb
LCb setrgbcolor
LCb setrgbcolor
6582 633 M
[ [(Times-Roman) 120.0 0.0 true true 0 (p2)]
] -40.0 MCshow
LTb
1.000 UL
LTa
LCa setrgbcolor
4157 758 M
433 268 V
stroke
LTa
LCa setrgbcolor
6643 996 M
-34 7 V
stroke
LTb
LCb setrgbcolor
4220 758 M
-63 0 V
stroke
4031 758 M
[ [(Times-Roman) 120.0 0.0 true true 0 ( 0)]
] -40.0 MRshow
1.000 UL
LTb
LCb setrgbcolor
1.000 UL
LTa
LCa setrgbcolor
4157 883 M
377 233 V
stroke
LTa
LCa setrgbcolor
6643 1121 M
5497 1358 L
stroke
LTb
LCb setrgbcolor
4220 883 M
-63 0 V
stroke
4031 883 M
[ [(Times-Roman) 120.0 0.0 true true 0 ( 10)]
] -40.0 MRshow
1.000 UL
LTb
LCb setrgbcolor
1.000 UL
LTa
LCa setrgbcolor
4157 1008 M
322 200 V
stroke
LTa
LCa setrgbcolor
6643 1247 M
5423 1497 L
stroke
LTb
LCb setrgbcolor
4220 1008 M
-63 0 V
stroke
4031 1008 M
[ [(Times-Roman) 120.0 0.0 true true 0 ( 20)]
] -40.0 MRshow
1.000 UL
LTb
LCb setrgbcolor
1.000 UL
LTa
LCa setrgbcolor
4157 1134 M
270 166 V
stroke
LTa
LCa setrgbcolor
6643 1372 M
5364 1635 L
stroke
LTb
LCb setrgbcolor
4220 1134 M
-63 0 V
stroke
4031 1134 M
[ [(Times-Roman) 120.0 0.0 true true 0 ( 30)]
] -40.0 MRshow
1.000 UL
LTb
LCb setrgbcolor
1.000 UL
LTa
LCa setrgbcolor
4157 1259 M
218 135 V
stroke
LTa
LCa setrgbcolor
6643 1496 M
5304 1772 L
stroke
LTb
LCb setrgbcolor
4220 1259 M
-63 0 V
stroke
4031 1259 M
[ [(Times-Roman) 120.0 0.0 true true 0 ( 40)]
] -40.0 MRshow
1.000 UL
LTb
LCb setrgbcolor
1.000 UL
LTa
LCa setrgbcolor
4157 1384 M
167 102 V
stroke
LTa
LCa setrgbcolor
6643 1621 M
5244 1910 L
stroke
LTb
LCb setrgbcolor
4220 1384 M
-63 0 V
stroke
4031 1384 M
[ [(Times-Roman) 120.0 0.0 true true 0 ( 50)]
] -40.0 MRshow
1.000 UL
LTb
LCb setrgbcolor
1.000 UL
LTa
LCa setrgbcolor
4157 1508 M
118 73 V
stroke
LTa
LCa setrgbcolor
6643 1746 M
5184 2047 L
stroke
LTb
LCb setrgbcolor
4220 1508 M
-63 0 V
stroke
4031 1508 M
[ [(Times-Roman) 120.0 0.0 true true 0 ( 60)]
] -40.0 MRshow
1.000 UL
LTb
LCb setrgbcolor
1.000 UL
LTa
LCa setrgbcolor
4157 1633 M
69 43 V
stroke
LTa
LCa setrgbcolor
6643 1872 M
5125 2185 L
stroke
LTb
LCb setrgbcolor
4220 1633 M
-63 0 V
stroke
4031 1633 M
[ [(Times-Roman) 120.0 0.0 true true 0 ( 70)]
] -40.0 MRshow
1.000 UL
LTb
LCb setrgbcolor
1.000 UL
LTa
LCa setrgbcolor
5047 2310 M
20 12 V
stroke
LTa
LCa setrgbcolor
4157 1759 M
21 13 V
stroke
LTa
LCa setrgbcolor
6643 1997 M
5067 2322 L
stroke
LTb
LCb setrgbcolor
4185 1759 M
-28 0 V
stroke
LTb
LCb setrgbcolor
4198 1759 M
22 0 V
stroke
4031 1759 M
[ [(Times-Roman) 120.0 0.0 true true 0 ( 80)]
] -40.0 MRshow
1.000 UL
LTb
LCb setrgbcolor
1.000 UL
LTa
LCa setrgbcolor
4157 1884 M
910 563 V
stroke
LTa
LCa setrgbcolor
6643 2122 M
5067 2447 L
stroke
LTb
LCb setrgbcolor
4220 1884 M
-63 0 V
stroke
4031 1884 M
[ [(Times-Roman) 120.0 0.0 true true 0 ( 90)]
] -40.0 MRshow
1.000 UL
LTb
LCb setrgbcolor
LCb setrgbcolor
3653 1321 M
currentpoint gsave translate 90 rotate 0 0 moveto
[ [(Times-Roman) 120.0 0.0 true true 0 (Avg. number of singles)]
] -40.0 MCshow
grestore
LTb
1.000 UP
grestore % colour palette end
stroke
grestore
end
showpage
%%Trailer
%%DocumentFonts: Times-Roman
