%!PS-Adobe-2.0 EPSF-2.0
%%Title: AS-SMTI-Runtime-high.eps
%%Creator: gnuplot 4.6 patchlevel 6
%%CreationDate: Wed Apr 22 11:56:28 2015
%%DocumentFonts: (atend)
%%BoundingBox: 50 50 410 194
%%EndComments
%%BeginProlog
/gnudict 256 dict def
gnudict begin
%
% The following true/false flags may be edited by hand if desired.
% The unit line width and grayscale image gamma correction may also be changed.
%
/Color true def
/Blacktext false def
/Solid false def
/Dashlength 1 def
/Landscape false def
/Level1 false def
/Rounded false def
/ClipToBoundingBox false def
/SuppressPDFMark false def
/TransparentPatterns false def
/gnulinewidth 5.000 def
/userlinewidth gnulinewidth def
/Gamma 1.0 def
/BackgroundColor {-1.000 -1.000 -1.000} def
%
/vshift -40 def
/dl1 {
  10.0 Dashlength mul mul
  Rounded { currentlinewidth 0.75 mul sub dup 0 le { pop 0.01 } if } if
} def
/dl2 {
  10.0 Dashlength mul mul
  Rounded { currentlinewidth 0.75 mul add } if
} def
/hpt_ 31.5 def
/vpt_ 31.5 def
/hpt hpt_ def
/vpt vpt_ def
/doclip {
  ClipToBoundingBox {
    newpath 50 50 moveto 410 50 lineto 410 194 lineto 50 194 lineto closepath
    clip
  } if
} def
%
% Gnuplot Prolog Version 4.6 (September 2012)
%
%/SuppressPDFMark true def
%
/M {moveto} bind def
/L {lineto} bind def
/R {rmoveto} bind def
/V {rlineto} bind def
/N {newpath moveto} bind def
/Z {closepath} bind def
/C {setrgbcolor} bind def
/f {rlineto fill} bind def
/g {setgray} bind def
/Gshow {show} def   % May be redefined later in the file to support UTF-8
/vpt2 vpt 2 mul def
/hpt2 hpt 2 mul def
/Lshow {currentpoint stroke M 0 vshift R 
	Blacktext {gsave 0 setgray show grestore} {show} ifelse} def
/Rshow {currentpoint stroke M dup stringwidth pop neg vshift R
	Blacktext {gsave 0 setgray show grestore} {show} ifelse} def
/Cshow {currentpoint stroke M dup stringwidth pop -2 div vshift R 
	Blacktext {gsave 0 setgray show grestore} {show} ifelse} def
/UP {dup vpt_ mul /vpt exch def hpt_ mul /hpt exch def
  /hpt2 hpt 2 mul def /vpt2 vpt 2 mul def} def
/DL {Color {setrgbcolor Solid {pop []} if 0 setdash}
 {pop pop pop 0 setgray Solid {pop []} if 0 setdash} ifelse} def
/BL {stroke userlinewidth 2 mul setlinewidth
	Rounded {1 setlinejoin 1 setlinecap} if} def
/AL {stroke userlinewidth 2 div setlinewidth
	Rounded {1 setlinejoin 1 setlinecap} if} def
/UL {dup gnulinewidth mul /userlinewidth exch def
	dup 1 lt {pop 1} if 10 mul /udl exch def} def
/PL {stroke userlinewidth setlinewidth
	Rounded {1 setlinejoin 1 setlinecap} if} def
3.8 setmiterlimit
% Default Line colors
/LCw {1 1 1} def
/LCb {0 0 0} def
/LCa {0 0 0} def
/LC0 {1 0 0} def
/LC1 {0 1 0} def
/LC2 {0 0 1} def
/LC3 {1 0 1} def
/LC4 {0 1 1} def
/LC5 {1 1 0} def
/LC6 {0 0 0} def
/LC7 {1 0.3 0} def
/LC8 {0.5 0.5 0.5} def
% Default Line Types
/LTw {PL [] 1 setgray} def
/LTb {BL [] LCb DL} def
/LTa {AL [1 udl mul 2 udl mul] 0 setdash LCa setrgbcolor} def
/LT0 {PL [] LC0 DL} def
/LT1 {PL [4 dl1 2 dl2] LC1 DL} def
/LT2 {PL [2 dl1 3 dl2] LC2 DL} def
/LT3 {PL [1 dl1 1.5 dl2] LC3 DL} def
/LT4 {PL [6 dl1 2 dl2 1 dl1 2 dl2] LC4 DL} def
/LT5 {PL [3 dl1 3 dl2 1 dl1 3 dl2] LC5 DL} def
/LT6 {PL [2 dl1 2 dl2 2 dl1 6 dl2] LC6 DL} def
/LT7 {PL [1 dl1 2 dl2 6 dl1 2 dl2 1 dl1 2 dl2] LC7 DL} def
/LT8 {PL [2 dl1 2 dl2 2 dl1 2 dl2 2 dl1 2 dl2 2 dl1 4 dl2] LC8 DL} def
/Pnt {stroke [] 0 setdash gsave 1 setlinecap M 0 0 V stroke grestore} def
/Dia {stroke [] 0 setdash 2 copy vpt add M
  hpt neg vpt neg V hpt vpt neg V
  hpt vpt V hpt neg vpt V closepath stroke
  Pnt} def
/Pls {stroke [] 0 setdash vpt sub M 0 vpt2 V
  currentpoint stroke M
  hpt neg vpt neg R hpt2 0 V stroke
 } def
/Box {stroke [] 0 setdash 2 copy exch hpt sub exch vpt add M
  0 vpt2 neg V hpt2 0 V 0 vpt2 V
  hpt2 neg 0 V closepath stroke
  Pnt} def
/Crs {stroke [] 0 setdash exch hpt sub exch vpt add M
  hpt2 vpt2 neg V currentpoint stroke M
  hpt2 neg 0 R hpt2 vpt2 V stroke} def
/TriU {stroke [] 0 setdash 2 copy vpt 1.12 mul add M
  hpt neg vpt -1.62 mul V
  hpt 2 mul 0 V
  hpt neg vpt 1.62 mul V closepath stroke
  Pnt} def
/Star {2 copy Pls Crs} def
/BoxF {stroke [] 0 setdash exch hpt sub exch vpt add M
  0 vpt2 neg V hpt2 0 V 0 vpt2 V
  hpt2 neg 0 V closepath fill} def
/TriUF {stroke [] 0 setdash vpt 1.12 mul add M
  hpt neg vpt -1.62 mul V
  hpt 2 mul 0 V
  hpt neg vpt 1.62 mul V closepath fill} def
/TriD {stroke [] 0 setdash 2 copy vpt 1.12 mul sub M
  hpt neg vpt 1.62 mul V
  hpt 2 mul 0 V
  hpt neg vpt -1.62 mul V closepath stroke
  Pnt} def
/TriDF {stroke [] 0 setdash vpt 1.12 mul sub M
  hpt neg vpt 1.62 mul V
  hpt 2 mul 0 V
  hpt neg vpt -1.62 mul V closepath fill} def
/DiaF {stroke [] 0 setdash vpt add M
  hpt neg vpt neg V hpt vpt neg V
  hpt vpt V hpt neg vpt V closepath fill} def
/Pent {stroke [] 0 setdash 2 copy gsave
  translate 0 hpt M 4 {72 rotate 0 hpt L} repeat
  closepath stroke grestore Pnt} def
/PentF {stroke [] 0 setdash gsave
  translate 0 hpt M 4 {72 rotate 0 hpt L} repeat
  closepath fill grestore} def
/Circle {stroke [] 0 setdash 2 copy
  hpt 0 360 arc stroke Pnt} def
/CircleF {stroke [] 0 setdash hpt 0 360 arc fill} def
/C0 {BL [] 0 setdash 2 copy moveto vpt 90 450 arc} bind def
/C1 {BL [] 0 setdash 2 copy moveto
	2 copy vpt 0 90 arc closepath fill
	vpt 0 360 arc closepath} bind def
/C2 {BL [] 0 setdash 2 copy moveto
	2 copy vpt 90 180 arc closepath fill
	vpt 0 360 arc closepath} bind def
/C3 {BL [] 0 setdash 2 copy moveto
	2 copy vpt 0 180 arc closepath fill
	vpt 0 360 arc closepath} bind def
/C4 {BL [] 0 setdash 2 copy moveto
	2 copy vpt 180 270 arc closepath fill
	vpt 0 360 arc closepath} bind def
/C5 {BL [] 0 setdash 2 copy moveto
	2 copy vpt 0 90 arc
	2 copy moveto
	2 copy vpt 180 270 arc closepath fill
	vpt 0 360 arc} bind def
/C6 {BL [] 0 setdash 2 copy moveto
	2 copy vpt 90 270 arc closepath fill
	vpt 0 360 arc closepath} bind def
/C7 {BL [] 0 setdash 2 copy moveto
	2 copy vpt 0 270 arc closepath fill
	vpt 0 360 arc closepath} bind def
/C8 {BL [] 0 setdash 2 copy moveto
	2 copy vpt 270 360 arc closepath fill
	vpt 0 360 arc closepath} bind def
/C9 {BL [] 0 setdash 2 copy moveto
	2 copy vpt 270 450 arc closepath fill
	vpt 0 360 arc closepath} bind def
/C10 {BL [] 0 setdash 2 copy 2 copy moveto vpt 270 360 arc closepath fill
	2 copy moveto
	2 copy vpt 90 180 arc closepath fill
	vpt 0 360 arc closepath} bind def
/C11 {BL [] 0 setdash 2 copy moveto
	2 copy vpt 0 180 arc closepath fill
	2 copy moveto
	2 copy vpt 270 360 arc closepath fill
	vpt 0 360 arc closepath} bind def
/C12 {BL [] 0 setdash 2 copy moveto
	2 copy vpt 180 360 arc closepath fill
	vpt 0 360 arc closepath} bind def
/C13 {BL [] 0 setdash 2 copy moveto
	2 copy vpt 0 90 arc closepath fill
	2 copy moveto
	2 copy vpt 180 360 arc closepath fill
	vpt 0 360 arc closepath} bind def
/C14 {BL [] 0 setdash 2 copy moveto
	2 copy vpt 90 360 arc closepath fill
	vpt 0 360 arc} bind def
/C15 {BL [] 0 setdash 2 copy vpt 0 360 arc closepath fill
	vpt 0 360 arc closepath} bind def
/Rec {newpath 4 2 roll moveto 1 index 0 rlineto 0 exch rlineto
	neg 0 rlineto closepath} bind def
/Square {dup Rec} bind def
/Bsquare {vpt sub exch vpt sub exch vpt2 Square} bind def
/S0 {BL [] 0 setdash 2 copy moveto 0 vpt rlineto BL Bsquare} bind def
/S1 {BL [] 0 setdash 2 copy vpt Square fill Bsquare} bind def
/S2 {BL [] 0 setdash 2 copy exch vpt sub exch vpt Square fill Bsquare} bind def
/S3 {BL [] 0 setdash 2 copy exch vpt sub exch vpt2 vpt Rec fill Bsquare} bind def
/S4 {BL [] 0 setdash 2 copy exch vpt sub exch vpt sub vpt Square fill Bsquare} bind def
/S5 {BL [] 0 setdash 2 copy 2 copy vpt Square fill
	exch vpt sub exch vpt sub vpt Square fill Bsquare} bind def
/S6 {BL [] 0 setdash 2 copy exch vpt sub exch vpt sub vpt vpt2 Rec fill Bsquare} bind def
/S7 {BL [] 0 setdash 2 copy exch vpt sub exch vpt sub vpt vpt2 Rec fill
	2 copy vpt Square fill Bsquare} bind def
/S8 {BL [] 0 setdash 2 copy vpt sub vpt Square fill Bsquare} bind def
/S9 {BL [] 0 setdash 2 copy vpt sub vpt vpt2 Rec fill Bsquare} bind def
/S10 {BL [] 0 setdash 2 copy vpt sub vpt Square fill 2 copy exch vpt sub exch vpt Square fill
	Bsquare} bind def
/S11 {BL [] 0 setdash 2 copy vpt sub vpt Square fill 2 copy exch vpt sub exch vpt2 vpt Rec fill
	Bsquare} bind def
/S12 {BL [] 0 setdash 2 copy exch vpt sub exch vpt sub vpt2 vpt Rec fill Bsquare} bind def
/S13 {BL [] 0 setdash 2 copy exch vpt sub exch vpt sub vpt2 vpt Rec fill
	2 copy vpt Square fill Bsquare} bind def
/S14 {BL [] 0 setdash 2 copy exch vpt sub exch vpt sub vpt2 vpt Rec fill
	2 copy exch vpt sub exch vpt Square fill Bsquare} bind def
/S15 {BL [] 0 setdash 2 copy Bsquare fill Bsquare} bind def
/D0 {gsave translate 45 rotate 0 0 S0 stroke grestore} bind def
/D1 {gsave translate 45 rotate 0 0 S1 stroke grestore} bind def
/D2 {gsave translate 45 rotate 0 0 S2 stroke grestore} bind def
/D3 {gsave translate 45 rotate 0 0 S3 stroke grestore} bind def
/D4 {gsave translate 45 rotate 0 0 S4 stroke grestore} bind def
/D5 {gsave translate 45 rotate 0 0 S5 stroke grestore} bind def
/D6 {gsave translate 45 rotate 0 0 S6 stroke grestore} bind def
/D7 {gsave translate 45 rotate 0 0 S7 stroke grestore} bind def
/D8 {gsave translate 45 rotate 0 0 S8 stroke grestore} bind def
/D9 {gsave translate 45 rotate 0 0 S9 stroke grestore} bind def
/D10 {gsave translate 45 rotate 0 0 S10 stroke grestore} bind def
/D11 {gsave translate 45 rotate 0 0 S11 stroke grestore} bind def
/D12 {gsave translate 45 rotate 0 0 S12 stroke grestore} bind def
/D13 {gsave translate 45 rotate 0 0 S13 stroke grestore} bind def
/D14 {gsave translate 45 rotate 0 0 S14 stroke grestore} bind def
/D15 {gsave translate 45 rotate 0 0 S15 stroke grestore} bind def
/DiaE {stroke [] 0 setdash vpt add M
  hpt neg vpt neg V hpt vpt neg V
  hpt vpt V hpt neg vpt V closepath stroke} def
/BoxE {stroke [] 0 setdash exch hpt sub exch vpt add M
  0 vpt2 neg V hpt2 0 V 0 vpt2 V
  hpt2 neg 0 V closepath stroke} def
/TriUE {stroke [] 0 setdash vpt 1.12 mul add M
  hpt neg vpt -1.62 mul V
  hpt 2 mul 0 V
  hpt neg vpt 1.62 mul V closepath stroke} def
/TriDE {stroke [] 0 setdash vpt 1.12 mul sub M
  hpt neg vpt 1.62 mul V
  hpt 2 mul 0 V
  hpt neg vpt -1.62 mul V closepath stroke} def
/PentE {stroke [] 0 setdash gsave
  translate 0 hpt M 4 {72 rotate 0 hpt L} repeat
  closepath stroke grestore} def
/CircE {stroke [] 0 setdash 
  hpt 0 360 arc stroke} def
/Opaque {gsave closepath 1 setgray fill grestore 0 setgray closepath} def
/DiaW {stroke [] 0 setdash vpt add M
  hpt neg vpt neg V hpt vpt neg V
  hpt vpt V hpt neg vpt V Opaque stroke} def
/BoxW {stroke [] 0 setdash exch hpt sub exch vpt add M
  0 vpt2 neg V hpt2 0 V 0 vpt2 V
  hpt2 neg 0 V Opaque stroke} def
/TriUW {stroke [] 0 setdash vpt 1.12 mul add M
  hpt neg vpt -1.62 mul V
  hpt 2 mul 0 V
  hpt neg vpt 1.62 mul V Opaque stroke} def
/TriDW {stroke [] 0 setdash vpt 1.12 mul sub M
  hpt neg vpt 1.62 mul V
  hpt 2 mul 0 V
  hpt neg vpt -1.62 mul V Opaque stroke} def
/PentW {stroke [] 0 setdash gsave
  translate 0 hpt M 4 {72 rotate 0 hpt L} repeat
  Opaque stroke grestore} def
/CircW {stroke [] 0 setdash 
  hpt 0 360 arc Opaque stroke} def
/BoxFill {gsave Rec 1 setgray fill grestore} def
/Density {
  /Fillden exch def
  currentrgbcolor
  /ColB exch def /ColG exch def /ColR exch def
  /ColR ColR Fillden mul Fillden sub 1 add def
  /ColG ColG Fillden mul Fillden sub 1 add def
  /ColB ColB Fillden mul Fillden sub 1 add def
  ColR ColG ColB setrgbcolor} def
/BoxColFill {gsave Rec PolyFill} def
/PolyFill {gsave Density fill grestore grestore} def
/h {rlineto rlineto rlineto gsave closepath fill grestore} bind def
%
% PostScript Level 1 Pattern Fill routine for rectangles
% Usage: x y w h s a XX PatternFill
%	x,y = lower left corner of box to be filled
%	w,h = width and height of box
%	  a = angle in degrees between lines and x-axis
%	 XX = 0/1 for no/yes cross-hatch
%
/PatternFill {gsave /PFa [ 9 2 roll ] def
  PFa 0 get PFa 2 get 2 div add PFa 1 get PFa 3 get 2 div add translate
  PFa 2 get -2 div PFa 3 get -2 div PFa 2 get PFa 3 get Rec
  TransparentPatterns {} {gsave 1 setgray fill grestore} ifelse
  clip
  currentlinewidth 0.5 mul setlinewidth
  /PFs PFa 2 get dup mul PFa 3 get dup mul add sqrt def
  0 0 M PFa 5 get rotate PFs -2 div dup translate
  0 1 PFs PFa 4 get div 1 add floor cvi
	{PFa 4 get mul 0 M 0 PFs V} for
  0 PFa 6 get ne {
	0 1 PFs PFa 4 get div 1 add floor cvi
	{PFa 4 get mul 0 2 1 roll M PFs 0 V} for
 } if
  stroke grestore} def
%
/languagelevel where
 {pop languagelevel} {1} ifelse
 2 lt
	{/InterpretLevel1 true def}
	{/InterpretLevel1 Level1 def}
 ifelse
%
% PostScript level 2 pattern fill definitions
%
/Level2PatternFill {
/Tile8x8 {/PaintType 2 /PatternType 1 /TilingType 1 /BBox [0 0 8 8] /XStep 8 /YStep 8}
	bind def
/KeepColor {currentrgbcolor [/Pattern /DeviceRGB] setcolorspace} bind def
<< Tile8x8
 /PaintProc {0.5 setlinewidth pop 0 0 M 8 8 L 0 8 M 8 0 L stroke} 
>> matrix makepattern
/Pat1 exch def
<< Tile8x8
 /PaintProc {0.5 setlinewidth pop 0 0 M 8 8 L 0 8 M 8 0 L stroke
	0 4 M 4 8 L 8 4 L 4 0 L 0 4 L stroke}
>> matrix makepattern
/Pat2 exch def
<< Tile8x8
 /PaintProc {0.5 setlinewidth pop 0 0 M 0 8 L
	8 8 L 8 0 L 0 0 L fill}
>> matrix makepattern
/Pat3 exch def
<< Tile8x8
 /PaintProc {0.5 setlinewidth pop -4 8 M 8 -4 L
	0 12 M 12 0 L stroke}
>> matrix makepattern
/Pat4 exch def
<< Tile8x8
 /PaintProc {0.5 setlinewidth pop -4 0 M 8 12 L
	0 -4 M 12 8 L stroke}
>> matrix makepattern
/Pat5 exch def
<< Tile8x8
 /PaintProc {0.5 setlinewidth pop -2 8 M 4 -4 L
	0 12 M 8 -4 L 4 12 M 10 0 L stroke}
>> matrix makepattern
/Pat6 exch def
<< Tile8x8
 /PaintProc {0.5 setlinewidth pop -2 0 M 4 12 L
	0 -4 M 8 12 L 4 -4 M 10 8 L stroke}
>> matrix makepattern
/Pat7 exch def
<< Tile8x8
 /PaintProc {0.5 setlinewidth pop 8 -2 M -4 4 L
	12 0 M -4 8 L 12 4 M 0 10 L stroke}
>> matrix makepattern
/Pat8 exch def
<< Tile8x8
 /PaintProc {0.5 setlinewidth pop 0 -2 M 12 4 L
	-4 0 M 12 8 L -4 4 M 8 10 L stroke}
>> matrix makepattern
/Pat9 exch def
/Pattern1 {PatternBgnd KeepColor Pat1 setpattern} bind def
/Pattern2 {PatternBgnd KeepColor Pat2 setpattern} bind def
/Pattern3 {PatternBgnd KeepColor Pat3 setpattern} bind def
/Pattern4 {PatternBgnd KeepColor Landscape {Pat5} {Pat4} ifelse setpattern} bind def
/Pattern5 {PatternBgnd KeepColor Landscape {Pat4} {Pat5} ifelse setpattern} bind def
/Pattern6 {PatternBgnd KeepColor Landscape {Pat9} {Pat6} ifelse setpattern} bind def
/Pattern7 {PatternBgnd KeepColor Landscape {Pat8} {Pat7} ifelse setpattern} bind def
} def
%
%
%End of PostScript Level 2 code
%
/PatternBgnd {
  TransparentPatterns {} {gsave 1 setgray fill grestore} ifelse
} def
%
% Substitute for Level 2 pattern fill codes with
% grayscale if Level 2 support is not selected.
%
/Level1PatternFill {
/Pattern1 {0.250 Density} bind def
/Pattern2 {0.500 Density} bind def
/Pattern3 {0.750 Density} bind def
/Pattern4 {0.125 Density} bind def
/Pattern5 {0.375 Density} bind def
/Pattern6 {0.625 Density} bind def
/Pattern7 {0.875 Density} bind def
} def
%
% Now test for support of Level 2 code
%
Level1 {Level1PatternFill} {Level2PatternFill} ifelse
%
/Symbol-Oblique /Symbol findfont [1 0 .167 1 0 0] makefont
dup length dict begin {1 index /FID eq {pop pop} {def} ifelse} forall
currentdict end definefont pop
/MFshow {
   { dup 5 get 3 ge
     { 5 get 3 eq {gsave} {grestore} ifelse }
     {dup dup 0 get findfont exch 1 get scalefont setfont
     [ currentpoint ] exch dup 2 get 0 exch R dup 5 get 2 ne {dup dup 6
     get exch 4 get {Gshow} {stringwidth pop 0 R} ifelse }if dup 5 get 0 eq
     {dup 3 get {2 get neg 0 exch R pop} {pop aload pop M} ifelse} {dup 5
     get 1 eq {dup 2 get exch dup 3 get exch 6 get stringwidth pop -2 div
     dup 0 R} {dup 6 get stringwidth pop -2 div 0 R 6 get
     show 2 index {aload pop M neg 3 -1 roll neg R pop pop} {pop pop pop
     pop aload pop M} ifelse }ifelse }ifelse }
     ifelse }
   forall} def
/Gswidth {dup type /stringtype eq {stringwidth} {pop (n) stringwidth} ifelse} def
/MFwidth {0 exch { dup 5 get 3 ge { 5 get 3 eq { 0 } { pop } ifelse }
 {dup 3 get{dup dup 0 get findfont exch 1 get scalefont setfont
     6 get Gswidth pop add} {pop} ifelse} ifelse} forall} def
/MLshow { currentpoint stroke M
  0 exch R
  Blacktext {gsave 0 setgray MFshow grestore} {MFshow} ifelse } bind def
/MRshow { currentpoint stroke M
  exch dup MFwidth neg 3 -1 roll R
  Blacktext {gsave 0 setgray MFshow grestore} {MFshow} ifelse } bind def
/MCshow { currentpoint stroke M
  exch dup MFwidth -2 div 3 -1 roll R
  Blacktext {gsave 0 setgray MFshow grestore} {MFshow} ifelse } bind def
/XYsave    { [( ) 1 2 true false 3 ()] } bind def
/XYrestore { [( ) 1 2 true false 4 ()] } bind def
Level1 SuppressPDFMark or 
{} {
/SDict 10 dict def
systemdict /pdfmark known not {
  userdict /pdfmark systemdict /cleartomark get put
} if
SDict begin [
  /Title (AS-SMTI-Runtime-high.eps)
  /Subject (gnuplot plot)
  /Creator (gnuplot 4.6 patchlevel 6)
  /Author (dannymunera)
%  /Producer (gnuplot)
%  /Keywords ()
  /CreationDate (Wed Apr 22 11:56:28 2015)
  /DOCINFO pdfmark
end
} ifelse
end
%%EndProlog
%%Page: 1 1
gnudict begin
gsave
doclip
50 50 translate
0.050 0.050 scale
0 setgray
newpath
(Times-Roman) findfont 120 scalefont setfont
BackgroundColor 0 lt 3 1 roll 0 lt exch 0 lt or or not {BackgroundColor C 1.000 0 0 7200.00 2880.00 BoxColFill} if
LCb setrgbcolor
LTb
gsave % colour palette begin
/maxcolors 0 def
/HSV2RGB {  exch dup 0.0 eq {pop exch pop dup dup} % achromatic gray
  { /HSVs exch def /HSVv exch def 6.0 mul dup floor dup 3 1 roll sub
     /HSVf exch def /HSVi exch cvi def /HSVp HSVv 1.0 HSVs sub mul def
	 /HSVq HSVv 1.0 HSVs HSVf mul sub mul def 
	 /HSVt HSVv 1.0 HSVs 1.0 HSVf sub mul sub mul def
	 /HSVi HSVi 6 mod def 0 HSVi eq {HSVv HSVt HSVp}
	 {1 HSVi eq {HSVq HSVv HSVp}{2 HSVi eq {HSVp HSVv HSVt}
	 {3 HSVi eq {HSVp HSVq HSVv}{4 HSVi eq {HSVt HSVp HSVv}
	 {HSVv HSVp HSVq} ifelse} ifelse} ifelse} ifelse} ifelse
  } ifelse} def
/Constrain {
  dup 0 lt {0 exch pop}{dup 1 gt {1 exch pop} if} ifelse} def
/YIQ2RGB {
  3 copy -1.702 mul exch -1.105 mul add add Constrain 4 1 roll
  3 copy -0.647 mul exch -0.272 mul add add Constrain 5 1 roll
  0.621 mul exch -0.956 mul add add Constrain 3 1 roll } def
/CMY2RGB {  1 exch sub exch 1 exch sub 3 2 roll 1 exch sub 3 1 roll exch } def
/XYZ2RGB {  3 copy -0.9017 mul exch -0.1187 mul add exch 0.0585 mul exch add
  Constrain 4 1 roll 3 copy -0.0279 mul exch 1.999 mul add exch
  -0.9844 mul add Constrain 5 1 roll -0.2891 mul exch -0.5338 mul add
  exch 1.91 mul exch add Constrain 3 1 roll} def
/SelectSpace {ColorSpace (HSV) eq {HSV2RGB}{ColorSpace (XYZ) eq {
  XYZ2RGB}{ColorSpace (CMY) eq {CMY2RGB}{ColorSpace (YIQ) eq {YIQ2RGB}
  if} ifelse} ifelse} ifelse} def
/InterpolatedColor false def
/pm3dround {maxcolors 0 gt {dup 1 ge
	{pop 1} {maxcolors mul floor maxcolors 1 sub div} ifelse} if} def
/pm3dGamma 1.0 1.5 Gamma mul div def
/ColorSpace (RGB) def
false { % COLOUR vs. GRAY map
  InterpolatedColor { %% Interpolation vs. RGB-Formula
    /g {stroke pm3dround /grayv exch def interpolate
        SelectSpace setrgbcolor} bind def
  }{
  /g {stroke pm3dround dup cF7 Constrain exch dup cF5 Constrain exch cF15 Constrain 
       SelectSpace setrgbcolor} bind def
  } ifelse
}{
  /g {stroke pm3dround pm3dGamma exp setgray} bind def
} ifelse
1.000 UL
LTb
LCb setrgbcolor
1.000 UP
LTb
1792 121 M
[ [(Times-Roman) 120.0 0.0 true true 0 (a\))]
] -40.0 MLshow
% Begin plot #1
% End plot #1
% Begin plot #2
1.000 UL
LT0
0.75 0.75 0.75 C 1.000 UL
LT0
0.75 0.75 0.75 C % End plot #2
.0027 g 1992 1215 N 113 70 66 -24 -114 -62 h
1.000 UL
LT0
0.75 0.75 0.75 C 1992 1215 M
65 -16 V
-113 -70 V
-66 24 V
114 62 V
.0398 g 1926 1292 N 114 62 66 -105 -114 -34 h
stroke
LT0
0.75 0.75 0.75 C 1926 1292 M
66 -77 V
-114 -62 V
-66 105 V
114 34 V
0 g 2057 1199 N 114 70 65 -13 -113 -70 h
stroke
LT0
0.75 0.75 0.75 C 2057 1199 M
66 -13 V
-114 -70 V
-65 13 V
113 70 V
0 g 2123 1186 N 114 70 66 -14 -114 -70 h
stroke
LT0
0.75 0.75 0.75 C 2123 1186 M
66 -14 V
-114 -70 V
-66 14 V
114 70 V
.1373 g 1860 1457 N 114 34 64 -145 -112 -54 h
stroke
LT0
0.75 0.75 0.75 C 1860 1457 M
66 -165 V
-114 -34 V
-64 145 V
112 54 V
0 g 2189 1172 N 113 71 66 -14 -114 -70 h
stroke
LT0
0.75 0.75 0.75 C 2189 1172 M
65 -13 V
-113 -71 V
-66 14 V
114 70 V
0 g 2254 1159 N 114 70 65 -13 -113 -71 h
stroke
LT0
0.75 0.75 0.75 C 2254 1159 M
66 -14 V
-114 -70 V
-65 13 V
113 71 V
.2633 g 1796 1623 N 112 54 66 -144 -114 -76 h
stroke
LT0
0.75 0.75 0.75 C 1796 1623 M
64 -166 V
-112 -54 V
-66 144 V
114 76 V
0 g 2320 1145 N 114 71 66 -14 -114 -70 h
stroke
LT0
0.75 0.75 0.75 C 2320 1145 M
66 -13 V
-114 -71 V
-66 14 V
114 70 V
.0148 g 1878 1153 N 114 60 65 -49 -113 -35 h
stroke
LT0
0.75 0.75 0.75 C 1878 1153 M
66 -24 V
-114 -60 V
-65 49 V
113 35 V
0 g 2386 1132 N 114 70 66 -13 -114 -71 h
stroke
LT0
0.75 0.75 0.75 C 2386 1132 M
66 -14 V
-114 -70 V
-66 13 V
114 71 V
.0026 g 1944 1129 N 113 69 66 -22 -114 -60 h
stroke
LT0
0.75 0.75 0.75 C 1944 1129 M
65 -13 V
-113 -69 V
-66 22 V
114 60 V
.0655 g 1812 1258 N 113 35 65 -105 -112 -35 h
stroke
LT0
0.75 0.75 0.75 C 1812 1258 M
66 -105 V
-113 -35 V
-65 105 V
112 35 V
0 g 2452 1118 N 114 71 65 -14 -114 -70 h
stroke
LT0
0.75 0.75 0.75 C 2452 1118 M
65 -13 V
-114 -71 V
-65 14 V
114 70 V
.0004 g 2009 1116 N 114 70 65 -15 -113 -69 h
stroke
LT0
0.75 0.75 0.75 C 2009 1116 M
66 -14 V
-114 -70 V
-65 15 V
113 69 V
.3876 g 1730 1780 N 114 76 66 -147 -114 -86 h
stroke
LT0
0.75 0.75 0.75 C 1730 1780 M
66 -157 V
-114 -76 V
-66 147 V
114 86 V
0 g 2517 1105 N 114 70 66 -13 -114 -71 h
stroke
LT0
0.75 0.75 0.75 C 2517 1105 M
66 -14 V
-114 -70 V
-66 13 V
114 71 V
0 g 2075 1102 N 114 70 66 -14 -114 -70 h
stroke
LT0
0.75 0.75 0.75 C 2075 1102 M
66 -14 V
-114 -70 V
-66 14 V
114 70 V
.1612 g 1748 1403 N 112 35 66 -130 -114 -50 h
stroke
LT0
0.75 0.75 0.75 C 1748 1403 M
64 -145 V
-112 -35 V
-66 130 V
114 50 V
0 g 2583 1091 N 114 71 66 -14 -114 -70 h
stroke
LT0
0.75 0.75 0.75 C 2583 1091 M
66 -13 V
-114 -71 V
-66 14 V
114 70 V
0 g 2141 1088 N 113 71 66 -14 -114 -70 h
stroke
LT0
0.75 0.75 0.75 C 2141 1088 M
65 -13 V
-113 -71 V
-66 14 V
114 70 V
.5091 g 1664 1932 N 114 86 65 -145 -113 -93 h
stroke
LT0
0.75 0.75 0.75 C 1664 1932 M
66 -152 V
-114 -86 V
-65 145 V
113 93 V
0 g 2649 1078 N 114 70 65 -13 -114 -71 h
stroke
LT0
0.75 0.75 0.75 C 2649 1078 M
65 -14 V
2600 994 L
-65 13 V
114 71 V
0 g 2206 1075 N 114 70 65 -13 -113 -71 h
stroke
LT0
0.75 0.75 0.75 C 2206 1075 M
66 -14 V
2158 991 L
-65 13 V
113 71 V
.2705 g 1682 1547 N 114 50 66 -126 -114 -68 h
stroke
LT0
0.75 0.75 0.75 C 1682 1547 M
66 -144 V
-114 -50 V
-66 126 V
114 68 V
0 g 2714 1064 N 114 70 66 -14 -114 -70 h
stroke
LT0
0.75 0.75 0.75 C 2714 1064 M
66 -14 V
2666 980 L
-66 14 V
114 70 V
0 g 2272 1061 N 114 71 66 -14 -114 -70 h
stroke
LT0
0.75 0.75 0.75 C 2272 1061 M
66 -13 V
2224 977 L
-66 14 V
114 70 V
.0337 g 1765 1118 N 113 61 65 -70 -113 -40 h
stroke
LT0
0.75 0.75 0.75 C 1765 1118 M
65 -49 V
-113 -61 V
-65 70 V
113 40 V
.0081 g 1830 1069 N 113 67 66 -28 -113 -61 h
stroke
LT0
0.75 0.75 0.75 C 1830 1069 M
66 -22 V
1783 980 L
-66 28 V
113 61 V
.6285 g 1599 2082 N 113 93 66 -146 -114 -97 h
stroke
LT0
0.75 0.75 0.75 C 1599 2082 M
65 -150 V
-113 -93 V
-66 146 V
114 97 V
0 g 2780 1050 N 114 71 66 -14 -114 -70 h
stroke
LT0
0.75 0.75 0.75 C 2780 1050 M
66 -13 V
2732 966 L
-66 14 V
114 70 V
0 g 2338 1048 N 113 70 66 -13 -114 -71 h
stroke
LT0
0.75 0.75 0.75 C 2338 1048 M
65 -14 V
2290 964 L
-66 13 V
114 71 V
.0938 g 1700 1223 N 113 40 66 -101 -114 -44 h
stroke
LT0
0.75 0.75 0.75 C 1700 1223 M
65 -105 V
-113 -40 V
-66 101 V
114 44 V
.0018 g 1896 1047 N 113 70 65 -18 -113 -67 h
stroke
LT0
0.75 0.75 0.75 C 1896 1047 M
65 -15 V
1848 962 L
-65 18 V
113 67 V
.3832 g 1616 1694 N 114 68 65 -143 -113 -72 h
stroke
LT0
0.75 0.75 0.75 C 1616 1694 M
66 -147 V
-114 -68 V
-65 143 V
113 72 V
0 g 2846 1037 N 114 70 65 -13 -114 -71 h
stroke
LT0
0.75 0.75 0.75 C 2846 1037 M
65 -14 V
2797 953 L
-65 13 V
114 71 V
0 g 2403 1034 N 114 71 65 -14 -113 -70 h
stroke
LT0
0.75 0.75 0.75 C 2403 1034 M
66 -13 V
2355 950 L
-65 14 V
113 70 V
.0003 g 1961 1032 N 114 70 65 -14 -113 -70 h
stroke
LT0
0.75 0.75 0.75 C 1961 1032 M
66 -14 V
1913 948 L
-65 14 V
113 70 V
.747 g 1533 2230 N 114 97 66 -145 -114 -100 h
stroke
LT0
0.75 0.75 0.75 C 1533 2230 M
66 -148 V
-114 -97 V
-66 145 V
114 100 V
0 g 2911 1023 N 114 71 66 -14 -114 -70 h
stroke
LT0
0.75 0.75 0.75 C 2911 1023 M
66 -13 V
2863 939 L
-66 14 V
114 70 V
.1832 g 1634 1353 N 114 44 66 -122 -114 -52 h
stroke
LT0
0.75 0.75 0.75 C 1634 1353 M
66 -130 V
-114 -44 V
-66 122 V
114 52 V
0 g 2469 1021 N 114 70 66 -13 -114 -71 h
stroke
LT0
0.75 0.75 0.75 C 2469 1021 M
66 -14 V
2421 937 L
-66 13 V
114 71 V
.0001 g 2027 1018 N 114 70 66 -14 -114 -70 h
stroke
LT0
0.75 0.75 0.75 C 2027 1018 M
66 -14 V
1979 934 L
-66 14 V
114 70 V
.4987 g 1551 1839 N 113 72 66 -140 -114 -77 h
stroke
LT0
0.75 0.75 0.75 C 1551 1839 M
65 -145 V
-113 -72 V
-66 140 V
114 77 V
0 g 2977 1010 N 114 70 66 -13 -114 -71 h
stroke
LT0
0.75 0.75 0.75 C 2977 1010 M
66 -14 V
2929 926 L
-66 13 V
114 71 V
0 g 2535 1007 N 113 71 66 -14 -114 -70 h
stroke
LT0
0.75 0.75 0.75 C 2535 1007 M
65 -13 V
2487 923 L
-66 14 V
114 70 V
0 g 2093 1004 N 113 71 66 -14 -114 -70 h
stroke
LT0
0.75 0.75 0.75 C 2093 1004 M
65 -13 V
2045 920 L
-66 14 V
114 70 V
.2828 g 1568 1479 N 114 52 65 -123 -113 -55 h
stroke
LT0
0.75 0.75 0.75 C 1568 1479 M
66 -126 V
-114 -52 V
-65 123 V
113 55 V
0 g 2600 994 N 114 70 65 -13 -113 -71 h
stroke
LT0
0.75 0.75 0.75 C 2600 994 M
66 -14 V
2552 910 L
-65 13 V
113 71 V
.8657 g 1467 2376 N 114 100 65 -150 -113 -96 h
stroke
LT0
0.75 0.75 0.75 C 1467 2376 M
66 -146 V
1419 2130 L
-65 150 V
113 96 V
0 g 2158 991 N 114 70 65 -13 -113 -71 h
stroke
LT0
0.75 0.75 0.75 C 2158 991 M
66 -14 V
2110 907 L
-65 13 V
113 71 V
.614 g 1485 1985 N 114 77 66 -143 -114 -80 h
stroke
LT0
0.75 0.75 0.75 C 1485 1985 M
66 -146 V
-114 -77 V
-66 143 V
114 80 V
.0148 g 1717 1008 N 114 67 66 -38 -114 -57 h
stroke
LT0
0.75 0.75 0.75 C 1717 1008 M
66 -28 V
1669 913 L
-66 38 V
114 57 V
.052 g 1652 1078 N 114 57 65 -85 -114 -42 h
stroke
LT0
0.75 0.75 0.75 C 1652 1078 M
65 -70 V
1603 951 L
-65 85 V
114 42 V
0 g 2666 980 N 114 70 66 -14 -114 -70 h
stroke
LT0
0.75 0.75 0.75 C 2666 980 M
66 -14 V
2618 896 L
-66 14 V
114 70 V
0 g 2224 977 N 114 71 66 -14 -114 -70 h
stroke
LT0
0.75 0.75 0.75 C 2224 977 M
66 -13 V
2176 893 L
-66 14 V
114 70 V
.0038 g 1783 980 N 113 69 66 -20 -114 -67 h
stroke
LT0
0.75 0.75 0.75 C 1783 980 M
65 -18 V
1735 893 L
-66 20 V
114 67 V
.388 g 1503 1622 N 113 55 66 -134 -114 -64 h
stroke
LT0
0.75 0.75 0.75 C 1503 1622 M
65 -143 V
-113 -55 V
-66 134 V
114 64 V
0 g 2732 966 N 113 71 66 -14 -114 -70 h
stroke
LT0
0.75 0.75 0.75 C 2732 966 M
65 -13 V
2684 882 L
-66 14 V
114 70 V
.1194 g 1586 1179 N 114 42 66 -103 -114 -40 h
stroke
LT0
0.75 0.75 0.75 C 1586 1179 M
66 -101 V
-114 -42 V
-66 103 V
114 40 V
0 g 2290 964 N 113 70 66 -13 -114 -71 h
stroke
LT0
0.75 0.75 0.75 C 2290 964 M
65 -14 V
2242 880 L
-66 13 V
114 71 V
.001 g 1848 962 N 113 70 65 -15 -113 -69 h
stroke
LT0
0.75 0.75 0.75 C 1848 962 M
65 -14 V
1800 878 L
-65 15 V
113 69 V
.73 g 1419 2130 N 114 80 65 -143 -113 -82 h
stroke
LT0
0.75 0.75 0.75 C 1419 2130 M
66 -145 V
-114 -80 V
-65 143 V
113 82 V
0 g 2797 953 N 114 70 65 -13 -113 -71 h
stroke
LT0
0.75 0.75 0.75 C 2797 953 M
66 -14 V
2749 869 L
-65 13 V
113 71 V
0 g 2355 950 N 114 71 65 -14 -113 -70 h
stroke
LT0
0.75 0.75 0.75 C 2355 950 M
66 -13 V
2307 866 L
-65 14 V
113 70 V
.0003 g 1913 948 N 114 70 65 -14 -113 -70 h
stroke
LT0
0.75 0.75 0.75 C 1913 948 M
66 -14 V
1865 864 L
-65 14 V
113 70 V
.4981 g 1437 1762 N 114 64 66 -133 -114 -71 h
stroke
LT0
0.75 0.75 0.75 C 1437 1762 M
66 -140 V
-114 -64 V
-66 133 V
114 71 V
.2038 g 1520 1301 N 114 40 66 -109 -114 -53 h
stroke
LT0
0.75 0.75 0.75 C 1520 1301 M
66 -122 V
-114 -40 V
-66 109 V
114 53 V
0 g 2863 939 N 114 71 66 -14 -114 -70 h
stroke
LT0
0.75 0.75 0.75 C 2863 939 M
66 -13 V
2815 855 L
-66 14 V
114 70 V
0 g 2421 937 N 114 70 66 -13 -114 -71 h
stroke
LT0
0.75 0.75 0.75 C 2421 937 M
66 -14 V
2373 853 L
-66 13 V
114 71 V
0 g 1979 934 N 114 70 66 -14 -114 -70 h
stroke
LT0
0.75 0.75 0.75 C 1979 934 M
66 -14 V
1931 850 L
-66 14 V
114 70 V
.8475 g 1354 2280 N 113 82 66 -146 -114 -86 h
stroke
LT0
0.75 0.75 0.75 C 1354 2280 M
65 -150 V
-113 -82 V
-66 146 V
114 86 V
.2971 g 1455 1424 N 114 53 65 -120 -114 -56 h
stroke
LT0
0.75 0.75 0.75 C 1455 1424 M
65 -123 V
-114 -53 V
-65 120 V
114 56 V
0 g 2487 923 N 113 71 66 -14 -114 -70 h
stroke
LT0
0.75 0.75 0.75 C 2487 923 M
65 -13 V
2439 839 L
-66 14 V
114 70 V
0 g 2045 920 N 113 71 66 -14 -114 -70 h
stroke
LT0
0.75 0.75 0.75 C 2045 920 M
65 -13 V
1997 836 L
-66 14 V
114 70 V
.6084 g 1371 1905 N 114 71 65 -135 -113 -79 h
stroke
LT0
0.75 0.75 0.75 C 1371 1905 M
66 -143 V
-114 -71 V
-65 135 V
113 79 V
.0206 g 1603 951 N 114 69 65 -45 -113 -62 h
stroke
LT0
0.75 0.75 0.75 C 1603 951 M
66 -38 V
1555 844 L
-65 45 V
113 62 V
.0631 g 1538 1036 N 113 62 66 -76 -114 -71 h
stroke
LT0
0.75 0.75 0.75 C 1538 1036 M
65 -85 V
1490 889 L
-66 76 V
114 71 V
0 g 2552 910 N 114 70 65 -13 -113 -71 h
stroke
LT0
0.75 0.75 0.75 C 2552 910 M
66 -14 V
2504 826 L
-65 13 V
113 71 V
0 g 2110 907 N 114 70 65 -13 -113 -71 h
stroke
LT0
0.75 0.75 0.75 C 2110 907 M
66 -14 V
2062 823 L
-65 13 V
113 71 V
.0052 g 1669 913 N 114 70 66 -21 -114 -69 h
stroke
LT0
0.75 0.75 0.75 C 1669 913 M
66 -20 V
1621 823 L
-66 21 V
114 69 V
.3973 g 1389 1558 N 114 56 66 -127 -114 -63 h
stroke
LT0
0.75 0.75 0.75 C 1389 1558 M
66 -134 V
-114 -56 V
-66 127 V
114 63 V
0 g 2618 896 N 114 70 66 -14 -114 -70 h
stroke
LT0
0.75 0.75 0.75 C 2618 896 M
66 -14 V
2570 812 L
-66 14 V
114 70 V
.1328 g 1472 1139 N 114 71 66 -105 -114 -69 h
stroke
LT0
0.75 0.75 0.75 C 1472 1139 M
66 -103 V
1424 965 L
-66 105 V
114 69 V
0 g 2176 893 N 114 71 66 -14 -114 -70 h
stroke
LT0
0.75 0.75 0.75 C 2176 893 M
66 -13 V
2128 809 L
-66 14 V
114 70 V
.0017 g 1735 893 N 113 70 66 -15 -114 -70 h
stroke
LT0
0.75 0.75 0.75 C 1735 893 M
65 -15 V
1687 808 L
-66 15 V
114 70 V
.7215 g 1306 2048 N 113 79 66 -142 -114 -80 h
stroke
LT0
0.75 0.75 0.75 C 1306 2048 M
65 -143 V
-113 -79 V
-66 142 V
114 80 V
0 g 2684 882 N 113 71 66 -14 -114 -70 h
stroke
LT0
0.75 0.75 0.75 C 2684 882 M
65 -13 V
2636 798 L
-66 14 V
114 70 V
0 g 2242 880 N 113 70 66 -13 -114 -71 h
stroke
LT0
0.75 0.75 0.75 C 2242 880 M
65 -14 V
2194 796 L
-66 13 V
114 71 V
.0006 g 1800 878 N 113 71 65 -15 -113 -70 h
stroke
LT0
0.75 0.75 0.75 C 1800 878 M
65 -14 V
1752 793 L
-65 15 V
113 70 V
.2155 g 1406 1248 N 114 69 65 -110 -113 -68 h
stroke
LT0
0.75 0.75 0.75 C 1406 1248 M
66 -109 V
-114 -69 V
-65 110 V
113 68 V
.502 g 1323 1691 N 114 63 66 -130 -114 -66 h
stroke
LT0
0.75 0.75 0.75 C 1323 1691 M
66 -133 V
-114 -63 V
-66 130 V
114 66 V
0 g 2749 869 N 114 70 65 -13 -113 -71 h
stroke
LT0
0.75 0.75 0.75 C 2749 869 M
66 -14 V
2701 785 L
-65 13 V
113 71 V
0 g 2307 866 N 114 71 65 -14 -113 -70 h
stroke
LT0
0.75 0.75 0.75 C 2307 866 M
66 -13 V
2259 782 L
-65 14 V
113 70 V
.0001 g 1865 864 N 114 70 65 -13 -113 -71 h
stroke
LT0
0.75 0.75 0.75 C 1865 864 M
66 -14 V
1817 780 L
-65 13 V
113 71 V
.8365 g 1240 2194 N 114 80 66 -142 -114 -84 h
stroke
LT0
0.75 0.75 0.75 C 1240 2194 M
66 -146 V
-114 -80 V
-66 142 V
114 84 V
.3052 g 1341 1368 N 113 68 66 -119 -114 -69 h
stroke
LT0
0.75 0.75 0.75 C 1341 1368 M
65 -120 V
-113 -68 V
-66 119 V
114 69 V
0 g 2373 853 N 114 70 66 -13 -114 -71 h
stroke
LT0
0.75 0.75 0.75 C 2373 853 M
66 -14 V
2325 769 L
-66 13 V
114 71 V
0 g 1931 850 N 114 70 66 -14 -114 -70 h
stroke
LT0
0.75 0.75 0.75 C 1931 850 M
66 -14 V
1883 766 L
-66 14 V
114 70 V
.6084 g 1258 1826 N 114 66 65 -135 -114 -66 h
stroke
LT0
0.75 0.75 0.75 C 1258 1826 M
65 -135 V
-114 -66 V
-65 135 V
114 66 V
.0231 g 1490 889 N 113 70 66 -45 -114 -70 h
stroke
LT0
0.75 0.75 0.75 C 1490 889 M
65 -45 V
1442 774 L
-66 45 V
114 70 V
0 g 2439 839 N 113 71 66 -14 -114 -70 h
stroke
LT0
0.75 0.75 0.75 C 2439 839 M
65 -13 V
2391 755 L
-66 14 V
114 70 V
.0661 g 1424 965 N 114 70 66 -82 -114 -64 h
stroke
LT0
0.75 0.75 0.75 C 1424 965 M
66 -76 V
1376 819 L
-66 82 V
114 64 V
0 g 1997 836 N 114 70 65 -13 -114 -70 h
stroke
LT0
0.75 0.75 0.75 C 1997 836 M
65 -13 V
1948 753 L
-65 13 V
114 70 V
.0057 g 1555 844 N 114 71 65 -22 -113 -70 h
stroke
LT0
0.75 0.75 0.75 C 1555 844 M
66 -21 V
1507 752 L
-65 22 V
113 70 V
.4015 g 1275 1495 N 114 69 66 -122 -114 -74 h
stroke
LT0
0.75 0.75 0.75 C 1275 1495 M
66 -127 V
-114 -69 V
-66 122 V
114 74 V
0 g 2504 826 N 114 70 65 -13 -113 -71 h
stroke
LT0
0.75 0.75 0.75 C 2504 826 M
66 -14 V
2456 742 L
-65 13 V
113 71 V
.1338 g 1358 1070 N 114 64 65 -96 -113 -73 h
stroke
LT0
0.75 0.75 0.75 C 1358 1070 M
66 -105 V
1310 901 L
-65 96 V
113 73 V
0 g 2062 823 N 114 70 66 -14 -114 -70 h
stroke
LT0
0.75 0.75 0.75 C 2062 823 M
66 -14 V
2014 739 L
-66 14 V
114 70 V
.0015 g 1621 823 N 114 71 66 -15 -114 -71 h
stroke
LT0
0.75 0.75 0.75 C 1621 823 M
66 -15 V
1573 737 L
-66 15 V
114 71 V
.7185 g 1192 1968 N 114 66 66 -138 -114 -70 h
stroke
LT0
0.75 0.75 0.75 C 1192 1968 M
66 -142 V
-114 -66 V
-66 138 V
114 70 V
0 g 2570 812 N 114 70 66 -14 -114 -70 h
stroke
LT0
0.75 0.75 0.75 C 2570 812 M
66 -14 V
2522 728 L
-66 14 V
114 70 V
0 g 2128 809 N 114 71 66 -14 -114 -70 h
stroke
LT0
0.75 0.75 0.75 C 2128 809 M
66 -13 V
2080 725 L
-66 14 V
114 70 V
.0005 g 1687 808 N 113 70 66 -14 -114 -71 h
stroke
LT0
0.75 0.75 0.75 C 1687 808 M
65 -15 V
1639 723 L
-66 14 V
114 71 V
.502 g 1209 1625 N 114 74 65 -126 -113 -78 h
stroke
LT0
0.75 0.75 0.75 C 1209 1625 M
66 -130 V
-114 -74 V
-65 126 V
113 78 V
.2151 g 1293 1180 N 113 73 66 -110 -114 -73 h
stroke
LT0
0.75 0.75 0.75 C 1293 1180 M
65 -110 V
1245 997 L
-66 110 V
114 73 V
0 g 2636 798 N 113 70 66 -13 -114 -70 h
stroke
LT0
0.75 0.75 0.75 C 2636 798 M
65 -13 V
2588 715 L
-66 13 V
114 70 V
0 g 2194 796 N 114 70 65 -13 -114 -71 h
stroke
LT0
0.75 0.75 0.75 C 2194 796 M
65 -14 V
2145 712 L
-65 13 V
114 71 V
.0001 g 1752 793 N 113 71 65 -14 -113 -70 h
stroke
LT0
0.75 0.75 0.75 C 1752 793 M
65 -13 V
1704 709 L
-65 14 V
113 70 V
.8317 g 1126 2110 N 114 70 66 -143 -114 -69 h
stroke
LT0
0.75 0.75 0.75 C 1126 2110 M
66 -142 V
-114 -70 V
-66 143 V
114 69 V
.3037 g 1227 1299 N 114 73 66 -114 -114 -78 h
stroke
LT0
0.75 0.75 0.75 C 1227 1299 M
66 -119 V
-114 -73 V
-66 114 V
114 78 V
0 g 2259 782 N 114 71 66 -14 -114 -70 h
stroke
LT0
0.75 0.75 0.75 C 2259 782 M
66 -13 V
2211 698 L
-66 14 V
114 70 V
.0001 g 1817 780 N 113 70 66 -13 -113 -71 h
stroke
LT0
0.75 0.75 0.75 C 1817 780 M
66 -14 V
1770 696 L
-66 13 V
113 71 V
.6078 g 1144 1760 N 113 78 66 -138 -114 -75 h
stroke
LT0
0.75 0.75 0.75 C 1144 1760 M
65 -135 V
-113 -78 V
-66 138 V
114 75 V
.0211 g 1376 819 N 114 72 66 -37 -114 -80 h
stroke
LT0
0.75 0.75 0.75 C 1376 819 M
66 -45 V
1328 702 L
-66 37 V
114 80 V
.0613 g 1310 901 N 114 80 65 -72 -113 -90 h
stroke
LT0
0.75 0.75 0.75 C 1310 901 M
66 -82 V
1262 739 L
-65 72 V
113 90 V
0 g 2325 769 N 114 70 66 -13 -114 -71 h
stroke
LT0
0.75 0.75 0.75 C 2325 769 M
66 -14 V
2277 685 L
-66 13 V
114 71 V
.0001 g 1883 766 N 113 71 65 -14 -113 -70 h
stroke
LT0
0.75 0.75 0.75 C 1883 766 M
65 -13 V
1835 682 L
-65 14 V
113 70 V
.3972 g 1161 1421 N 114 78 65 -121 -113 -79 h
stroke
LT0
0.75 0.75 0.75 C 1161 1421 M
66 -122 V
-114 -78 V
-65 121 V
113 79 V
.0053 g 1442 774 N 113 71 66 -21 -114 -72 h
stroke
LT0
0.75 0.75 0.75 C 1442 774 M
65 -22 V
1394 681 L
-66 21 V
114 72 V
.1263 g 1245 997 N 113 90 66 -98 -114 -88 h
stroke
LT0
0.75 0.75 0.75 C 1245 997 M
65 -96 V
1197 811 L
-66 98 V
114 88 V
0 g 2391 755 N 114 71 65 -14 -114 -70 h
stroke
LT0
0.75 0.75 0.75 C 2391 755 M
65 -13 V
2342 671 L
-65 14 V
114 70 V
0 g 1948 753 N 114 70 65 -13 -113 -71 h
stroke
LT0
0.75 0.75 0.75 C 1948 753 M
66 -14 V
1900 669 L
-65 13 V
113 71 V
.7176 g 1078 1898 N 114 75 66 -138 -114 -75 h
stroke
LT0
0.75 0.75 0.75 C 1078 1898 M
66 -138 V
-114 -75 V
-66 138 V
114 75 V
.0012 g 1507 752 N 114 70 65 -14 -113 -71 h
stroke
LT0
0.75 0.75 0.75 C 1507 752 M
66 -15 V
1459 667 L
-65 14 V
113 71 V
0 g 2456 742 N 114 70 66 -13 -114 -71 h
stroke
LT0
0.75 0.75 0.75 C 2456 742 M
66 -14 V
2408 658 L
-66 13 V
114 71 V
.2062 g 1179 1107 N 114 88 66 -110 -114 -88 h
stroke
LT0
0.75 0.75 0.75 C 1179 1107 M
66 -110 V
1131 909 L
-66 110 V
114 88 V
0 g 2014 739 N 114 70 66 -14 -114 -70 h
stroke
LT0
0.75 0.75 0.75 C 2014 739 M
66 -14 V
1966 655 L
-66 14 V
114 70 V
.4954 g 1096 1547 N 113 79 66 -126 -114 -79 h
stroke
LT0
0.75 0.75 0.75 C 1096 1547 M
65 -126 V
-113 -79 V
-66 126 V
114 79 V
.0004 g 1573 737 N 114 70 66 -14 -114 -70 h
stroke
LT0
0.75 0.75 0.75 C 1573 737 M
66 -14 V
1525 653 L
-66 14 V
114 70 V
0 g 2522 728 N 114 71 66 -14 -114 -70 h
stroke
LT0
0.75 0.75 0.75 C 2522 728 M
66 -13 V
2474 644 L
-66 14 V
114 70 V
0 g 2080 725 N 113 71 66 -14 -114 -70 h
stroke
LT0
0.75 0.75 0.75 C 2080 725 M
65 -13 V
2032 641 L
-66 14 V
114 70 V
.0001 g 1639 723 N 113 70 66 -14 -114 -70 h
stroke
LT0
0.75 0.75 0.75 C 1639 723 M
65 -14 V
1591 639 L
-66 14 V
114 70 V
.8303 g 1012 2041 N 114 75 65 -144 -113 -74 h
stroke
LT0
0.75 0.75 0.75 C 1012 2041 M
66 -143 V
964 1823 L
-65 144 V
113 74 V
.2942 g 1113 1221 N 114 88 65 -117 -113 -85 h
stroke
LT0
0.75 0.75 0.75 C 1113 1221 M
66 -114 V
-114 -88 V
-65 117 V
113 85 V
.0433 g 1197 811 N 114 87 65 -53 -114 -106 h
stroke
LT0
0.75 0.75 0.75 C 1197 811 M
65 -72 V
1148 652 L
-65 53 V
114 106 V
0 g 2145 712 N 114 70 65 -13 -113 -71 h
stroke
LT0
0.75 0.75 0.75 C 2145 712 M
66 -14 V
2097 628 L
-65 13 V
113 71 V
.6008 g 1030 1685 N 114 79 66 -136 -114 -81 h
stroke
LT0
0.75 0.75 0.75 C 1030 1685 M
66 -138 V
982 1468 L
-66 136 V
114 81 V
.0001 g 1704 709 N 114 71 65 -14 -113 -70 h
stroke
LT0
0.75 0.75 0.75 C 1704 709 M
66 -13 V
1656 625 L
-65 14 V
113 70 V
.0136 g 1262 739 N 114 76 66 -26 -114 -87 h
stroke
LT0
0.75 0.75 0.75 C 1262 739 M
66 -37 V
1214 626 L
-66 26 V
114 87 V
.0995 g 1131 909 N 114 106 66 -85 -114 -119 h
stroke
LT0
0.75 0.75 0.75 C 1131 909 M
66 -98 V
1083 705 L
-66 85 V
114 119 V
0 g 2211 698 N 114 71 66 -14 -114 -70 h
stroke
LT0
0.75 0.75 0.75 C 2211 698 M
66 -13 V
2163 614 L
-66 14 V
114 70 V
.3871 g 1048 1342 N 113 85 66 -121 -114 -85 h
stroke
LT0
0.75 0.75 0.75 C 1048 1342 M
65 -121 V
-113 -85 V
-66 121 V
114 85 V
.0001 g 1770 696 N 113 70 66 -13 -114 -71 h
stroke
LT0
0.75 0.75 0.75 C 1770 696 M
65 -14 V
1722 612 L
-66 13 V
114 71 V
.0034 g 1328 702 N 114 71 66 -16 -114 -76 h
stroke
LT0
0.75 0.75 0.75 C 1328 702 M
66 -21 V
1280 610 L
-66 16 V
114 76 V
.175 g 1065 1019 N 114 119 66 -101 -114 -128 h
stroke
LT0
0.75 0.75 0.75 C 1065 1019 M
66 -110 V
1017 790 L
951 891 L
114 128 V
0 g 2277 685 N 113 70 66 -13 -114 -71 h
stroke
LT0
0.75 0.75 0.75 C 2277 685 M
65 -14 V
2229 601 L
-66 13 V
114 71 V
0 g 1835 682 N 112 71 66 -14 -113 -70 h
stroke
LT0
0.75 0.75 0.75 C 1835 682 M
65 -13 V
1788 598 L
-66 14 V
113 70 V
.7123 g 964 1823 N 114 81 65 -145 -113 -74 h
stroke
LT0
0.75 0.75 0.75 C 964 1823 M
66 -138 V
916 1604 L
-65 145 V
113 74 V
.0009 g 1394 681 N 113 71 66 -14 -114 -71 h
stroke
LT0
0.75 0.75 0.75 C 1394 681 M
65 -14 V
1346 596 L
-66 14 V
114 71 V
.486 g 982 1468 N 114 85 66 -130 -114 -81 h
stroke
LT0
0.75 0.75 0.75 C 982 1468 M
66 -126 V
934 1257 L
-66 130 V
114 81 V
0 g 2342 671 N 114 71 65 -14 -113 -70 h
stroke
LT0
0.75 0.75 0.75 C 2342 671 M
66 -13 V
2294 587 L
-65 14 V
113 70 V
.2611 g 1000 1136 N 114 128 65 -115 -114 -130 h
stroke
LT0
0.75 0.75 0.75 C 1000 1136 M
65 -117 V
951 891 L
-65 115 V
114 130 V
0 g 1900 669 N 114 70 64 -13 -112 -71 h
stroke
LT0
0.75 0.75 0.75 C 1900 669 M
66 -14 V
1852 585 L
-64 13 V
112 71 V
.0003 g 1459 667 N 114 71 65 -14 -113 -71 h
stroke
LT0
0.75 0.75 0.75 C 1459 667 M
66 -14 V
1411 582 L
-65 14 V
113 71 V
0 g 2408 658 N 114 70 66 -13 -114 -71 h
stroke
LT0
0.75 0.75 0.75 C 2408 658 M
66 -14 V
2360 574 L
-66 13 V
114 71 V
0 g 1966 655 N 114 70 66 -14 -114 -70 h
stroke
LT0
0.75 0.75 0.75 C 1966 655 M
66 -14 V
1918 571 L
-66 14 V
114 70 V
.0001 g 1525 653 N 114 71 66 -14 -114 -71 h
stroke
LT0
0.75 0.75 0.75 C 1525 653 M
66 -14 V
1477 568 L
-66 14 V
114 71 V
.8282 g 899 1967 N 113 74 66 -149 -114 -69 h
stroke
LT0
0.75 0.75 0.75 C 899 1967 M
65 -144 V
851 1749 L
-66 149 V
114 69 V
.5926 g 916 1604 N 114 81 65 -141 -113 -76 h
stroke
LT0
0.75 0.75 0.75 C 916 1604 M
66 -136 V
868 1387 L
-65 141 V
113 76 V
.3577 g 934 1257 N 114 130 66 -136 -114 -115 h
stroke
LT0
0.75 0.75 0.75 C 934 1257 M
66 -121 V
886 1006 L
-66 136 V
114 115 V
0 g 2032 641 N 113 71 66 -14 -114 -70 h
stroke
LT0
0.75 0.75 0.75 C 2032 641 M
65 -13 V
1984 557 L
-66 14 V
114 70 V
.0001 g 1591 639 N 113 70 66 -13 -114 -71 h
stroke
LT0
0.75 0.75 0.75 C 1591 639 M
65 -14 V
1543 555 L
-66 13 V
114 71 V
0 g 2097 628 N 114 70 65 -13 -113 -71 h
stroke
LT0
0.75 0.75 0.75 C 2097 628 M
66 -14 V
2049 544 L
-65 13 V
113 71 V
0 g 1656 625 N 114 71 65 -14 -113 -70 h
stroke
LT0
0.75 0.75 0.75 C 1656 625 M
66 -13 V
1608 541 L
-65 14 V
113 70 V
0 g 2163 614 N 114 71 66 -14 -114 -70 h
stroke
LT0
0.75 0.75 0.75 C 2163 614 M
66 -13 V
2115 530 L
-66 14 V
114 70 V
.4632 g 868 1387 N 114 115 66 -142 -114 -103 h
stroke
LT0
0.75 0.75 0.75 C 868 1387 M
66 -130 V
820 1142 L
-66 142 V
114 103 V
0 g 1722 612 N 114 70 66 -13 -114 -71 h
stroke
LT0
0.75 0.75 0.75 C 1722 612 M
66 -14 V
1674 528 L
-66 13 V
114 71 V
.7072 g 851 1749 N 113 76 66 -148 -114 -73 h
stroke
LT0
0.75 0.75 0.75 C 851 1749 M
65 -145 V
803 1528 L
-66 148 V
114 73 V
0 g 2229 601 N 113 70 66 -13 -114 -71 h
stroke
LT0
0.75 0.75 0.75 C 2229 601 M
65 -14 V
2181 517 L
-66 13 V
114 71 V
0 g 1788 598 N 112 71 66 -14 -114 -70 h
stroke
LT0
0.75 0.75 0.75 C 1788 598 M
64 -13 V
1740 514 L
-66 14 V
114 70 V
0 g 2294 587 N 114 71 65 -14 -113 -70 h
stroke
LT0
0.75 0.75 0.75 C 2294 587 M
66 -13 V
2246 503 L
-65 14 V
113 70 V
0 g 1852 585 N 114 70 64 -13 -112 -71 h
stroke
LT0
0.75 0.75 0.75 C 1852 585 M
66 -14 V
1804 501 L
-64 13 V
112 71 V
.5762 g 803 1528 N 114 103 65 -150 -114 -94 h
stroke
LT0
0.75 0.75 0.75 C 803 1528 M
65 -141 V
754 1284 L
-65 150 V
114 94 V
.8266 g 785 1898 N 114 73 66 -150 -114 -72 h
stroke
LT0
0.75 0.75 0.75 C 785 1898 M
66 -149 V
737 1676 L
-66 150 V
114 72 V
0 g 1918 571 N 114 70 66 -14 -114 -70 h
stroke
LT0
0.75 0.75 0.75 C 1918 571 M
66 -14 V
1870 487 L
-66 14 V
114 70 V
0 g 1984 557 N 113 70 66 -13 -114 -70 h
stroke
LT0
0.75 0.75 0.75 C 1984 557 M
65 -13 V
1936 474 L
-66 13 V
114 70 V
.6961 g 737 1676 N 114 94 66 -153 -114 -89 h
stroke
LT0
0.75 0.75 0.75 C 737 1676 M
66 -148 V
689 1434 L
-66 153 V
114 89 V
0 g 2049 544 N 114 70 65 -14 -113 -70 h
stroke
LT0
0.75 0.75 0.75 C 2049 544 M
66 -14 V
2001 460 L
-65 14 V
113 70 V
0 g 2115 530 N 114 71 66 -14 -114 -70 h
stroke
LT0
0.75 0.75 0.75 C 2115 530 M
66 -13 V
2067 446 L
-66 14 V
114 70 V
0 g 2181 517 N 113 70 66 -13 -114 -71 h
stroke
LT0
0.75 0.75 0.75 C 2181 517 M
65 -14 V
2133 433 L
-66 13 V
114 71 V
.8185 g 671 1826 N 114 89 66 -154 -114 -85 h
stroke
LT0
0.75 0.75 0.75 C 671 1826 M
66 -150 V
623 1587 L
-66 154 V
114 85 V
stroke
LTb
LCb setrgbcolor
2133 433 M
910 563 V
stroke
LTb
LCb setrgbcolor
1411 582 M
557 758 L
stroke
LTb
LCb setrgbcolor
2133 433 M
1477 568 L
stroke
LTb
LCb setrgbcolor
557 758 M
905 973 L
stroke
LTb
LCb setrgbcolor
3043 996 M
-986 203 V
stroke
LTb
LCb setrgbcolor
557 1884 M
557 758 L
stroke
LTb
LCb setrgbcolor
1467 2447 M
0 -71 V
stroke
LTb
LCb setrgbcolor
3043 2122 M
0 -1126 V
stroke
LTb
LCb setrgbcolor
557 1884 M
910 563 V
stroke
LTb
LCb setrgbcolor
3043 2122 M
1467 2447 L
stroke
LTa
LCa setrgbcolor
820 704 M
181 112 V
stroke
LTb
LCb setrgbcolor
820 704 M
44 27 V
stroke
LTb
LCb setrgbcolor
770 641 M
[ [(Times-Roman) 120.0 0.0 true true 0 ( 50)]
] -40.0 MCshow
1.000 UL
LTb
LCb setrgbcolor
1.000 UL
LTa
LCa setrgbcolor
1148 636 M
16 10 V
stroke
LTb
LCb setrgbcolor
1148 636 M
16 10 V
stroke
LTb
LCb setrgbcolor
1098 573 M
[ [(Times-Roman) 120.0 0.0 true true 0 ( 100)]
] -40.0 MCshow
1.000 UL
LTb
LCb setrgbcolor
1.000 UL
LTa
LCa setrgbcolor
1817 780 M
569 352 V
stroke
LTb
LCb setrgbcolor
1426 505 M
[ [(Times-Roman) 120.0 0.0 true true 0 ( 150)]
] -40.0 MCshow
1.000 UL
LTb
LCb setrgbcolor
1.000 UL
LTb
LCb setrgbcolor
2342 1104 M
44 28 V
stroke
LTa
LCa setrgbcolor
1804 501 M
910 563 V
stroke
LTb
LCb setrgbcolor
1804 501 M
44 27 V
stroke
LTb
LCb setrgbcolor
1755 438 M
[ [(Times-Roman) 120.0 0.0 true true 0 ( 200)]
] -40.0 MCshow
1.000 UL
LTb
LCb setrgbcolor
1.000 UL
LTb
LCb setrgbcolor
2670 1037 M
44 27 V
stroke
LCb setrgbcolor
1118 455 M
[ [(Times-Roman) 120.0 0.0 true true 0 (Iterations)]
] -40.0 MCshow
LTb
1.000 UL
LTa
LCa setrgbcolor
1411 582 M
557 758 L
stroke
LTa
LCa setrgbcolor
2133 433 M
1477 568 L
stroke
LTb
LCb setrgbcolor
2133 433 M
-55 11 V
stroke
2195 400 M
[ [(Times-Roman) 120.0 0.0 true true 0 ( 0.1)]
] -40.0 MCshow
1.000 UL
LTb
LCb setrgbcolor
1.000 UL
LTb
LCb setrgbcolor
612 747 M
-55 11 V
stroke
LTa
LCa setrgbcolor
971 860 M
785 899 L
stroke
LTa
LCa setrgbcolor
2360 574 M
-460 95 V
stroke
LTb
LCb setrgbcolor
2360 574 M
-54 11 V
stroke
2422 541 M
[ [(Times-Roman) 120.0 0.0 true true 0 ( 0.3)]
] -40.0 MCshow
1.000 UL
LTb
LCb setrgbcolor
1.000 UL
LTb
LCb setrgbcolor
839 888 M
-54 11 V
stroke
LTa
LCa setrgbcolor
2588 715 M
1931 850 L
stroke
LTb
LCb setrgbcolor
2588 715 M
-55 11 V
stroke
2650 682 M
[ [(Times-Roman) 120.0 0.0 true true 0 ( 0.5)]
] -40.0 MCshow
1.000 UL
LTb
LCb setrgbcolor
1.000 UL
LTa
LCa setrgbcolor
2815 855 M
-788 163 V
stroke
LTb
LCb setrgbcolor
2815 855 M
-54 12 V
stroke
2877 823 M
[ [(Times-Roman) 120.0 0.0 true true 0 ( 0.7)]
] -40.0 MCshow
1.000 UL
LTb
LCb setrgbcolor
1.000 UL
LTa
LCa setrgbcolor
3043 996 M
-986 203 V
stroke
LTb
LCb setrgbcolor
3043 996 M
-55 11 V
stroke
3105 964 M
[ [(Times-Roman) 120.0 0.0 true true 0 ( 0.9)]
] -40.0 MCshow
1.000 UL
LTb
LCb setrgbcolor
LCb setrgbcolor
2982 633 M
[ [(Times-Roman) 120.0 0.0 true true 0 (p1)]
] -40.0 MCshow
LTb
1.000 UL
LTa
LCa setrgbcolor
557 758 M
905 973 L
stroke
LTa
LCa setrgbcolor
3043 996 M
-986 203 V
stroke
LTb
LCb setrgbcolor
620 758 M
-63 0 V
stroke
431 758 M
[ [(Times-Roman) 120.0 0.0 true true 0 ( 0)]
] -40.0 MRshow
1.000 UL
LTb
LCb setrgbcolor
1.000 UL
LTa
LCa setrgbcolor
557 883 M
299 185 V
stroke
LTa
LCa setrgbcolor
3043 1121 M
1900 1357 L
stroke
LTb
LCb setrgbcolor
620 883 M
-63 0 V
stroke
431 883 M
[ [(Times-Roman) 120.0 0.0 true true 0 ( 10)]
] -40.0 MRshow
1.000 UL
LTb
LCb setrgbcolor
1.000 UL
LTa
LCa setrgbcolor
557 1008 M
253 157 V
stroke
LTa
LCa setrgbcolor
3043 1247 M
1847 1492 L
stroke
LTb
LCb setrgbcolor
620 1008 M
-63 0 V
stroke
431 1008 M
[ [(Times-Roman) 120.0 0.0 true true 0 ( 20)]
] -40.0 MRshow
1.000 UL
LTb
LCb setrgbcolor
1.000 UL
LTa
LCa setrgbcolor
557 1134 M
208 128 V
stroke
LTa
LCa setrgbcolor
3043 1372 M
1793 1629 L
stroke
LTb
LCb setrgbcolor
620 1134 M
-63 0 V
stroke
431 1134 M
[ [(Times-Roman) 120.0 0.0 true true 0 ( 30)]
] -40.0 MRshow
1.000 UL
LTb
LCb setrgbcolor
1.000 UL
LTa
LCa setrgbcolor
557 1259 M
164 101 V
stroke
LTa
LCa setrgbcolor
3043 1496 M
1736 1766 L
stroke
LTb
LCb setrgbcolor
620 1259 M
-63 0 V
stroke
431 1259 M
[ [(Times-Roman) 120.0 0.0 true true 0 ( 40)]
] -40.0 MRshow
1.000 UL
LTb
LCb setrgbcolor
1.000 UL
LTa
LCa setrgbcolor
557 1384 M
121 74 V
stroke
LTa
LCa setrgbcolor
3043 1621 M
1677 1903 L
stroke
LTb
LCb setrgbcolor
620 1384 M
-63 0 V
stroke
431 1384 M
[ [(Times-Roman) 120.0 0.0 true true 0 ( 50)]
] -40.0 MRshow
1.000 UL
LTb
LCb setrgbcolor
1.000 UL
LTa
LCa setrgbcolor
557 1508 M
79 49 V
stroke
LTa
LCa setrgbcolor
3043 1746 M
1617 2041 L
stroke
LTb
LCb setrgbcolor
620 1508 M
-63 0 V
stroke
431 1508 M
[ [(Times-Roman) 120.0 0.0 true true 0 ( 60)]
] -40.0 MRshow
1.000 UL
LTb
LCb setrgbcolor
1.000 UL
LTa
LCa setrgbcolor
557 1633 M
37 23 V
stroke
LTa
LCa setrgbcolor
3043 1872 M
1556 2179 L
stroke
LTb
LCb setrgbcolor
603 1633 M
-46 0 V
stroke
431 1633 M
[ [(Times-Roman) 120.0 0.0 true true 0 ( 70)]
] -40.0 MRshow
1.000 UL
LTb
LCb setrgbcolor
1.000 UL
LTa
LCa setrgbcolor
1055 2067 M
76 47 V
stroke
LTa
LCa setrgbcolor
557 1759 M
441 272 V
stroke
LTa
LCa setrgbcolor
3043 1997 M
1494 2316 L
stroke
LTb
LCb setrgbcolor
620 1759 M
-63 0 V
stroke
431 1759 M
[ [(Times-Roman) 120.0 0.0 true true 0 ( 80)]
] -40.0 MRshow
1.000 UL
LTb
LCb setrgbcolor
1.000 UL
LTa
LCa setrgbcolor
557 1884 M
910 563 V
stroke
LTa
LCa setrgbcolor
3043 2122 M
1467 2447 L
stroke
LTb
LCb setrgbcolor
620 1884 M
-63 0 V
stroke
431 1884 M
[ [(Times-Roman) 120.0 0.0 true true 0 ( 90)]
] -40.0 MRshow
1.000 UL
LTb
LCb setrgbcolor
LCb setrgbcolor
53 1321 M
currentpoint gsave translate 90 rotate 0 0 moveto
[ [(Times-Roman) 120.0 0.0 true true 0 (Average number of blocking pairs)]
] -40.0 MCshow
grestore
LTb
1.000 UP
grestore % colour palette end
gsave % colour palette begin
/maxcolors 0 def
/HSV2RGB {  exch dup 0.0 eq {pop exch pop dup dup} % achromatic gray
  { /HSVs exch def /HSVv exch def 6.0 mul dup floor dup 3 1 roll sub
     /HSVf exch def /HSVi exch cvi def /HSVp HSVv 1.0 HSVs sub mul def
	 /HSVq HSVv 1.0 HSVs HSVf mul sub mul def 
	 /HSVt HSVv 1.0 HSVs 1.0 HSVf sub mul sub mul def
	 /HSVi HSVi 6 mod def 0 HSVi eq {HSVv HSVt HSVp}
	 {1 HSVi eq {HSVq HSVv HSVp}{2 HSVi eq {HSVp HSVv HSVt}
	 {3 HSVi eq {HSVp HSVq HSVv}{4 HSVi eq {HSVt HSVp HSVv}
	 {HSVv HSVp HSVq} ifelse} ifelse} ifelse} ifelse} ifelse
  } ifelse} def
/Constrain {
  dup 0 lt {0 exch pop}{dup 1 gt {1 exch pop} if} ifelse} def
/YIQ2RGB {
  3 copy -1.702 mul exch -1.105 mul add add Constrain 4 1 roll
  3 copy -0.647 mul exch -0.272 mul add add Constrain 5 1 roll
  0.621 mul exch -0.956 mul add add Constrain 3 1 roll } def
/CMY2RGB {  1 exch sub exch 1 exch sub 3 2 roll 1 exch sub 3 1 roll exch } def
/XYZ2RGB {  3 copy -0.9017 mul exch -0.1187 mul add exch 0.0585 mul exch add
  Constrain 4 1 roll 3 copy -0.0279 mul exch 1.999 mul add exch
  -0.9844 mul add Constrain 5 1 roll -0.2891 mul exch -0.5338 mul add
  exch 1.91 mul exch add Constrain 3 1 roll} def
/SelectSpace {ColorSpace (HSV) eq {HSV2RGB}{ColorSpace (XYZ) eq {
  XYZ2RGB}{ColorSpace (CMY) eq {CMY2RGB}{ColorSpace (YIQ) eq {YIQ2RGB}
  if} ifelse} ifelse} ifelse} def
/InterpolatedColor false def
/pm3dround {maxcolors 0 gt {dup 1 ge
	{pop 1} {maxcolors mul floor maxcolors 1 sub div} ifelse} if} def
/pm3dGamma 1.0 1.5 Gamma mul div def
/ColorSpace (RGB) def
false { % COLOUR vs. GRAY map
  InterpolatedColor { %% Interpolation vs. RGB-Formula
    /g {stroke pm3dround /grayv exch def interpolate
        SelectSpace setrgbcolor} bind def
  }{
  /g {stroke pm3dround dup cF7 Constrain exch dup cF5 Constrain exch cF15 Constrain 
       SelectSpace setrgbcolor} bind def
  } ifelse
}{
  /g {stroke pm3dround pm3dGamma exp setgray} bind def
} ifelse
1.000 UL
LTb
LCb setrgbcolor
1.000 UP
LTb
5392 121 M
[ [(Times-Roman) 120.0 0.0 true true 0 (b\))]
] -40.0 MLshow
% Begin plot #1
% End plot #1
% Begin plot #2
1.000 UL
LT0
0.75 0.75 0.75 C 1.000 UL
LT0
0.75 0.75 0.75 C % End plot #2
.0723 g 5526 1352 N 114 116 66 -79 -114 -101 h
1.000 UL
LT0
0.75 0.75 0.75 C 5526 1352 M
66 -64 V
5478 1172 L
-66 79 V
114 101 V
.0425 g 5592 1288 N 113 119 66 -24 -114 -116 h
stroke
LT0
0.75 0.75 0.75 C 5592 1288 M
65 -21 V
5544 1148 L
-66 24 V
114 116 V
.0365 g 5657 1267 N 114 118 65 -17 -113 -119 h
stroke
LT0
0.75 0.75 0.75 C 5657 1267 M
66 -18 V
5609 1131 L
-65 17 V
113 119 V
.1464 g 5460 1483 N 114 101 64 -114 -112 -118 h
stroke
LT0
0.75 0.75 0.75 C 5460 1483 M
66 -131 V
5412 1251 L
-64 114 V
112 118 V
.0331 g 5723 1249 N 114 116 66 -16 -114 -118 h
stroke
LT0
0.75 0.75 0.75 C 5723 1249 M
66 -18 V
5675 1115 L
-66 16 V
114 118 V
.0307 g 5789 1231 N 113 115 66 -15 -114 -116 h
stroke
LT0
0.75 0.75 0.75 C 5789 1231 M
65 -16 V
5741 1100 L
-66 15 V
114 116 V
.2477 g 5396 1621 N 112 118 66 -126 -114 -130 h
stroke
LT0
0.75 0.75 0.75 C 5396 1621 M
64 -138 V
5348 1365 L
-66 126 V
114 130 V
.0289 g 5854 1215 N 114 114 65 -15 -113 -115 h
stroke
LT0
0.75 0.75 0.75 C 5854 1215 M
66 -16 V
5806 1085 L
-65 15 V
113 115 V
.0276 g 5920 1199 N 114 114 66 -15 -114 -114 h
stroke
LT0
0.75 0.75 0.75 C 5920 1199 M
66 -15 V
5872 1070 L
-66 15 V
114 114 V
.055 g 5412 1251 N 113 68 65 -73 -112 -74 h
stroke
LT0
0.75 0.75 0.75 C 5412 1251 M
66 -79 V
-113 -68 V
-65 73 V
112 74 V
.3546 g 5330 1762 N 114 130 66 -130 -114 -141 h
stroke
LT0
0.75 0.75 0.75 C 5330 1762 M
66 -141 V
5282 1491 L
-66 130 V
114 141 V
.0208 g 5478 1172 N 114 77 65 -33 -113 -68 h
stroke
LT0
0.75 0.75 0.75 C 5478 1172 M
66 -24 V
-114 -77 V
-65 33 V
113 68 V
.0262 g 5986 1184 N 114 111 66 -14 -114 -114 h
stroke
LT0
0.75 0.75 0.75 C 5986 1184 M
66 -17 V
5938 1056 L
-66 14 V
114 114 V
.012 g 5544 1148 N 113 79 66 -19 -114 -77 h
stroke
LT0
0.75 0.75 0.75 C 5544 1148 M
65 -17 V
-113 -79 V
-66 19 V
114 77 V
.1242 g 5348 1365 N 112 74 66 -101 -114 -87 h
stroke
LT0
0.75 0.75 0.75 C 5348 1365 M
64 -114 V
-112 -74 V
-66 101 V
114 87 V
.0247 g 6052 1167 N 114 110 65 -15 -114 -111 h
stroke
LT0
0.75 0.75 0.75 C 6052 1167 M
65 -16 V
6003 1041 L
-65 15 V
114 111 V
.0089 g 5609 1131 N 114 78 65 -15 -113 -79 h
stroke
LT0
0.75 0.75 0.75 C 5609 1131 M
66 -16 V
-114 -78 V
-65 15 V
113 79 V
.4627 g 5264 1901 N 114 141 65 -132 -113 -148 h
stroke
LT0
0.75 0.75 0.75 C 5264 1901 M
66 -139 V
5216 1621 L
-65 132 V
113 148 V
.2114 g 5282 1491 N 114 87 66 -105 -114 -108 h
stroke
LT0
0.75 0.75 0.75 C 5282 1491 M
66 -126 V
-114 -87 V
-66 105 V
114 108 V
.0234 g 6117 1151 N 114 109 66 -14 -114 -110 h
stroke
LT0
0.75 0.75 0.75 C 6117 1151 M
66 -15 V
6069 1027 L
-66 14 V
114 110 V
.0074 g 5675 1115 N 114 79 66 -16 -114 -78 h
stroke
LT0
0.75 0.75 0.75 C 5675 1115 M
66 -15 V
-114 -79 V
-66 16 V
114 78 V
.0224 g 6183 1136 N 114 107 66 -14 -114 -109 h
stroke
LT0
0.75 0.75 0.75 C 6183 1136 M
66 -16 V
6135 1013 L
-66 14 V
114 109 V
.006 g 5741 1100 N 113 78 66 -14 -114 -79 h
stroke
LT0
0.75 0.75 0.75 C 5741 1100 M
65 -15 V
-113 -78 V
-66 14 V
114 79 V
.5729 g 5199 2045 N 113 148 66 -136 -114 -156 h
stroke
LT0
0.75 0.75 0.75 C 5199 2045 M
65 -144 V
5151 1753 L
-66 136 V
114 156 V
.3058 g 5216 1621 N 114 108 65 -116 -113 -122 h
stroke
LT0
0.75 0.75 0.75 C 5216 1621 M
66 -130 V
5168 1383 L
-65 116 V
113 122 V
.0212 g 6249 1120 N 114 106 65 -14 -114 -107 h
stroke
LT0
0.75 0.75 0.75 C 6249 1120 M
65 -15 V
6200 999 L
-65 14 V
114 107 V
.0051 g 5806 1085 N 114 77 65 -14 -113 -78 h
stroke
LT0
0.75 0.75 0.75 C 5806 1085 M
66 -15 V
5758 993 L
-65 14 V
113 78 V
.0206 g 5365 1104 N 113 72 65 -40 -113 -65 h
stroke
LT0
0.75 0.75 0.75 C 5365 1104 M
65 -33 V
5317 999 L
-65 40 V
113 65 V
.056 g 5300 1177 N 113 65 66 -68 -114 -70 h
stroke
LT0
0.75 0.75 0.75 C 5300 1177 M
65 -73 V
-113 -65 V
-66 68 V
114 70 V
.404 g 5151 1753 N 113 122 66 -119 -114 -135 h
stroke
LT0
0.75 0.75 0.75 C 5151 1753 M
65 -132 V
5103 1499 L
-66 119 V
114 135 V
.0201 g 6314 1105 N 114 104 66 -14 -114 -106 h
stroke
LT0
0.75 0.75 0.75 C 6314 1105 M
66 -16 V
6266 985 L
-66 14 V
114 106 V
.0046 g 5872 1070 N 114 77 66 -14 -114 -77 h
stroke
LT0
0.75 0.75 0.75 C 5872 1070 M
66 -14 V
5824 979 L
-66 14 V
114 77 V
.6858 g 5133 2190 N 114 156 66 -137 -114 -164 h
stroke
LT0
0.75 0.75 0.75 C 5133 2190 M
66 -145 V
5085 1889 L
-66 137 V
114 164 V
.0077 g 5430 1071 N 113 73 66 -20 -113 -72 h
stroke
LT0
0.75 0.75 0.75 C 5430 1071 M
66 -19 V
5383 979 L
-66 20 V
113 72 V
.1177 g 5234 1278 N 114 70 66 -91 -114 -80 h
stroke
LT0
0.75 0.75 0.75 C 5234 1278 M
66 -101 V
-114 -70 V
-66 91 V
114 80 V
.0191 g 6380 1089 N 114 103 66 -14 -114 -104 h
stroke
LT0
0.75 0.75 0.75 C 6380 1089 M
66 -15 V
6332 971 L
-66 14 V
114 104 V
.004 g 5938 1056 N 113 76 66 -14 -114 -77 h
stroke
LT0
0.75 0.75 0.75 C 5938 1056 M
65 -15 V
5890 965 L
-66 14 V
114 77 V
.0042 g 5496 1052 N 113 74 65 -16 -113 -73 h
stroke
LT0
0.75 0.75 0.75 C 5496 1052 M
65 -15 V
5448 963 L
-65 16 V
113 73 V
.1918 g 5168 1383 N 114 80 65 -92 -113 -93 h
stroke
LT0
0.75 0.75 0.75 C 5168 1383 M
66 -105 V
-114 -80 V
-65 92 V
113 93 V
.5066 g 5085 1889 N 114 135 66 -130 -114 -141 h
stroke
LT0
0.75 0.75 0.75 C 5085 1889 M
66 -136 V
5037 1618 L
-66 130 V
114 141 V
.0184 g 6446 1074 N 114 103 65 -14 -114 -103 h
stroke
LT0
0.75 0.75 0.75 C 6446 1074 M
65 -14 V
6397 957 L
-65 14 V
114 103 V
.0035 g 6003 1041 N 114 76 65 -14 -113 -76 h
stroke
LT0
0.75 0.75 0.75 C 6003 1041 M
66 -14 V
5955 951 L
-65 14 V
113 76 V
.0029 g 5561 1037 N 114 72 65 -14 -113 -74 h
stroke
LT0
0.75 0.75 0.75 C 5561 1037 M
66 -16 V
5513 949 L
-65 14 V
113 74 V
.7998 g 5067 2334 N 114 164 65 -142 -113 -166 h
stroke
LT0
0.75 0.75 0.75 C 5067 2334 M
66 -144 V
5019 2026 L
-65 142 V
113 166 V
.2719 g 5103 1499 N 113 93 66 -100 -114 -109 h
stroke
LT0
0.75 0.75 0.75 C 5103 1499 M
65 -116 V
-113 -93 V
-66 100 V
114 109 V
.0176 g 6511 1060 N 114 102 66 -14 -114 -103 h
stroke
LT0
0.75 0.75 0.75 C 6511 1060 M
66 -15 V
6463 943 L
-66 14 V
114 103 V
.0032 g 6069 1027 N 114 76 66 -14 -114 -76 h
stroke
LT0
0.75 0.75 0.75 C 6069 1027 M
66 -14 V
6021 937 L
-66 14 V
114 76 V
.002 g 5627 1021 N 114 72 66 -14 -114 -72 h
stroke
LT0
0.75 0.75 0.75 C 5627 1021 M
66 -14 V
5579 935 L
-66 14 V
114 72 V
.6133 g 5019 2026 N 114 141 65 -131 -113 -147 h
stroke
LT0
0.75 0.75 0.75 C 5019 2026 M
66 -137 V
4971 1748 L
-65 131 V
113 147 V
.3584 g 5037 1618 N 114 109 66 -107 -114 -121 h
stroke
LT0
0.75 0.75 0.75 C 5037 1618 M
66 -119 V
4989 1390 L
-66 107 V
114 121 V
.0168 g 6577 1045 N 114 101 66 -14 -114 -102 h
stroke
LT0
0.75 0.75 0.75 C 6577 1045 M
66 -15 V
6529 929 L
-66 14 V
114 102 V
.0029 g 6135 1013 N 113 76 66 -14 -114 -76 h
stroke
LT0
0.75 0.75 0.75 C 6135 1013 M
65 -14 V
6087 923 L
-66 14 V
114 76 V
.0014 g 5693 1007 N 113 72 66 -14 -114 -72 h
stroke
LT0
0.75 0.75 0.75 C 5693 1007 M
65 -14 V
5645 921 L
-66 14 V
114 72 V
.0586 g 5186 1107 N 114 66 66 -64 -114 -70 h
stroke
LT0
0.75 0.75 0.75 C 5186 1107 M
66 -68 V
5138 973 L
-66 64 V
114 70 V
.0228 g 5252 1039 N 114 68 65 -42 -114 -66 h
stroke
LT0
0.75 0.75 0.75 C 5252 1039 M
65 -40 V
5203 931 L
-65 42 V
114 66 V
.0026 g 6200 999 N 114 75 65 -13 -113 -76 h
stroke
LT0
0.75 0.75 0.75 C 6200 999 M
66 -14 V
6152 910 L
-65 13 V
113 76 V
.1121 g 5120 1198 N 114 70 66 -73 -114 -88 h
stroke
LT0
0.75 0.75 0.75 C 5120 1198 M
66 -91 V
-114 -70 V
-66 73 V
114 88 V
.4501 g 4971 1748 N 114 121 65 -111 -113 -140 h
stroke
LT0
0.75 0.75 0.75 C 4971 1748 M
66 -130 V
4923 1497 L
-65 111 V
113 140 V
.0011 g 5758 993 N 114 71 65 -13 -113 -72 h
stroke
LT0
0.75 0.75 0.75 C 5758 993 M
66 -14 V
5710 908 L
-65 13 V
113 72 V
.0067 g 5317 999 N 114 72 66 -24 -114 -68 h
stroke
LT0
0.75 0.75 0.75 C 5317 999 M
66 -20 V
5269 907 L
-66 24 V
114 68 V
.7219 g 4954 2168 N 113 147 66 -133 -114 -156 h
stroke
LT0
0.75 0.75 0.75 C 4954 2168 M
65 -142 V
4906 1879 L
-66 133 V
114 156 V
.1754 g 5055 1290 N 114 88 65 -85 -114 -95 h
stroke
LT0
0.75 0.75 0.75 C 5055 1290 M
65 -92 V
-114 -88 V
-65 85 V
114 95 V
.0023 g 6266 985 N 114 75 66 -14 -114 -75 h
stroke
LT0
0.75 0.75 0.75 C 6266 985 M
66 -14 V
6218 896 L
-66 14 V
114 75 V
.0009 g 5824 979 N 114 71 66 -14 -114 -71 h
stroke
LT0
0.75 0.75 0.75 C 5824 979 M
66 -14 V
5776 894 L
-66 14 V
114 71 V
.0022 g 5383 979 N 113 72 66 -16 -114 -72 h
stroke
LT0
0.75 0.75 0.75 C 5383 979 M
65 -16 V
5335 891 L
-66 16 V
114 72 V
.5471 g 4906 1879 N 113 140 66 -119 -114 -152 h
stroke
LT0
0.75 0.75 0.75 C 4906 1879 M
65 -131 V
4858 1608 L
-66 119 V
114 152 V
.2451 g 4989 1390 N 114 95 66 -91 -114 -104 h
stroke
LT0
0.75 0.75 0.75 C 4989 1390 M
66 -100 V
-114 -95 V
-66 91 V
114 104 V
.0021 g 6332 971 N 113 74 66 -13 -114 -75 h
stroke
LT0
0.75 0.75 0.75 C 6332 971 M
65 -14 V
6284 883 L
-66 13 V
114 75 V
.0007 g 5890 965 N 113 71 66 -14 -114 -71 h
stroke
LT0
0.75 0.75 0.75 C 5890 965 M
65 -14 V
5842 880 L
-66 14 V
114 71 V
.0011 g 5448 963 N 113 72 65 -14 -113 -72 h
stroke
LT0
0.75 0.75 0.75 C 5448 963 M
65 -14 V
5400 877 L
-65 14 V
113 72 V
.6423 g 4840 2012 N 114 152 66 -100 -114 -185 h
stroke
LT0
0.75 0.75 0.75 C 4840 2012 M
66 -133 V
4792 1727 L
-66 100 V
114 185 V
.3216 g 4923 1497 N 114 104 66 -99 -114 -112 h
stroke
LT0
0.75 0.75 0.75 C 4923 1497 M
66 -107 V
4875 1286 L
-66 99 V
114 112 V
.0018 g 6397 957 N 114 74 65 -14 -113 -74 h
stroke
LT0
0.75 0.75 0.75 C 6397 957 M
66 -14 V
6349 869 L
-65 14 V
113 74 V
.0005 g 5955 951 N 114 71 65 -14 -113 -71 h
stroke
LT0
0.75 0.75 0.75 C 5955 951 M
66 -14 V
5907 866 L
-65 14 V
113 71 V
.0008 g 5513 949 N 114 71 65 -13 -113 -72 h
stroke
LT0
0.75 0.75 0.75 C 5513 949 M
66 -14 V
5465 864 L
-65 13 V
113 72 V
.0016 g 6463 943 N 114 74 66 -14 -114 -74 h
stroke
LT0
0.75 0.75 0.75 C 6463 943 M
66 -14 V
6415 855 L
-66 14 V
114 74 V
.4035 g 4858 1608 N 114 112 65 -104 -114 -119 h
stroke
LT0
0.75 0.75 0.75 C 4858 1608 M
65 -111 V
4809 1385 L
-65 104 V
114 119 V
.0003 g 6021 937 N 114 70 66 -13 -114 -71 h
stroke
LT0
0.75 0.75 0.75 C 6021 937 M
66 -14 V
5973 853 L
-66 13 V
114 71 V
.0005 g 5579 935 N 114 71 66 -14 -114 -71 h
stroke
LT0
0.75 0.75 0.75 C 5579 935 M
66 -14 V
5531 850 L
-66 14 V
114 71 V
.0547 g 5072 1037 N 114 79 66 -59 -114 -84 h
stroke
LT0
0.75 0.75 0.75 C 5072 1037 M
66 -64 V
5024 894 L
-66 59 V
114 84 V
.1006 g 5006 1110 N 114 84 65 -65 -113 -92 h
stroke
LT0
0.75 0.75 0.75 C 5006 1110 M
66 -73 V
4958 953 L
-65 65 V
113 92 V
.0214 g 5138 973 N 113 75 66 -38 -114 -79 h
stroke
LT0
0.75 0.75 0.75 C 5138 973 M
65 -42 V
5090 856 L
-66 38 V
114 79 V
.0002 g 6087 923 N 113 71 66 -14 -114 -70 h
stroke
LT0
0.75 0.75 0.75 C 6087 923 M
65 -13 V
6039 839 L
-66 14 V
114 70 V
.4887 g 4792 1727 N 114 119 66 -104 -114 -134 h
stroke
LT0
0.75 0.75 0.75 C 4792 1727 M
66 -119 V
4744 1489 L
-66 104 V
114 134 V
.5599 g 4726 1827 N 114 134 66 -53 -114 -181 h
stroke
LT0
0.75 0.75 0.75 C 4726 1827 M
66 -100 V
4678 1593 L
-66 53 V
114 181 V
.1552 g 4941 1195 N 113 92 66 -78 -114 -99 h
stroke
LT0
0.75 0.75 0.75 C 4941 1195 M
65 -85 V
-113 -92 V
-66 78 V
114 99 V
.0003 g 5645 921 N 113 72 66 -14 -114 -71 h
stroke
LT0
0.75 0.75 0.75 C 5645 921 M
65 -13 V
5597 836 L
-66 14 V
114 71 V
.0056 g 5203 931 N 114 72 65 -21 -113 -75 h
stroke
LT0
0.75 0.75 0.75 C 5203 931 M
66 -24 V
5155 835 L
-65 21 V
113 75 V
.2171 g 4875 1286 N 114 99 66 -80 -114 -110 h
stroke
LT0
0.75 0.75 0.75 C 4875 1286 M
66 -91 V
-114 -99 V
-66 80 V
114 110 V
.0001 g 6152 910 N 114 70 65 -13 -113 -71 h
stroke
LT0
0.75 0.75 0.75 C 6152 910 M
66 -14 V
6104 826 L
-65 13 V
113 71 V
.0003 g 5710 908 N 114 71 65 -13 -113 -72 h
stroke
LT0
0.75 0.75 0.75 C 5710 908 M
66 -14 V
5662 823 L
-65 13 V
113 72 V
.001 g 5269 907 N 114 71 66 -15 -114 -72 h
stroke
LT0
0.75 0.75 0.75 C 5269 907 M
66 -16 V
5221 820 L
-66 15 V
114 72 V
.2854 g 4809 1385 N 114 110 65 -91 -113 -118 h
stroke
LT0
0.75 0.75 0.75 C 4809 1385 M
66 -99 V
4761 1176 L
-65 91 V
113 118 V
.0001 g 6218 896 N 114 71 66 -14 -114 -70 h
stroke
LT0
0.75 0.75 0.75 C 6218 896 M
66 -13 V
6170 812 L
-66 14 V
114 70 V
.0002 g 5776 894 N 114 71 66 -14 -114 -71 h
stroke
LT0
0.75 0.75 0.75 C 5776 894 M
66 -14 V
5728 809 L
-66 14 V
114 71 V
.0002 g 5335 891 N 113 70 66 -13 -114 -71 h
stroke
LT0
0.75 0.75 0.75 C 5335 891 M
65 -14 V
5287 807 L
-66 13 V
114 71 V
.359 g 4744 1489 N 113 118 66 -91 -114 -131 h
stroke
LT0
0.75 0.75 0.75 C 4744 1489 M
65 -104 V
4696 1267 L
-66 91 V
114 131 V
.4736 g 4612 1646 N 114 168 65 -34 -113 -187 h
stroke
LT0
0.75 0.75 0.75 C 4612 1646 M
66 -53 V
4564 1425 L
-65 34 V
113 187 V
.4283 g 4678 1593 N 114 131 66 -67 -114 -168 h
stroke
LT0
0.75 0.75 0.75 C 4678 1593 M
66 -104 V
4630 1358 L
-66 67 V
114 168 V
.0001 g 6284 883 N 113 71 66 -14 -114 -71 h
stroke
LT0
0.75 0.75 0.75 C 6284 883 M
65 -14 V
6236 798 L
-66 14 V
114 71 V
.0001 g 5842 880 N 113 70 66 -13 -114 -71 h
stroke
LT0
0.75 0.75 0.75 C 5842 880 M
65 -14 V
5794 796 L
-66 13 V
114 71 V
.0001 g 5400 877 N 113 71 65 -14 -113 -70 h
stroke
LT0
0.75 0.75 0.75 C 5400 877 M
65 -13 V
5352 793 L
-65 14 V
113 70 V
0 g 6349 869 N 114 70 65 -13 -113 -71 h
stroke
LT0
0.75 0.75 0.75 C 6349 869 M
66 -14 V
6301 785 L
-65 13 V
113 71 V
.0001 g 5907 866 N 114 71 65 -14 -113 -70 h
stroke
LT0
0.75 0.75 0.75 C 5907 866 M
66 -13 V
5859 782 L
-65 14 V
113 70 V
.0828 g 4893 1018 N 113 91 66 -62 -114 -94 h
stroke
LT0
0.75 0.75 0.75 C 4893 1018 M
65 -65 V
4845 862 L
-66 62 V
114 94 V
.0437 g 4958 953 N 114 76 65 -44 -113 -91 h
stroke
LT0
0.75 0.75 0.75 C 4958 953 M
66 -59 V
4910 818 L
-65 44 V
113 91 V
.0001 g 5465 864 N 114 70 65 -13 -113 -71 h
stroke
LT0
0.75 0.75 0.75 C 5465 864 M
66 -14 V
5417 780 L
-65 13 V
113 71 V
.1306 g 4827 1096 N 114 94 66 -65 -114 -107 h
stroke
LT0
0.75 0.75 0.75 C 4827 1096 M
66 -78 V
4779 924 L
-66 65 V
114 107 V
.0171 g 5024 894 N 114 71 66 -33 -114 -76 h
stroke
LT0
0.75 0.75 0.75 C 5024 894 M
66 -38 V
4976 785 L
-66 33 V
114 76 V
.1834 g 4761 1176 N 114 107 65 -69 -113 -118 h
stroke
LT0
0.75 0.75 0.75 C 4761 1176 M
66 -80 V
4713 989 L
-65 69 V
113 118 V
.3687 g 4499 1459 N 113 195 66 -26 -114 -203 h
stroke
LT0
0.75 0.75 0.75 C 4499 1459 M
65 -34 V
4451 1230 L
-66 26 V
114 203 V
.0001 g 5973 853 N 114 70 66 -13 -114 -71 h
stroke
LT0
0.75 0.75 0.75 C 5973 853 M
66 -14 V
5925 769 L
-66 13 V
114 71 V
.2409 g 4696 1267 N 113 118 66 -73 -114 -136 h
stroke
LT0
0.75 0.75 0.75 C 4696 1267 M
65 -91 V
4648 1058 L
-66 73 V
114 136 V
0 g 5531 850 N 114 70 66 -14 -114 -70 h
stroke
LT0
0.75 0.75 0.75 C 5531 850 M
66 -14 V
5483 766 L
-66 14 V
114 70 V
.3446 g 4564 1425 N 114 163 65 -35 -113 -195 h
stroke
LT0
0.75 0.75 0.75 C 4564 1425 M
66 -67 V
4516 1195 L
-65 35 V
113 195 V
.2996 g 4630 1358 N 114 136 66 -64 -114 -163 h
stroke
LT0
0.75 0.75 0.75 C 4630 1358 M
66 -91 V
4582 1131 L
-66 64 V
114 163 V
.0043 g 5090 856 N 113 71 66 -21 -114 -71 h
stroke
LT0
0.75 0.75 0.75 C 5090 856 M
65 -21 V
5042 764 L
-66 21 V
114 71 V
0 g 6039 839 N 113 71 66 -14 -114 -70 h
stroke
LT0
0.75 0.75 0.75 C 6039 839 M
65 -13 V
5991 755 L
-66 14 V
114 70 V
0 g 5597 836 N 114 70 65 -13 -114 -70 h
stroke
LT0
0.75 0.75 0.75 C 5597 836 M
65 -13 V
5548 753 L
-65 13 V
114 70 V
.0005 g 5155 835 N 114 70 65 -14 -113 -71 h
stroke
LT0
0.75 0.75 0.75 C 5155 835 M
66 -15 V
5107 750 L
-65 14 V
113 71 V
0 g 6104 826 N 114 70 65 -13 -113 -71 h
stroke
LT0
0.75 0.75 0.75 C 6104 826 M
66 -14 V
6056 742 L
-65 13 V
113 71 V
0 g 5662 823 N 114 70 66 -14 -114 -70 h
stroke
LT0
0.75 0.75 0.75 C 5662 823 M
66 -14 V
5614 739 L
-66 14 V
114 70 V
.2627 g 4385 1256 N 114 181 66 -28 -114 -179 h
stroke
LT0
0.75 0.75 0.75 C 4385 1256 M
66 -26 V
4337 1049 L
-66 28 V
114 179 V
0 g 5221 820 N 114 71 66 -14 -114 -70 h
stroke
LT0
0.75 0.75 0.75 C 5221 820 M
66 -13 V
5173 736 L
-66 14 V
114 70 V
.2487 g 4451 1230 N 113 175 66 -29 -114 -181 h
stroke
LT0
0.75 0.75 0.75 C 4451 1230 M
65 -35 V
4403 1020 L
-66 29 V
114 181 V
0 g 6170 812 N 114 70 66 -14 -114 -70 h
stroke
LT0
0.75 0.75 0.75 C 6170 812 M
66 -14 V
6122 728 L
-66 14 V
114 70 V
0 g 5728 809 N 114 71 66 -14 -114 -70 h
stroke
LT0
0.75 0.75 0.75 C 5728 809 M
66 -13 V
5680 725 L
-66 14 V
114 70 V
0 g 5287 807 N 113 70 66 -13 -114 -71 h
stroke
LT0
0.75 0.75 0.75 C 5287 807 M
65 -14 V
5239 723 L
-66 13 V
114 71 V
.2243 g 4516 1195 N 114 148 65 -37 -113 -175 h
stroke
LT0
0.75 0.75 0.75 C 4516 1195 M
66 -64 V
4468 983 L
-65 37 V
113 175 V
.1873 g 4582 1131 N 114 121 66 -46 -114 -148 h
stroke
LT0
0.75 0.75 0.75 C 4582 1131 M
66 -73 V
4534 937 L
-66 46 V
114 148 V
.0627 g 4779 924 N 114 87 66 -50 -114 -99 h
stroke
LT0
0.75 0.75 0.75 C 4779 924 M
66 -62 V
4731 775 L
-66 50 V
114 99 V
.1031 g 4713 989 N 114 99 65 -58 -113 -106 h
stroke
LT0
0.75 0.75 0.75 C 4713 989 M
66 -65 V
4665 825 L
-65 58 V
113 106 V
.1456 g 4648 1058 N 113 106 66 -54 -114 -121 h
stroke
LT0
0.75 0.75 0.75 C 4648 1058 M
65 -69 V
4600 883 L
-66 54 V
114 121 V
.0311 g 4845 862 N 113 83 66 -40 -114 -87 h
stroke
LT0
0.75 0.75 0.75 C 4845 862 M
65 -44 V
4797 735 L
-66 40 V
114 87 V
0 g 6236 798 N 113 70 66 -13 -114 -70 h
stroke
LT0
0.75 0.75 0.75 C 6236 798 M
65 -13 V
6188 715 L
-66 13 V
114 70 V
0 g 5794 796 N 114 70 65 -13 -114 -71 h
stroke
LT0
0.75 0.75 0.75 C 5794 796 M
65 -14 V
5745 712 L
-65 13 V
114 71 V
0 g 5352 793 N 113 71 65 -14 -113 -70 h
stroke
LT0
0.75 0.75 0.75 C 5352 793 M
65 -13 V
5304 709 L
-65 14 V
113 70 V
.0116 g 4910 818 N 114 76 65 -26 -113 -83 h
stroke
LT0
0.75 0.75 0.75 C 4910 818 M
66 -33 V
4862 709 L
-65 26 V
113 83 V
.1606 g 4271 1077 N 114 188 66 -22 -114 -194 h
stroke
LT0
0.75 0.75 0.75 C 4271 1077 M
66 -28 V
4223 861 L
-66 22 V
114 194 V
0 g 5859 782 N 114 71 66 -14 -114 -70 h
stroke
LT0
0.75 0.75 0.75 C 5859 782 M
66 -13 V
5811 698 L
-66 14 V
114 70 V
0 g 5417 780 N 113 70 66 -13 -113 -71 h
stroke
LT0
0.75 0.75 0.75 C 5417 780 M
66 -14 V
5370 696 L
-66 13 V
113 71 V
.1508 g 4337 1049 N 114 179 66 -20 -114 -188 h
stroke
LT0
0.75 0.75 0.75 C 4337 1049 M
66 -29 V
4289 841 L
-66 20 V
114 188 V
.0025 g 4976 785 N 114 71 66 -16 -114 -76 h
stroke
LT0
0.75 0.75 0.75 C 4976 785 M
66 -21 V
4928 693 L
-66 16 V
114 76 V
.1376 g 4403 1020 N 114 170 65 -28 -114 -179 h
stroke
LT0
0.75 0.75 0.75 C 4403 1020 M
65 -37 V
4354 813 L
-65 28 V
114 179 V
0 g 5925 769 N 114 70 66 -13 -114 -71 h
stroke
LT0
0.75 0.75 0.75 C 5925 769 M
66 -14 V
5877 685 L
-66 13 V
114 71 V
0 g 5483 766 N 113 71 65 -14 -113 -70 h
stroke
LT0
0.75 0.75 0.75 C 5483 766 M
65 -13 V
5435 682 L
-65 14 V
113 70 V
.0002 g 5042 764 N 113 71 66 -14 -114 -71 h
stroke
LT0
0.75 0.75 0.75 C 5042 764 M
65 -14 V
4994 679 L
-66 14 V
114 71 V
.1183 g 4468 983 N 114 154 66 -30 -114 -170 h
stroke
LT0
0.75 0.75 0.75 C 4468 983 M
66 -46 V
4420 783 L
-66 30 V
114 170 V
0 g 5991 755 N 114 71 65 -14 -114 -70 h
stroke
LT0
0.75 0.75 0.75 C 5991 755 M
65 -13 V
5942 671 L
-65 14 V
114 70 V
.094 g 4534 937 N 114 134 66 -34 -114 -154 h
stroke
LT0
0.75 0.75 0.75 C 4534 937 M
66 -54 V
4486 749 L
-66 34 V
114 154 V
0 g 5548 753 N 114 70 65 -13 -113 -71 h
stroke
LT0
0.75 0.75 0.75 C 5548 753 M
66 -14 V
5500 669 L
-65 13 V
113 71 V
0 g 5107 750 N 114 70 65 -13 -113 -71 h
stroke
LT0
0.75 0.75 0.75 C 5107 750 M
66 -14 V
5059 666 L
-65 13 V
113 71 V
.0655 g 4600 883 N 114 112 65 -36 -114 -134 h
stroke
LT0
0.75 0.75 0.75 C 4600 883 M
65 -58 V
4551 713 L
-65 36 V
114 134 V
.0381 g 4665 825 N 114 95 66 -33 -114 -112 h
stroke
LT0
0.75 0.75 0.75 C 4665 825 M
66 -50 V
4617 680 L
-66 33 V
114 112 V
0 g 6056 742 N 114 70 66 -13 -114 -71 h
stroke
LT0
0.75 0.75 0.75 C 6056 742 M
66 -14 V
6008 658 L
-66 13 V
114 71 V
0 g 5614 739 N 114 70 66 -14 -114 -70 h
stroke
LT0
0.75 0.75 0.75 C 5614 739 M
66 -14 V
5566 655 L
-66 14 V
114 70 V
0 g 5173 736 N 114 71 66 -14 -114 -70 h
stroke
LT0
0.75 0.75 0.75 C 5173 736 M
66 -13 V
5125 652 L
-66 14 V
114 70 V
.0166 g 4731 775 N 114 83 66 -28 -114 -95 h
stroke
LT0
0.75 0.75 0.75 C 4731 775 M
66 -40 V
4683 652 L
-66 28 V
114 95 V
0 g 6122 728 N 114 71 66 -14 -114 -70 h
stroke
LT0
0.75 0.75 0.75 C 6122 728 M
66 -13 V
6074 644 L
-66 14 V
114 70 V
0 g 5680 725 N 113 71 66 -14 -114 -70 h
stroke
LT0
0.75 0.75 0.75 C 5680 725 M
65 -13 V
5632 641 L
-66 14 V
114 70 V
0 g 5239 723 N 113 70 66 -13 -114 -71 h
stroke
LT0
0.75 0.75 0.75 C 5239 723 M
65 -14 V
5191 639 L
-66 13 V
114 71 V
.0045 g 4797 735 N 114 72 65 -15 -114 -83 h
stroke
LT0
0.75 0.75 0.75 C 4797 735 M
65 -26 V
4748 637 L
-65 15 V
114 83 V
0 g 5745 712 N 114 70 65 -13 -113 -71 h
stroke
LT0
0.75 0.75 0.75 C 5745 712 M
66 -14 V
5697 628 L
-65 13 V
113 71 V
0 g 5304 709 N 114 71 65 -14 -113 -70 h
stroke
LT0
0.75 0.75 0.75 C 5304 709 M
66 -13 V
5256 625 L
-65 14 V
113 70 V
.0007 g 4862 709 N 114 70 66 -14 -114 -72 h
stroke
LT0
0.75 0.75 0.75 C 4862 709 M
66 -16 V
4814 623 L
-66 14 V
114 72 V
0 g 5811 698 N 114 71 66 -14 -114 -70 h
stroke
LT0
0.75 0.75 0.75 C 5811 698 M
66 -13 V
5763 614 L
-66 14 V
114 70 V
0 g 5370 696 N 113 70 66 -13 -114 -71 h
stroke
LT0
0.75 0.75 0.75 C 5370 696 M
65 -14 V
5322 612 L
-66 13 V
114 71 V
0 g 4928 693 N 114 70 66 -14 -114 -70 h
stroke
LT0
0.75 0.75 0.75 C 4928 693 M
66 -14 V
4880 609 L
-66 14 V
114 70 V
0 g 5877 685 N 113 70 66 -13 -114 -71 h
stroke
LT0
0.75 0.75 0.75 C 5877 685 M
65 -14 V
5829 601 L
-66 13 V
114 71 V
0 g 5435 682 N 112 71 66 -14 -113 -70 h
stroke
LT0
0.75 0.75 0.75 C 5435 682 M
65 -13 V
5388 598 L
-66 14 V
113 70 V
0 g 4994 679 N 113 71 66 -14 -114 -70 h
stroke
LT0
0.75 0.75 0.75 C 4994 679 M
65 -13 V
4946 595 L
-66 14 V
114 70 V
0 g 5942 671 N 114 71 65 -14 -113 -70 h
stroke
LT0
0.75 0.75 0.75 C 5942 671 M
66 -13 V
5894 587 L
-65 14 V
113 70 V
0 g 5500 669 N 114 70 64 -13 -112 -71 h
stroke
LT0
0.75 0.75 0.75 C 5500 669 M
66 -14 V
5452 585 L
-64 13 V
112 71 V
0 g 5059 666 N 114 70 65 -13 -113 -71 h
stroke
LT0
0.75 0.75 0.75 C 5059 666 M
66 -14 V
5011 582 L
-65 13 V
113 71 V
0 g 6008 658 N 114 70 66 -13 -114 -71 h
stroke
LT0
0.75 0.75 0.75 C 6008 658 M
66 -14 V
5960 574 L
-66 13 V
114 71 V
0 g 5566 655 N 114 70 66 -14 -114 -70 h
stroke
LT0
0.75 0.75 0.75 C 5566 655 M
66 -14 V
5518 571 L
-66 14 V
114 70 V
0 g 5125 652 N 114 71 66 -14 -114 -70 h
stroke
LT0
0.75 0.75 0.75 C 5125 652 M
66 -13 V
5077 568 L
-66 14 V
114 70 V
0 g 5632 641 N 113 71 66 -14 -114 -70 h
stroke
LT0
0.75 0.75 0.75 C 5632 641 M
65 -13 V
5584 557 L
-66 14 V
114 70 V
0 g 5191 639 N 113 70 66 -13 -114 -71 h
stroke
LT0
0.75 0.75 0.75 C 5191 639 M
65 -14 V
5143 555 L
-66 13 V
114 71 V
0 g 5697 628 N 114 70 65 -13 -113 -71 h
stroke
LT0
0.75 0.75 0.75 C 5697 628 M
66 -14 V
5649 544 L
-65 13 V
113 71 V
0 g 5256 625 N 114 71 65 -14 -113 -70 h
stroke
LT0
0.75 0.75 0.75 C 5256 625 M
66 -13 V
5208 541 L
-65 14 V
113 70 V
0 g 5763 614 N 114 71 66 -14 -114 -70 h
stroke
LT0
0.75 0.75 0.75 C 5763 614 M
66 -13 V
5715 530 L
-66 14 V
114 70 V
0 g 5322 612 N 114 70 66 -13 -114 -71 h
stroke
LT0
0.75 0.75 0.75 C 5322 612 M
66 -14 V
5274 528 L
-66 13 V
114 71 V
0 g 5829 601 N 113 70 66 -13 -114 -71 h
stroke
LT0
0.75 0.75 0.75 C 5829 601 M
65 -14 V
5781 517 L
-66 13 V
114 71 V
0 g 5388 598 N 112 71 66 -14 -114 -70 h
stroke
LT0
0.75 0.75 0.75 C 5388 598 M
64 -13 V
5340 514 L
-66 14 V
114 70 V
0 g 5894 587 N 114 71 65 -14 -113 -70 h
stroke
LT0
0.75 0.75 0.75 C 5894 587 M
66 -13 V
5846 503 L
-65 14 V
113 70 V
0 g 5452 585 N 114 70 64 -13 -112 -71 h
stroke
LT0
0.75 0.75 0.75 C 5452 585 M
66 -14 V
5404 501 L
-64 13 V
112 71 V
0 g 5518 571 N 114 70 66 -14 -114 -70 h
stroke
LT0
0.75 0.75 0.75 C 5518 571 M
66 -14 V
5470 487 L
-66 14 V
114 70 V
0 g 5584 557 N 113 70 66 -13 -114 -70 h
stroke
LT0
0.75 0.75 0.75 C 5584 557 M
65 -13 V
5536 474 L
-66 13 V
114 70 V
0 g 5649 544 N 114 70 65 -14 -113 -70 h
stroke
LT0
0.75 0.75 0.75 C 5649 544 M
66 -14 V
5601 460 L
-65 14 V
113 70 V
0 g 5715 530 N 114 71 66 -14 -114 -70 h
stroke
LT0
0.75 0.75 0.75 C 5715 530 M
66 -13 V
5667 446 L
-66 14 V
114 70 V
0 g 5781 517 N 113 70 66 -13 -114 -71 h
stroke
LT0
0.75 0.75 0.75 C 5781 517 M
65 -14 V
5733 433 L
-66 13 V
114 71 V
stroke
LTb
LCb setrgbcolor
5733 433 M
910 563 V
stroke
LTb
LCb setrgbcolor
5733 433 M
4157 758 L
stroke
LTb
LCb setrgbcolor
4157 758 M
133 82 V
stroke
LTb
LCb setrgbcolor
6643 996 M
-31 7 V
stroke
LTb
LCb setrgbcolor
4157 1884 M
0 -1126 V
stroke
LTb
LCb setrgbcolor
5067 2447 M
0 -113 V
stroke
LTb
LCb setrgbcolor
6643 2122 M
0 -1126 V
stroke
LTb
LCb setrgbcolor
4157 1884 M
910 563 V
stroke
LTb
LCb setrgbcolor
6643 2122 M
5067 2447 L
stroke
LTa
LCa setrgbcolor
4420 704 M
70 43 V
stroke
LTb
LCb setrgbcolor
4420 704 M
44 27 V
stroke
LTb
LCb setrgbcolor
4370 641 M
[ [(Times-Roman) 120.0 0.0 true true 0 ( 50)]
] -40.0 MCshow
1.000 UL
LTb
LCb setrgbcolor
1.000 UL
LTa
LCa setrgbcolor
4748 636 M
1 1 V
stroke
LTb
LCb setrgbcolor
4748 636 M
1 1 V
stroke
LTb
LCb setrgbcolor
4698 573 M
[ [(Times-Roman) 120.0 0.0 true true 0 ( 100)]
] -40.0 MCshow
1.000 UL
LTb
LCb setrgbcolor
1.000 UL
LTa
LCa setrgbcolor
5077 568 M
340 212 V
stroke
LTb
LCb setrgbcolor
5077 568 M
44 28 V
stroke
LTb
LCb setrgbcolor
5026 505 M
[ [(Times-Roman) 120.0 0.0 true true 0 ( 150)]
] -40.0 MCshow
1.000 UL
LTb
LCb setrgbcolor
1.000 UL
LTa
LCa setrgbcolor
5404 501 M
455 281 V
stroke
LTb
LCb setrgbcolor
5404 501 M
44 27 V
stroke
LTb
LCb setrgbcolor
5355 438 M
[ [(Times-Roman) 120.0 0.0 true true 0 ( 200)]
] -40.0 MCshow
1.000 UL
LTb
LCb setrgbcolor
LCb setrgbcolor
4718 455 M
[ [(Times-Roman) 120.0 0.0 true true 0 (Iterations)]
] -40.0 MCshow
LTb
1.000 UL
LTa
LCa setrgbcolor
5733 433 M
4157 758 L
stroke
LTb
LCb setrgbcolor
5733 433 M
-55 11 V
stroke
5795 400 M
[ [(Times-Roman) 120.0 0.0 true true 0 ( 0.1)]
] -40.0 MCshow
1.000 UL
LTb
LCb setrgbcolor
1.000 UL
LTb
LCb setrgbcolor
4212 747 M
-55 11 V
stroke
LTa
LCa setrgbcolor
5960 574 M
5107 750 L
stroke
LTb
LCb setrgbcolor
5960 574 M
-54 11 V
stroke
6022 541 M
[ [(Times-Roman) 120.0 0.0 true true 0 ( 0.3)]
] -40.0 MCshow
1.000 UL
LTb
LCb setrgbcolor
1.000 UL
LTa
LCa setrgbcolor
6188 715 M
5597 836 L
stroke
LTb
LCb setrgbcolor
6188 715 M
-55 11 V
stroke
6250 682 M
[ [(Times-Roman) 120.0 0.0 true true 0 ( 0.5)]
] -40.0 MCshow
1.000 UL
LTb
LCb setrgbcolor
1.000 UL
LTa
LCa setrgbcolor
6415 855 M
-66 14 V
stroke
LTb
LCb setrgbcolor
6415 855 M
-54 12 V
stroke
6477 823 M
[ [(Times-Roman) 120.0 0.0 true true 0 ( 0.7)]
] -40.0 MCshow
1.000 UL
LTb
LCb setrgbcolor
1.000 UL
LTa
LCa setrgbcolor
6643 996 M
-31 7 V
stroke
LTb
LCb setrgbcolor
6643 996 M
-31 7 V
stroke
6705 964 M
[ [(Times-Roman) 120.0 0.0 true true 0 ( 0.9)]
] -40.0 MCshow
1.000 UL
LTb
LCb setrgbcolor
LCb setrgbcolor
6582 633 M
[ [(Times-Roman) 120.0 0.0 true true 0 (p1)]
] -40.0 MCshow
LTb
1.000 UL
LTa
LCa setrgbcolor
4157 758 M
133 82 V
stroke
LTa
LCa setrgbcolor
6643 996 M
-31 7 V
stroke
LTb
LCb setrgbcolor
4220 758 M
-63 0 V
stroke
4031 758 M
[ [(Times-Roman) 120.0 0.0 true true 0 ( 0)]
] -40.0 MRshow
1.000 UL
LTb
LCb setrgbcolor
1.000 UL
LTa
LCa setrgbcolor
4157 883 M
1 1 V
stroke
LTa
LCa setrgbcolor
6643 1121 M
5527 1352 L
stroke
LTb
LCb setrgbcolor
4157 883 M
3 0 V
stroke
4031 883 M
[ [(Times-Roman) 120.0 0.0 true true 0 ( 10)]
] -40.0 MRshow
1.000 UL
LTb
LCb setrgbcolor
1.000 UL
LTa
LCa setrgbcolor
4157 1008 M
116 72 V
stroke
LTa
LCa setrgbcolor
6643 1247 M
5457 1490 L
stroke
LTb
LCb setrgbcolor
4220 1008 M
-63 0 V
stroke
4031 1008 M
[ [(Times-Roman) 120.0 0.0 true true 0 ( 20)]
] -40.0 MRshow
1.000 UL
LTb
LCb setrgbcolor
1.000 UL
LTa
LCa setrgbcolor
4157 1134 M
244 150 V
stroke
LTa
LCa setrgbcolor
6643 1372 M
5392 1629 L
stroke
LTb
LCb setrgbcolor
4220 1134 M
-63 0 V
stroke
4031 1134 M
[ [(Times-Roman) 120.0 0.0 true true 0 ( 30)]
] -40.0 MRshow
1.000 UL
LTb
LCb setrgbcolor
1.000 UL
LTa
LCa setrgbcolor
4157 1259 M
352 216 V
stroke
LTa
LCa setrgbcolor
6643 1496 M
5327 1768 L
stroke
LTb
LCb setrgbcolor
4220 1259 M
-63 0 V
stroke
4031 1259 M
[ [(Times-Roman) 120.0 0.0 true true 0 ( 40)]
] -40.0 MRshow
1.000 UL
LTb
LCb setrgbcolor
1.000 UL
LTa
LCa setrgbcolor
4157 1384 M
475 293 V
stroke
LTa
LCa setrgbcolor
6643 1621 M
5262 1906 L
stroke
LTb
LCb setrgbcolor
4220 1384 M
-63 0 V
stroke
4031 1384 M
[ [(Times-Roman) 120.0 0.0 true true 0 ( 50)]
] -40.0 MRshow
1.000 UL
LTb
LCb setrgbcolor
1.000 UL
LTa
LCa setrgbcolor
4157 1508 M
602 373 V
stroke
LTa
LCa setrgbcolor
6643 1746 M
5199 2044 L
stroke
LTb
LCb setrgbcolor
4220 1508 M
-63 0 V
stroke
4031 1508 M
[ [(Times-Roman) 120.0 0.0 true true 0 ( 60)]
] -40.0 MRshow
1.000 UL
LTb
LCb setrgbcolor
1.000 UL
LTa
LCa setrgbcolor
4157 1633 M
741 459 V
stroke
LTa
LCa setrgbcolor
6643 1872 M
5137 2182 L
stroke
LTb
LCb setrgbcolor
4220 1633 M
-63 0 V
stroke
4031 1633 M
[ [(Times-Roman) 120.0 0.0 true true 0 ( 70)]
] -40.0 MRshow
1.000 UL
LTb
LCb setrgbcolor
1.000 UL
LTa
LCa setrgbcolor
4157 1759 M
896 554 V
stroke
LTa
LCa setrgbcolor
6643 1997 M
5073 2321 L
stroke
LTb
LCb setrgbcolor
4220 1759 M
-63 0 V
stroke
4031 1759 M
[ [(Times-Roman) 120.0 0.0 true true 0 ( 80)]
] -40.0 MRshow
1.000 UL
LTb
LCb setrgbcolor
1.000 UL
LTa
LCa setrgbcolor
4157 1884 M
910 563 V
stroke
LTa
LCa setrgbcolor
6643 2122 M
5067 2447 L
stroke
LTb
LCb setrgbcolor
4220 1884 M
-63 0 V
stroke
4031 1884 M
[ [(Times-Roman) 120.0 0.0 true true 0 ( 90)]
] -40.0 MRshow
1.000 UL
LTb
LCb setrgbcolor
LCb setrgbcolor
3653 1321 M
currentpoint gsave translate 90 rotate 0 0 moveto
[ [(Times-Roman) 120.0 0.0 true true 0 (Average number of singles)]
] -40.0 MCshow
grestore
LTb
1.000 UP
grestore % colour palette end
stroke
grestore
end
showpage
%%Trailer
%%DocumentFonts: Times-Roman
