%!PS-Adobe-2.0 EPSF-2.0
%%Title: AS-PS3d.eps
%%Creator: gnuplot 4.6 patchlevel 4
%%CreationDate: Fri May 30 10:56:39 2014
%%DocumentFonts: (atend)
%%BoundingBox: 50 50 554 424
%%EndComments
%%BeginProlog
/gnudict 256 dict def
gnudict begin
%
% The following true/false flags may be edited by hand if desired.
% The unit line width and grayscale image gamma correction may also be changed.
%
/Color true def
/Blacktext false def
/Solid false def
/Dashlength 1 def
/Landscape false def
/Level1 false def
/Rounded false def
/ClipToBoundingBox false def
/SuppressPDFMark false def
/TransparentPatterns false def
/gnulinewidth 10.000 def
/userlinewidth gnulinewidth def
/Gamma 1.0 def
/BackgroundColor {-1.000 -1.000 -1.000} def
%
/vshift -66 def
/dl1 {
  10.0 Dashlength mul mul
  Rounded { currentlinewidth 0.75 mul sub dup 0 le { pop 0.01 } if } if
} def
/dl2 {
  10.0 Dashlength mul mul
  Rounded { currentlinewidth 0.75 mul add } if
} def
/hpt_ 31.5 def
/vpt_ 31.5 def
/hpt hpt_ def
/vpt vpt_ def
/doclip {
  ClipToBoundingBox {
    newpath 50 50 moveto 554 50 lineto 554 424 lineto 50 424 lineto closepath
    clip
  } if
} def
%
% Gnuplot Prolog Version 4.6 (September 2012)
%
%/SuppressPDFMark true def
%
/M {moveto} bind def
/L {lineto} bind def
/R {rmoveto} bind def
/V {rlineto} bind def
/N {newpath moveto} bind def
/Z {closepath} bind def
/C {setrgbcolor} bind def
/f {rlineto fill} bind def
/g {setgray} bind def
/Gshow {show} def   % May be redefined later in the file to support UTF-8
/vpt2 vpt 2 mul def
/hpt2 hpt 2 mul def
/Lshow {currentpoint stroke M 0 vshift R 
	Blacktext {gsave 0 setgray show grestore} {show} ifelse} def
/Rshow {currentpoint stroke M dup stringwidth pop neg vshift R
	Blacktext {gsave 0 setgray show grestore} {show} ifelse} def
/Cshow {currentpoint stroke M dup stringwidth pop -2 div vshift R 
	Blacktext {gsave 0 setgray show grestore} {show} ifelse} def
/UP {dup vpt_ mul /vpt exch def hpt_ mul /hpt exch def
  /hpt2 hpt 2 mul def /vpt2 vpt 2 mul def} def
/DL {Color {setrgbcolor Solid {pop []} if 0 setdash}
 {pop pop pop 0 setgray Solid {pop []} if 0 setdash} ifelse} def
/BL {stroke userlinewidth 2 mul setlinewidth
	Rounded {1 setlinejoin 1 setlinecap} if} def
/AL {stroke userlinewidth 2 div setlinewidth
	Rounded {1 setlinejoin 1 setlinecap} if} def
/UL {dup gnulinewidth mul /userlinewidth exch def
	dup 1 lt {pop 1} if 10 mul /udl exch def} def
/PL {stroke userlinewidth setlinewidth
	Rounded {1 setlinejoin 1 setlinecap} if} def
3.8 setmiterlimit
% Default Line colors
/LCw {1 1 1} def
/LCb {0 0 0} def
/LCa {0 0 0} def
/LC0 {1 0 0} def
/LC1 {0 1 0} def
/LC2 {0 0 1} def
/LC3 {1 0 1} def
/LC4 {0 1 1} def
/LC5 {1 1 0} def
/LC6 {0 0 0} def
/LC7 {1 0.3 0} def
/LC8 {0.5 0.5 0.5} def
% Default Line Types
/LTw {PL [] 1 setgray} def
/LTb {BL [] LCb DL} def
/LTa {AL [1 udl mul 2 udl mul] 0 setdash LCa setrgbcolor} def
/LT0 {PL [] LC0 DL} def
/LT1 {PL [4 dl1 2 dl2] LC1 DL} def
/LT2 {PL [2 dl1 3 dl2] LC2 DL} def
/LT3 {PL [1 dl1 1.5 dl2] LC3 DL} def
/LT4 {PL [6 dl1 2 dl2 1 dl1 2 dl2] LC4 DL} def
/LT5 {PL [3 dl1 3 dl2 1 dl1 3 dl2] LC5 DL} def
/LT6 {PL [2 dl1 2 dl2 2 dl1 6 dl2] LC6 DL} def
/LT7 {PL [1 dl1 2 dl2 6 dl1 2 dl2 1 dl1 2 dl2] LC7 DL} def
/LT8 {PL [2 dl1 2 dl2 2 dl1 2 dl2 2 dl1 2 dl2 2 dl1 4 dl2] LC8 DL} def
/Pnt {stroke [] 0 setdash gsave 1 setlinecap M 0 0 V stroke grestore} def
/Dia {stroke [] 0 setdash 2 copy vpt add M
  hpt neg vpt neg V hpt vpt neg V
  hpt vpt V hpt neg vpt V closepath stroke
  Pnt} def
/Pls {stroke [] 0 setdash vpt sub M 0 vpt2 V
  currentpoint stroke M
  hpt neg vpt neg R hpt2 0 V stroke
 } def
/Box {stroke [] 0 setdash 2 copy exch hpt sub exch vpt add M
  0 vpt2 neg V hpt2 0 V 0 vpt2 V
  hpt2 neg 0 V closepath stroke
  Pnt} def
/Crs {stroke [] 0 setdash exch hpt sub exch vpt add M
  hpt2 vpt2 neg V currentpoint stroke M
  hpt2 neg 0 R hpt2 vpt2 V stroke} def
/TriU {stroke [] 0 setdash 2 copy vpt 1.12 mul add M
  hpt neg vpt -1.62 mul V
  hpt 2 mul 0 V
  hpt neg vpt 1.62 mul V closepath stroke
  Pnt} def
/Star {2 copy Pls Crs} def
/BoxF {stroke [] 0 setdash exch hpt sub exch vpt add M
  0 vpt2 neg V hpt2 0 V 0 vpt2 V
  hpt2 neg 0 V closepath fill} def
/TriUF {stroke [] 0 setdash vpt 1.12 mul add M
  hpt neg vpt -1.62 mul V
  hpt 2 mul 0 V
  hpt neg vpt 1.62 mul V closepath fill} def
/TriD {stroke [] 0 setdash 2 copy vpt 1.12 mul sub M
  hpt neg vpt 1.62 mul V
  hpt 2 mul 0 V
  hpt neg vpt -1.62 mul V closepath stroke
  Pnt} def
/TriDF {stroke [] 0 setdash vpt 1.12 mul sub M
  hpt neg vpt 1.62 mul V
  hpt 2 mul 0 V
  hpt neg vpt -1.62 mul V closepath fill} def
/DiaF {stroke [] 0 setdash vpt add M
  hpt neg vpt neg V hpt vpt neg V
  hpt vpt V hpt neg vpt V closepath fill} def
/Pent {stroke [] 0 setdash 2 copy gsave
  translate 0 hpt M 4 {72 rotate 0 hpt L} repeat
  closepath stroke grestore Pnt} def
/PentF {stroke [] 0 setdash gsave
  translate 0 hpt M 4 {72 rotate 0 hpt L} repeat
  closepath fill grestore} def
/Circle {stroke [] 0 setdash 2 copy
  hpt 0 360 arc stroke Pnt} def
/CircleF {stroke [] 0 setdash hpt 0 360 arc fill} def
/C0 {BL [] 0 setdash 2 copy moveto vpt 90 450 arc} bind def
/C1 {BL [] 0 setdash 2 copy moveto
	2 copy vpt 0 90 arc closepath fill
	vpt 0 360 arc closepath} bind def
/C2 {BL [] 0 setdash 2 copy moveto
	2 copy vpt 90 180 arc closepath fill
	vpt 0 360 arc closepath} bind def
/C3 {BL [] 0 setdash 2 copy moveto
	2 copy vpt 0 180 arc closepath fill
	vpt 0 360 arc closepath} bind def
/C4 {BL [] 0 setdash 2 copy moveto
	2 copy vpt 180 270 arc closepath fill
	vpt 0 360 arc closepath} bind def
/C5 {BL [] 0 setdash 2 copy moveto
	2 copy vpt 0 90 arc
	2 copy moveto
	2 copy vpt 180 270 arc closepath fill
	vpt 0 360 arc} bind def
/C6 {BL [] 0 setdash 2 copy moveto
	2 copy vpt 90 270 arc closepath fill
	vpt 0 360 arc closepath} bind def
/C7 {BL [] 0 setdash 2 copy moveto
	2 copy vpt 0 270 arc closepath fill
	vpt 0 360 arc closepath} bind def
/C8 {BL [] 0 setdash 2 copy moveto
	2 copy vpt 270 360 arc closepath fill
	vpt 0 360 arc closepath} bind def
/C9 {BL [] 0 setdash 2 copy moveto
	2 copy vpt 270 450 arc closepath fill
	vpt 0 360 arc closepath} bind def
/C10 {BL [] 0 setdash 2 copy 2 copy moveto vpt 270 360 arc closepath fill
	2 copy moveto
	2 copy vpt 90 180 arc closepath fill
	vpt 0 360 arc closepath} bind def
/C11 {BL [] 0 setdash 2 copy moveto
	2 copy vpt 0 180 arc closepath fill
	2 copy moveto
	2 copy vpt 270 360 arc closepath fill
	vpt 0 360 arc closepath} bind def
/C12 {BL [] 0 setdash 2 copy moveto
	2 copy vpt 180 360 arc closepath fill
	vpt 0 360 arc closepath} bind def
/C13 {BL [] 0 setdash 2 copy moveto
	2 copy vpt 0 90 arc closepath fill
	2 copy moveto
	2 copy vpt 180 360 arc closepath fill
	vpt 0 360 arc closepath} bind def
/C14 {BL [] 0 setdash 2 copy moveto
	2 copy vpt 90 360 arc closepath fill
	vpt 0 360 arc} bind def
/C15 {BL [] 0 setdash 2 copy vpt 0 360 arc closepath fill
	vpt 0 360 arc closepath} bind def
/Rec {newpath 4 2 roll moveto 1 index 0 rlineto 0 exch rlineto
	neg 0 rlineto closepath} bind def
/Square {dup Rec} bind def
/Bsquare {vpt sub exch vpt sub exch vpt2 Square} bind def
/S0 {BL [] 0 setdash 2 copy moveto 0 vpt rlineto BL Bsquare} bind def
/S1 {BL [] 0 setdash 2 copy vpt Square fill Bsquare} bind def
/S2 {BL [] 0 setdash 2 copy exch vpt sub exch vpt Square fill Bsquare} bind def
/S3 {BL [] 0 setdash 2 copy exch vpt sub exch vpt2 vpt Rec fill Bsquare} bind def
/S4 {BL [] 0 setdash 2 copy exch vpt sub exch vpt sub vpt Square fill Bsquare} bind def
/S5 {BL [] 0 setdash 2 copy 2 copy vpt Square fill
	exch vpt sub exch vpt sub vpt Square fill Bsquare} bind def
/S6 {BL [] 0 setdash 2 copy exch vpt sub exch vpt sub vpt vpt2 Rec fill Bsquare} bind def
/S7 {BL [] 0 setdash 2 copy exch vpt sub exch vpt sub vpt vpt2 Rec fill
	2 copy vpt Square fill Bsquare} bind def
/S8 {BL [] 0 setdash 2 copy vpt sub vpt Square fill Bsquare} bind def
/S9 {BL [] 0 setdash 2 copy vpt sub vpt vpt2 Rec fill Bsquare} bind def
/S10 {BL [] 0 setdash 2 copy vpt sub vpt Square fill 2 copy exch vpt sub exch vpt Square fill
	Bsquare} bind def
/S11 {BL [] 0 setdash 2 copy vpt sub vpt Square fill 2 copy exch vpt sub exch vpt2 vpt Rec fill
	Bsquare} bind def
/S12 {BL [] 0 setdash 2 copy exch vpt sub exch vpt sub vpt2 vpt Rec fill Bsquare} bind def
/S13 {BL [] 0 setdash 2 copy exch vpt sub exch vpt sub vpt2 vpt Rec fill
	2 copy vpt Square fill Bsquare} bind def
/S14 {BL [] 0 setdash 2 copy exch vpt sub exch vpt sub vpt2 vpt Rec fill
	2 copy exch vpt sub exch vpt Square fill Bsquare} bind def
/S15 {BL [] 0 setdash 2 copy Bsquare fill Bsquare} bind def
/D0 {gsave translate 45 rotate 0 0 S0 stroke grestore} bind def
/D1 {gsave translate 45 rotate 0 0 S1 stroke grestore} bind def
/D2 {gsave translate 45 rotate 0 0 S2 stroke grestore} bind def
/D3 {gsave translate 45 rotate 0 0 S3 stroke grestore} bind def
/D4 {gsave translate 45 rotate 0 0 S4 stroke grestore} bind def
/D5 {gsave translate 45 rotate 0 0 S5 stroke grestore} bind def
/D6 {gsave translate 45 rotate 0 0 S6 stroke grestore} bind def
/D7 {gsave translate 45 rotate 0 0 S7 stroke grestore} bind def
/D8 {gsave translate 45 rotate 0 0 S8 stroke grestore} bind def
/D9 {gsave translate 45 rotate 0 0 S9 stroke grestore} bind def
/D10 {gsave translate 45 rotate 0 0 S10 stroke grestore} bind def
/D11 {gsave translate 45 rotate 0 0 S11 stroke grestore} bind def
/D12 {gsave translate 45 rotate 0 0 S12 stroke grestore} bind def
/D13 {gsave translate 45 rotate 0 0 S13 stroke grestore} bind def
/D14 {gsave translate 45 rotate 0 0 S14 stroke grestore} bind def
/D15 {gsave translate 45 rotate 0 0 S15 stroke grestore} bind def
/DiaE {stroke [] 0 setdash vpt add M
  hpt neg vpt neg V hpt vpt neg V
  hpt vpt V hpt neg vpt V closepath stroke} def
/BoxE {stroke [] 0 setdash exch hpt sub exch vpt add M
  0 vpt2 neg V hpt2 0 V 0 vpt2 V
  hpt2 neg 0 V closepath stroke} def
/TriUE {stroke [] 0 setdash vpt 1.12 mul add M
  hpt neg vpt -1.62 mul V
  hpt 2 mul 0 V
  hpt neg vpt 1.62 mul V closepath stroke} def
/TriDE {stroke [] 0 setdash vpt 1.12 mul sub M
  hpt neg vpt 1.62 mul V
  hpt 2 mul 0 V
  hpt neg vpt -1.62 mul V closepath stroke} def
/PentE {stroke [] 0 setdash gsave
  translate 0 hpt M 4 {72 rotate 0 hpt L} repeat
  closepath stroke grestore} def
/CircE {stroke [] 0 setdash 
  hpt 0 360 arc stroke} def
/Opaque {gsave closepath 1 setgray fill grestore 0 setgray closepath} def
/DiaW {stroke [] 0 setdash vpt add M
  hpt neg vpt neg V hpt vpt neg V
  hpt vpt V hpt neg vpt V Opaque stroke} def
/BoxW {stroke [] 0 setdash exch hpt sub exch vpt add M
  0 vpt2 neg V hpt2 0 V 0 vpt2 V
  hpt2 neg 0 V Opaque stroke} def
/TriUW {stroke [] 0 setdash vpt 1.12 mul add M
  hpt neg vpt -1.62 mul V
  hpt 2 mul 0 V
  hpt neg vpt 1.62 mul V Opaque stroke} def
/TriDW {stroke [] 0 setdash vpt 1.12 mul sub M
  hpt neg vpt 1.62 mul V
  hpt 2 mul 0 V
  hpt neg vpt -1.62 mul V Opaque stroke} def
/PentW {stroke [] 0 setdash gsave
  translate 0 hpt M 4 {72 rotate 0 hpt L} repeat
  Opaque stroke grestore} def
/CircW {stroke [] 0 setdash 
  hpt 0 360 arc Opaque stroke} def
/BoxFill {gsave Rec 1 setgray fill grestore} def
/Density {
  /Fillden exch def
  currentrgbcolor
  /ColB exch def /ColG exch def /ColR exch def
  /ColR ColR Fillden mul Fillden sub 1 add def
  /ColG ColG Fillden mul Fillden sub 1 add def
  /ColB ColB Fillden mul Fillden sub 1 add def
  ColR ColG ColB setrgbcolor} def
/BoxColFill {gsave Rec PolyFill} def
/PolyFill {gsave Density fill grestore grestore} def
/h {rlineto rlineto rlineto gsave closepath fill grestore} bind def
%
% PostScript Level 1 Pattern Fill routine for rectangles
% Usage: x y w h s a XX PatternFill
%	x,y = lower left corner of box to be filled
%	w,h = width and height of box
%	  a = angle in degrees between lines and x-axis
%	 XX = 0/1 for no/yes cross-hatch
%
/PatternFill {gsave /PFa [ 9 2 roll ] def
  PFa 0 get PFa 2 get 2 div add PFa 1 get PFa 3 get 2 div add translate
  PFa 2 get -2 div PFa 3 get -2 div PFa 2 get PFa 3 get Rec
  TransparentPatterns {} {gsave 1 setgray fill grestore} ifelse
  clip
  currentlinewidth 0.5 mul setlinewidth
  /PFs PFa 2 get dup mul PFa 3 get dup mul add sqrt def
  0 0 M PFa 5 get rotate PFs -2 div dup translate
  0 1 PFs PFa 4 get div 1 add floor cvi
	{PFa 4 get mul 0 M 0 PFs V} for
  0 PFa 6 get ne {
	0 1 PFs PFa 4 get div 1 add floor cvi
	{PFa 4 get mul 0 2 1 roll M PFs 0 V} for
 } if
  stroke grestore} def
%
/languagelevel where
 {pop languagelevel} {1} ifelse
 2 lt
	{/InterpretLevel1 true def}
	{/InterpretLevel1 Level1 def}
 ifelse
%
% PostScript level 2 pattern fill definitions
%
/Level2PatternFill {
/Tile8x8 {/PaintType 2 /PatternType 1 /TilingType 1 /BBox [0 0 8 8] /XStep 8 /YStep 8}
	bind def
/KeepColor {currentrgbcolor [/Pattern /DeviceRGB] setcolorspace} bind def
<< Tile8x8
 /PaintProc {0.5 setlinewidth pop 0 0 M 8 8 L 0 8 M 8 0 L stroke} 
>> matrix makepattern
/Pat1 exch def
<< Tile8x8
 /PaintProc {0.5 setlinewidth pop 0 0 M 8 8 L 0 8 M 8 0 L stroke
	0 4 M 4 8 L 8 4 L 4 0 L 0 4 L stroke}
>> matrix makepattern
/Pat2 exch def
<< Tile8x8
 /PaintProc {0.5 setlinewidth pop 0 0 M 0 8 L
	8 8 L 8 0 L 0 0 L fill}
>> matrix makepattern
/Pat3 exch def
<< Tile8x8
 /PaintProc {0.5 setlinewidth pop -4 8 M 8 -4 L
	0 12 M 12 0 L stroke}
>> matrix makepattern
/Pat4 exch def
<< Tile8x8
 /PaintProc {0.5 setlinewidth pop -4 0 M 8 12 L
	0 -4 M 12 8 L stroke}
>> matrix makepattern
/Pat5 exch def
<< Tile8x8
 /PaintProc {0.5 setlinewidth pop -2 8 M 4 -4 L
	0 12 M 8 -4 L 4 12 M 10 0 L stroke}
>> matrix makepattern
/Pat6 exch def
<< Tile8x8
 /PaintProc {0.5 setlinewidth pop -2 0 M 4 12 L
	0 -4 M 8 12 L 4 -4 M 10 8 L stroke}
>> matrix makepattern
/Pat7 exch def
<< Tile8x8
 /PaintProc {0.5 setlinewidth pop 8 -2 M -4 4 L
	12 0 M -4 8 L 12 4 M 0 10 L stroke}
>> matrix makepattern
/Pat8 exch def
<< Tile8x8
 /PaintProc {0.5 setlinewidth pop 0 -2 M 12 4 L
	-4 0 M 12 8 L -4 4 M 8 10 L stroke}
>> matrix makepattern
/Pat9 exch def
/Pattern1 {PatternBgnd KeepColor Pat1 setpattern} bind def
/Pattern2 {PatternBgnd KeepColor Pat2 setpattern} bind def
/Pattern3 {PatternBgnd KeepColor Pat3 setpattern} bind def
/Pattern4 {PatternBgnd KeepColor Landscape {Pat5} {Pat4} ifelse setpattern} bind def
/Pattern5 {PatternBgnd KeepColor Landscape {Pat4} {Pat5} ifelse setpattern} bind def
/Pattern6 {PatternBgnd KeepColor Landscape {Pat9} {Pat6} ifelse setpattern} bind def
/Pattern7 {PatternBgnd KeepColor Landscape {Pat8} {Pat7} ifelse setpattern} bind def
} def
%
%
%End of PostScript Level 2 code
%
/PatternBgnd {
  TransparentPatterns {} {gsave 1 setgray fill grestore} ifelse
} def
%
% Substitute for Level 2 pattern fill codes with
% grayscale if Level 2 support is not selected.
%
/Level1PatternFill {
/Pattern1 {0.250 Density} bind def
/Pattern2 {0.500 Density} bind def
/Pattern3 {0.750 Density} bind def
/Pattern4 {0.125 Density} bind def
/Pattern5 {0.375 Density} bind def
/Pattern6 {0.625 Density} bind def
/Pattern7 {0.875 Density} bind def
} def
%
% Now test for support of Level 2 code
%
Level1 {Level1PatternFill} {Level2PatternFill} ifelse
%
/Symbol-Oblique /Symbol findfont [1 0 .167 1 0 0] makefont
dup length dict begin {1 index /FID eq {pop pop} {def} ifelse} forall
currentdict end definefont pop
/MFshow {
   { dup 5 get 3 ge
     { 5 get 3 eq {gsave} {grestore} ifelse }
     {dup dup 0 get findfont exch 1 get scalefont setfont
     [ currentpoint ] exch dup 2 get 0 exch R dup 5 get 2 ne {dup dup 6
     get exch 4 get {Gshow} {stringwidth pop 0 R} ifelse }if dup 5 get 0 eq
     {dup 3 get {2 get neg 0 exch R pop} {pop aload pop M} ifelse} {dup 5
     get 1 eq {dup 2 get exch dup 3 get exch 6 get stringwidth pop -2 div
     dup 0 R} {dup 6 get stringwidth pop -2 div 0 R 6 get
     show 2 index {aload pop M neg 3 -1 roll neg R pop pop} {pop pop pop
     pop aload pop M} ifelse }ifelse }ifelse }
     ifelse }
   forall} def
/Gswidth {dup type /stringtype eq {stringwidth} {pop (n) stringwidth} ifelse} def
/MFwidth {0 exch { dup 5 get 3 ge { 5 get 3 eq { 0 } { pop } ifelse }
 {dup 3 get{dup dup 0 get findfont exch 1 get scalefont setfont
     6 get Gswidth pop add} {pop} ifelse} ifelse} forall} def
/MLshow { currentpoint stroke M
  0 exch R
  Blacktext {gsave 0 setgray MFshow grestore} {MFshow} ifelse } bind def
/MRshow { currentpoint stroke M
  exch dup MFwidth neg 3 -1 roll R
  Blacktext {gsave 0 setgray MFshow grestore} {MFshow} ifelse } bind def
/MCshow { currentpoint stroke M
  exch dup MFwidth -2 div 3 -1 roll R
  Blacktext {gsave 0 setgray MFshow grestore} {MFshow} ifelse } bind def
/XYsave    { [( ) 1 2 true false 3 ()] } bind def
/XYrestore { [( ) 1 2 true false 4 ()] } bind def
Level1 SuppressPDFMark or 
{} {
/SDict 10 dict def
systemdict /pdfmark known not {
  userdict /pdfmark systemdict /cleartomark get put
} if
SDict begin [
  /Title (AS-PS3d.eps)
  /Subject (gnuplot plot)
  /Creator (gnuplot 4.6 patchlevel 4)
  /Author (danny)
%  /Producer (gnuplot)
%  /Keywords ()
  /CreationDate (Fri May 30 10:56:39 2014)
  /DOCINFO pdfmark
end
} ifelse
end
%%EndProlog
%%Page: 1 1
gnudict begin
gsave
doclip
50 50 translate
0.050 0.050 scale
0 setgray
newpath
(Helvetica) findfont 200 scalefont setfont
BackgroundColor 0 lt 3 1 roll 0 lt exch 0 lt or or not {BackgroundColor C 1.000 0 0 10080.00 7488.00 BoxColFill} if
gsave % colour palette begin
/maxcolors 0 def
/HSV2RGB {  exch dup 0.0 eq {pop exch pop dup dup} % achromatic gray
  { /HSVs exch def /HSVv exch def 6.0 mul dup floor dup 3 1 roll sub
     /HSVf exch def /HSVi exch cvi def /HSVp HSVv 1.0 HSVs sub mul def
	 /HSVq HSVv 1.0 HSVs HSVf mul sub mul def 
	 /HSVt HSVv 1.0 HSVs 1.0 HSVf sub mul sub mul def
	 /HSVi HSVi 6 mod def 0 HSVi eq {HSVv HSVt HSVp}
	 {1 HSVi eq {HSVq HSVv HSVp}{2 HSVi eq {HSVp HSVv HSVt}
	 {3 HSVi eq {HSVp HSVq HSVv}{4 HSVi eq {HSVt HSVp HSVv}
	 {HSVv HSVp HSVq} ifelse} ifelse} ifelse} ifelse} ifelse
  } ifelse} def
/Constrain {
  dup 0 lt {0 exch pop}{dup 1 gt {1 exch pop} if} ifelse} def
/YIQ2RGB {
  3 copy -1.702 mul exch -1.105 mul add add Constrain 4 1 roll
  3 copy -0.647 mul exch -0.272 mul add add Constrain 5 1 roll
  0.621 mul exch -0.956 mul add add Constrain 3 1 roll } def
/CMY2RGB {  1 exch sub exch 1 exch sub 3 2 roll 1 exch sub 3 1 roll exch } def
/XYZ2RGB {  3 copy -0.9017 mul exch -0.1187 mul add exch 0.0585 mul exch add
  Constrain 4 1 roll 3 copy -0.0279 mul exch 1.999 mul add exch
  -0.9844 mul add Constrain 5 1 roll -0.2891 mul exch -0.5338 mul add
  exch 1.91 mul exch add Constrain 3 1 roll} def
/SelectSpace {ColorSpace (HSV) eq {HSV2RGB}{ColorSpace (XYZ) eq {
  XYZ2RGB}{ColorSpace (CMY) eq {CMY2RGB}{ColorSpace (YIQ) eq {YIQ2RGB}
  if} ifelse} ifelse} ifelse} def
/InterpolatedColor false def
/cF7 {sqrt} bind def	% sqrt(x)
/cF5 {dup dup mul mul} bind def	% x^3
/cF15 {360 mul sin} bind def	% sin(360x)
/pm3dround {maxcolors 0 gt {dup 1 ge
	{pop 1} {maxcolors mul floor maxcolors 1 sub div} ifelse} if} def
/pm3dGamma 1.0 1.5 Gamma mul div def
/ColorSpace (RGB) def
Color InterpolatedColor or { % COLOUR vs. GRAY map
  InterpolatedColor { %% Interpolation vs. RGB-Formula
    /g {stroke pm3dround /grayv exch def interpolate
        SelectSpace setrgbcolor} bind def
  }{
  /g {stroke pm3dround dup cF7 Constrain exch dup cF5 Constrain exch cF15 Constrain 
       SelectSpace setrgbcolor} bind def
  } ifelse
}{
  /g {stroke pm3dround pm3dGamma exp setgray} bind def
} ifelse
1.000 UL
LTb
LCb setrgbcolor
1.000 UL
LTb
LCb setrgbcolor
1343 1841 M
4050 3495 L
stroke
LTb
LCb setrgbcolor
8737 2540 M
4050 3495 L
stroke
LTb
LCb setrgbcolor
1343 1841 M
0 3307 V
stroke
LTb
LCb setrgbcolor
4050 3495 M
0 3274 V
stroke
LTb
LCb setrgbcolor
8737 2540 M
0 3274 V
stroke
LTb
LCb setrgbcolor
1343 1841 M
45 27 V
stroke
LTb
LCb setrgbcolor
1258 1754 M
[ [(Helvetica) 200.0 0.0 true true 0 ( 0.1)]
] -66.7 MCshow
1.000 UL
LTb
LCb setrgbcolor
1.000 UL
LTb
LCb setrgbcolor
4050 3495 M
-45 -27 V
stroke
LTb
LCb setrgbcolor
1929 1721 M
45 28 V
stroke
LTb
LCb setrgbcolor
1844 1635 M
[ [(Helvetica) 200.0 0.0 true true 0 ( 0.2)]
] -66.7 MCshow
1.000 UL
LTb
LCb setrgbcolor
1.000 UL
LTb
LCb setrgbcolor
4636 3376 M
-45 -28 V
stroke
LTb
LCb setrgbcolor
2515 1602 M
45 27 V
stroke
LTb
LCb setrgbcolor
2430 1515 M
[ [(Helvetica) 200.0 0.0 true true 0 ( 0.3)]
] -66.7 MCshow
1.000 UL
LTb
LCb setrgbcolor
1.000 UL
LTb
LCb setrgbcolor
5221 3256 M
-45 -27 V
stroke
LTb
LCb setrgbcolor
3101 1483 M
45 27 V
stroke
LTb
LCb setrgbcolor
3016 1396 M
[ [(Helvetica) 200.0 0.0 true true 0 ( 0.4)]
] -66.7 MCshow
1.000 UL
LTb
LCb setrgbcolor
1.000 UL
LTb
LCb setrgbcolor
5807 3137 M
-45 -27 V
stroke
LTb
LCb setrgbcolor
3687 1363 M
45 28 V
stroke
LTb
LCb setrgbcolor
3602 1277 M
[ [(Helvetica) 200.0 0.0 true true 0 ( 0.5)]
] -66.7 MCshow
1.000 UL
LTb
LCb setrgbcolor
1.000 UL
LTb
LCb setrgbcolor
6393 3017 M
-45 -27 V
stroke
LTb
LCb setrgbcolor
4273 1244 M
45 27 V
stroke
LTb
LCb setrgbcolor
4188 1157 M
[ [(Helvetica) 200.0 0.0 true true 0 ( 0.6)]
] -66.7 MCshow
1.000 UL
LTb
LCb setrgbcolor
1.000 UL
LTb
LCb setrgbcolor
6979 2898 M
-45 -27 V
stroke
LTb
LCb setrgbcolor
4859 1125 M
45 27 V
stroke
LTb
LCb setrgbcolor
4774 1038 M
[ [(Helvetica) 200.0 0.0 true true 0 ( 0.7)]
] -66.7 MCshow
1.000 UL
LTb
LCb setrgbcolor
1.000 UL
LTb
LCb setrgbcolor
7565 2779 M
-45 -28 V
stroke
LTb
LCb setrgbcolor
5444 1005 M
45 27 V
stroke
LTb
LCb setrgbcolor
5359 919 M
[ [(Helvetica) 200.0 0.0 true true 0 ( 0.8)]
] -66.7 MCshow
1.000 UL
LTb
LCb setrgbcolor
1.000 UL
LTb
LCb setrgbcolor
8151 2659 M
-45 -27 V
stroke
LTb
LCb setrgbcolor
6030 886 M
45 27 V
stroke
LTb
LCb setrgbcolor
5945 799 M
[ [(Helvetica) 200.0 0.0 true true 0 ( 0.9)]
] -66.7 MCshow
1.000 UL
LTb
LCb setrgbcolor
1.000 UL
LTb
LCb setrgbcolor
8737 2540 M
-45 -27 V
stroke
LTb
LCb setrgbcolor
6030 886 M
-54 11 V
stroke
6134 851 M
[ [(Helvetica) 200.0 0.0 true true 0 ( 0)]
] -66.7 MCshow
1.000 UL
LTb
LCb setrgbcolor
1.000 UL
LTb
LCb setrgbcolor
1343 1841 M
55 -11 V
stroke
LTb
LCb setrgbcolor
6571 1217 M
-54 11 V
stroke
6675 1181 M
[ [(Helvetica) 200.0 0.0 true true 0 ( 0.2)]
] -66.7 MCshow
1.000 UL
LTb
LCb setrgbcolor
1.000 UL
LTb
LCb setrgbcolor
1885 2172 M
54 -11 V
stroke
LTb
LCb setrgbcolor
7113 1547 M
-55 12 V
stroke
7217 1512 M
[ [(Helvetica) 200.0 0.0 true true 0 ( 0.4)]
] -66.7 MCshow
1.000 UL
LTb
LCb setrgbcolor
1.000 UL
LTb
LCb setrgbcolor
2426 2502 M
55 -11 V
stroke
LTb
LCb setrgbcolor
7654 1878 M
-55 11 V
stroke
7758 1843 M
[ [(Helvetica) 200.0 0.0 true true 0 ( 0.6)]
] -66.7 MCshow
1.000 UL
LTb
LCb setrgbcolor
1.000 UL
LTb
LCb setrgbcolor
2967 2833 M
55 -11 V
stroke
LTb
LCb setrgbcolor
8195 2209 M
-54 11 V
stroke
8299 2174 M
[ [(Helvetica) 200.0 0.0 true true 0 ( 0.8)]
] -66.7 MCshow
1.000 UL
LTb
LCb setrgbcolor
1.000 UL
LTb
LCb setrgbcolor
3509 3164 M
54 -11 V
stroke
LTb
LCb setrgbcolor
8737 2540 M
-55 11 V
stroke
8841 2505 M
[ [(Helvetica) 200.0 0.0 true true 0 ( 1)]
] -66.7 MCshow
1.000 UL
LTb
LCb setrgbcolor
1.000 UL
LTb
LCb setrgbcolor
4050 3495 M
54 -11 V
stroke
LTb
LCb setrgbcolor
1343 1841 M
63 0 V
stroke
1217 1841 M
[ [(Helvetica) 200.0 0.0 true true 0 ( 0)]
] -66.7 MRshow
1.000 UL
LTb
LCb setrgbcolor
1.000 UL
LTb
LCb setrgbcolor
1343 2496 M
63 0 V
stroke
1217 2496 M
[ [(Helvetica) 200.0 0.0 true true 0 ( 20)]
] -66.7 MRshow
1.000 UL
LTb
LCb setrgbcolor
1.000 UL
LTb
LCb setrgbcolor
1343 3151 M
63 0 V
stroke
1217 3151 M
[ [(Helvetica) 200.0 0.0 true true 0 ( 40)]
] -66.7 MRshow
1.000 UL
LTb
LCb setrgbcolor
1.000 UL
LTb
LCb setrgbcolor
1343 3806 M
63 0 V
stroke
1217 3806 M
[ [(Helvetica) 200.0 0.0 true true 0 ( 60)]
] -66.7 MRshow
1.000 UL
LTb
LCb setrgbcolor
1.000 UL
LTb
LCb setrgbcolor
1343 4460 M
63 0 V
stroke
1217 4460 M
[ [(Helvetica) 200.0 0.0 true true 0 ( 80)]
] -66.7 MRshow
1.000 UL
LTb
LCb setrgbcolor
1.000 UL
LTb
LCb setrgbcolor
1343 5115 M
63 0 V
stroke
1217 5115 M
[ [(Helvetica) 200.0 0.0 true true 0 ( 100)]
] -66.7 MRshow
1.000 UL
LTb
LCb setrgbcolor
LCb setrgbcolor
503 3495 M
currentpoint gsave translate 90 rotate 0 0 moveto
[ [(Helvetica) 200.0 0.0 true true 0 (percentage of stable marriages with no singles)]
] -66.7 MCshow
grestore
LTb
1.000 UP
% Begin plot #1
%pm3d_map_begin
1.000 UL
LT0
0 g .9091 g 3779 6604 N -586 119 271 165 586 -119 h
.9091 g 3509 6439 N -586 119 270 166 586 -120 h
.9091 g 3238 6273 N -586 120 271 165 586 -119 h
.9091 g 2967 6108 N -586 119 271 166 586 -120 h
.9091 g 2697 5942 N -586 120 270 165 586 -119 h
.9091 g 2426 5777 N -586 119 271 165 586 -119 h
.9091 g 2155 5612 N -586 119 271 166 586 -120 h
.9091 g 1885 5446 N -586 120 270 165 586 -119 h
.9091 g 1614 5281 N -586 119 271 166 586 -120 h
.9091 g 1343 5115 N -586 120 271 165 586 -119 h
.9091 g 4365 6485 N -585 119 270 166 586 -120 h
.9091 g 4095 6319 N -586 120 270 165 586 -119 h
.9091 g 3824 6154 N -586 119 271 166 586 -120 h
.9091 g 3553 5988 N -586 120 271 165 586 -119 h
.9091 g 3283 5823 N -586 119 270 165 586 -119 h
.9091 g 3012 5658 N -586 119 271 166 586 -120 h
.9091 g 2741 5492 N -586 120 271 165 586 -119 h
.9091 g 2471 5327 N -586 119 270 166 586 -120 h
.9091 g 2200 5161 N -586 120 271 165 586 -119 h
.9091 g 1929 4996 N -586 119 271 165 586 -119 h
.9091 g 4951 6365 N -586 120 271 165 585 -119 h
.9091 g 4681 6200 N -585 119 271 166 584 -120 h
.9091 g 4410 6034 N -584 120 269 165 586 -119 h
.9091 g 4139 5869 N -586 119 271 165 586 -119 h
.9091 g 3869 5704 N -586 119 270 166 586 -120 h
.9091 g 3598 5538 N -586 120 271 165 586 -119 h
.9091 g 3327 5373 N -586 119 271 166 586 -120 h
.9091 g 3057 5207 N -586 120 270 165 586 -119 h
.9091 g 2786 5042 N -586 119 271 165 586 -119 h
.9091 g 2515 4877 N -586 119 271 166 586 -120 h
.9091 g 5536 6246 N -586 119 271 166 586 -120 h
.9091 g 5265 6080 N -586 120 271 165 586 -119 h
.9091 g 4996 5915 N -586 119 270 165 585 -119 h
.9091 g 4725 5750 N -585 119 271 166 585 -120 h
.9091 g 4455 5584 N -585 120 270 165 585 -119 h
.9091 g 4184 5419 N -585 119 270 166 586 -120 h
.9091 g 3913 5253 N -586 120 271 165 586 -119 h
.9091 g 3643 5088 N -586 119 270 165 586 -119 h
.9091 g 3372 4923 N -586 119 271 166 586 -120 h
.9091 g 3101 4757 N -586 120 271 165 586 -119 h
.9091 g 6122 6126 N -586 119 271 166 586 -119 h
.9091 g 5851 5961 N -586 119 271 165 586 -119 h
.9091 g 5581 5796 N -586 119 270 166 586 -120 h
.9091 g 5310 5630 N -586 120 271 165 586 -119 h
.9091 g 5040 5465 N -586 119 271 166 585 -120 h
.9091 g 4770 5299 N -585 120 270 165 585 -119 h
.9068 g 4499 5134 N -585 119 271 198 585 -152 h
.9045 g 4229 4969 N -585 152 269 166 586 -153 h
.9068 g 3958 4803 N -586 153 271 132 586 -119 h
.9 g 3687 4638 N -586 119 271 297 586 -251 h
.9091 g 6708 6007 N -586 120 271 165 586 -119 h
.9091 g 6437 5842 N -586 119 271 166 586 -120 h
.9091 g 6167 5676 N -586 120 270 165 586 -119 h
.9068 g 5896 5511 N -586 119 271 198 586 -152 h
.9068 g 5625 5345 N -586 152 271 133 586 -119 h
.9068 g 5355 5180 N -586 119 270 198 586 -152 h
.9 g 5084 4982 N -586 152 271 198 586 -152 h
.8886 g 4815 4816 N -586 152 271 264 584 -250 h
.875 g 4544 4684 N -584 250 270 296 585 -414 h
.8364 g 4273 4387 N -585 414 270 492 586 -609 h
.9091 g 7294 5888 N -586 119 271 166 586 -120 h
.9091 g 7023 5722 N -586 120 271 165 586 -119 h
.9068 g 6753 5557 N -586 119 270 198 586 -152 h
.8977 g 6482 5359 N -586 152 271 231 586 -185 h
.8909 g 6211 5226 N -586 185 271 198 586 -250 h
.8545 g 5941 5028 N -586 250 270 657 586 -709 h
.7977 g 5670 4830 N -586 709 271 427 586 -938 h
.7432 g 5399 4566 N -586 938 271 558 586 -1232 h
.6659 g 5129 4270 N -586 1232 270 657 586 -1593 h
.5636 g 4859 3778 N -586 1593 271 689 585 -1790 h
.8977 g 7880 5768 N -586 120 271 329 586 -283 h
.7636 g 7609 5603 N -586 283 271 1933 586 -2051 h
.5932 g 7339 5405 N -586 2051 270 820 586 -2673 h
.5114 g 7068 5174 N -586 2673 271 592 586 -3034 h
.4682 g 6797 4976 N -586 3034 271 263 586 -3099 h
.4182 g 6527 4319 N -586 3099 270 264 586 -2706 h
.3636 g 6256 3892 N -586 2706 271 100 586 -2379 h
.3159 g 5985 3334 N -586 2379 271 264 586 -2085 h
.2455 g 5715 2677 N -586 2085 270 198 586 -1626 h
.1727 g 5444 1988 N -586 1626 271 165 586 -1102 h
%pm3d_map_end
1.000 UL
LT0
0 g .9091 g 4050 6769 M
3779 6604 L
.9091 g 3779 6604 M
3509 6439 L
.9091 g 3509 6439 M
3238 6273 L
.9091 g 3238 6273 M
2967 6108 L
.9091 g 2967 6108 M
2697 5942 L
.9091 g 2697 5942 M
2426 5777 L
.9091 g 2426 5777 M
2155 5612 L
.9091 g 2155 5612 M
1885 5446 L
.9091 g 1885 5446 M
1614 5281 L
.9091 g 1614 5281 M
1343 5115 L
.9091 g 4636 6650 M
4365 6485 L
.9091 g 4365 6485 M
4095 6319 L
.9091 g 4095 6319 M
3824 6154 L
.9091 g 3824 6154 M
3553 5988 L
.9091 g 3553 5988 M
3283 5823 L
.9091 g 3283 5823 M
3012 5658 L
.9091 g 3012 5658 M
2741 5492 L
.9091 g 2741 5492 M
2471 5327 L
.9091 g 2471 5327 M
2200 5161 L
.9091 g 2200 5161 M
1929 4996 L
.9091 g 5221 6531 M
4951 6365 L
.9091 g 4951 6365 M
4681 6200 L
.9091 g 4681 6200 M
4410 6034 L
.9091 g 4410 6034 M
4139 5869 L
.9091 g 4139 5869 M
3869 5704 L
.9091 g 3869 5704 M
3598 5538 L
.9091 g 3598 5538 M
3327 5373 L
.9091 g 3327 5373 M
3057 5207 L
.9091 g 3057 5207 M
2786 5042 L
.9091 g 2786 5042 M
2515 4877 L
.9091 g 5807 6411 M
5536 6246 L
.9091 g 5536 6246 M
5265 6080 L
.9091 g 5265 6080 M
4996 5915 L
.9091 g 4996 5915 M
4725 5750 L
.9091 g 4725 5750 M
4455 5584 L
.9091 g 4455 5584 M
4184 5419 L
.9091 g 4184 5419 M
3913 5253 L
.9091 g 3913 5253 M
3643 5088 L
.9091 g 3643 5088 M
3372 4923 L
.9091 g 3372 4923 M
3101 4757 L
.9091 g 6393 6292 M
6122 6126 L
.9091 g 6122 6126 M
5851 5961 L
.9091 g 5851 5961 M
5581 5796 L
.9091 g 5581 5796 M
5310 5630 L
.9091 g 5310 5630 M
5040 5465 L
.9091 g 5040 5465 M
4770 5299 L
.9091 g 4770 5299 M
4499 5134 L
.9091 g 4499 5134 M
4229 4969 L
.9091 g 4229 4969 M
3958 4803 L
.9091 g 3958 4803 M
3687 4638 L
.9091 g 6979 6173 M
6708 6007 L
.9091 g 6708 6007 M
6437 5842 L
.9091 g 6437 5842 M
6167 5676 L
.9091 g 6167 5676 M
5896 5511 L
.9091 g 5896 5511 M
5625 5345 L
.9091 g 5625 5345 M
5355 5180 L
.9045 g 5355 5180 M
5084 4982 L
.9 g 5084 4982 M
4815 4816 L
.9045 g 4815 4816 M
4544 4684 L
.8909 g 4544 4684 M
4273 4387 L
.9091 g 7565 6053 M
7294 5888 L
.9091 g 7294 5888 M
7023 5722 L
.9091 g 7023 5722 M
6753 5557 L
.9045 g 6753 5557 M
6482 5359 L
.9045 g 6482 5359 M
6211 5226 L
.9045 g 6211 5226 M
5941 5028 L
.8955 g 5941 5028 M
5670 4830 L
.8773 g 5670 4830 M
5399 4566 L
.8455 g 5399 4566 M
5129 4270 L
.7818 g 5129 4270 M
4859 3778 L
.9091 g 8151 5934 M
7880 5768 L
.9091 g 7880 5768 M
7609 5603 L
.9045 g 7609 5603 M
7339 5405 L
.8909 g 7339 5405 M
7068 5174 L
.8773 g 7068 5174 M
6797 4976 L
.8045 g 6797 4976 M
6527 4319 L
.7 g 6527 4319 M
6256 3892 L
.6091 g 6256 3892 M
5985 3334 L
.4864 g 5985 3334 M
5715 2677 L
.3455 g 5715 2677 M
5444 1988 L
.8864 g 8737 5814 M
8466 5485 L
.6182 g 8466 5485 M
8195 3552 L
.2818 g 8195 3552 M
7925 2732 L
.1318 g 7925 2732 M
7654 2140 L
.0591 g 7654 2140 M
7383 1877 L
.0318 g 7383 1877 M
7113 1613 L
.0273 g 7113 1613 M
6842 1513 L
.0227 g 6842 1513 M
6571 1249 L
.0045 g 6571 1249 M
6301 1051 L
0 g 6301 1051 M
6030 886 L
.9091 g 4050 6769 M
586 -119 V
.9091 g 4636 6650 M
585 -119 V
.9091 g 5221 6531 M
586 -120 V
.9091 g 5807 6411 M
586 -119 V
.9091 g 6393 6292 M
586 -119 V
.9091 g 6979 6173 M
586 -120 V
.9091 g 7565 6053 M
586 -119 V
.9091 g 8151 5934 M
586 -120 V
.9091 g 3779 6604 M
586 -119 V
.9091 g 4365 6485 M
586 -120 V
.9091 g 4951 6365 M
585 -119 V
.9091 g 5536 6246 M
586 -120 V
.9091 g 6122 6126 M
586 -119 V
.9091 g 6708 6007 M
586 -119 V
.9091 g 7294 5888 M
586 -120 V
.8864 g 7880 5768 M
586 -283 V
.9091 g 3509 6439 M
586 -120 V
.9091 g 4095 6319 M
586 -119 V
.9091 g 4681 6200 M
584 -120 V
.9091 g 5265 6080 M
586 -119 V
.9091 g 5851 5961 M
586 -119 V
.9091 g 6437 5842 M
586 -120 V
.9091 g 7023 5722 M
586 -119 V
.6409 g 7609 5603 M
8195 3552 L
.9091 g 3238 6273 M
586 -119 V
.9091 g 3824 6154 M
586 -120 V
.9091 g 4410 6034 M
586 -119 V
.9091 g 4996 5915 M
585 -119 V
.9091 g 5581 5796 M
586 -120 V
.9091 g 6167 5676 M
586 -119 V
.9045 g 6753 5557 M
586 -152 V
.5455 g 7339 5405 M
7925 2732 L
.9091 g 2967 6108 M
586 -120 V
.9091 g 3553 5988 M
586 -119 V
.9091 g 4139 5869 M
586 -119 V
.9091 g 4725 5750 M
585 -120 V
.9091 g 5310 5630 M
586 -119 V
.9045 g 5896 5511 M
586 -152 V
.8909 g 6482 5359 M
586 -185 V
.4773 g 7068 5174 M
7654 2140 L
.9091 g 2697 5942 M
586 -119 V
.9091 g 3283 5823 M
586 -119 V
.9091 g 3869 5704 M
586 -120 V
.9091 g 4455 5584 M
585 -119 V
.9091 g 5040 5465 M
585 -120 V
.9091 g 5625 5345 M
586 -119 V
.8909 g 6211 5226 M
586 -250 V
.4591 g 6797 4976 M
7383 1877 L
.9091 g 2426 5777 M
586 -119 V
.9091 g 3012 5658 M
586 -120 V
.9091 g 3598 5538 M
586 -119 V
.9091 g 4184 5419 M
586 -120 V
.9091 g 4770 5299 M
585 -119 V
.9045 g 5355 5180 M
586 -152 V
.8182 g 5941 5028 M
586 -709 V
.3773 g 6527 4319 M
7113 1613 L
.9091 g 2155 5612 M
586 -120 V
.9091 g 2741 5492 M
586 -119 V
.9091 g 3327 5373 M
586 -120 V
.9091 g 3913 5253 M
586 -119 V
.9045 g 4499 5134 M
585 -152 V
.8955 g 5084 4982 M
586 -152 V
.7773 g 5670 4830 M
586 -938 V
.35 g 6256 3892 M
6842 1513 L
.9091 g 1885 5446 M
586 -119 V
.9091 g 2471 5327 M
586 -120 V
.9091 g 3057 5207 M
586 -119 V
.9091 g 3643 5088 M
586 -119 V
.9045 g 4229 4969 M
586 -153 V
.8818 g 4815 4816 M
584 -250 V
.7091 g 5399 4566 M
5985 3334 L
.2818 g 5985 3334 M
6571 1249 L
.9091 g 1614 5281 M
586 -120 V
.9091 g 2200 5161 M
586 -119 V
.9091 g 2786 5042 M
586 -119 V
.9091 g 3372 4923 M
586 -120 V
.9091 g 3958 4803 M
586 -119 V
.8682 g 4544 4684 M
585 -414 V
.6227 g 5129 4270 M
5715 2677 L
.2091 g 5715 2677 M
6301 1051 L
.9091 g 1343 5115 M
586 -119 V
.9091 g 1929 4996 M
586 -119 V
.9091 g 2515 4877 M
586 -120 V
.9091 g 3101 4757 M
586 -119 V
.8909 g 3687 4638 M
586 -251 V
.8045 g 4273 4387 M
586 -609 V
.5045 g 4859 3778 M
5444 1988 L
.1364 g 5444 1988 M
6030 886 L
% End plot #1
stroke
LTb
LCb setrgbcolor
8737 2540 M
6030 886 L
stroke
LTb
LCb setrgbcolor
1343 1841 M
6030 886 L
stroke
LTb
LCb setrgbcolor
6030 886 M
stroke
LCb setrgbcolor
3011 950 M
[ [(Helvetica) 200.0 0.0 true true 0 (Probability of incompleteness P1)]
] -66.7 MCshow
LTb
LCb setrgbcolor
8555 1474 M
[ [(Helvetica) 200.0 0.0 true true 0 (Probability of ties P2)]
] -66.7 MCshow
LTb
LCb setrgbcolor
503 3495 M
currentpoint gsave translate 90 rotate 0 0 moveto
[ [(Helvetica) 200.0 0.0 true true 0 (percentage of stable marriages with no singles)]
] -66.7 MCshow
grestore
LTb
stroke gsave	%% draw gray scale smooth box
maxcolors 0 gt {/imax maxcolors def} {/imax 1024 def} ifelse
8877 3282 translate 374 2460 scale 0 setlinewidth
/ystep 1 imax div def /y0 0 def /ii 0 def
{ y0 g 0 y0 N 1 0 V 0 ystep V -1 0 f
/y0 y0 ystep add def /ii ii 1 add def
ii imax ge {exit} if } loop
grestore 0 setgray
1.000 UL
LTb
LCb setrgbcolor
8877 3282 N
374 0 V
0 2460 V
-374 0 V
0 -2460 V
Z stroke
1.000 UL
LTb
LCb setrgbcolor
1.000 UL
LTb
LCb setrgbcolor
9251 3282 M
-63 0 V
stroke
9371 3282 M
[ [(Helvetica) 200.0 0.0 true true 0 ( 0)]
] -66.7 MLshow
1.000 UL
LTb
LCb setrgbcolor
8877 3282 M
63 0 V
311 223 R
-63 0 V
stroke
9371 3505 M
[ [(Helvetica) 200.0 0.0 true true 0 ( 10)]
] -66.7 MLshow
1.000 UL
LTb
LCb setrgbcolor
8877 3505 M
63 0 V
311 224 R
-63 0 V
stroke
9371 3729 M
[ [(Helvetica) 200.0 0.0 true true 0 ( 20)]
] -66.7 MLshow
1.000 UL
LTb
LCb setrgbcolor
8877 3729 M
63 0 V
311 223 R
-63 0 V
stroke
9371 3952 M
[ [(Helvetica) 200.0 0.0 true true 0 ( 30)]
] -66.7 MLshow
1.000 UL
LTb
LCb setrgbcolor
8877 3952 M
63 0 V
311 224 R
-63 0 V
stroke
9371 4176 M
[ [(Helvetica) 200.0 0.0 true true 0 ( 40)]
] -66.7 MLshow
1.000 UL
LTb
LCb setrgbcolor
8877 4176 M
63 0 V
311 224 R
-63 0 V
stroke
9371 4400 M
[ [(Helvetica) 200.0 0.0 true true 0 ( 50)]
] -66.7 MLshow
1.000 UL
LTb
LCb setrgbcolor
8877 4400 M
63 0 V
311 223 R
-63 0 V
stroke
9371 4623 M
[ [(Helvetica) 200.0 0.0 true true 0 ( 60)]
] -66.7 MLshow
1.000 UL
LTb
LCb setrgbcolor
8877 4623 M
63 0 V
311 224 R
-63 0 V
stroke
9371 4847 M
[ [(Helvetica) 200.0 0.0 true true 0 ( 70)]
] -66.7 MLshow
1.000 UL
LTb
LCb setrgbcolor
8877 4847 M
63 0 V
311 224 R
-63 0 V
stroke
9371 5071 M
[ [(Helvetica) 200.0 0.0 true true 0 ( 80)]
] -66.7 MLshow
1.000 UL
LTb
LCb setrgbcolor
8877 5071 M
63 0 V
311 223 R
-63 0 V
stroke
9371 5294 M
[ [(Helvetica) 200.0 0.0 true true 0 ( 90)]
] -66.7 MLshow
1.000 UL
LTb
LCb setrgbcolor
8877 5294 M
63 0 V
311 224 R
-63 0 V
stroke
9371 5518 M
[ [(Helvetica) 200.0 0.0 true true 0 ( 100)]
] -66.7 MLshow
1.000 UL
LTb
LCb setrgbcolor
8877 5518 M
63 0 V
311 224 R
-63 0 V
stroke
9371 5742 M
[ [(Helvetica) 200.0 0.0 true true 0 ( 110)]
] -66.7 MLshow
1.000 UL
LTb
LCb setrgbcolor
8877 5742 M
63 0 V
1.000 UP
stroke
grestore % colour palette end
stroke
grestore
end
showpage
%%Trailer
%%DocumentFonts: Helvetica
