%!PS-Adobe-2.0 EPSF-2.0
%%Title: AS-time3d.eps
%%Creator: gnuplot 4.6 patchlevel 4
%%CreationDate: Fri May 30 11:00:43 2014
%%DocumentFonts: (atend)
%%BoundingBox: 50 50 554 424
%%EndComments
%%BeginProlog
/gnudict 256 dict def
gnudict begin
%
% The following true/false flags may be edited by hand if desired.
% The unit line width and grayscale image gamma correction may also be changed.
%
/Color true def
/Blacktext false def
/Solid false def
/Dashlength 1 def
/Landscape false def
/Level1 false def
/Rounded false def
/ClipToBoundingBox false def
/SuppressPDFMark false def
/TransparentPatterns false def
/gnulinewidth 10.000 def
/userlinewidth gnulinewidth def
/Gamma 1.0 def
/BackgroundColor {-1.000 -1.000 -1.000} def
%
/vshift -66 def
/dl1 {
  10.0 Dashlength mul mul
  Rounded { currentlinewidth 0.75 mul sub dup 0 le { pop 0.01 } if } if
} def
/dl2 {
  10.0 Dashlength mul mul
  Rounded { currentlinewidth 0.75 mul add } if
} def
/hpt_ 31.5 def
/vpt_ 31.5 def
/hpt hpt_ def
/vpt vpt_ def
/doclip {
  ClipToBoundingBox {
    newpath 50 50 moveto 554 50 lineto 554 424 lineto 50 424 lineto closepath
    clip
  } if
} def
%
% Gnuplot Prolog Version 4.6 (September 2012)
%
%/SuppressPDFMark true def
%
/M {moveto} bind def
/L {lineto} bind def
/R {rmoveto} bind def
/V {rlineto} bind def
/N {newpath moveto} bind def
/Z {closepath} bind def
/C {setrgbcolor} bind def
/f {rlineto fill} bind def
/g {setgray} bind def
/Gshow {show} def   % May be redefined later in the file to support UTF-8
/vpt2 vpt 2 mul def
/hpt2 hpt 2 mul def
/Lshow {currentpoint stroke M 0 vshift R 
	Blacktext {gsave 0 setgray show grestore} {show} ifelse} def
/Rshow {currentpoint stroke M dup stringwidth pop neg vshift R
	Blacktext {gsave 0 setgray show grestore} {show} ifelse} def
/Cshow {currentpoint stroke M dup stringwidth pop -2 div vshift R 
	Blacktext {gsave 0 setgray show grestore} {show} ifelse} def
/UP {dup vpt_ mul /vpt exch def hpt_ mul /hpt exch def
  /hpt2 hpt 2 mul def /vpt2 vpt 2 mul def} def
/DL {Color {setrgbcolor Solid {pop []} if 0 setdash}
 {pop pop pop 0 setgray Solid {pop []} if 0 setdash} ifelse} def
/BL {stroke userlinewidth 2 mul setlinewidth
	Rounded {1 setlinejoin 1 setlinecap} if} def
/AL {stroke userlinewidth 2 div setlinewidth
	Rounded {1 setlinejoin 1 setlinecap} if} def
/UL {dup gnulinewidth mul /userlinewidth exch def
	dup 1 lt {pop 1} if 10 mul /udl exch def} def
/PL {stroke userlinewidth setlinewidth
	Rounded {1 setlinejoin 1 setlinecap} if} def
3.8 setmiterlimit
% Default Line colors
/LCw {1 1 1} def
/LCb {0 0 0} def
/LCa {0 0 0} def
/LC0 {1 0 0} def
/LC1 {0 1 0} def
/LC2 {0 0 1} def
/LC3 {1 0 1} def
/LC4 {0 1 1} def
/LC5 {1 1 0} def
/LC6 {0 0 0} def
/LC7 {1 0.3 0} def
/LC8 {0.5 0.5 0.5} def
% Default Line Types
/LTw {PL [] 1 setgray} def
/LTb {BL [] LCb DL} def
/LTa {AL [1 udl mul 2 udl mul] 0 setdash LCa setrgbcolor} def
/LT0 {PL [] LC0 DL} def
/LT1 {PL [4 dl1 2 dl2] LC1 DL} def
/LT2 {PL [2 dl1 3 dl2] LC2 DL} def
/LT3 {PL [1 dl1 1.5 dl2] LC3 DL} def
/LT4 {PL [6 dl1 2 dl2 1 dl1 2 dl2] LC4 DL} def
/LT5 {PL [3 dl1 3 dl2 1 dl1 3 dl2] LC5 DL} def
/LT6 {PL [2 dl1 2 dl2 2 dl1 6 dl2] LC6 DL} def
/LT7 {PL [1 dl1 2 dl2 6 dl1 2 dl2 1 dl1 2 dl2] LC7 DL} def
/LT8 {PL [2 dl1 2 dl2 2 dl1 2 dl2 2 dl1 2 dl2 2 dl1 4 dl2] LC8 DL} def
/Pnt {stroke [] 0 setdash gsave 1 setlinecap M 0 0 V stroke grestore} def
/Dia {stroke [] 0 setdash 2 copy vpt add M
  hpt neg vpt neg V hpt vpt neg V
  hpt vpt V hpt neg vpt V closepath stroke
  Pnt} def
/Pls {stroke [] 0 setdash vpt sub M 0 vpt2 V
  currentpoint stroke M
  hpt neg vpt neg R hpt2 0 V stroke
 } def
/Box {stroke [] 0 setdash 2 copy exch hpt sub exch vpt add M
  0 vpt2 neg V hpt2 0 V 0 vpt2 V
  hpt2 neg 0 V closepath stroke
  Pnt} def
/Crs {stroke [] 0 setdash exch hpt sub exch vpt add M
  hpt2 vpt2 neg V currentpoint stroke M
  hpt2 neg 0 R hpt2 vpt2 V stroke} def
/TriU {stroke [] 0 setdash 2 copy vpt 1.12 mul add M
  hpt neg vpt -1.62 mul V
  hpt 2 mul 0 V
  hpt neg vpt 1.62 mul V closepath stroke
  Pnt} def
/Star {2 copy Pls Crs} def
/BoxF {stroke [] 0 setdash exch hpt sub exch vpt add M
  0 vpt2 neg V hpt2 0 V 0 vpt2 V
  hpt2 neg 0 V closepath fill} def
/TriUF {stroke [] 0 setdash vpt 1.12 mul add M
  hpt neg vpt -1.62 mul V
  hpt 2 mul 0 V
  hpt neg vpt 1.62 mul V closepath fill} def
/TriD {stroke [] 0 setdash 2 copy vpt 1.12 mul sub M
  hpt neg vpt 1.62 mul V
  hpt 2 mul 0 V
  hpt neg vpt -1.62 mul V closepath stroke
  Pnt} def
/TriDF {stroke [] 0 setdash vpt 1.12 mul sub M
  hpt neg vpt 1.62 mul V
  hpt 2 mul 0 V
  hpt neg vpt -1.62 mul V closepath fill} def
/DiaF {stroke [] 0 setdash vpt add M
  hpt neg vpt neg V hpt vpt neg V
  hpt vpt V hpt neg vpt V closepath fill} def
/Pent {stroke [] 0 setdash 2 copy gsave
  translate 0 hpt M 4 {72 rotate 0 hpt L} repeat
  closepath stroke grestore Pnt} def
/PentF {stroke [] 0 setdash gsave
  translate 0 hpt M 4 {72 rotate 0 hpt L} repeat
  closepath fill grestore} def
/Circle {stroke [] 0 setdash 2 copy
  hpt 0 360 arc stroke Pnt} def
/CircleF {stroke [] 0 setdash hpt 0 360 arc fill} def
/C0 {BL [] 0 setdash 2 copy moveto vpt 90 450 arc} bind def
/C1 {BL [] 0 setdash 2 copy moveto
	2 copy vpt 0 90 arc closepath fill
	vpt 0 360 arc closepath} bind def
/C2 {BL [] 0 setdash 2 copy moveto
	2 copy vpt 90 180 arc closepath fill
	vpt 0 360 arc closepath} bind def
/C3 {BL [] 0 setdash 2 copy moveto
	2 copy vpt 0 180 arc closepath fill
	vpt 0 360 arc closepath} bind def
/C4 {BL [] 0 setdash 2 copy moveto
	2 copy vpt 180 270 arc closepath fill
	vpt 0 360 arc closepath} bind def
/C5 {BL [] 0 setdash 2 copy moveto
	2 copy vpt 0 90 arc
	2 copy moveto
	2 copy vpt 180 270 arc closepath fill
	vpt 0 360 arc} bind def
/C6 {BL [] 0 setdash 2 copy moveto
	2 copy vpt 90 270 arc closepath fill
	vpt 0 360 arc closepath} bind def
/C7 {BL [] 0 setdash 2 copy moveto
	2 copy vpt 0 270 arc closepath fill
	vpt 0 360 arc closepath} bind def
/C8 {BL [] 0 setdash 2 copy moveto
	2 copy vpt 270 360 arc closepath fill
	vpt 0 360 arc closepath} bind def
/C9 {BL [] 0 setdash 2 copy moveto
	2 copy vpt 270 450 arc closepath fill
	vpt 0 360 arc closepath} bind def
/C10 {BL [] 0 setdash 2 copy 2 copy moveto vpt 270 360 arc closepath fill
	2 copy moveto
	2 copy vpt 90 180 arc closepath fill
	vpt 0 360 arc closepath} bind def
/C11 {BL [] 0 setdash 2 copy moveto
	2 copy vpt 0 180 arc closepath fill
	2 copy moveto
	2 copy vpt 270 360 arc closepath fill
	vpt 0 360 arc closepath} bind def
/C12 {BL [] 0 setdash 2 copy moveto
	2 copy vpt 180 360 arc closepath fill
	vpt 0 360 arc closepath} bind def
/C13 {BL [] 0 setdash 2 copy moveto
	2 copy vpt 0 90 arc closepath fill
	2 copy moveto
	2 copy vpt 180 360 arc closepath fill
	vpt 0 360 arc closepath} bind def
/C14 {BL [] 0 setdash 2 copy moveto
	2 copy vpt 90 360 arc closepath fill
	vpt 0 360 arc} bind def
/C15 {BL [] 0 setdash 2 copy vpt 0 360 arc closepath fill
	vpt 0 360 arc closepath} bind def
/Rec {newpath 4 2 roll moveto 1 index 0 rlineto 0 exch rlineto
	neg 0 rlineto closepath} bind def
/Square {dup Rec} bind def
/Bsquare {vpt sub exch vpt sub exch vpt2 Square} bind def
/S0 {BL [] 0 setdash 2 copy moveto 0 vpt rlineto BL Bsquare} bind def
/S1 {BL [] 0 setdash 2 copy vpt Square fill Bsquare} bind def
/S2 {BL [] 0 setdash 2 copy exch vpt sub exch vpt Square fill Bsquare} bind def
/S3 {BL [] 0 setdash 2 copy exch vpt sub exch vpt2 vpt Rec fill Bsquare} bind def
/S4 {BL [] 0 setdash 2 copy exch vpt sub exch vpt sub vpt Square fill Bsquare} bind def
/S5 {BL [] 0 setdash 2 copy 2 copy vpt Square fill
	exch vpt sub exch vpt sub vpt Square fill Bsquare} bind def
/S6 {BL [] 0 setdash 2 copy exch vpt sub exch vpt sub vpt vpt2 Rec fill Bsquare} bind def
/S7 {BL [] 0 setdash 2 copy exch vpt sub exch vpt sub vpt vpt2 Rec fill
	2 copy vpt Square fill Bsquare} bind def
/S8 {BL [] 0 setdash 2 copy vpt sub vpt Square fill Bsquare} bind def
/S9 {BL [] 0 setdash 2 copy vpt sub vpt vpt2 Rec fill Bsquare} bind def
/S10 {BL [] 0 setdash 2 copy vpt sub vpt Square fill 2 copy exch vpt sub exch vpt Square fill
	Bsquare} bind def
/S11 {BL [] 0 setdash 2 copy vpt sub vpt Square fill 2 copy exch vpt sub exch vpt2 vpt Rec fill
	Bsquare} bind def
/S12 {BL [] 0 setdash 2 copy exch vpt sub exch vpt sub vpt2 vpt Rec fill Bsquare} bind def
/S13 {BL [] 0 setdash 2 copy exch vpt sub exch vpt sub vpt2 vpt Rec fill
	2 copy vpt Square fill Bsquare} bind def
/S14 {BL [] 0 setdash 2 copy exch vpt sub exch vpt sub vpt2 vpt Rec fill
	2 copy exch vpt sub exch vpt Square fill Bsquare} bind def
/S15 {BL [] 0 setdash 2 copy Bsquare fill Bsquare} bind def
/D0 {gsave translate 45 rotate 0 0 S0 stroke grestore} bind def
/D1 {gsave translate 45 rotate 0 0 S1 stroke grestore} bind def
/D2 {gsave translate 45 rotate 0 0 S2 stroke grestore} bind def
/D3 {gsave translate 45 rotate 0 0 S3 stroke grestore} bind def
/D4 {gsave translate 45 rotate 0 0 S4 stroke grestore} bind def
/D5 {gsave translate 45 rotate 0 0 S5 stroke grestore} bind def
/D6 {gsave translate 45 rotate 0 0 S6 stroke grestore} bind def
/D7 {gsave translate 45 rotate 0 0 S7 stroke grestore} bind def
/D8 {gsave translate 45 rotate 0 0 S8 stroke grestore} bind def
/D9 {gsave translate 45 rotate 0 0 S9 stroke grestore} bind def
/D10 {gsave translate 45 rotate 0 0 S10 stroke grestore} bind def
/D11 {gsave translate 45 rotate 0 0 S11 stroke grestore} bind def
/D12 {gsave translate 45 rotate 0 0 S12 stroke grestore} bind def
/D13 {gsave translate 45 rotate 0 0 S13 stroke grestore} bind def
/D14 {gsave translate 45 rotate 0 0 S14 stroke grestore} bind def
/D15 {gsave translate 45 rotate 0 0 S15 stroke grestore} bind def
/DiaE {stroke [] 0 setdash vpt add M
  hpt neg vpt neg V hpt vpt neg V
  hpt vpt V hpt neg vpt V closepath stroke} def
/BoxE {stroke [] 0 setdash exch hpt sub exch vpt add M
  0 vpt2 neg V hpt2 0 V 0 vpt2 V
  hpt2 neg 0 V closepath stroke} def
/TriUE {stroke [] 0 setdash vpt 1.12 mul add M
  hpt neg vpt -1.62 mul V
  hpt 2 mul 0 V
  hpt neg vpt 1.62 mul V closepath stroke} def
/TriDE {stroke [] 0 setdash vpt 1.12 mul sub M
  hpt neg vpt 1.62 mul V
  hpt 2 mul 0 V
  hpt neg vpt -1.62 mul V closepath stroke} def
/PentE {stroke [] 0 setdash gsave
  translate 0 hpt M 4 {72 rotate 0 hpt L} repeat
  closepath stroke grestore} def
/CircE {stroke [] 0 setdash 
  hpt 0 360 arc stroke} def
/Opaque {gsave closepath 1 setgray fill grestore 0 setgray closepath} def
/DiaW {stroke [] 0 setdash vpt add M
  hpt neg vpt neg V hpt vpt neg V
  hpt vpt V hpt neg vpt V Opaque stroke} def
/BoxW {stroke [] 0 setdash exch hpt sub exch vpt add M
  0 vpt2 neg V hpt2 0 V 0 vpt2 V
  hpt2 neg 0 V Opaque stroke} def
/TriUW {stroke [] 0 setdash vpt 1.12 mul add M
  hpt neg vpt -1.62 mul V
  hpt 2 mul 0 V
  hpt neg vpt 1.62 mul V Opaque stroke} def
/TriDW {stroke [] 0 setdash vpt 1.12 mul sub M
  hpt neg vpt 1.62 mul V
  hpt 2 mul 0 V
  hpt neg vpt -1.62 mul V Opaque stroke} def
/PentW {stroke [] 0 setdash gsave
  translate 0 hpt M 4 {72 rotate 0 hpt L} repeat
  Opaque stroke grestore} def
/CircW {stroke [] 0 setdash 
  hpt 0 360 arc Opaque stroke} def
/BoxFill {gsave Rec 1 setgray fill grestore} def
/Density {
  /Fillden exch def
  currentrgbcolor
  /ColB exch def /ColG exch def /ColR exch def
  /ColR ColR Fillden mul Fillden sub 1 add def
  /ColG ColG Fillden mul Fillden sub 1 add def
  /ColB ColB Fillden mul Fillden sub 1 add def
  ColR ColG ColB setrgbcolor} def
/BoxColFill {gsave Rec PolyFill} def
/PolyFill {gsave Density fill grestore grestore} def
/h {rlineto rlineto rlineto gsave closepath fill grestore} bind def
%
% PostScript Level 1 Pattern Fill routine for rectangles
% Usage: x y w h s a XX PatternFill
%	x,y = lower left corner of box to be filled
%	w,h = width and height of box
%	  a = angle in degrees between lines and x-axis
%	 XX = 0/1 for no/yes cross-hatch
%
/PatternFill {gsave /PFa [ 9 2 roll ] def
  PFa 0 get PFa 2 get 2 div add PFa 1 get PFa 3 get 2 div add translate
  PFa 2 get -2 div PFa 3 get -2 div PFa 2 get PFa 3 get Rec
  TransparentPatterns {} {gsave 1 setgray fill grestore} ifelse
  clip
  currentlinewidth 0.5 mul setlinewidth
  /PFs PFa 2 get dup mul PFa 3 get dup mul add sqrt def
  0 0 M PFa 5 get rotate PFs -2 div dup translate
  0 1 PFs PFa 4 get div 1 add floor cvi
	{PFa 4 get mul 0 M 0 PFs V} for
  0 PFa 6 get ne {
	0 1 PFs PFa 4 get div 1 add floor cvi
	{PFa 4 get mul 0 2 1 roll M PFs 0 V} for
 } if
  stroke grestore} def
%
/languagelevel where
 {pop languagelevel} {1} ifelse
 2 lt
	{/InterpretLevel1 true def}
	{/InterpretLevel1 Level1 def}
 ifelse
%
% PostScript level 2 pattern fill definitions
%
/Level2PatternFill {
/Tile8x8 {/PaintType 2 /PatternType 1 /TilingType 1 /BBox [0 0 8 8] /XStep 8 /YStep 8}
	bind def
/KeepColor {currentrgbcolor [/Pattern /DeviceRGB] setcolorspace} bind def
<< Tile8x8
 /PaintProc {0.5 setlinewidth pop 0 0 M 8 8 L 0 8 M 8 0 L stroke} 
>> matrix makepattern
/Pat1 exch def
<< Tile8x8
 /PaintProc {0.5 setlinewidth pop 0 0 M 8 8 L 0 8 M 8 0 L stroke
	0 4 M 4 8 L 8 4 L 4 0 L 0 4 L stroke}
>> matrix makepattern
/Pat2 exch def
<< Tile8x8
 /PaintProc {0.5 setlinewidth pop 0 0 M 0 8 L
	8 8 L 8 0 L 0 0 L fill}
>> matrix makepattern
/Pat3 exch def
<< Tile8x8
 /PaintProc {0.5 setlinewidth pop -4 8 M 8 -4 L
	0 12 M 12 0 L stroke}
>> matrix makepattern
/Pat4 exch def
<< Tile8x8
 /PaintProc {0.5 setlinewidth pop -4 0 M 8 12 L
	0 -4 M 12 8 L stroke}
>> matrix makepattern
/Pat5 exch def
<< Tile8x8
 /PaintProc {0.5 setlinewidth pop -2 8 M 4 -4 L
	0 12 M 8 -4 L 4 12 M 10 0 L stroke}
>> matrix makepattern
/Pat6 exch def
<< Tile8x8
 /PaintProc {0.5 setlinewidth pop -2 0 M 4 12 L
	0 -4 M 8 12 L 4 -4 M 10 8 L stroke}
>> matrix makepattern
/Pat7 exch def
<< Tile8x8
 /PaintProc {0.5 setlinewidth pop 8 -2 M -4 4 L
	12 0 M -4 8 L 12 4 M 0 10 L stroke}
>> matrix makepattern
/Pat8 exch def
<< Tile8x8
 /PaintProc {0.5 setlinewidth pop 0 -2 M 12 4 L
	-4 0 M 12 8 L -4 4 M 8 10 L stroke}
>> matrix makepattern
/Pat9 exch def
/Pattern1 {PatternBgnd KeepColor Pat1 setpattern} bind def
/Pattern2 {PatternBgnd KeepColor Pat2 setpattern} bind def
/Pattern3 {PatternBgnd KeepColor Pat3 setpattern} bind def
/Pattern4 {PatternBgnd KeepColor Landscape {Pat5} {Pat4} ifelse setpattern} bind def
/Pattern5 {PatternBgnd KeepColor Landscape {Pat4} {Pat5} ifelse setpattern} bind def
/Pattern6 {PatternBgnd KeepColor Landscape {Pat9} {Pat6} ifelse setpattern} bind def
/Pattern7 {PatternBgnd KeepColor Landscape {Pat8} {Pat7} ifelse setpattern} bind def
} def
%
%
%End of PostScript Level 2 code
%
/PatternBgnd {
  TransparentPatterns {} {gsave 1 setgray fill grestore} ifelse
} def
%
% Substitute for Level 2 pattern fill codes with
% grayscale if Level 2 support is not selected.
%
/Level1PatternFill {
/Pattern1 {0.250 Density} bind def
/Pattern2 {0.500 Density} bind def
/Pattern3 {0.750 Density} bind def
/Pattern4 {0.125 Density} bind def
/Pattern5 {0.375 Density} bind def
/Pattern6 {0.625 Density} bind def
/Pattern7 {0.875 Density} bind def
} def
%
% Now test for support of Level 2 code
%
Level1 {Level1PatternFill} {Level2PatternFill} ifelse
%
/Symbol-Oblique /Symbol findfont [1 0 .167 1 0 0] makefont
dup length dict begin {1 index /FID eq {pop pop} {def} ifelse} forall
currentdict end definefont pop
/MFshow {
   { dup 5 get 3 ge
     { 5 get 3 eq {gsave} {grestore} ifelse }
     {dup dup 0 get findfont exch 1 get scalefont setfont
     [ currentpoint ] exch dup 2 get 0 exch R dup 5 get 2 ne {dup dup 6
     get exch 4 get {Gshow} {stringwidth pop 0 R} ifelse }if dup 5 get 0 eq
     {dup 3 get {2 get neg 0 exch R pop} {pop aload pop M} ifelse} {dup 5
     get 1 eq {dup 2 get exch dup 3 get exch 6 get stringwidth pop -2 div
     dup 0 R} {dup 6 get stringwidth pop -2 div 0 R 6 get
     show 2 index {aload pop M neg 3 -1 roll neg R pop pop} {pop pop pop
     pop aload pop M} ifelse }ifelse }ifelse }
     ifelse }
   forall} def
/Gswidth {dup type /stringtype eq {stringwidth} {pop (n) stringwidth} ifelse} def
/MFwidth {0 exch { dup 5 get 3 ge { 5 get 3 eq { 0 } { pop } ifelse }
 {dup 3 get{dup dup 0 get findfont exch 1 get scalefont setfont
     6 get Gswidth pop add} {pop} ifelse} ifelse} forall} def
/MLshow { currentpoint stroke M
  0 exch R
  Blacktext {gsave 0 setgray MFshow grestore} {MFshow} ifelse } bind def
/MRshow { currentpoint stroke M
  exch dup MFwidth neg 3 -1 roll R
  Blacktext {gsave 0 setgray MFshow grestore} {MFshow} ifelse } bind def
/MCshow { currentpoint stroke M
  exch dup MFwidth -2 div 3 -1 roll R
  Blacktext {gsave 0 setgray MFshow grestore} {MFshow} ifelse } bind def
/XYsave    { [( ) 1 2 true false 3 ()] } bind def
/XYrestore { [( ) 1 2 true false 4 ()] } bind def
Level1 SuppressPDFMark or 
{} {
/SDict 10 dict def
systemdict /pdfmark known not {
  userdict /pdfmark systemdict /cleartomark get put
} if
SDict begin [
  /Title (AS-time3d.eps)
  /Subject (gnuplot plot)
  /Creator (gnuplot 4.6 patchlevel 4)
  /Author (danny)
%  /Producer (gnuplot)
%  /Keywords ()
  /CreationDate (Fri May 30 11:00:43 2014)
  /DOCINFO pdfmark
end
} ifelse
end
%%EndProlog
%%Page: 1 1
gnudict begin
gsave
doclip
50 50 translate
0.050 0.050 scale
0 setgray
newpath
(Helvetica) findfont 200 scalefont setfont
BackgroundColor 0 lt 3 1 roll 0 lt exch 0 lt or or not {BackgroundColor C 1.000 0 0 10080.00 7488.00 BoxColFill} if
gsave % colour palette begin
/maxcolors 0 def
/HSV2RGB {  exch dup 0.0 eq {pop exch pop dup dup} % achromatic gray
  { /HSVs exch def /HSVv exch def 6.0 mul dup floor dup 3 1 roll sub
     /HSVf exch def /HSVi exch cvi def /HSVp HSVv 1.0 HSVs sub mul def
	 /HSVq HSVv 1.0 HSVs HSVf mul sub mul def 
	 /HSVt HSVv 1.0 HSVs 1.0 HSVf sub mul sub mul def
	 /HSVi HSVi 6 mod def 0 HSVi eq {HSVv HSVt HSVp}
	 {1 HSVi eq {HSVq HSVv HSVp}{2 HSVi eq {HSVp HSVv HSVt}
	 {3 HSVi eq {HSVp HSVq HSVv}{4 HSVi eq {HSVt HSVp HSVv}
	 {HSVv HSVp HSVq} ifelse} ifelse} ifelse} ifelse} ifelse
  } ifelse} def
/Constrain {
  dup 0 lt {0 exch pop}{dup 1 gt {1 exch pop} if} ifelse} def
/YIQ2RGB {
  3 copy -1.702 mul exch -1.105 mul add add Constrain 4 1 roll
  3 copy -0.647 mul exch -0.272 mul add add Constrain 5 1 roll
  0.621 mul exch -0.956 mul add add Constrain 3 1 roll } def
/CMY2RGB {  1 exch sub exch 1 exch sub 3 2 roll 1 exch sub 3 1 roll exch } def
/XYZ2RGB {  3 copy -0.9017 mul exch -0.1187 mul add exch 0.0585 mul exch add
  Constrain 4 1 roll 3 copy -0.0279 mul exch 1.999 mul add exch
  -0.9844 mul add Constrain 5 1 roll -0.2891 mul exch -0.5338 mul add
  exch 1.91 mul exch add Constrain 3 1 roll} def
/SelectSpace {ColorSpace (HSV) eq {HSV2RGB}{ColorSpace (XYZ) eq {
  XYZ2RGB}{ColorSpace (CMY) eq {CMY2RGB}{ColorSpace (YIQ) eq {YIQ2RGB}
  if} ifelse} ifelse} ifelse} def
/InterpolatedColor false def
/cF7 {sqrt} bind def	% sqrt(x)
/cF5 {dup dup mul mul} bind def	% x^3
/cF15 {360 mul sin} bind def	% sin(360x)
/pm3dround {maxcolors 0 gt {dup 1 ge
	{pop 1} {maxcolors mul floor maxcolors 1 sub div} ifelse} if} def
/pm3dGamma 1.0 1.5 Gamma mul div def
/ColorSpace (RGB) def
Color InterpolatedColor or { % COLOUR vs. GRAY map
  InterpolatedColor { %% Interpolation vs. RGB-Formula
    /g {stroke pm3dround /grayv exch def interpolate
        SelectSpace setrgbcolor} bind def
  }{
  /g {stroke pm3dround dup cF7 Constrain exch dup cF5 Constrain exch cF15 Constrain 
       SelectSpace setrgbcolor} bind def
  } ifelse
}{
  /g {stroke pm3dround pm3dGamma exp setgray} bind def
} ifelse
1.000 UL
LTb
LCb setrgbcolor
1.000 UL
LTb
LCb setrgbcolor
1343 1841 M
4050 3495 L
stroke
LTb
LCb setrgbcolor
8737 2540 M
4050 3495 L
stroke
LTb
LCb setrgbcolor
1343 1841 M
0 3307 V
stroke
LTb
LCb setrgbcolor
4050 3495 M
0 4 V
stroke
LTb
LCb setrgbcolor
8737 2540 M
0 192 V
stroke
LTb
LCb setrgbcolor
1343 1841 M
45 27 V
stroke
LTb
LCb setrgbcolor
1258 1754 M
[ [(Helvetica) 200.0 0.0 true true 0 ( 0.1)]
] -66.7 MCshow
1.000 UL
LTb
LCb setrgbcolor
1.000 UL
LTb
LCb setrgbcolor
4050 3495 M
-45 -27 V
stroke
LTb
LCb setrgbcolor
1929 1721 M
45 28 V
stroke
LTb
LCb setrgbcolor
1844 1635 M
[ [(Helvetica) 200.0 0.0 true true 0 ( 0.2)]
] -66.7 MCshow
1.000 UL
LTb
LCb setrgbcolor
1.000 UL
LTb
LCb setrgbcolor
4636 3376 M
-45 -28 V
stroke
LTb
LCb setrgbcolor
2515 1602 M
45 27 V
stroke
LTb
LCb setrgbcolor
2430 1515 M
[ [(Helvetica) 200.0 0.0 true true 0 ( 0.3)]
] -66.7 MCshow
1.000 UL
LTb
LCb setrgbcolor
1.000 UL
LTb
LCb setrgbcolor
5221 3256 M
-45 -27 V
stroke
LTb
LCb setrgbcolor
3101 1483 M
45 27 V
stroke
LTb
LCb setrgbcolor
3016 1396 M
[ [(Helvetica) 200.0 0.0 true true 0 ( 0.4)]
] -66.7 MCshow
1.000 UL
LTb
LCb setrgbcolor
1.000 UL
LTb
LCb setrgbcolor
5807 3137 M
-45 -27 V
stroke
LTb
LCb setrgbcolor
3687 1363 M
45 28 V
stroke
LTb
LCb setrgbcolor
3602 1277 M
[ [(Helvetica) 200.0 0.0 true true 0 ( 0.5)]
] -66.7 MCshow
1.000 UL
LTb
LCb setrgbcolor
1.000 UL
LTb
LCb setrgbcolor
6393 3017 M
-45 -27 V
stroke
LTb
LCb setrgbcolor
4273 1244 M
45 27 V
stroke
LTb
LCb setrgbcolor
4188 1157 M
[ [(Helvetica) 200.0 0.0 true true 0 ( 0.6)]
] -66.7 MCshow
1.000 UL
LTb
LCb setrgbcolor
1.000 UL
LTb
LCb setrgbcolor
6979 2898 M
-45 -27 V
stroke
LTb
LCb setrgbcolor
4859 1125 M
45 27 V
stroke
LTb
LCb setrgbcolor
4774 1038 M
[ [(Helvetica) 200.0 0.0 true true 0 ( 0.7)]
] -66.7 MCshow
1.000 UL
LTb
LCb setrgbcolor
1.000 UL
LTb
LCb setrgbcolor
7565 2779 M
-45 -28 V
stroke
LTb
LCb setrgbcolor
5444 1005 M
45 27 V
stroke
LTb
LCb setrgbcolor
5359 919 M
[ [(Helvetica) 200.0 0.0 true true 0 ( 0.8)]
] -66.7 MCshow
1.000 UL
LTb
LCb setrgbcolor
1.000 UL
LTb
LCb setrgbcolor
8151 2659 M
-45 -27 V
stroke
LTb
LCb setrgbcolor
6030 886 M
45 27 V
stroke
LTb
LCb setrgbcolor
5945 799 M
[ [(Helvetica) 200.0 0.0 true true 0 ( 0.9)]
] -66.7 MCshow
1.000 UL
LTb
LCb setrgbcolor
1.000 UL
LTb
LCb setrgbcolor
8737 2540 M
-45 -27 V
stroke
LTb
LCb setrgbcolor
6030 886 M
-54 11 V
stroke
6134 851 M
[ [(Helvetica) 200.0 0.0 true true 0 ( 0)]
] -66.7 MCshow
1.000 UL
LTb
LCb setrgbcolor
1.000 UL
LTb
LCb setrgbcolor
1343 1841 M
55 -11 V
stroke
LTb
LCb setrgbcolor
6571 1217 M
-54 11 V
stroke
6675 1181 M
[ [(Helvetica) 200.0 0.0 true true 0 ( 0.2)]
] -66.7 MCshow
1.000 UL
LTb
LCb setrgbcolor
1.000 UL
LTb
LCb setrgbcolor
1885 2172 M
54 -11 V
stroke
LTb
LCb setrgbcolor
7113 1547 M
-55 12 V
stroke
7217 1512 M
[ [(Helvetica) 200.0 0.0 true true 0 ( 0.4)]
] -66.7 MCshow
1.000 UL
LTb
LCb setrgbcolor
1.000 UL
LTb
LCb setrgbcolor
2426 2502 M
55 -11 V
stroke
LTb
LCb setrgbcolor
7654 1878 M
-55 11 V
stroke
7758 1843 M
[ [(Helvetica) 200.0 0.0 true true 0 ( 0.6)]
] -66.7 MCshow
1.000 UL
LTb
LCb setrgbcolor
1.000 UL
LTb
LCb setrgbcolor
2967 2833 M
55 -11 V
stroke
LTb
LCb setrgbcolor
8195 2209 M
-54 11 V
stroke
8299 2174 M
[ [(Helvetica) 200.0 0.0 true true 0 ( 0.8)]
] -66.7 MCshow
1.000 UL
LTb
LCb setrgbcolor
1.000 UL
LTb
LCb setrgbcolor
3509 3164 M
54 -11 V
stroke
LTb
LCb setrgbcolor
8737 2540 M
-55 11 V
stroke
8841 2505 M
[ [(Helvetica) 200.0 0.0 true true 0 ( 1)]
] -66.7 MCshow
1.000 UL
LTb
LCb setrgbcolor
1.000 UL
LTb
LCb setrgbcolor
4050 3495 M
54 -11 V
stroke
LTb
LCb setrgbcolor
1343 1841 M
63 0 V
stroke
1217 1841 M
[ [(Helvetica) 200.0 0.0 true true 0 ( 0)]
] -66.7 MRshow
1.000 UL
LTb
LCb setrgbcolor
1.000 UL
LTb
LCb setrgbcolor
1343 2313 M
63 0 V
stroke
1217 2313 M
[ [(Helvetica) 200.0 0.0 true true 0 ( 5)]
] -66.7 MRshow
1.000 UL
LTb
LCb setrgbcolor
1.000 UL
LTb
LCb setrgbcolor
1343 2786 M
63 0 V
stroke
1217 2786 M
[ [(Helvetica) 200.0 0.0 true true 0 ( 10)]
] -66.7 MRshow
1.000 UL
LTb
LCb setrgbcolor
1.000 UL
LTb
LCb setrgbcolor
1343 3259 M
63 0 V
stroke
1217 3259 M
[ [(Helvetica) 200.0 0.0 true true 0 ( 15)]
] -66.7 MRshow
1.000 UL
LTb
LCb setrgbcolor
1.000 UL
LTb
LCb setrgbcolor
1343 3731 M
63 0 V
stroke
1217 3731 M
[ [(Helvetica) 200.0 0.0 true true 0 ( 20)]
] -66.7 MRshow
1.000 UL
LTb
LCb setrgbcolor
1.000 UL
LTb
LCb setrgbcolor
1343 4203 M
63 0 V
stroke
1217 4203 M
[ [(Helvetica) 200.0 0.0 true true 0 ( 25)]
] -66.7 MRshow
1.000 UL
LTb
LCb setrgbcolor
1.000 UL
LTb
LCb setrgbcolor
1343 4675 M
63 0 V
stroke
1217 4675 M
[ [(Helvetica) 200.0 0.0 true true 0 ( 30)]
] -66.7 MRshow
1.000 UL
LTb
LCb setrgbcolor
1.000 UL
LTb
LCb setrgbcolor
1343 5148 M
63 0 V
stroke
1217 5148 M
[ [(Helvetica) 200.0 0.0 true true 0 ( 35)]
] -66.7 MRshow
1.000 UL
LTb
LCb setrgbcolor
LCb setrgbcolor
503 3495 M
currentpoint gsave translate 90 rotate 0 0 moveto
[ [(Helvetica) 200.0 0.0 true true 0 (time \(ms\))]
] -66.7 MCshow
grestore
LTb
1.000 UP
% Begin plot #1
%pm3d_map_begin
1.000 UL
LT0
0 g .0163 g 3779 3430 N -586 116 271 68 586 -115 h
.0363 g 3509 3295 N -586 115 270 126 586 -106 h
.0455 g 3238 3156 N -586 106 271 141 586 -108 h
.0515 g 2967 3011 N -586 108 271 156 586 -119 h
.0557 g 2697 2857 N -586 119 270 151 586 -116 h
.0587 g 2426 2698 N -586 116 271 158 586 -115 h
.06 g 2155 2534 N -586 115 271 164 586 -115 h
.06 g 1885 2363 N -586 115 270 161 586 -105 h
.0595 g 1614 2199 N -586 105 271 172 586 -113 h
.0583 g 1343 2030 N -586 113 271 173 586 -117 h
.0172 g 4365 3315 N -585 115 270 73 586 -120 h
.0378 g 4095 3189 N -586 120 270 122 586 -116 h
.0484 g 3824 3048 N -586 116 271 132 586 -107 h
.0545 g 3553 2892 N -586 107 271 152 586 -103 h
.0585 g 3283 2741 N -586 103 270 150 586 -102 h
.0609 g 3012 2583 N -586 102 271 172 586 -116 h
.0617 g 2741 2419 N -586 116 271 158 586 -110 h
.062 g 2471 2258 N -586 110 270 174 586 -123 h
.0608 g 2200 2086 N -586 123 271 169 586 -120 h
.0603 g 1929 1913 N -586 120 271 155 586 -102 h
.018 g 4951 3195 N -586 113 271 79 585 -119 h
.0377 g 4681 3073 N -585 119 271 127 584 -124 h
.0493 g 4410 2941 N -584 124 269 128 586 -120 h
.0573 g 4139 2789 N -586 120 271 143 586 -111 h
.0612 g 3869 2639 N -586 111 270 165 586 -126 h
.0624 g 3598 2467 N -586 126 271 159 586 -113 h
.063 g 3327 2309 N -586 113 271 166 586 -121 h
.0638 g 3057 2135 N -586 121 270 152 586 -99 h
.0632 g 2786 1966 N -586 99 271 175 586 -105 h
.0624 g 2515 1811 N -586 105 271 173 586 -123 h
.0187 g 5536 3076 N -586 113 271 89 586 -123 h
.0376 g 5265 2949 N -586 123 271 117 586 -113 h
.0488 g 4996 2821 N -586 113 270 143 585 -128 h
.0571 g 4725 2678 N -585 128 271 137 585 -122 h
.061 g 4455 2513 N -585 122 270 165 585 -122 h
.0635 g 4184 2354 N -585 122 270 140 586 -103 h
.066 g 3913 2188 N -586 103 271 162 586 -99 h
.0683 g 3643 2036 N -586 99 270 152 586 -99 h
.0674 g 3372 1861 N -586 99 271 195 586 -119 h
.0636 g 3101 1688 N -586 119 271 169 586 -115 h
.0197 g 6122 2953 N -586 107 271 104 586 -122 h
.039 g 5851 2836 N -586 122 271 96 586 -101 h
.0511 g 5581 2693 N -586 101 270 146 586 -104 h
.0574 g 5310 2556 N -586 104 271 153 586 -120 h
.0619 g 5040 2391 N -586 120 271 146 585 -101 h
.07 g 4770 2251 N -585 101 270 105 585 -66 h
.0761 g 4499 2089 N -585 66 271 173 585 -77 h
.0753 g 4229 1937 N -585 77 269 186 586 -111 h
.0702 g 3958 1742 N -586 111 271 196 586 -112 h
.0739 g 3687 1573 N -586 112 271 53 586 4 h
.023 g 6708 2831 N -586 92 271 125 586 -113 h
.0398 g 6437 2735 N -586 113 271 114 586 -131 h
.0539 g 6167 2589 N -586 131 270 119 586 -104 h
.0648 g 5896 2436 N -586 104 271 99 586 -50 h
.0727 g 5625 2290 N -586 50 271 160 586 -64 h
.0805 g 5355 2185 N -586 64 270 148 586 -107 h
.0884 g 5084 2012 N -586 107 271 130 586 -64 h
.0971 g 4815 1826 N -586 64 271 58 584 64 h
.107 g 4544 1630 N -584 -64 270 91 585 169 h
.1341 g 4273 1577 N -585 -169 270 -37 586 259 h
.0289 g 7294 2718 N -586 110 271 99 586 -84 h
.0485 g 7023 2604 N -586 84 271 64 586 -34 h
.0741 g 6753 2485 N -586 34 270 27 586 58 h
.103 g 6482 2386 N -586 -58 271 34 586 123 h
.1334 g 6211 2226 N -586 -123 271 -33 586 316 h
.1772 g 5941 2078 N -586 -316 270 -194 586 658 h
.2168 g 5670 1948 N -586 -658 271 53 586 735 h
.2591 g 5399 1890 N -586 -735 271 -139 586 932 h
.3161 g 5129 1799 N -586 -932 270 -101 586 1124 h
.3791 g 4859 1836 N -586 -1124 271 -125 585 1212 h
.1088 g 7880 2634 N -586 1 271 -676 586 774 h
.2778 g 7609 2570 N -586 -774 271 -1062 586 1900 h
.4108 g 7339 2543 N -586 -1900 270 -125 586 2052 h
.4657 g 7068 2509 N -586 -2052 271 -1 586 2087 h
.507 g 6797 2542 N -586 -2087 271 116 586 1938 h
.5559 g 6527 2736 N -586 -1938 270 125 586 1619 h
.5924 g 6256 2683 N -586 -1619 271 194 586 1478 h
.6241 g 5985 2822 N -586 -1478 271 134 586 1205 h
.6717 g 5715 2923 N -586 -1205 270 138 586 966 h
.7158 g 5444 3048 N -586 -966 271 165 586 676 h
%pm3d_map_end
1.000 UL
LT0
0 g .0157 g 4050 3499 M
-271 -69 V
.0349 g 3779 3430 M
3509 3295 L
.0437 g 3509 3295 M
3238 3156 L
.0507 g 3238 3156 M
2967 3011 L
.0553 g 2967 3011 M
2697 2857 L
.0581 g 2697 2857 M
2426 2698 L
.0592 g 2426 2698 M
2155 2534 L
.0586 g 2155 2534 M
1885 2363 L
.0579 g 1885 2363 M
1614 2199 L
.0577 g 1614 2199 M
1343 2030 L
.0169 g 4636 3383 M
-271 -68 V
.0376 g 4365 3315 M
4095 3189 L
.0473 g 4095 3189 M
3824 3048 L
.0524 g 3824 3048 M
3553 2892 L
.056 g 3553 2892 M
3283 2741 L
.0594 g 3283 2741 M
3012 2583 L
.0607 g 3012 2583 M
2741 2419 L
.0615 g 2741 2419 M
2471 2258 L
.0611 g 2471 2258 M
2200 2086 L
.059 g 2200 2086 M
1929 1913 L
.0176 g 5221 3268 M
-270 -73 V
.038 g 4951 3195 M
4681 3073 L
.0496 g 4681 3073 M
4410 2941 L
.0567 g 4410 2941 M
4139 2789 L
.061 g 4139 2789 M
3869 2639 L
.0624 g 3869 2639 M
3598 2467 L
.0627 g 3598 2467 M
3327 2309 L
.0625 g 3327 2309 M
3057 2135 L
.0605 g 3057 2135 M
2786 1966 L
.0616 g 2786 1966 M
2515 1811 L
.0185 g 5807 3155 M
-271 -79 V
.0374 g 5536 3076 M
5265 2949 L
.049 g 5265 2949 M
4996 2821 L
.058 g 4996 2821 M
4725 2678 L
.0614 g 4725 2678 M
4455 2513 L
.0625 g 4455 2513 M
4184 2354 L
.0632 g 4184 2354 M
3913 2188 L
.0652 g 3913 2188 M
3643 2036 L
.0659 g 3643 2036 M
3372 1861 L
.0632 g 3372 1861 M
3101 1688 L
.0189 g 6393 3042 M
-271 -89 V
.0378 g 6122 2953 M
5851 2836 L
.0486 g 5851 2836 M
5581 2693 L
.0562 g 5581 2693 M
5310 2556 L
.0606 g 5310 2556 M
5040 2391 L
.0645 g 5040 2391 M
4770 2251 L
.0688 g 4770 2251 M
4499 2089 L
.0713 g 4499 2089 M
4229 1937 L
.0689 g 4229 1937 M
3958 1742 L
.064 g 3958 1742 M
3687 1573 L
.0205 g 6979 2935 M
6708 2831 L
.0403 g 6708 2831 M
-271 -96 V
.0536 g 6437 2735 M
6167 2589 L
.0585 g 6167 2589 M
5896 2436 L
.0633 g 5896 2436 M
5625 2290 L
.0754 g 5625 2290 M
5355 2185 L
.0834 g 5355 2185 M
5084 2012 L
.0792 g 5084 2012 M
4815 1826 L
.0714 g 4815 1826 M
4544 1630 L
.0837 g 4544 1630 M
-271 -53 V
.0255 g 7565 2843 M
7294 2718 L
.0393 g 7294 2718 M
7023 2604 L
.0541 g 7023 2604 M
6753 2485 L
.0712 g 6753 2485 M
-271 -99 V
.0822 g 6482 2386 M
6211 2226 L
.0855 g 6211 2226 M
5941 2078 L
.0935 g 5941 2078 M
5670 1948 L
.115 g 5670 1948 M
-271 -58 V
.1426 g 5399 1890 M
-270 -91 V
.1845 g 5129 1799 M
-270 37 V
.0323 g 8151 2733 M
-271 -99 V
.0577 g 7880 2634 M
-271 -64 V
.094 g 7609 2570 M
-270 -27 V
.1347 g 7339 2543 M
-271 -34 V
.1846 g 7068 2509 M
-271 33 V
.2689 g 6797 2542 M
-270 194 V
.3401 g 6527 2736 M
-271 -53 V
.4031 g 6256 2683 M
-271 139 V
.4895 g 5985 2822 M
-270 101 V
.5736 g 5715 2923 M
-271 125 V
.1852 g 8737 2732 M
-271 676 V
.498 g 8466 3408 M
8195 4470 L
.7275 g 8195 4470 M
-270 125 V
.7967 g 7925 4595 M
-271 1 V
.8293 g 7654 4596 M
7383 4480 L
.843 g 7383 4480 M
7113 4355 L
.8447 g 7113 4355 M
6842 4161 L
.8451 g 6842 4161 M
6571 4027 L
.8539 g 6571 4027 M
6301 3889 L
.858 g 6301 3889 M
6030 3724 L
.0017 g 4050 3499 M
586 -116 V
.003 g 4636 3383 M
585 -115 V
.0046 g 5221 3268 M
586 -113 V
.0064 g 5807 3155 M
586 -113 V
.0093 g 6393 3042 M
586 -107 V
.0153 g 6979 2935 M
586 -92 V
.0209 g 7565 2843 M
586 -110 V
.0402 g 8151 2733 M
586 -1 V
.0309 g 3779 3430 M
586 -115 V
.0315 g 4365 3315 M
586 -120 V
.0315 g 4951 3195 M
585 -119 V
.031 g 5536 3076 M
586 -123 V
.0302 g 6122 2953 M
586 -122 V
.0307 g 6708 2831 M
586 -113 V
.0369 g 7294 2718 M
586 -84 V
.1773 g 7880 2634 M
586 774 V
.0416 g 3509 3295 M
586 -106 V
.0441 g 4095 3189 M
586 -116 V
.0439 g 4681 3073 M
584 -124 V
.0442 g 5265 2949 M
586 -113 V
.0478 g 5851 2836 M
586 -101 V
.0489 g 6437 2735 M
586 -131 V
.0601 g 7023 2604 M
586 -34 V
.3783 g 7609 2570 M
586 1900 V
.0493 g 3238 3156 M
586 -108 V
.0528 g 3824 3048 M
586 -107 V
.0546 g 4410 2941 M
586 -120 V
.0534 g 4996 2821 M
585 -128 V
.0543 g 5581 2693 M
586 -104 V
.0588 g 6167 2589 M
586 -104 V
.088 g 6753 2485 M
586 58 V
.4432 g 7339 2543 M
586 2052 V
.0537 g 2967 3011 M
586 -119 V
.0563 g 3553 2892 M
586 -103 V
.06 g 4139 2789 M
586 -111 V
.0609 g 4725 2678 M
585 -122 V
.0604 g 5310 2556 M
586 -120 V
.0709 g 5896 2436 M
586 -50 V
.118 g 6482 2386 M
586 123 V
.4882 g 7068 2509 M
586 2087 V
.0576 g 2697 2857 M
586 -116 V
.0608 g 3283 2741 M
586 -102 V
.0624 g 3869 2639 M
586 -126 V
.0612 g 4455 2513 M
585 -122 V
.0635 g 5040 2391 M
585 -101 V
.0746 g 5625 2290 M
586 -64 V
.1488 g 6211 2226 M
586 316 V
.5257 g 6797 2542 M
586 1938 V
.0598 g 2426 2698 M
586 -115 V
.061 g 3012 2583 M
586 -116 V
.0625 g 3598 2467 M
586 -113 V
.0658 g 4184 2354 M
586 -103 V
stroke 4770 2251 M
.0764 g 4770 2251 M
585 -66 V
.0863 g 5355 2185 M
586 -107 V
.2057 g 5941 2078 M
586 658 V
.5862 g 6527 2736 M
586 1619 V
.0602 g 2155 2534 M
586 -115 V
.0624 g 2741 2419 M
586 -110 V
.0635 g 3327 2309 M
586 -121 V
.0663 g 3913 2188 M
586 -99 V
.0758 g 4499 2089 M
585 -77 V
.0906 g 5084 2012 M
586 -64 V
.2279 g 5670 1948 M
586 735 V
.5987 g 6256 2683 M
586 1478 V
.0599 g 1885 2363 M
586 -105 V
.0616 g 2471 2258 M
586 -123 V
.0642 g 3057 2135 M
586 -99 V
.0703 g 3643 2036 M
586 -99 V
.0747 g 4229 1937 M
586 -111 V
.1037 g 4815 1826 M
584 64 V
.2903 g 5399 1890 M
586 932 V
.6496 g 5985 2822 M
586 1205 V
.0591 g 1614 2199 M
586 -113 V
.0601 g 2200 2086 M
586 -120 V
.0622 g 2786 1966 M
586 -105 V
.0645 g 3372 1861 M
586 -119 V
.0657 g 3958 1742 M
586 -112 V
.1104 g 4544 1630 M
585 169 V
.3418 g 5129 1799 M
586 1124 V
.6939 g 5715 2923 M
586 966 V
.0575 g 1343 2030 M
586 -117 V
.0605 g 1929 1913 M
586 -102 V
.0626 g 2515 1811 M
586 -123 V
.0628 g 3101 1688 M
586 -115 V
.082 g 3687 1573 M
586 4 V
.1579 g 4273 1577 M
586 259 V
.4163 g 4859 1836 M
585 1212 V
.7377 g 5444 3048 M
586 676 V
% End plot #1
stroke
LTb
LCb setrgbcolor
8737 2540 M
6030 886 L
stroke
LTb
LCb setrgbcolor
1343 1841 M
6030 886 L
stroke
LTb
LCb setrgbcolor
6030 886 M
0 2838 V
stroke
LCb setrgbcolor
3011 950 M
[ [(Helvetica) 200.0 0.0 true true 0 (Probability of incompleteness P1)]
] -66.7 MCshow
LTb
LCb setrgbcolor
8555 1474 M
[ [(Helvetica) 200.0 0.0 true true 0 (Probability of ties P2)]
] -66.7 MCshow
LTb
LCb setrgbcolor
503 3495 M
currentpoint gsave translate 90 rotate 0 0 moveto
[ [(Helvetica) 200.0 0.0 true true 0 (time \(ms\))]
] -66.7 MCshow
grestore
LTb
stroke gsave	%% draw gray scale smooth box
maxcolors 0 gt {/imax maxcolors def} {/imax 1024 def} ifelse
8877 3282 translate 374 2460 scale 0 setlinewidth
/ystep 1 imax div def /y0 0 def /ii 0 def
{ y0 g 0 y0 N 1 0 V 0 ystep V -1 0 f
/y0 y0 ystep add def /ii ii 1 add def
ii imax ge {exit} if } loop
grestore 0 setgray
1.000 UL
LTb
LCb setrgbcolor
8877 3282 N
374 0 V
0 2460 V
-374 0 V
0 -2460 V
Z stroke
1.000 UL
LTb
LCb setrgbcolor
1.000 UL
LTb
LCb setrgbcolor
9251 3282 M
-63 0 V
stroke
9371 3282 M
[ [(Helvetica) 200.0 0.0 true true 0 ( 0)]
] -66.7 MLshow
1.000 UL
LTb
LCb setrgbcolor
8877 3282 M
63 0 V
311 351 R
-63 0 V
stroke
9371 3633 M
[ [(Helvetica) 200.0 0.0 true true 0 ( 5)]
] -66.7 MLshow
1.000 UL
LTb
LCb setrgbcolor
8877 3633 M
63 0 V
311 351 R
-63 0 V
stroke
9371 3984 M
[ [(Helvetica) 200.0 0.0 true true 0 ( 10)]
] -66.7 MLshow
1.000 UL
LTb
LCb setrgbcolor
8877 3984 M
63 0 V
311 352 R
-63 0 V
stroke
9371 4336 M
[ [(Helvetica) 200.0 0.0 true true 0 ( 15)]
] -66.7 MLshow
1.000 UL
LTb
LCb setrgbcolor
8877 4336 M
63 0 V
311 351 R
-63 0 V
stroke
9371 4687 M
[ [(Helvetica) 200.0 0.0 true true 0 ( 20)]
] -66.7 MLshow
1.000 UL
LTb
LCb setrgbcolor
8877 4687 M
63 0 V
311 352 R
-63 0 V
stroke
9371 5039 M
[ [(Helvetica) 200.0 0.0 true true 0 ( 25)]
] -66.7 MLshow
1.000 UL
LTb
LCb setrgbcolor
8877 5039 M
63 0 V
311 351 R
-63 0 V
stroke
9371 5390 M
[ [(Helvetica) 200.0 0.0 true true 0 ( 30)]
] -66.7 MLshow
1.000 UL
LTb
LCb setrgbcolor
8877 5390 M
63 0 V
311 352 R
-63 0 V
stroke
9371 5742 M
[ [(Helvetica) 200.0 0.0 true true 0 ( 35)]
] -66.7 MLshow
1.000 UL
LTb
LCb setrgbcolor
8877 5742 M
63 0 V
1.000 UP
stroke
grestore % colour palette end
stroke
grestore
end
showpage
%%Trailer
%%DocumentFonts: Helvetica
