%!PS-Adobe-2.0 EPSF-2.0
%%Title: McDermid-time3d.eps
%%Creator: gnuplot 4.6 patchlevel 4
%%CreationDate: Fri May 30 11:01:34 2014
%%DocumentFonts: (atend)
%%BoundingBox: 50 50 554 424
%%EndComments
%%BeginProlog
/gnudict 256 dict def
gnudict begin
%
% The following true/false flags may be edited by hand if desired.
% The unit line width and grayscale image gamma correction may also be changed.
%
/Color true def
/Blacktext false def
/Solid false def
/Dashlength 1 def
/Landscape false def
/Level1 false def
/Rounded false def
/ClipToBoundingBox false def
/SuppressPDFMark false def
/TransparentPatterns false def
/gnulinewidth 10.000 def
/userlinewidth gnulinewidth def
/Gamma 1.0 def
/BackgroundColor {-1.000 -1.000 -1.000} def
%
/vshift -66 def
/dl1 {
  10.0 Dashlength mul mul
  Rounded { currentlinewidth 0.75 mul sub dup 0 le { pop 0.01 } if } if
} def
/dl2 {
  10.0 Dashlength mul mul
  Rounded { currentlinewidth 0.75 mul add } if
} def
/hpt_ 31.5 def
/vpt_ 31.5 def
/hpt hpt_ def
/vpt vpt_ def
/doclip {
  ClipToBoundingBox {
    newpath 50 50 moveto 554 50 lineto 554 424 lineto 50 424 lineto closepath
    clip
  } if
} def
%
% Gnuplot Prolog Version 4.6 (September 2012)
%
%/SuppressPDFMark true def
%
/M {moveto} bind def
/L {lineto} bind def
/R {rmoveto} bind def
/V {rlineto} bind def
/N {newpath moveto} bind def
/Z {closepath} bind def
/C {setrgbcolor} bind def
/f {rlineto fill} bind def
/g {setgray} bind def
/Gshow {show} def   % May be redefined later in the file to support UTF-8
/vpt2 vpt 2 mul def
/hpt2 hpt 2 mul def
/Lshow {currentpoint stroke M 0 vshift R 
	Blacktext {gsave 0 setgray show grestore} {show} ifelse} def
/Rshow {currentpoint stroke M dup stringwidth pop neg vshift R
	Blacktext {gsave 0 setgray show grestore} {show} ifelse} def
/Cshow {currentpoint stroke M dup stringwidth pop -2 div vshift R 
	Blacktext {gsave 0 setgray show grestore} {show} ifelse} def
/UP {dup vpt_ mul /vpt exch def hpt_ mul /hpt exch def
  /hpt2 hpt 2 mul def /vpt2 vpt 2 mul def} def
/DL {Color {setrgbcolor Solid {pop []} if 0 setdash}
 {pop pop pop 0 setgray Solid {pop []} if 0 setdash} ifelse} def
/BL {stroke userlinewidth 2 mul setlinewidth
	Rounded {1 setlinejoin 1 setlinecap} if} def
/AL {stroke userlinewidth 2 div setlinewidth
	Rounded {1 setlinejoin 1 setlinecap} if} def
/UL {dup gnulinewidth mul /userlinewidth exch def
	dup 1 lt {pop 1} if 10 mul /udl exch def} def
/PL {stroke userlinewidth setlinewidth
	Rounded {1 setlinejoin 1 setlinecap} if} def
3.8 setmiterlimit
% Default Line colors
/LCw {1 1 1} def
/LCb {0 0 0} def
/LCa {0 0 0} def
/LC0 {1 0 0} def
/LC1 {0 1 0} def
/LC2 {0 0 1} def
/LC3 {1 0 1} def
/LC4 {0 1 1} def
/LC5 {1 1 0} def
/LC6 {0 0 0} def
/LC7 {1 0.3 0} def
/LC8 {0.5 0.5 0.5} def
% Default Line Types
/LTw {PL [] 1 setgray} def
/LTb {BL [] LCb DL} def
/LTa {AL [1 udl mul 2 udl mul] 0 setdash LCa setrgbcolor} def
/LT0 {PL [] LC0 DL} def
/LT1 {PL [4 dl1 2 dl2] LC1 DL} def
/LT2 {PL [2 dl1 3 dl2] LC2 DL} def
/LT3 {PL [1 dl1 1.5 dl2] LC3 DL} def
/LT4 {PL [6 dl1 2 dl2 1 dl1 2 dl2] LC4 DL} def
/LT5 {PL [3 dl1 3 dl2 1 dl1 3 dl2] LC5 DL} def
/LT6 {PL [2 dl1 2 dl2 2 dl1 6 dl2] LC6 DL} def
/LT7 {PL [1 dl1 2 dl2 6 dl1 2 dl2 1 dl1 2 dl2] LC7 DL} def
/LT8 {PL [2 dl1 2 dl2 2 dl1 2 dl2 2 dl1 2 dl2 2 dl1 4 dl2] LC8 DL} def
/Pnt {stroke [] 0 setdash gsave 1 setlinecap M 0 0 V stroke grestore} def
/Dia {stroke [] 0 setdash 2 copy vpt add M
  hpt neg vpt neg V hpt vpt neg V
  hpt vpt V hpt neg vpt V closepath stroke
  Pnt} def
/Pls {stroke [] 0 setdash vpt sub M 0 vpt2 V
  currentpoint stroke M
  hpt neg vpt neg R hpt2 0 V stroke
 } def
/Box {stroke [] 0 setdash 2 copy exch hpt sub exch vpt add M
  0 vpt2 neg V hpt2 0 V 0 vpt2 V
  hpt2 neg 0 V closepath stroke
  Pnt} def
/Crs {stroke [] 0 setdash exch hpt sub exch vpt add M
  hpt2 vpt2 neg V currentpoint stroke M
  hpt2 neg 0 R hpt2 vpt2 V stroke} def
/TriU {stroke [] 0 setdash 2 copy vpt 1.12 mul add M
  hpt neg vpt -1.62 mul V
  hpt 2 mul 0 V
  hpt neg vpt 1.62 mul V closepath stroke
  Pnt} def
/Star {2 copy Pls Crs} def
/BoxF {stroke [] 0 setdash exch hpt sub exch vpt add M
  0 vpt2 neg V hpt2 0 V 0 vpt2 V
  hpt2 neg 0 V closepath fill} def
/TriUF {stroke [] 0 setdash vpt 1.12 mul add M
  hpt neg vpt -1.62 mul V
  hpt 2 mul 0 V
  hpt neg vpt 1.62 mul V closepath fill} def
/TriD {stroke [] 0 setdash 2 copy vpt 1.12 mul sub M
  hpt neg vpt 1.62 mul V
  hpt 2 mul 0 V
  hpt neg vpt -1.62 mul V closepath stroke
  Pnt} def
/TriDF {stroke [] 0 setdash vpt 1.12 mul sub M
  hpt neg vpt 1.62 mul V
  hpt 2 mul 0 V
  hpt neg vpt -1.62 mul V closepath fill} def
/DiaF {stroke [] 0 setdash vpt add M
  hpt neg vpt neg V hpt vpt neg V
  hpt vpt V hpt neg vpt V closepath fill} def
/Pent {stroke [] 0 setdash 2 copy gsave
  translate 0 hpt M 4 {72 rotate 0 hpt L} repeat
  closepath stroke grestore Pnt} def
/PentF {stroke [] 0 setdash gsave
  translate 0 hpt M 4 {72 rotate 0 hpt L} repeat
  closepath fill grestore} def
/Circle {stroke [] 0 setdash 2 copy
  hpt 0 360 arc stroke Pnt} def
/CircleF {stroke [] 0 setdash hpt 0 360 arc fill} def
/C0 {BL [] 0 setdash 2 copy moveto vpt 90 450 arc} bind def
/C1 {BL [] 0 setdash 2 copy moveto
	2 copy vpt 0 90 arc closepath fill
	vpt 0 360 arc closepath} bind def
/C2 {BL [] 0 setdash 2 copy moveto
	2 copy vpt 90 180 arc closepath fill
	vpt 0 360 arc closepath} bind def
/C3 {BL [] 0 setdash 2 copy moveto
	2 copy vpt 0 180 arc closepath fill
	vpt 0 360 arc closepath} bind def
/C4 {BL [] 0 setdash 2 copy moveto
	2 copy vpt 180 270 arc closepath fill
	vpt 0 360 arc closepath} bind def
/C5 {BL [] 0 setdash 2 copy moveto
	2 copy vpt 0 90 arc
	2 copy moveto
	2 copy vpt 180 270 arc closepath fill
	vpt 0 360 arc} bind def
/C6 {BL [] 0 setdash 2 copy moveto
	2 copy vpt 90 270 arc closepath fill
	vpt 0 360 arc closepath} bind def
/C7 {BL [] 0 setdash 2 copy moveto
	2 copy vpt 0 270 arc closepath fill
	vpt 0 360 arc closepath} bind def
/C8 {BL [] 0 setdash 2 copy moveto
	2 copy vpt 270 360 arc closepath fill
	vpt 0 360 arc closepath} bind def
/C9 {BL [] 0 setdash 2 copy moveto
	2 copy vpt 270 450 arc closepath fill
	vpt 0 360 arc closepath} bind def
/C10 {BL [] 0 setdash 2 copy 2 copy moveto vpt 270 360 arc closepath fill
	2 copy moveto
	2 copy vpt 90 180 arc closepath fill
	vpt 0 360 arc closepath} bind def
/C11 {BL [] 0 setdash 2 copy moveto
	2 copy vpt 0 180 arc closepath fill
	2 copy moveto
	2 copy vpt 270 360 arc closepath fill
	vpt 0 360 arc closepath} bind def
/C12 {BL [] 0 setdash 2 copy moveto
	2 copy vpt 180 360 arc closepath fill
	vpt 0 360 arc closepath} bind def
/C13 {BL [] 0 setdash 2 copy moveto
	2 copy vpt 0 90 arc closepath fill
	2 copy moveto
	2 copy vpt 180 360 arc closepath fill
	vpt 0 360 arc closepath} bind def
/C14 {BL [] 0 setdash 2 copy moveto
	2 copy vpt 90 360 arc closepath fill
	vpt 0 360 arc} bind def
/C15 {BL [] 0 setdash 2 copy vpt 0 360 arc closepath fill
	vpt 0 360 arc closepath} bind def
/Rec {newpath 4 2 roll moveto 1 index 0 rlineto 0 exch rlineto
	neg 0 rlineto closepath} bind def
/Square {dup Rec} bind def
/Bsquare {vpt sub exch vpt sub exch vpt2 Square} bind def
/S0 {BL [] 0 setdash 2 copy moveto 0 vpt rlineto BL Bsquare} bind def
/S1 {BL [] 0 setdash 2 copy vpt Square fill Bsquare} bind def
/S2 {BL [] 0 setdash 2 copy exch vpt sub exch vpt Square fill Bsquare} bind def
/S3 {BL [] 0 setdash 2 copy exch vpt sub exch vpt2 vpt Rec fill Bsquare} bind def
/S4 {BL [] 0 setdash 2 copy exch vpt sub exch vpt sub vpt Square fill Bsquare} bind def
/S5 {BL [] 0 setdash 2 copy 2 copy vpt Square fill
	exch vpt sub exch vpt sub vpt Square fill Bsquare} bind def
/S6 {BL [] 0 setdash 2 copy exch vpt sub exch vpt sub vpt vpt2 Rec fill Bsquare} bind def
/S7 {BL [] 0 setdash 2 copy exch vpt sub exch vpt sub vpt vpt2 Rec fill
	2 copy vpt Square fill Bsquare} bind def
/S8 {BL [] 0 setdash 2 copy vpt sub vpt Square fill Bsquare} bind def
/S9 {BL [] 0 setdash 2 copy vpt sub vpt vpt2 Rec fill Bsquare} bind def
/S10 {BL [] 0 setdash 2 copy vpt sub vpt Square fill 2 copy exch vpt sub exch vpt Square fill
	Bsquare} bind def
/S11 {BL [] 0 setdash 2 copy vpt sub vpt Square fill 2 copy exch vpt sub exch vpt2 vpt Rec fill
	Bsquare} bind def
/S12 {BL [] 0 setdash 2 copy exch vpt sub exch vpt sub vpt2 vpt Rec fill Bsquare} bind def
/S13 {BL [] 0 setdash 2 copy exch vpt sub exch vpt sub vpt2 vpt Rec fill
	2 copy vpt Square fill Bsquare} bind def
/S14 {BL [] 0 setdash 2 copy exch vpt sub exch vpt sub vpt2 vpt Rec fill
	2 copy exch vpt sub exch vpt Square fill Bsquare} bind def
/S15 {BL [] 0 setdash 2 copy Bsquare fill Bsquare} bind def
/D0 {gsave translate 45 rotate 0 0 S0 stroke grestore} bind def
/D1 {gsave translate 45 rotate 0 0 S1 stroke grestore} bind def
/D2 {gsave translate 45 rotate 0 0 S2 stroke grestore} bind def
/D3 {gsave translate 45 rotate 0 0 S3 stroke grestore} bind def
/D4 {gsave translate 45 rotate 0 0 S4 stroke grestore} bind def
/D5 {gsave translate 45 rotate 0 0 S5 stroke grestore} bind def
/D6 {gsave translate 45 rotate 0 0 S6 stroke grestore} bind def
/D7 {gsave translate 45 rotate 0 0 S7 stroke grestore} bind def
/D8 {gsave translate 45 rotate 0 0 S8 stroke grestore} bind def
/D9 {gsave translate 45 rotate 0 0 S9 stroke grestore} bind def
/D10 {gsave translate 45 rotate 0 0 S10 stroke grestore} bind def
/D11 {gsave translate 45 rotate 0 0 S11 stroke grestore} bind def
/D12 {gsave translate 45 rotate 0 0 S12 stroke grestore} bind def
/D13 {gsave translate 45 rotate 0 0 S13 stroke grestore} bind def
/D14 {gsave translate 45 rotate 0 0 S14 stroke grestore} bind def
/D15 {gsave translate 45 rotate 0 0 S15 stroke grestore} bind def
/DiaE {stroke [] 0 setdash vpt add M
  hpt neg vpt neg V hpt vpt neg V
  hpt vpt V hpt neg vpt V closepath stroke} def
/BoxE {stroke [] 0 setdash exch hpt sub exch vpt add M
  0 vpt2 neg V hpt2 0 V 0 vpt2 V
  hpt2 neg 0 V closepath stroke} def
/TriUE {stroke [] 0 setdash vpt 1.12 mul add M
  hpt neg vpt -1.62 mul V
  hpt 2 mul 0 V
  hpt neg vpt 1.62 mul V closepath stroke} def
/TriDE {stroke [] 0 setdash vpt 1.12 mul sub M
  hpt neg vpt 1.62 mul V
  hpt 2 mul 0 V
  hpt neg vpt -1.62 mul V closepath stroke} def
/PentE {stroke [] 0 setdash gsave
  translate 0 hpt M 4 {72 rotate 0 hpt L} repeat
  closepath stroke grestore} def
/CircE {stroke [] 0 setdash 
  hpt 0 360 arc stroke} def
/Opaque {gsave closepath 1 setgray fill grestore 0 setgray closepath} def
/DiaW {stroke [] 0 setdash vpt add M
  hpt neg vpt neg V hpt vpt neg V
  hpt vpt V hpt neg vpt V Opaque stroke} def
/BoxW {stroke [] 0 setdash exch hpt sub exch vpt add M
  0 vpt2 neg V hpt2 0 V 0 vpt2 V
  hpt2 neg 0 V Opaque stroke} def
/TriUW {stroke [] 0 setdash vpt 1.12 mul add M
  hpt neg vpt -1.62 mul V
  hpt 2 mul 0 V
  hpt neg vpt 1.62 mul V Opaque stroke} def
/TriDW {stroke [] 0 setdash vpt 1.12 mul sub M
  hpt neg vpt 1.62 mul V
  hpt 2 mul 0 V
  hpt neg vpt -1.62 mul V Opaque stroke} def
/PentW {stroke [] 0 setdash gsave
  translate 0 hpt M 4 {72 rotate 0 hpt L} repeat
  Opaque stroke grestore} def
/CircW {stroke [] 0 setdash 
  hpt 0 360 arc Opaque stroke} def
/BoxFill {gsave Rec 1 setgray fill grestore} def
/Density {
  /Fillden exch def
  currentrgbcolor
  /ColB exch def /ColG exch def /ColR exch def
  /ColR ColR Fillden mul Fillden sub 1 add def
  /ColG ColG Fillden mul Fillden sub 1 add def
  /ColB ColB Fillden mul Fillden sub 1 add def
  ColR ColG ColB setrgbcolor} def
/BoxColFill {gsave Rec PolyFill} def
/PolyFill {gsave Density fill grestore grestore} def
/h {rlineto rlineto rlineto gsave closepath fill grestore} bind def
%
% PostScript Level 1 Pattern Fill routine for rectangles
% Usage: x y w h s a XX PatternFill
%	x,y = lower left corner of box to be filled
%	w,h = width and height of box
%	  a = angle in degrees between lines and x-axis
%	 XX = 0/1 for no/yes cross-hatch
%
/PatternFill {gsave /PFa [ 9 2 roll ] def
  PFa 0 get PFa 2 get 2 div add PFa 1 get PFa 3 get 2 div add translate
  PFa 2 get -2 div PFa 3 get -2 div PFa 2 get PFa 3 get Rec
  TransparentPatterns {} {gsave 1 setgray fill grestore} ifelse
  clip
  currentlinewidth 0.5 mul setlinewidth
  /PFs PFa 2 get dup mul PFa 3 get dup mul add sqrt def
  0 0 M PFa 5 get rotate PFs -2 div dup translate
  0 1 PFs PFa 4 get div 1 add floor cvi
	{PFa 4 get mul 0 M 0 PFs V} for
  0 PFa 6 get ne {
	0 1 PFs PFa 4 get div 1 add floor cvi
	{PFa 4 get mul 0 2 1 roll M PFs 0 V} for
 } if
  stroke grestore} def
%
/languagelevel where
 {pop languagelevel} {1} ifelse
 2 lt
	{/InterpretLevel1 true def}
	{/InterpretLevel1 Level1 def}
 ifelse
%
% PostScript level 2 pattern fill definitions
%
/Level2PatternFill {
/Tile8x8 {/PaintType 2 /PatternType 1 /TilingType 1 /BBox [0 0 8 8] /XStep 8 /YStep 8}
	bind def
/KeepColor {currentrgbcolor [/Pattern /DeviceRGB] setcolorspace} bind def
<< Tile8x8
 /PaintProc {0.5 setlinewidth pop 0 0 M 8 8 L 0 8 M 8 0 L stroke} 
>> matrix makepattern
/Pat1 exch def
<< Tile8x8
 /PaintProc {0.5 setlinewidth pop 0 0 M 8 8 L 0 8 M 8 0 L stroke
	0 4 M 4 8 L 8 4 L 4 0 L 0 4 L stroke}
>> matrix makepattern
/Pat2 exch def
<< Tile8x8
 /PaintProc {0.5 setlinewidth pop 0 0 M 0 8 L
	8 8 L 8 0 L 0 0 L fill}
>> matrix makepattern
/Pat3 exch def
<< Tile8x8
 /PaintProc {0.5 setlinewidth pop -4 8 M 8 -4 L
	0 12 M 12 0 L stroke}
>> matrix makepattern
/Pat4 exch def
<< Tile8x8
 /PaintProc {0.5 setlinewidth pop -4 0 M 8 12 L
	0 -4 M 12 8 L stroke}
>> matrix makepattern
/Pat5 exch def
<< Tile8x8
 /PaintProc {0.5 setlinewidth pop -2 8 M 4 -4 L
	0 12 M 8 -4 L 4 12 M 10 0 L stroke}
>> matrix makepattern
/Pat6 exch def
<< Tile8x8
 /PaintProc {0.5 setlinewidth pop -2 0 M 4 12 L
	0 -4 M 8 12 L 4 -4 M 10 8 L stroke}
>> matrix makepattern
/Pat7 exch def
<< Tile8x8
 /PaintProc {0.5 setlinewidth pop 8 -2 M -4 4 L
	12 0 M -4 8 L 12 4 M 0 10 L stroke}
>> matrix makepattern
/Pat8 exch def
<< Tile8x8
 /PaintProc {0.5 setlinewidth pop 0 -2 M 12 4 L
	-4 0 M 12 8 L -4 4 M 8 10 L stroke}
>> matrix makepattern
/Pat9 exch def
/Pattern1 {PatternBgnd KeepColor Pat1 setpattern} bind def
/Pattern2 {PatternBgnd KeepColor Pat2 setpattern} bind def
/Pattern3 {PatternBgnd KeepColor Pat3 setpattern} bind def
/Pattern4 {PatternBgnd KeepColor Landscape {Pat5} {Pat4} ifelse setpattern} bind def
/Pattern5 {PatternBgnd KeepColor Landscape {Pat4} {Pat5} ifelse setpattern} bind def
/Pattern6 {PatternBgnd KeepColor Landscape {Pat9} {Pat6} ifelse setpattern} bind def
/Pattern7 {PatternBgnd KeepColor Landscape {Pat8} {Pat7} ifelse setpattern} bind def
} def
%
%
%End of PostScript Level 2 code
%
/PatternBgnd {
  TransparentPatterns {} {gsave 1 setgray fill grestore} ifelse
} def
%
% Substitute for Level 2 pattern fill codes with
% grayscale if Level 2 support is not selected.
%
/Level1PatternFill {
/Pattern1 {0.250 Density} bind def
/Pattern2 {0.500 Density} bind def
/Pattern3 {0.750 Density} bind def
/Pattern4 {0.125 Density} bind def
/Pattern5 {0.375 Density} bind def
/Pattern6 {0.625 Density} bind def
/Pattern7 {0.875 Density} bind def
} def
%
% Now test for support of Level 2 code
%
Level1 {Level1PatternFill} {Level2PatternFill} ifelse
%
/Symbol-Oblique /Symbol findfont [1 0 .167 1 0 0] makefont
dup length dict begin {1 index /FID eq {pop pop} {def} ifelse} forall
currentdict end definefont pop
/MFshow {
   { dup 5 get 3 ge
     { 5 get 3 eq {gsave} {grestore} ifelse }
     {dup dup 0 get findfont exch 1 get scalefont setfont
     [ currentpoint ] exch dup 2 get 0 exch R dup 5 get 2 ne {dup dup 6
     get exch 4 get {Gshow} {stringwidth pop 0 R} ifelse }if dup 5 get 0 eq
     {dup 3 get {2 get neg 0 exch R pop} {pop aload pop M} ifelse} {dup 5
     get 1 eq {dup 2 get exch dup 3 get exch 6 get stringwidth pop -2 div
     dup 0 R} {dup 6 get stringwidth pop -2 div 0 R 6 get
     show 2 index {aload pop M neg 3 -1 roll neg R pop pop} {pop pop pop
     pop aload pop M} ifelse }ifelse }ifelse }
     ifelse }
   forall} def
/Gswidth {dup type /stringtype eq {stringwidth} {pop (n) stringwidth} ifelse} def
/MFwidth {0 exch { dup 5 get 3 ge { 5 get 3 eq { 0 } { pop } ifelse }
 {dup 3 get{dup dup 0 get findfont exch 1 get scalefont setfont
     6 get Gswidth pop add} {pop} ifelse} ifelse} forall} def
/MLshow { currentpoint stroke M
  0 exch R
  Blacktext {gsave 0 setgray MFshow grestore} {MFshow} ifelse } bind def
/MRshow { currentpoint stroke M
  exch dup MFwidth neg 3 -1 roll R
  Blacktext {gsave 0 setgray MFshow grestore} {MFshow} ifelse } bind def
/MCshow { currentpoint stroke M
  exch dup MFwidth -2 div 3 -1 roll R
  Blacktext {gsave 0 setgray MFshow grestore} {MFshow} ifelse } bind def
/XYsave    { [( ) 1 2 true false 3 ()] } bind def
/XYrestore { [( ) 1 2 true false 4 ()] } bind def
Level1 SuppressPDFMark or 
{} {
/SDict 10 dict def
systemdict /pdfmark known not {
  userdict /pdfmark systemdict /cleartomark get put
} if
SDict begin [
  /Title (McDermid-time3d.eps)
  /Subject (gnuplot plot)
  /Creator (gnuplot 4.6 patchlevel 4)
  /Author (danny)
%  /Producer (gnuplot)
%  /Keywords ()
  /CreationDate (Fri May 30 11:01:34 2014)
  /DOCINFO pdfmark
end
} ifelse
end
%%EndProlog
%%Page: 1 1
gnudict begin
gsave
doclip
50 50 translate
0.050 0.050 scale
0 setgray
newpath
(Helvetica) findfont 200 scalefont setfont
BackgroundColor 0 lt 3 1 roll 0 lt exch 0 lt or or not {BackgroundColor C 1.000 0 0 10080.00 7488.00 BoxColFill} if
gsave % colour palette begin
/maxcolors 0 def
/HSV2RGB {  exch dup 0.0 eq {pop exch pop dup dup} % achromatic gray
  { /HSVs exch def /HSVv exch def 6.0 mul dup floor dup 3 1 roll sub
     /HSVf exch def /HSVi exch cvi def /HSVp HSVv 1.0 HSVs sub mul def
	 /HSVq HSVv 1.0 HSVs HSVf mul sub mul def 
	 /HSVt HSVv 1.0 HSVs 1.0 HSVf sub mul sub mul def
	 /HSVi HSVi 6 mod def 0 HSVi eq {HSVv HSVt HSVp}
	 {1 HSVi eq {HSVq HSVv HSVp}{2 HSVi eq {HSVp HSVv HSVt}
	 {3 HSVi eq {HSVp HSVq HSVv}{4 HSVi eq {HSVt HSVp HSVv}
	 {HSVv HSVp HSVq} ifelse} ifelse} ifelse} ifelse} ifelse
  } ifelse} def
/Constrain {
  dup 0 lt {0 exch pop}{dup 1 gt {1 exch pop} if} ifelse} def
/YIQ2RGB {
  3 copy -1.702 mul exch -1.105 mul add add Constrain 4 1 roll
  3 copy -0.647 mul exch -0.272 mul add add Constrain 5 1 roll
  0.621 mul exch -0.956 mul add add Constrain 3 1 roll } def
/CMY2RGB {  1 exch sub exch 1 exch sub 3 2 roll 1 exch sub 3 1 roll exch } def
/XYZ2RGB {  3 copy -0.9017 mul exch -0.1187 mul add exch 0.0585 mul exch add
  Constrain 4 1 roll 3 copy -0.0279 mul exch 1.999 mul add exch
  -0.9844 mul add Constrain 5 1 roll -0.2891 mul exch -0.5338 mul add
  exch 1.91 mul exch add Constrain 3 1 roll} def
/SelectSpace {ColorSpace (HSV) eq {HSV2RGB}{ColorSpace (XYZ) eq {
  XYZ2RGB}{ColorSpace (CMY) eq {CMY2RGB}{ColorSpace (YIQ) eq {YIQ2RGB}
  if} ifelse} ifelse} ifelse} def
/InterpolatedColor false def
/cF7 {sqrt} bind def	% sqrt(x)
/cF5 {dup dup mul mul} bind def	% x^3
/cF15 {360 mul sin} bind def	% sin(360x)
/pm3dround {maxcolors 0 gt {dup 1 ge
	{pop 1} {maxcolors mul floor maxcolors 1 sub div} ifelse} if} def
/pm3dGamma 1.0 1.5 Gamma mul div def
/ColorSpace (RGB) def
Color InterpolatedColor or { % COLOUR vs. GRAY map
  InterpolatedColor { %% Interpolation vs. RGB-Formula
    /g {stroke pm3dround /grayv exch def interpolate
        SelectSpace setrgbcolor} bind def
  }{
  /g {stroke pm3dround dup cF7 Constrain exch dup cF5 Constrain exch cF15 Constrain 
       SelectSpace setrgbcolor} bind def
  } ifelse
}{
  /g {stroke pm3dround pm3dGamma exp setgray} bind def
} ifelse
1.000 UL
LTb
LCb setrgbcolor
1.000 UL
LTb
LCb setrgbcolor
1343 1841 M
4050 3495 L
stroke
LTb
LCb setrgbcolor
8737 2540 M
4050 3495 L
stroke
LTb
LCb setrgbcolor
1343 1841 M
0 3307 V
stroke
LTb
LCb setrgbcolor
4050 3495 M
0 2960 V
stroke
LTb
LCb setrgbcolor
8737 2540 M
0 492 V
stroke
LTb
LCb setrgbcolor
1343 1841 M
45 27 V
stroke
LTb
LCb setrgbcolor
1258 1754 M
[ [(Helvetica) 200.0 0.0 true true 0 ( 0.1)]
] -66.7 MCshow
1.000 UL
LTb
LCb setrgbcolor
1.000 UL
LTb
LCb setrgbcolor
4050 3495 M
-45 -27 V
stroke
LTb
LCb setrgbcolor
1929 1721 M
45 28 V
stroke
LTb
LCb setrgbcolor
1844 1635 M
[ [(Helvetica) 200.0 0.0 true true 0 ( 0.2)]
] -66.7 MCshow
1.000 UL
LTb
LCb setrgbcolor
1.000 UL
LTb
LCb setrgbcolor
4636 3376 M
-45 -28 V
stroke
LTb
LCb setrgbcolor
2515 1602 M
45 27 V
stroke
LTb
LCb setrgbcolor
2430 1515 M
[ [(Helvetica) 200.0 0.0 true true 0 ( 0.3)]
] -66.7 MCshow
1.000 UL
LTb
LCb setrgbcolor
1.000 UL
LTb
LCb setrgbcolor
5221 3256 M
-45 -27 V
stroke
LTb
LCb setrgbcolor
3101 1483 M
45 27 V
stroke
LTb
LCb setrgbcolor
3016 1396 M
[ [(Helvetica) 200.0 0.0 true true 0 ( 0.4)]
] -66.7 MCshow
1.000 UL
LTb
LCb setrgbcolor
1.000 UL
LTb
LCb setrgbcolor
5807 3137 M
-45 -27 V
stroke
LTb
LCb setrgbcolor
3687 1363 M
45 28 V
stroke
LTb
LCb setrgbcolor
3602 1277 M
[ [(Helvetica) 200.0 0.0 true true 0 ( 0.5)]
] -66.7 MCshow
1.000 UL
LTb
LCb setrgbcolor
1.000 UL
LTb
LCb setrgbcolor
6393 3017 M
-45 -27 V
stroke
LTb
LCb setrgbcolor
4273 1244 M
45 27 V
stroke
LTb
LCb setrgbcolor
4188 1157 M
[ [(Helvetica) 200.0 0.0 true true 0 ( 0.6)]
] -66.7 MCshow
1.000 UL
LTb
LCb setrgbcolor
1.000 UL
LTb
LCb setrgbcolor
6979 2898 M
-45 -27 V
stroke
LTb
LCb setrgbcolor
4859 1125 M
45 27 V
stroke
LTb
LCb setrgbcolor
4774 1038 M
[ [(Helvetica) 200.0 0.0 true true 0 ( 0.7)]
] -66.7 MCshow
1.000 UL
LTb
LCb setrgbcolor
1.000 UL
LTb
LCb setrgbcolor
7565 2779 M
-45 -28 V
stroke
LTb
LCb setrgbcolor
5444 1005 M
45 27 V
stroke
LTb
LCb setrgbcolor
5359 919 M
[ [(Helvetica) 200.0 0.0 true true 0 ( 0.8)]
] -66.7 MCshow
1.000 UL
LTb
LCb setrgbcolor
1.000 UL
LTb
LCb setrgbcolor
8151 2659 M
-45 -27 V
stroke
LTb
LCb setrgbcolor
6030 886 M
45 27 V
stroke
LTb
LCb setrgbcolor
5945 799 M
[ [(Helvetica) 200.0 0.0 true true 0 ( 0.9)]
] -66.7 MCshow
1.000 UL
LTb
LCb setrgbcolor
1.000 UL
LTb
LCb setrgbcolor
8737 2540 M
-45 -27 V
stroke
LTb
LCb setrgbcolor
6030 886 M
-54 11 V
stroke
6134 851 M
[ [(Helvetica) 200.0 0.0 true true 0 ( 0)]
] -66.7 MCshow
1.000 UL
LTb
LCb setrgbcolor
1.000 UL
LTb
LCb setrgbcolor
1343 1841 M
55 -11 V
stroke
LTb
LCb setrgbcolor
6571 1217 M
-54 11 V
stroke
6675 1181 M
[ [(Helvetica) 200.0 0.0 true true 0 ( 0.2)]
] -66.7 MCshow
1.000 UL
LTb
LCb setrgbcolor
1.000 UL
LTb
LCb setrgbcolor
1885 2172 M
54 -11 V
stroke
LTb
LCb setrgbcolor
7113 1547 M
-55 12 V
stroke
7217 1512 M
[ [(Helvetica) 200.0 0.0 true true 0 ( 0.4)]
] -66.7 MCshow
1.000 UL
LTb
LCb setrgbcolor
1.000 UL
LTb
LCb setrgbcolor
2426 2502 M
55 -11 V
stroke
LTb
LCb setrgbcolor
7654 1878 M
-55 11 V
stroke
7758 1843 M
[ [(Helvetica) 200.0 0.0 true true 0 ( 0.6)]
] -66.7 MCshow
1.000 UL
LTb
LCb setrgbcolor
1.000 UL
LTb
LCb setrgbcolor
2967 2833 M
55 -11 V
stroke
LTb
LCb setrgbcolor
8195 2209 M
-54 11 V
stroke
8299 2174 M
[ [(Helvetica) 200.0 0.0 true true 0 ( 0.8)]
] -66.7 MCshow
1.000 UL
LTb
LCb setrgbcolor
1.000 UL
LTb
LCb setrgbcolor
3509 3164 M
54 -11 V
stroke
LTb
LCb setrgbcolor
8737 2540 M
-55 11 V
stroke
8841 2505 M
[ [(Helvetica) 200.0 0.0 true true 0 ( 1)]
] -66.7 MCshow
1.000 UL
LTb
LCb setrgbcolor
1.000 UL
LTb
LCb setrgbcolor
4050 3495 M
54 -11 V
stroke
LTb
LCb setrgbcolor
1343 1841 M
63 0 V
stroke
1217 1841 M
[ [(Helvetica) 200.0 0.0 true true 0 ( 12)]
] -66.7 MRshow
1.000 UL
LTb
LCb setrgbcolor
1.000 UL
LTb
LCb setrgbcolor
1343 2142 M
63 0 V
stroke
1217 2142 M
[ [(Helvetica) 200.0 0.0 true true 0 ( 14)]
] -66.7 MRshow
1.000 UL
LTb
LCb setrgbcolor
1.000 UL
LTb
LCb setrgbcolor
1343 2442 M
63 0 V
stroke
1217 2442 M
[ [(Helvetica) 200.0 0.0 true true 0 ( 16)]
] -66.7 MRshow
1.000 UL
LTb
LCb setrgbcolor
1.000 UL
LTb
LCb setrgbcolor
1343 2743 M
63 0 V
stroke
1217 2743 M
[ [(Helvetica) 200.0 0.0 true true 0 ( 18)]
] -66.7 MRshow
1.000 UL
LTb
LCb setrgbcolor
1.000 UL
LTb
LCb setrgbcolor
1343 3044 M
63 0 V
stroke
1217 3044 M
[ [(Helvetica) 200.0 0.0 true true 0 ( 20)]
] -66.7 MRshow
1.000 UL
LTb
LCb setrgbcolor
1.000 UL
LTb
LCb setrgbcolor
1343 3345 M
63 0 V
stroke
1217 3345 M
[ [(Helvetica) 200.0 0.0 true true 0 ( 22)]
] -66.7 MRshow
1.000 UL
LTb
LCb setrgbcolor
1.000 UL
LTb
LCb setrgbcolor
1343 3645 M
63 0 V
stroke
1217 3645 M
[ [(Helvetica) 200.0 0.0 true true 0 ( 24)]
] -66.7 MRshow
1.000 UL
LTb
LCb setrgbcolor
1.000 UL
LTb
LCb setrgbcolor
1343 3945 M
63 0 V
stroke
1217 3945 M
[ [(Helvetica) 200.0 0.0 true true 0 ( 26)]
] -66.7 MRshow
1.000 UL
LTb
LCb setrgbcolor
1.000 UL
LTb
LCb setrgbcolor
1343 4246 M
63 0 V
stroke
1217 4246 M
[ [(Helvetica) 200.0 0.0 true true 0 ( 28)]
] -66.7 MRshow
1.000 UL
LTb
LCb setrgbcolor
1.000 UL
LTb
LCb setrgbcolor
1343 4547 M
63 0 V
stroke
1217 4547 M
[ [(Helvetica) 200.0 0.0 true true 0 ( 30)]
] -66.7 MRshow
1.000 UL
LTb
LCb setrgbcolor
1.000 UL
LTb
LCb setrgbcolor
1343 4847 M
63 0 V
stroke
1217 4847 M
[ [(Helvetica) 200.0 0.0 true true 0 ( 32)]
] -66.7 MRshow
1.000 UL
LTb
LCb setrgbcolor
1.000 UL
LTb
LCb setrgbcolor
1343 5148 M
63 0 V
stroke
1217 5148 M
[ [(Helvetica) 200.0 0.0 true true 0 ( 34)]
] -66.7 MRshow
1.000 UL
LTb
LCb setrgbcolor
LCb setrgbcolor
503 3495 M
currentpoint gsave translate 90 rotate 0 0 moveto
[ [(Helvetica) 200.0 0.0 true true 0 (time \(ms\))]
] -66.7 MCshow
grestore
LTb
1.000 UP
% Begin plot #1
%pm3d_map_begin
1.000 UL
LT0
0 g .7907 g 3779 5766 N -586 541 271 180 586 -32 h
.7826 g 3509 5954 N -586 32 270 87 586 -307 h
.8706 g 3238 6088 N -586 307 271 -267 586 -174 h
.8627 g 2967 5658 N -586 174 271 736 586 -480 h
.8101 g 2697 5497 N -586 480 270 31 586 -350 h
.8393 g 2426 5572 N -586 350 271 159 586 -584 h
.8739 g 2155 5542 N -586 584 271 90 586 -644 h
.9001 g 1885 5286 N -586 644 270 -62 586 -326 h
.8791 g 1614 4947 N -586 326 271 407 586 -394 h
.8151 g 1343 4590 N -586 394 271 406 586 -443 h
.738 g 4365 5734 N -585 111 270 560 586 -491 h
.723 g 4095 5647 N -586 491 270 33 586 -437 h
.794 g 3824 5914 N -586 437 271 -131 586 -573 h
.7897 g 3553 5178 N -586 573 271 381 586 -218 h
.7552 g 3283 5147 N -586 218 270 -31 586 -156 h
.7927 g 3012 4988 N -586 156 271 7 586 -4 h
.7841 g 2741 4898 N -586 4 271 520 586 -434 h
.7826 g 2471 4960 N -586 434 270 132 586 -628 h
.794 g 2200 4553 N -586 628 271 35 586 -256 h
.7407 g 1929 4147 N -586 256 271 519 586 -369 h
.6626 g 4951 5243 N -586 544 271 344 585 -328 h
.6523 g 4681 5210 N -585 328 271 -138 584 -157 h
.7361 g 4410 5341 N -584 157 269 -212 586 -76 h
.7276 g 4139 4960 N -586 76 271 737 586 -432 h
.7247 g 3869 4991 N -586 432 270 -387 586 -76 h
.7745 g 3598 4984 N -586 76 271 412 586 -481 h
.7491 g 3327 4464 N -586 481 271 60 586 -21 h
.7181 g 3057 4332 N -586 21 270 360 586 -249 h
.7138 g 2786 4297 N -586 249 271 192 586 -406 h
.6718 g 2515 3778 N -586 406 271 468 586 -355 h
.5241 g 5536 4915 N -586 661 271 461 586 -778 h
.5325 g 5265 5053 N -586 778 271 -117 586 -799 h
.6318 g 4996 5265 N -586 799 270 -185 585 -826 h
.6188 g 4725 4528 N -585 826 271 495 585 -584 h
.5908 g 4455 4915 N -585 584 270 185 585 -1156 h
.6195 g 4184 4503 N -585 1156 270 69 586 -813 h
.6198 g 3913 4443 N -586 813 271 118 586 -871 h
.6158 g 3643 4083 N -586 871 270 177 586 -688 h
.5881 g 3372 3891 N -586 688 271 299 586 -795 h
.5325 g 3101 3423 N -586 795 271 436 586 -763 h
.4689 g 6122 4137 N -586 203 271 -176 586 434 h
.4697 g 5851 4254 N -586 -434 271 483 586 -166 h
.5194 g 5581 4439 N -586 166 270 -177 586 -174 h
.529 g 5310 3944 N -586 174 271 403 586 -82 h
.5045 g 5040 3759 N -586 82 271 -100 585 203 h
.5192 g 4770 3690 N -585 -203 270 311 585 -39 h
.5295 g 4499 3572 N -585 39 271 27 585 52 h
.5355 g 4229 3395 N -585 -52 269 261 586 -32 h
.5298 g 3958 3096 N -586 32 271 -1 586 268 h
.4644 g 3687 2660 N -586 -268 271 792 586 -88 h
.4343 g 6708 4571 N -586 464 271 62 586 -702 h
.4536 g 6437 4088 N -586 702 271 36 586 -255 h
.4752 g 6167 4265 N -586 255 270 33 586 -465 h
.4817 g 5896 3862 N -586 465 271 318 586 -380 h
.4732 g 5625 3962 N -586 380 271 153 586 -633 h
.4834 g 5355 3651 N -586 633 270 161 586 -483 h
.4826 g 5084 3624 N -586 483 271 173 586 -629 h
.4997 g 4815 3363 N -586 629 271 -26 584 -342 h
.4966 g 4544 3364 N -584 342 270 468 585 -811 h
.414 g 4273 2572 N -585 811 270 496 586 -515 h
.312 g 7294 3869 N -586 424 271 142 586 -504 h
.3558 g 7023 3833 N -586 504 271 -159 586 -309 h
.3945 g 6753 3800 N -586 309 270 238 586 -514 h
.3785 g 6482 3482 N -586 514 271 285 586 -481 h
.3649 g 6211 3329 N -586 481 271 86 586 -414 h
.3485 g 5941 3168 N -586 414 270 478 586 -731 h
.3493 g 5670 2995 N -586 731 271 -161 586 -397 h
.3565 g 5399 3021 N -586 397 271 581 586 -1004 h
.3328 g 5129 2553 N -586 1004 270 -48 586 -488 h
.2632 g 4859 2057 N -586 488 271 667 585 -659 h
.2211 g 7880 3365 N -586 475 271 -58 586 -275 h
.2749 g 7609 3524 N -586 275 271 25 586 -459 h
.3033 g 7339 3286 N -586 459 270 182 586 -403 h
.3077 g 7068 3001 N -586 403 271 -102 586 -16 h
.2947 g 6797 2915 N -586 16 271 565 586 -495 h
.2477 g 6527 2437 N -586 495 270 154 586 -171 h
.2427 g 6256 2598 N -586 171 271 257 586 -589 h
.2185 g 5985 2017 N -586 589 271 305 586 -313 h
.1913 g 5715 2065 N -586 313 270 185 586 -546 h
.1536 g 5444 1398 N -586 546 271 355 586 -234 h
%pm3d_map_end
1.000 UL
LT0
0 g .8159 g 4050 6455 M
3779 5766 L
.7902 g 3779 5766 M
-270 188 V
.8889 g 3509 5954 M
-271 134 V
.8941 g 3238 6088 M
2967 5658 L
.8548 g 2967 5658 M
2697 5497 L
.8918 g 2697 5497 M
-271 75 V
.9486 g 2426 5572 M
-271 -30 V
.9555 g 2155 5542 M
1885 5286 L
.9155 g 1885 5286 M
1614 4947 L
.8602 g 1614 4947 M
1343 4590 L
.7655 g 4636 5914 M
4365 5734 L
.775 g 4365 5734 M
-270 -87 V
.8523 g 4095 5647 M
-271 267 V
.8314 g 3824 5914 M
3553 5178 L
.7655 g 3553 5178 M
-270 -31 V
.7868 g 3283 5147 M
3012 4988 L
.7991 g 3012 4988 M
-271 -90 V
.8448 g 2741 4898 M
-270 62 V
.8427 g 2471 4960 M
2200 4553 L
.77 g 2200 4553 M
1929 4147 L
.7105 g 5221 5803 M
4951 5243 L
.6709 g 4951 5243 M
-270 -33 V
.7357 g 4681 5210 M
-271 131 V
.748 g 4410 5341 M
4139 4960 L
.745 g 4139 4960 M
-270 31 V
.7986 g 3869 4991 M
-271 -7 V
.7691 g 3598 4984 M
3327 4464 L
.7205 g 3327 4464 M
3057 4332 L
.7452 g 3057 4332 M
-271 -35 V
.7114 g 2786 4297 M
2515 3778 L
.6148 g 5807 5259 M
5536 4915 L
.6336 g 5536 4915 M
-271 138 V
.7366 g 5265 5053 M
-269 212 V
.7073 g 4996 5265 M
4725 4528 L
.7043 g 4725 4528 M
-270 387 V
.7505 g 4455 4915 M
4184 4503 L
.7291 g 4184 4503 M
-271 -60 V
.7157 g 3913 4443 M
3643 4083 L
.6823 g 3643 4083 M
3372 3891 L
.6323 g 3372 3891 M
3101 3423 L
.4334 g 6393 4598 M
6122 4137 L
.4314 g 6122 4137 M
-271 117 V
.527 g 5851 4254 M
-270 185 V
.5302 g 5581 4439 M
5310 3944 L
.4773 g 5310 3944 M
5040 3759 L
.4886 g 5040 3759 M
-270 -69 V
.5105 g 4770 3690 M
4499 3572 L
.5159 g 4499 3572 M
4229 3395 L
.4939 g 4229 3395 M
3958 3096 L
.4327 g 3958 3096 M
3687 2660 L
.5043 g 6979 4395 M
-271 176 V
.508 g 6708 4571 M
6437 4088 L
.5118 g 6437 4088 M
-270 177 V
.5277 g 6167 4265 M
5896 3862 L
.5318 g 5896 3862 M
-271 100 V
.5498 g 5625 3962 M
5355 3651 L
.5486 g 5355 3651 M
-271 -27 V
.555 g 5084 3624 M
4815 3363 L
.5657 g 4815 3363 M
-271 1 V
.4961 g 4544 3364 M
4273 2572 L
.3643 g 7565 3931 M
-271 -62 V
.3993 g 7294 3869 M
-271 -36 V
.4386 g 7023 3833 M
-270 -33 V
.4357 g 6753 3800 M
6482 3482 L
.4145 g 6482 3482 M
6211 3329 L
.417 g 6211 3329 M
5941 3168 L
.4166 g 5941 3168 M
5670 2995 L
.4443 g 5670 2995 M
-271 26 V
.4275 g 5399 3021 M
5129 2553 L
.3318 g 5129 2553 M
4859 2057 L
.2598 g 8151 3507 M
7880 3365 L
.3123 g 7880 3365 M
-271 159 V
.3505 g 7609 3524 M
7339 3286 L
.3214 g 7339 3286 M
7068 3001 L
.3152 g 7068 3001 M
-271 -86 V
.28 g 6797 2915 M
6527 2437 L
.282 g 6527 2437 M
-271 161 V
.2686 g 6256 2598 M
5985 2017 L
.2382 g 5985 2017 M
-270 48 V
.1945 g 5715 2065 M
5444 1398 L
.1825 g 8737 3032 M
-271 58 V
.2375 g 8466 3090 M
-271 -25 V
.2561 g 8195 3065 M
7925 2883 L
.2941 g 7925 2883 M
-271 102 V
.2741 g 7654 2985 M
7383 2420 L
.2155 g 7383 2420 M
7113 2266 L
.2034 g 7113 2266 M
6842 2009 L
.1684 g 6842 2009 M
6571 1704 L
.1443 g 6571 1704 M
6301 1519 L
.1127 g 6301 1519 M
6030 1164 L
.8314 g 4050 6455 M
586 -541 V
.7689 g 4636 5914 M
585 -111 V
.7059 g 5221 5803 M
586 -544 V
.56 g 5807 5259 M
586 -661 V
.4655 g 6393 4598 M
586 -203 V
.4007 g 6979 4395 M
586 -464 V
.3025 g 7565 3931 M
586 -424 V
.2025 g 8151 3507 M
586 -475 V
.75 g 3779 5766 M
586 -32 V
.707 g 4365 5734 M
586 -491 V
.6193 g 4951 5243 M
585 -328 V
.4882 g 5536 4915 M
586 -778 V
.4723 g 6122 4137 M
586 434 V
.468 g 6708 4571 M
586 -702 V
.3216 g 7294 3869 M
586 -504 V
.2398 g 7880 3365 M
586 -275 V
.8152 g 3509 5954 M
586 -307 V
.7389 g 4095 5647 M
586 -437 V
.6852 g 4681 5210 M
584 -157 V
.5768 g 5265 5053 M
586 -799 V
.467 g 5851 4254 M
586 -166 V
.4393 g 6437 4088 M
586 -255 V
.39 g 7023 3833 M
586 -309 V
.31 g 7609 3524 M
586 -459 V
.9259 g 3238 6088 M
586 -174 V
.8491 g 3824 5914 M
586 -573 V
.787 g 4410 5341 M
586 -76 V
.6868 g 4996 5265 M
585 -826 V
.5718 g 5581 4439 M
586 -174 V
.5111 g 6167 4265 M
586 -465 V
.3991 g 6753 3800 M
586 -514 V
.2966 g 7339 3286 M
586 -403 V
.7995 g 2967 5658 M
586 -480 V
.7302 g 3553 5178 M
586 -218 V
.6682 g 4139 4960 M
586 -432 V
.5507 g 4725 4528 M
585 -584 V
.4861 g 5310 3944 M
586 -82 V
.4523 g 5896 3862 M
586 -380 V
.358 g 6482 3482 M
586 -481 V
.3189 g 7068 3001 M
586 -16 V
.8207 g 2697 5497 M
586 -350 V
.7802 g 3283 5147 M
586 -156 V
.7811 g 3869 4991 M
586 -76 V
.6309 g 4455 4915 M
5040 3759 L
.523 g 5040 3759 M
585 203 V
.4941 g 5625 3962 M
586 -633 V
.3718 g 6211 3329 M
586 -414 V
.2705 g 6797 2915 M
586 -495 V
.858 g 2426 5572 M
586 -584 V
.8052 g 3012 4988 M
586 -4 V
.768 g 3598 4984 M
586 -481 V
.6082 g 4184 4503 M
586 -813 V
.5155 g 4770 3690 M
585 -39 V
.4727 g 5355 3651 M
586 -483 V
.3252 g 5941 3168 M
586 -731 V
.225 g 6527 2437 M
586 -171 V
.8898 g 2155 5542 M
586 -644 V
.763 g 2741 4898 M
586 -434 V
.7302 g 3327 4464 M
586 -21 V
.6314 g 3913 4443 M
586 -871 V
.5436 g 4499 3572 M
585 52 V
.4925 g 5084 3624 M
586 -629 V
.3734 g 5670 2995 M
586 -397 V
.2605 g 6256 2598 M
586 -589 V
.9105 g 1885 5286 M
586 -326 V
.8023 g 2471 4960 M
586 -628 V
.7059 g 3057 4332 M
586 -249 V
.6002 g 3643 4083 M
586 -688 V
.5273 g 4229 3395 M
586 -32 V
.5068 g 4815 3363 M
584 -342 V
.3395 g 5399 3021 M
5985 2017 L
.1766 g 5985 2017 M
586 -313 V
.8477 g 1614 4947 M
586 -394 V
.7857 g 2200 4553 M
586 -256 V
.7216 g 2786 4297 M
586 -406 V
.5759 g 3372 3891 M
586 -795 V
.5323 g 3958 3096 M
586 268 V
.4864 g 4544 3364 M
585 -811 V
.3261 g 5129 2553 M
586 -488 V
.2059 g 5715 2065 M
586 -546 V
.7825 g 1343 4590 M
586 -443 V
.6957 g 1929 4147 M
586 -369 V
.622 g 2515 3778 M
586 -355 V
.4891 g 3101 3423 M
586 -763 V
.3966 g 3687 2660 M
586 -88 V
.3416 g 4273 2572 M
586 -515 V
.2002 g 4859 2057 M
585 -659 V
.1014 g 5444 1398 M
586 -234 V
% End plot #1
stroke
LTb
LCb setrgbcolor
8737 2540 M
6030 886 L
stroke
LTb
LCb setrgbcolor
1343 1841 M
6030 886 L
stroke
LTb
LCb setrgbcolor
6030 886 M
0 278 V
stroke
LCb setrgbcolor
3011 950 M
[ [(Helvetica) 200.0 0.0 true true 0 (Probability of incompleteness P1)]
] -66.7 MCshow
LTb
LCb setrgbcolor
8555 1474 M
[ [(Helvetica) 200.0 0.0 true true 0 (Probability of ties P2)]
] -66.7 MCshow
LTb
LCb setrgbcolor
503 3495 M
currentpoint gsave translate 90 rotate 0 0 moveto
[ [(Helvetica) 200.0 0.0 true true 0 (time \(ms\))]
] -66.7 MCshow
grestore
LTb
stroke gsave	%% draw gray scale smooth box
maxcolors 0 gt {/imax maxcolors def} {/imax 1024 def} ifelse
8877 3282 translate 374 2460 scale 0 setlinewidth
/ystep 1 imax div def /y0 0 def /ii 0 def
{ y0 g 0 y0 N 1 0 V 0 ystep V -1 0 f
/y0 y0 ystep add def /ii ii 1 add def
ii imax ge {exit} if } loop
grestore 0 setgray
1.000 UL
LTb
LCb setrgbcolor
8877 3282 N
374 0 V
0 2460 V
-374 0 V
0 -2460 V
Z stroke
1.000 UL
LTb
LCb setrgbcolor
1.000 UL
LTb
LCb setrgbcolor
9251 3282 M
-63 0 V
stroke
9371 3282 M
[ [(Helvetica) 200.0 0.0 true true 0 ( 12)]
] -66.7 MLshow
1.000 UL
LTb
LCb setrgbcolor
8877 3282 M
63 0 V
311 223 R
-63 0 V
stroke
9371 3505 M
[ [(Helvetica) 200.0 0.0 true true 0 ( 14)]
] -66.7 MLshow
1.000 UL
LTb
LCb setrgbcolor
8877 3505 M
63 0 V
311 224 R
-63 0 V
stroke
9371 3729 M
[ [(Helvetica) 200.0 0.0 true true 0 ( 16)]
] -66.7 MLshow
1.000 UL
LTb
LCb setrgbcolor
8877 3729 M
63 0 V
311 223 R
-63 0 V
stroke
9371 3952 M
[ [(Helvetica) 200.0 0.0 true true 0 ( 18)]
] -66.7 MLshow
1.000 UL
LTb
LCb setrgbcolor
8877 3952 M
63 0 V
311 224 R
-63 0 V
stroke
9371 4176 M
[ [(Helvetica) 200.0 0.0 true true 0 ( 20)]
] -66.7 MLshow
1.000 UL
LTb
LCb setrgbcolor
8877 4176 M
63 0 V
311 224 R
-63 0 V
stroke
9371 4400 M
[ [(Helvetica) 200.0 0.0 true true 0 ( 22)]
] -66.7 MLshow
1.000 UL
LTb
LCb setrgbcolor
8877 4400 M
63 0 V
311 223 R
-63 0 V
stroke
9371 4623 M
[ [(Helvetica) 200.0 0.0 true true 0 ( 24)]
] -66.7 MLshow
1.000 UL
LTb
LCb setrgbcolor
8877 4623 M
63 0 V
311 224 R
-63 0 V
stroke
9371 4847 M
[ [(Helvetica) 200.0 0.0 true true 0 ( 26)]
] -66.7 MLshow
1.000 UL
LTb
LCb setrgbcolor
8877 4847 M
63 0 V
311 224 R
-63 0 V
stroke
9371 5071 M
[ [(Helvetica) 200.0 0.0 true true 0 ( 28)]
] -66.7 MLshow
1.000 UL
LTb
LCb setrgbcolor
8877 5071 M
63 0 V
311 223 R
-63 0 V
stroke
9371 5294 M
[ [(Helvetica) 200.0 0.0 true true 0 ( 30)]
] -66.7 MLshow
1.000 UL
LTb
LCb setrgbcolor
8877 5294 M
63 0 V
311 224 R
-63 0 V
stroke
9371 5518 M
[ [(Helvetica) 200.0 0.0 true true 0 ( 32)]
] -66.7 MLshow
1.000 UL
LTb
LCb setrgbcolor
8877 5518 M
63 0 V
311 224 R
-63 0 V
stroke
9371 5742 M
[ [(Helvetica) 200.0 0.0 true true 0 ( 34)]
] -66.7 MLshow
1.000 UL
LTb
LCb setrgbcolor
8877 5742 M
63 0 V
1.000 UP
stroke
grestore % colour palette end
stroke
grestore
end
showpage
%%Trailer
%%DocumentFonts: Helvetica
