%!PS-Adobe-2.0 EPSF-2.0
%%Title: time-vs-P1-AS30.eps
%%Creator: gnuplot 4.6 patchlevel 4
%%CreationDate: Sun Jun  1 22:06:17 2014
%%DocumentFonts: (atend)
%%BoundingBox: 50 50 554 424
%%EndComments
%%BeginProlog
/gnudict 256 dict def
gnudict begin
%
% The following true/false flags may be edited by hand if desired.
% The unit line width and grayscale image gamma correction may also be changed.
%
/Color true def
/Blacktext false def
/Solid false def
/Dashlength 1 def
/Landscape false def
/Level1 false def
/Rounded false def
/ClipToBoundingBox false def
/SuppressPDFMark false def
/TransparentPatterns false def
/gnulinewidth 10.000 def
/userlinewidth gnulinewidth def
/Gamma 1.0 def
/BackgroundColor {-1.000 -1.000 -1.000} def
%
/vshift -66 def
/dl1 {
  10.0 Dashlength mul mul
  Rounded { currentlinewidth 0.75 mul sub dup 0 le { pop 0.01 } if } if
} def
/dl2 {
  10.0 Dashlength mul mul
  Rounded { currentlinewidth 0.75 mul add } if
} def
/hpt_ 31.5 def
/vpt_ 31.5 def
/hpt hpt_ def
/vpt vpt_ def
/doclip {
  ClipToBoundingBox {
    newpath 50 50 moveto 554 50 lineto 554 424 lineto 50 424 lineto closepath
    clip
  } if
} def
%
% Gnuplot Prolog Version 4.6 (September 2012)
%
%/SuppressPDFMark true def
%
/M {moveto} bind def
/L {lineto} bind def
/R {rmoveto} bind def
/V {rlineto} bind def
/N {newpath moveto} bind def
/Z {closepath} bind def
/C {setrgbcolor} bind def
/f {rlineto fill} bind def
/g {setgray} bind def
/Gshow {show} def   % May be redefined later in the file to support UTF-8
/vpt2 vpt 2 mul def
/hpt2 hpt 2 mul def
/Lshow {currentpoint stroke M 0 vshift R 
	Blacktext {gsave 0 setgray show grestore} {show} ifelse} def
/Rshow {currentpoint stroke M dup stringwidth pop neg vshift R
	Blacktext {gsave 0 setgray show grestore} {show} ifelse} def
/Cshow {currentpoint stroke M dup stringwidth pop -2 div vshift R 
	Blacktext {gsave 0 setgray show grestore} {show} ifelse} def
/UP {dup vpt_ mul /vpt exch def hpt_ mul /hpt exch def
  /hpt2 hpt 2 mul def /vpt2 vpt 2 mul def} def
/DL {Color {setrgbcolor Solid {pop []} if 0 setdash}
 {pop pop pop 0 setgray Solid {pop []} if 0 setdash} ifelse} def
/BL {stroke userlinewidth 2 mul setlinewidth
	Rounded {1 setlinejoin 1 setlinecap} if} def
/AL {stroke userlinewidth 2 div setlinewidth
	Rounded {1 setlinejoin 1 setlinecap} if} def
/UL {dup gnulinewidth mul /userlinewidth exch def
	dup 1 lt {pop 1} if 10 mul /udl exch def} def
/PL {stroke userlinewidth setlinewidth
	Rounded {1 setlinejoin 1 setlinecap} if} def
3.8 setmiterlimit
% Default Line colors
/LCw {1 1 1} def
/LCb {0 0 0} def
/LCa {0 0 0} def
/LC0 {1 0 0} def
/LC1 {0 1 0} def
/LC2 {0 0 1} def
/LC3 {1 0 1} def
/LC4 {0 1 1} def
/LC5 {1 1 0} def
/LC6 {0 0 0} def
/LC7 {1 0.3 0} def
/LC8 {0.5 0.5 0.5} def
% Default Line Types
/LTw {PL [] 1 setgray} def
/LTb {BL [] LCb DL} def
/LTa {AL [1 udl mul 2 udl mul] 0 setdash LCa setrgbcolor} def
/LT0 {PL [] LC0 DL} def
/LT1 {PL [4 dl1 2 dl2] LC1 DL} def
/LT2 {PL [2 dl1 3 dl2] LC2 DL} def
/LT3 {PL [1 dl1 1.5 dl2] LC3 DL} def
/LT4 {PL [6 dl1 2 dl2 1 dl1 2 dl2] LC4 DL} def
/LT5 {PL [3 dl1 3 dl2 1 dl1 3 dl2] LC5 DL} def
/LT6 {PL [2 dl1 2 dl2 2 dl1 6 dl2] LC6 DL} def
/LT7 {PL [1 dl1 2 dl2 6 dl1 2 dl2 1 dl1 2 dl2] LC7 DL} def
/LT8 {PL [2 dl1 2 dl2 2 dl1 2 dl2 2 dl1 2 dl2 2 dl1 4 dl2] LC8 DL} def
/Pnt {stroke [] 0 setdash gsave 1 setlinecap M 0 0 V stroke grestore} def
/Dia {stroke [] 0 setdash 2 copy vpt add M
  hpt neg vpt neg V hpt vpt neg V
  hpt vpt V hpt neg vpt V closepath stroke
  Pnt} def
/Pls {stroke [] 0 setdash vpt sub M 0 vpt2 V
  currentpoint stroke M
  hpt neg vpt neg R hpt2 0 V stroke
 } def
/Box {stroke [] 0 setdash 2 copy exch hpt sub exch vpt add M
  0 vpt2 neg V hpt2 0 V 0 vpt2 V
  hpt2 neg 0 V closepath stroke
  Pnt} def
/Crs {stroke [] 0 setdash exch hpt sub exch vpt add M
  hpt2 vpt2 neg V currentpoint stroke M
  hpt2 neg 0 R hpt2 vpt2 V stroke} def
/TriU {stroke [] 0 setdash 2 copy vpt 1.12 mul add M
  hpt neg vpt -1.62 mul V
  hpt 2 mul 0 V
  hpt neg vpt 1.62 mul V closepath stroke
  Pnt} def
/Star {2 copy Pls Crs} def
/BoxF {stroke [] 0 setdash exch hpt sub exch vpt add M
  0 vpt2 neg V hpt2 0 V 0 vpt2 V
  hpt2 neg 0 V closepath fill} def
/TriUF {stroke [] 0 setdash vpt 1.12 mul add M
  hpt neg vpt -1.62 mul V
  hpt 2 mul 0 V
  hpt neg vpt 1.62 mul V closepath fill} def
/TriD {stroke [] 0 setdash 2 copy vpt 1.12 mul sub M
  hpt neg vpt 1.62 mul V
  hpt 2 mul 0 V
  hpt neg vpt -1.62 mul V closepath stroke
  Pnt} def
/TriDF {stroke [] 0 setdash vpt 1.12 mul sub M
  hpt neg vpt 1.62 mul V
  hpt 2 mul 0 V
  hpt neg vpt -1.62 mul V closepath fill} def
/DiaF {stroke [] 0 setdash vpt add M
  hpt neg vpt neg V hpt vpt neg V
  hpt vpt V hpt neg vpt V closepath fill} def
/Pent {stroke [] 0 setdash 2 copy gsave
  translate 0 hpt M 4 {72 rotate 0 hpt L} repeat
  closepath stroke grestore Pnt} def
/PentF {stroke [] 0 setdash gsave
  translate 0 hpt M 4 {72 rotate 0 hpt L} repeat
  closepath fill grestore} def
/Circle {stroke [] 0 setdash 2 copy
  hpt 0 360 arc stroke Pnt} def
/CircleF {stroke [] 0 setdash hpt 0 360 arc fill} def
/C0 {BL [] 0 setdash 2 copy moveto vpt 90 450 arc} bind def
/C1 {BL [] 0 setdash 2 copy moveto
	2 copy vpt 0 90 arc closepath fill
	vpt 0 360 arc closepath} bind def
/C2 {BL [] 0 setdash 2 copy moveto
	2 copy vpt 90 180 arc closepath fill
	vpt 0 360 arc closepath} bind def
/C3 {BL [] 0 setdash 2 copy moveto
	2 copy vpt 0 180 arc closepath fill
	vpt 0 360 arc closepath} bind def
/C4 {BL [] 0 setdash 2 copy moveto
	2 copy vpt 180 270 arc closepath fill
	vpt 0 360 arc closepath} bind def
/C5 {BL [] 0 setdash 2 copy moveto
	2 copy vpt 0 90 arc
	2 copy moveto
	2 copy vpt 180 270 arc closepath fill
	vpt 0 360 arc} bind def
/C6 {BL [] 0 setdash 2 copy moveto
	2 copy vpt 90 270 arc closepath fill
	vpt 0 360 arc closepath} bind def
/C7 {BL [] 0 setdash 2 copy moveto
	2 copy vpt 0 270 arc closepath fill
	vpt 0 360 arc closepath} bind def
/C8 {BL [] 0 setdash 2 copy moveto
	2 copy vpt 270 360 arc closepath fill
	vpt 0 360 arc closepath} bind def
/C9 {BL [] 0 setdash 2 copy moveto
	2 copy vpt 270 450 arc closepath fill
	vpt 0 360 arc closepath} bind def
/C10 {BL [] 0 setdash 2 copy 2 copy moveto vpt 270 360 arc closepath fill
	2 copy moveto
	2 copy vpt 90 180 arc closepath fill
	vpt 0 360 arc closepath} bind def
/C11 {BL [] 0 setdash 2 copy moveto
	2 copy vpt 0 180 arc closepath fill
	2 copy moveto
	2 copy vpt 270 360 arc closepath fill
	vpt 0 360 arc closepath} bind def
/C12 {BL [] 0 setdash 2 copy moveto
	2 copy vpt 180 360 arc closepath fill
	vpt 0 360 arc closepath} bind def
/C13 {BL [] 0 setdash 2 copy moveto
	2 copy vpt 0 90 arc closepath fill
	2 copy moveto
	2 copy vpt 180 360 arc closepath fill
	vpt 0 360 arc closepath} bind def
/C14 {BL [] 0 setdash 2 copy moveto
	2 copy vpt 90 360 arc closepath fill
	vpt 0 360 arc} bind def
/C15 {BL [] 0 setdash 2 copy vpt 0 360 arc closepath fill
	vpt 0 360 arc closepath} bind def
/Rec {newpath 4 2 roll moveto 1 index 0 rlineto 0 exch rlineto
	neg 0 rlineto closepath} bind def
/Square {dup Rec} bind def
/Bsquare {vpt sub exch vpt sub exch vpt2 Square} bind def
/S0 {BL [] 0 setdash 2 copy moveto 0 vpt rlineto BL Bsquare} bind def
/S1 {BL [] 0 setdash 2 copy vpt Square fill Bsquare} bind def
/S2 {BL [] 0 setdash 2 copy exch vpt sub exch vpt Square fill Bsquare} bind def
/S3 {BL [] 0 setdash 2 copy exch vpt sub exch vpt2 vpt Rec fill Bsquare} bind def
/S4 {BL [] 0 setdash 2 copy exch vpt sub exch vpt sub vpt Square fill Bsquare} bind def
/S5 {BL [] 0 setdash 2 copy 2 copy vpt Square fill
	exch vpt sub exch vpt sub vpt Square fill Bsquare} bind def
/S6 {BL [] 0 setdash 2 copy exch vpt sub exch vpt sub vpt vpt2 Rec fill Bsquare} bind def
/S7 {BL [] 0 setdash 2 copy exch vpt sub exch vpt sub vpt vpt2 Rec fill
	2 copy vpt Square fill Bsquare} bind def
/S8 {BL [] 0 setdash 2 copy vpt sub vpt Square fill Bsquare} bind def
/S9 {BL [] 0 setdash 2 copy vpt sub vpt vpt2 Rec fill Bsquare} bind def
/S10 {BL [] 0 setdash 2 copy vpt sub vpt Square fill 2 copy exch vpt sub exch vpt Square fill
	Bsquare} bind def
/S11 {BL [] 0 setdash 2 copy vpt sub vpt Square fill 2 copy exch vpt sub exch vpt2 vpt Rec fill
	Bsquare} bind def
/S12 {BL [] 0 setdash 2 copy exch vpt sub exch vpt sub vpt2 vpt Rec fill Bsquare} bind def
/S13 {BL [] 0 setdash 2 copy exch vpt sub exch vpt sub vpt2 vpt Rec fill
	2 copy vpt Square fill Bsquare} bind def
/S14 {BL [] 0 setdash 2 copy exch vpt sub exch vpt sub vpt2 vpt Rec fill
	2 copy exch vpt sub exch vpt Square fill Bsquare} bind def
/S15 {BL [] 0 setdash 2 copy Bsquare fill Bsquare} bind def
/D0 {gsave translate 45 rotate 0 0 S0 stroke grestore} bind def
/D1 {gsave translate 45 rotate 0 0 S1 stroke grestore} bind def
/D2 {gsave translate 45 rotate 0 0 S2 stroke grestore} bind def
/D3 {gsave translate 45 rotate 0 0 S3 stroke grestore} bind def
/D4 {gsave translate 45 rotate 0 0 S4 stroke grestore} bind def
/D5 {gsave translate 45 rotate 0 0 S5 stroke grestore} bind def
/D6 {gsave translate 45 rotate 0 0 S6 stroke grestore} bind def
/D7 {gsave translate 45 rotate 0 0 S7 stroke grestore} bind def
/D8 {gsave translate 45 rotate 0 0 S8 stroke grestore} bind def
/D9 {gsave translate 45 rotate 0 0 S9 stroke grestore} bind def
/D10 {gsave translate 45 rotate 0 0 S10 stroke grestore} bind def
/D11 {gsave translate 45 rotate 0 0 S11 stroke grestore} bind def
/D12 {gsave translate 45 rotate 0 0 S12 stroke grestore} bind def
/D13 {gsave translate 45 rotate 0 0 S13 stroke grestore} bind def
/D14 {gsave translate 45 rotate 0 0 S14 stroke grestore} bind def
/D15 {gsave translate 45 rotate 0 0 S15 stroke grestore} bind def
/DiaE {stroke [] 0 setdash vpt add M
  hpt neg vpt neg V hpt vpt neg V
  hpt vpt V hpt neg vpt V closepath stroke} def
/BoxE {stroke [] 0 setdash exch hpt sub exch vpt add M
  0 vpt2 neg V hpt2 0 V 0 vpt2 V
  hpt2 neg 0 V closepath stroke} def
/TriUE {stroke [] 0 setdash vpt 1.12 mul add M
  hpt neg vpt -1.62 mul V
  hpt 2 mul 0 V
  hpt neg vpt 1.62 mul V closepath stroke} def
/TriDE {stroke [] 0 setdash vpt 1.12 mul sub M
  hpt neg vpt 1.62 mul V
  hpt 2 mul 0 V
  hpt neg vpt -1.62 mul V closepath stroke} def
/PentE {stroke [] 0 setdash gsave
  translate 0 hpt M 4 {72 rotate 0 hpt L} repeat
  closepath stroke grestore} def
/CircE {stroke [] 0 setdash 
  hpt 0 360 arc stroke} def
/Opaque {gsave closepath 1 setgray fill grestore 0 setgray closepath} def
/DiaW {stroke [] 0 setdash vpt add M
  hpt neg vpt neg V hpt vpt neg V
  hpt vpt V hpt neg vpt V Opaque stroke} def
/BoxW {stroke [] 0 setdash exch hpt sub exch vpt add M
  0 vpt2 neg V hpt2 0 V 0 vpt2 V
  hpt2 neg 0 V Opaque stroke} def
/TriUW {stroke [] 0 setdash vpt 1.12 mul add M
  hpt neg vpt -1.62 mul V
  hpt 2 mul 0 V
  hpt neg vpt 1.62 mul V Opaque stroke} def
/TriDW {stroke [] 0 setdash vpt 1.12 mul sub M
  hpt neg vpt 1.62 mul V
  hpt 2 mul 0 V
  hpt neg vpt -1.62 mul V Opaque stroke} def
/PentW {stroke [] 0 setdash gsave
  translate 0 hpt M 4 {72 rotate 0 hpt L} repeat
  Opaque stroke grestore} def
/CircW {stroke [] 0 setdash 
  hpt 0 360 arc Opaque stroke} def
/BoxFill {gsave Rec 1 setgray fill grestore} def
/Density {
  /Fillden exch def
  currentrgbcolor
  /ColB exch def /ColG exch def /ColR exch def
  /ColR ColR Fillden mul Fillden sub 1 add def
  /ColG ColG Fillden mul Fillden sub 1 add def
  /ColB ColB Fillden mul Fillden sub 1 add def
  ColR ColG ColB setrgbcolor} def
/BoxColFill {gsave Rec PolyFill} def
/PolyFill {gsave Density fill grestore grestore} def
/h {rlineto rlineto rlineto gsave closepath fill grestore} bind def
%
% PostScript Level 1 Pattern Fill routine for rectangles
% Usage: x y w h s a XX PatternFill
%	x,y = lower left corner of box to be filled
%	w,h = width and height of box
%	  a = angle in degrees between lines and x-axis
%	 XX = 0/1 for no/yes cross-hatch
%
/PatternFill {gsave /PFa [ 9 2 roll ] def
  PFa 0 get PFa 2 get 2 div add PFa 1 get PFa 3 get 2 div add translate
  PFa 2 get -2 div PFa 3 get -2 div PFa 2 get PFa 3 get Rec
  TransparentPatterns {} {gsave 1 setgray fill grestore} ifelse
  clip
  currentlinewidth 0.5 mul setlinewidth
  /PFs PFa 2 get dup mul PFa 3 get dup mul add sqrt def
  0 0 M PFa 5 get rotate PFs -2 div dup translate
  0 1 PFs PFa 4 get div 1 add floor cvi
	{PFa 4 get mul 0 M 0 PFs V} for
  0 PFa 6 get ne {
	0 1 PFs PFa 4 get div 1 add floor cvi
	{PFa 4 get mul 0 2 1 roll M PFs 0 V} for
 } if
  stroke grestore} def
%
/languagelevel where
 {pop languagelevel} {1} ifelse
 2 lt
	{/InterpretLevel1 true def}
	{/InterpretLevel1 Level1 def}
 ifelse
%
% PostScript level 2 pattern fill definitions
%
/Level2PatternFill {
/Tile8x8 {/PaintType 2 /PatternType 1 /TilingType 1 /BBox [0 0 8 8] /XStep 8 /YStep 8}
	bind def
/KeepColor {currentrgbcolor [/Pattern /DeviceRGB] setcolorspace} bind def
<< Tile8x8
 /PaintProc {0.5 setlinewidth pop 0 0 M 8 8 L 0 8 M 8 0 L stroke} 
>> matrix makepattern
/Pat1 exch def
<< Tile8x8
 /PaintProc {0.5 setlinewidth pop 0 0 M 8 8 L 0 8 M 8 0 L stroke
	0 4 M 4 8 L 8 4 L 4 0 L 0 4 L stroke}
>> matrix makepattern
/Pat2 exch def
<< Tile8x8
 /PaintProc {0.5 setlinewidth pop 0 0 M 0 8 L
	8 8 L 8 0 L 0 0 L fill}
>> matrix makepattern
/Pat3 exch def
<< Tile8x8
 /PaintProc {0.5 setlinewidth pop -4 8 M 8 -4 L
	0 12 M 12 0 L stroke}
>> matrix makepattern
/Pat4 exch def
<< Tile8x8
 /PaintProc {0.5 setlinewidth pop -4 0 M 8 12 L
	0 -4 M 12 8 L stroke}
>> matrix makepattern
/Pat5 exch def
<< Tile8x8
 /PaintProc {0.5 setlinewidth pop -2 8 M 4 -4 L
	0 12 M 8 -4 L 4 12 M 10 0 L stroke}
>> matrix makepattern
/Pat6 exch def
<< Tile8x8
 /PaintProc {0.5 setlinewidth pop -2 0 M 4 12 L
	0 -4 M 8 12 L 4 -4 M 10 8 L stroke}
>> matrix makepattern
/Pat7 exch def
<< Tile8x8
 /PaintProc {0.5 setlinewidth pop 8 -2 M -4 4 L
	12 0 M -4 8 L 12 4 M 0 10 L stroke}
>> matrix makepattern
/Pat8 exch def
<< Tile8x8
 /PaintProc {0.5 setlinewidth pop 0 -2 M 12 4 L
	-4 0 M 12 8 L -4 4 M 8 10 L stroke}
>> matrix makepattern
/Pat9 exch def
/Pattern1 {PatternBgnd KeepColor Pat1 setpattern} bind def
/Pattern2 {PatternBgnd KeepColor Pat2 setpattern} bind def
/Pattern3 {PatternBgnd KeepColor Pat3 setpattern} bind def
/Pattern4 {PatternBgnd KeepColor Landscape {Pat5} {Pat4} ifelse setpattern} bind def
/Pattern5 {PatternBgnd KeepColor Landscape {Pat4} {Pat5} ifelse setpattern} bind def
/Pattern6 {PatternBgnd KeepColor Landscape {Pat9} {Pat6} ifelse setpattern} bind def
/Pattern7 {PatternBgnd KeepColor Landscape {Pat8} {Pat7} ifelse setpattern} bind def
} def
%
%
%End of PostScript Level 2 code
%
/PatternBgnd {
  TransparentPatterns {} {gsave 1 setgray fill grestore} ifelse
} def
%
% Substitute for Level 2 pattern fill codes with
% grayscale if Level 2 support is not selected.
%
/Level1PatternFill {
/Pattern1 {0.250 Density} bind def
/Pattern2 {0.500 Density} bind def
/Pattern3 {0.750 Density} bind def
/Pattern4 {0.125 Density} bind def
/Pattern5 {0.375 Density} bind def
/Pattern6 {0.625 Density} bind def
/Pattern7 {0.875 Density} bind def
} def
%
% Now test for support of Level 2 code
%
Level1 {Level1PatternFill} {Level2PatternFill} ifelse
%
/Symbol-Oblique /Symbol findfont [1 0 .167 1 0 0] makefont
dup length dict begin {1 index /FID eq {pop pop} {def} ifelse} forall
currentdict end definefont pop
/MFshow {
   { dup 5 get 3 ge
     { 5 get 3 eq {gsave} {grestore} ifelse }
     {dup dup 0 get findfont exch 1 get scalefont setfont
     [ currentpoint ] exch dup 2 get 0 exch R dup 5 get 2 ne {dup dup 6
     get exch 4 get {Gshow} {stringwidth pop 0 R} ifelse }if dup 5 get 0 eq
     {dup 3 get {2 get neg 0 exch R pop} {pop aload pop M} ifelse} {dup 5
     get 1 eq {dup 2 get exch dup 3 get exch 6 get stringwidth pop -2 div
     dup 0 R} {dup 6 get stringwidth pop -2 div 0 R 6 get
     show 2 index {aload pop M neg 3 -1 roll neg R pop pop} {pop pop pop
     pop aload pop M} ifelse }ifelse }ifelse }
     ifelse }
   forall} def
/Gswidth {dup type /stringtype eq {stringwidth} {pop (n) stringwidth} ifelse} def
/MFwidth {0 exch { dup 5 get 3 ge { 5 get 3 eq { 0 } { pop } ifelse }
 {dup 3 get{dup dup 0 get findfont exch 1 get scalefont setfont
     6 get Gswidth pop add} {pop} ifelse} ifelse} forall} def
/MLshow { currentpoint stroke M
  0 exch R
  Blacktext {gsave 0 setgray MFshow grestore} {MFshow} ifelse } bind def
/MRshow { currentpoint stroke M
  exch dup MFwidth neg 3 -1 roll R
  Blacktext {gsave 0 setgray MFshow grestore} {MFshow} ifelse } bind def
/MCshow { currentpoint stroke M
  exch dup MFwidth -2 div 3 -1 roll R
  Blacktext {gsave 0 setgray MFshow grestore} {MFshow} ifelse } bind def
/XYsave    { [( ) 1 2 true false 3 ()] } bind def
/XYrestore { [( ) 1 2 true false 4 ()] } bind def
Level1 SuppressPDFMark or 
{} {
/SDict 10 dict def
systemdict /pdfmark known not {
  userdict /pdfmark systemdict /cleartomark get put
} if
SDict begin [
  /Title (time-vs-P1-AS30.eps)
  /Subject (gnuplot plot)
  /Creator (gnuplot 4.6 patchlevel 4)
  /Author (danny)
%  /Producer (gnuplot)
%  /Keywords ()
  /CreationDate (Sun Jun  1 22:06:17 2014)
  /DOCINFO pdfmark
end
} ifelse
end
%%EndProlog
%%Page: 1 1
gnudict begin
gsave
doclip
50 50 translate
0.050 0.050 scale
0 setgray
newpath
(Helvetica) findfont 200 scalefont setfont
BackgroundColor 0 lt 3 1 roll 0 lt exch 0 lt or or not {BackgroundColor C 1.000 0 0 10080.00 7488.00 BoxColFill} if
1.000 UL
LTb
LCb setrgbcolor
860 640 M
63 0 V
7173 0 R
-63 0 V
stroke
740 640 M
[ [(Helvetica) 200.0 0.0 true true 0 ( 0)]
] -66.7 MRshow
1.000 UL
LTb
LCb setrgbcolor
860 1584 M
63 0 V
7173 0 R
-63 0 V
stroke
740 1584 M
[ [(Helvetica) 200.0 0.0 true true 0 ( 5)]
] -66.7 MRshow
1.000 UL
LTb
LCb setrgbcolor
860 2528 M
63 0 V
7173 0 R
-63 0 V
stroke
740 2528 M
[ [(Helvetica) 200.0 0.0 true true 0 ( 10)]
] -66.7 MRshow
1.000 UL
LTb
LCb setrgbcolor
860 3472 M
63 0 V
7173 0 R
-63 0 V
stroke
740 3472 M
[ [(Helvetica) 200.0 0.0 true true 0 ( 15)]
] -66.7 MRshow
1.000 UL
LTb
LCb setrgbcolor
860 4415 M
63 0 V
7173 0 R
-63 0 V
stroke
740 4415 M
[ [(Helvetica) 200.0 0.0 true true 0 ( 20)]
] -66.7 MRshow
1.000 UL
LTb
LCb setrgbcolor
860 5359 M
63 0 V
7173 0 R
-63 0 V
stroke
740 5359 M
[ [(Helvetica) 200.0 0.0 true true 0 ( 25)]
] -66.7 MRshow
1.000 UL
LTb
LCb setrgbcolor
860 6303 M
63 0 V
7173 0 R
-63 0 V
stroke
740 6303 M
[ [(Helvetica) 200.0 0.0 true true 0 ( 30)]
] -66.7 MRshow
1.000 UL
LTb
LCb setrgbcolor
860 7247 M
63 0 V
7173 0 R
-63 0 V
stroke
740 7247 M
[ [(Helvetica) 200.0 0.0 true true 0 ( 35)]
] -66.7 MRshow
1.000 UL
LTb
LCb setrgbcolor
860 640 M
0 63 V
0 6544 R
0 -63 V
stroke
860 440 M
[ [(Helvetica) 200.0 0.0 true true 0 ( 0.1)]
] -66.7 MCshow
1.000 UL
LTb
LCb setrgbcolor
1765 640 M
0 63 V
0 6544 R
0 -63 V
stroke
1765 440 M
[ [(Helvetica) 200.0 0.0 true true 0 ( 0.2)]
] -66.7 MCshow
1.000 UL
LTb
LCb setrgbcolor
2669 640 M
0 63 V
0 6544 R
0 -63 V
stroke
2669 440 M
[ [(Helvetica) 200.0 0.0 true true 0 ( 0.3)]
] -66.7 MCshow
1.000 UL
LTb
LCb setrgbcolor
3574 640 M
0 63 V
0 6544 R
0 -63 V
stroke
3574 440 M
[ [(Helvetica) 200.0 0.0 true true 0 ( 0.4)]
] -66.7 MCshow
1.000 UL
LTb
LCb setrgbcolor
4478 640 M
0 63 V
0 6544 R
0 -63 V
stroke
4478 440 M
[ [(Helvetica) 200.0 0.0 true true 0 ( 0.5)]
] -66.7 MCshow
1.000 UL
LTb
LCb setrgbcolor
5383 640 M
0 63 V
0 6544 R
0 -63 V
stroke
5383 440 M
[ [(Helvetica) 200.0 0.0 true true 0 ( 0.6)]
] -66.7 MCshow
1.000 UL
LTb
LCb setrgbcolor
6287 640 M
0 63 V
0 6544 R
0 -63 V
stroke
6287 440 M
[ [(Helvetica) 200.0 0.0 true true 0 ( 0.7)]
] -66.7 MCshow
1.000 UL
LTb
LCb setrgbcolor
7192 640 M
0 63 V
0 6544 R
0 -63 V
stroke
7192 440 M
[ [(Helvetica) 200.0 0.0 true true 0 ( 0.8)]
] -66.7 MCshow
1.000 UL
LTb
LCb setrgbcolor
8096 640 M
0 63 V
0 6544 R
0 -63 V
stroke
8096 440 M
[ [(Helvetica) 200.0 0.0 true true 0 ( 0.9)]
] -66.7 MCshow
1.000 UL
LTb
LCb setrgbcolor
1.000 UL
LTb
LCb setrgbcolor
860 7247 N
860 640 L
7236 0 V
0 6607 V
-7236 0 V
Z stroke
LCb setrgbcolor
160 3943 M
currentpoint gsave translate -270 rotate 0 0 moveto
[ [(Helvetica) 200.0 0.0 true true 0 (Execution time \(ms\))]
] -66.7 MCshow
grestore
LTb
LCb setrgbcolor
4478 140 M
[ [(Helvetica) 200.0 0.0 true true 0 (Probability of incompleteness P1)]
] -66.7 MCshow
LTb
1.000 UP
1.000 UL
LTb
LCb setrgbcolor
% Begin plot #1
1.000 UP
1.000 UL
LT0
LC0 setrgbcolor
LCb setrgbcolor
9176 7147 M
[ [(Helvetica) 200.0 0.0 true true 0 (P2= 0.0)]
] -66.7 MRshow
LT0
9296 7147 M
543 0 V
860 1018 M
905 4 V
904 35 V
905 -7 V
904 9 V
905 246 V
904 756 V
905 2659 V
904 1588 V
860 1018 Pls
1765 1022 Pls
2669 1057 Pls
3574 1050 Pls
4478 1059 Pls
5383 1305 Pls
6287 2061 Pls
7192 4720 Pls
8096 6308 Pls
9567 7147 Pls
% End plot #1
% Begin plot #2
1.000 UP
1.000 UL
LT1
LC1 setrgbcolor
LCb setrgbcolor
9176 6947 M
[ [(Helvetica) 200.0 0.0 true true 0 (P2= 0.1)]
] -66.7 MRshow
LT1
9296 6947 M
543 0 V
860 1024 M
905 14 V
904 -2 V
905 29 V
904 2 V
905 14 V
904 576 V
905 2483 V
904 2169 V
860 1024 Crs
1765 1038 Crs
2669 1036 Crs
3574 1065 Crs
4478 1067 Crs
5383 1081 Crs
6287 1657 Crs
7192 4140 Crs
8096 6309 Crs
9567 6947 Crs
% End plot #2
% Begin plot #3
1.000 UP
1.000 UL
LT2
LC2 setrgbcolor
LCb setrgbcolor
9176 6747 M
[ [(Helvetica) 200.0 0.0 true true 0 (P2= 0.2)]
] -66.7 MRshow
LT2
9296 6747 M
543 0 V
860 1021 M
905 29 V
904 -6 V
905 41 V
904 39 V
905 19 V
904 364 V
905 2101 V
904 2647 V
860 1021 Star
1765 1050 Star
2669 1044 Star
3574 1085 Star
4478 1124 Star
5383 1143 Star
6287 1507 Star
7192 3608 Star
8096 6255 Star
9567 6747 Star
% End plot #3
% Begin plot #4
1.000 UP
1.000 UL
LT3
LC3 setrgbcolor
LCb setrgbcolor
9176 6547 M
[ [(Helvetica) 200.0 0.0 true true 0 (P2= 0.3)]
] -66.7 MRshow
LT3
9296 6547 M
543 0 V
860 1032 M
905 11 V
904 18 V
905 -4 V
904 41 V
905 86 V
904 109 V
905 1706 V
904 3194 V
860 1032 Box
1765 1043 Box
2669 1061 Box
3574 1057 Box
4478 1098 Box
5383 1184 Box
6287 1293 Box
7192 2999 Box
8096 6193 Box
9567 6547 Box
% End plot #4
% Begin plot #5
1.000 UP
1.000 UL
LT4
LC4 setrgbcolor
LCb setrgbcolor
9176 6347 M
[ [(Helvetica) 200.0 0.0 true true 0 (P2= 0.4)]
] -66.7 MRshow
LT4
9296 6347 M
543 0 V
860 1030 M
905 10 V
904 7 V
905 11 V
904 33 V
905 108 V
904 23 V
905 1554 V
904 3474 V
860 1030 BoxF
1765 1040 BoxF
2669 1047 BoxF
3574 1058 BoxF
4478 1091 BoxF
5383 1199 BoxF
6287 1222 BoxF
7192 2776 BoxF
8096 6250 BoxF
9567 6347 BoxF
% End plot #5
% Begin plot #6
1.000 UP
1.000 UL
LT5
LC5 setrgbcolor
LCb setrgbcolor
9176 6147 M
[ [(Helvetica) 200.0 0.0 true true 0 (P2= 0.5)]
] -66.7 MRshow
LT5
9296 6147 M
543 0 V
860 1017 M
905 8 V
904 33 V
905 -11 V
904 -5 V
905 36 V
904 110 V
905 870 V
904 4111 V
860 1017 Circle
1765 1025 Circle
2669 1058 Circle
3574 1047 Circle
4478 1042 Circle
5383 1078 Circle
6287 1188 Circle
7192 2058 Circle
8096 6169 Circle
9567 6147 Circle
% End plot #6
% Begin plot #7
1.000 UP
1.000 UL
LT6
LC6 setrgbcolor
LCb setrgbcolor
9176 5947 M
[ [(Helvetica) 200.0 0.0 true true 0 (P2= 0.6)]
] -66.7 MRshow
LT6
9296 5947 M
543 0 V
860 994 M
905 1 V
904 33 V
905 17 V
904 -6 V
905 0 V
904 139 V
905 483 V
904 4409 V
860 994 CircleF
1765 995 CircleF
2669 1028 CircleF
3574 1045 CircleF
4478 1039 CircleF
5383 1039 CircleF
6287 1178 CircleF
7192 1661 CircleF
8096 6070 CircleF
9567 5947 CircleF
% End plot #7
% Begin plot #8
1.000 UP
1.000 UL
LT7
LC7 setrgbcolor
LCb setrgbcolor
9176 5747 M
[ [(Helvetica) 200.0 0.0 true true 0 (P2= 0.7)]
] -66.7 MRshow
LT7
9296 5747 M
543 0 V
860 955 M
905 22 V
904 24 V
905 0 V
904 -17 V
905 30 V
904 30 V
905 355 V
904 4338 V
860 955 TriU
1765 977 TriU
2669 1001 TriU
3574 1001 TriU
4478 984 TriU
5383 1014 TriU
6287 1044 TriU
7192 1399 TriU
8096 5737 TriU
9567 5747 TriU
% End plot #8
% Begin plot #9
1.000 UP
1.000 UL
LT8
LC8 setrgbcolor
LCb setrgbcolor
9176 5547 M
[ [(Helvetica) 200.0 0.0 true true 0 (P2= 0.8)]
] -66.7 MRshow
LT8
9296 5547 M
543 0 V
860 902 M
905 27 V
904 5 V
905 -7 V
904 11 V
905 37 V
904 -24 V
905 172 V
904 4033 V
860 902 TriUF
1765 929 TriUF
2669 934 TriUF
3574 927 TriUF
4478 938 TriUF
5383 975 TriUF
6287 951 TriUF
7192 1123 TriUF
8096 5156 TriUF
9567 5547 TriUF
% End plot #9
% Begin plot #10
1.000 UP
1.000 UL
LT0
LC0 setrgbcolor
LCb setrgbcolor
9176 5347 M
[ [(Helvetica) 200.0 0.0 true true 0 (P2= 0.9)]
] -66.7 MRshow
LT0
9296 5347 M
543 0 V
860 840 M
905 9 V
904 -1 V
905 0 V
904 -7 V
905 -4 V
904 11 V
905 71 V
904 1785 V
860 840 TriD
1765 849 TriD
2669 848 TriD
3574 848 TriD
4478 841 TriD
5383 837 TriD
6287 848 TriD
7192 919 TriD
8096 2704 TriD
9567 5347 TriD
% End plot #10
% Begin plot #11
1.000 UP
1.000 UL
LT1
LC1 setrgbcolor
LCb setrgbcolor
9176 5147 M
[ [(Helvetica) 200.0 0.0 true true 0 (P2= 1.0)]
] -66.7 MRshow
LT1
9296 5147 M
543 0 V
860 648 M
905 7 V
904 10 V
905 11 V
904 13 V
905 25 V
904 54 V
905 19 V
904 237 V
860 648 TriDF
1765 655 TriDF
2669 665 TriDF
3574 676 TriDF
4478 689 TriDF
5383 714 TriDF
6287 768 TriDF
7192 787 TriDF
8096 1024 TriDF
9567 5147 TriDF
% End plot #11
1.000 UL
LTb
LCb setrgbcolor
860 7247 N
860 640 L
7236 0 V
0 6607 V
-7236 0 V
Z stroke
1.000 UP
1.000 UL
LTb
LCb setrgbcolor
stroke
grestore
end
showpage
%%Trailer
%%DocumentFonts: Helvetica
