# P1	P2	%ps	time(ms)	iter	size
0.1	0	100	2.0015900	163	100
0.1	0.1	100	2.0342700	162	100
0.1	0.2	100	2.0200400	157	100
0.1	0.3	100	2.0787400	155	100
0.1	0.4	100	2.0677300	155	100
0.1	0.5	100	1.9965300	149	100
0.1	0.6	100	1.8770900	144	100
0.1	0.7	100	1.6690400	137	100
0.1	0.8	100	1.3867300	125	100
0.1	0.9	100	1.0581300	104	100
0.1	1	100	0.0410000	5	100

0.2	0	100	2.0226200	169	100
0.2	0.1	100	2.1057900	170	100
0.2	0.2	100	2.1739000	171	100
0.2	0.3	100	2.1341600	168	100
0.2	0.4	100	2.1164800	162	100
0.2	0.5	100	2.0386700	155	100
0.2	0.6	100	1.8828600	150	100
0.2	0.7	100	1.7829800	143	100
0.2	0.8	100	1.5285100	132	100
0.2	0.9	100	1.1052400	108	100
0.2	1	100	0.0770000	11	100

0.3	0	100	2.2108300	184	100
0.3	0.1	100	2.0980800	173	100
0.3	0.2	100	2.1398600	171	100
0.3	0.3	100	2.2320900	173	100
0.3	0.4	100	2.1547600	168	100
0.3	0.5	100	2.2149800	166	100
0.3	0.6	100	2.0548600	160	100
0.3	0.7	100	1.9122000	153	100
0.3	0.8	100	1.5582500	137	100
0.3	0.9	100	1.1012400	109	100
0.3	1	100	0.1300000	19	100

0.4	0	100	2.1732000	183	100
0.4	0.1	100	2.2526400	183	100
0.4	0.2	100	2.3573700	187	100
0.4	0.3	100	2.2095800	176	100
0.4	0.4	100	2.2167400	172	100
0.4	0.5	100	2.1552900	167	100
0.4	0.6	100	2.1445400	165	100
0.4	0.7	100	1.9130100	156	100
0.4	0.8	100	1.5178400	137	100
0.4	0.9	100	1.1017500	109	100
0.4	1	100	0.1900000	27	100

0.5	0	100	2.2219000	183	100
0.5	0.1	100	2.2605000	184	100
0.5	0.2	100	2.5649000	191	100
0.5	0.3	100	2.4281500	185	100
0.5	0.4	100	2.3898000	185	100
0.5	0.5	100	2.1270500	170	100
0.5	0.6	100	2.1150300	162	100
0.5	0.7	100	1.8223900	155	100
0.5	0.8	100	1.5766900	145	100
0.5	0.9	100	1.0664500	109	100
0.5	1	100	0.2600000	38	100

0.6	0	96	3.5212400	273	99.96
0.6	0.1	100	2.3375300	184	100
0.6	0.2	99	2.6630300	209	99.99
0.6	0.3	99	2.8800100	214	99.99
0.6	0.4	100	2.9597500	216	100
0.6	0.5	100	2.3176500	182	100
0.6	0.6	100	2.1122700	168	100
0.6	0.7	100	1.9802100	163	100
0.6	0.8	100	1.7726300	139	100
0.6	0.9	100	1.0456600	106	100
0.6	1	100	0.3900000	53	100

0.7	0	81	7.5293100	626	99.81
0.7	0.1	91	5.3879500	431	99.91
0.7	0.2	95	4.5940800	352	99.95
0.7	0.3	98	3.4591300	263	99.98
0.7	0.4	99	3.0840700	238	99.99
0.7	0.5	100	2.9040400	210	100
0.7	0.6	99	2.8474400	230	99.99
0.7	0.7	100	2.1379300	182	100
0.7	0.8	100	1.6496600	147	100
0.7	0.9	100	1.1041900	115	100
0.7	1	100	0.6800000	85	100

0.8	0	30	21.6118800	2033	99.04
0.8	0.1	46	18.5409400	1702	99.36
0.8	0.2	61	15.7244400	1389	99.59
0.8	0.3	73	12.4959100	1089	99.72
0.8	0.4	81	11.3139400	976	99.81
0.8	0.5	96	7.5093500	653	99.96
0.8	0.6	97	5.4104600	494	99.97
0.8	0.7	99	4.0212900	400	99.99
0.8	0.8	100	2.5585400	290	100
0.8	0.9	100	1.4792000	200	100
0.8	1	100	0.7800000	145	100

0.9	0	0	30.0278100	3475	95.75
0.9	0.1	0	30.0314400	3344	96.39
0.9	0.2	1	29.7449000	3420	97.11
0.9	0.3	4	29.4145000	3399	97.45
0.9	0.4	2	29.7175600	3446	97.69
0.9	0.5	5	29.2900900	3661	98.08
0.9	0.6	8	28.7640900	3896	98.35
0.9	0.7	21	27.0031200	4108	98.77
0.9	0.8	41	23.9253800	4385	99.33
0.9	0.9	95	10.9338600	2495	99.95
0.9	1	100	2.0327400	503	100
