#P1	P2	% ps	time(ms)	iters	M. Size
0.1	0	100	2.0158	168	100.00
0.1	0.1	100	2.0231	164	100.00
0.1	0.2	100	2.0327	159	100.00
0.1	0.3	100	2.0276	157	100.00
0.1	0.4	100	2.0204	154	100.00
0.1	0.5	100	1.9870	150	100.00
0.1	0.6	100	1.8721	144	100.00
0.1	0.7	100	1.7198	138	100.00
0.1	0.8	100	1.4493	126	100.00
0.1	0.9	100	1.1024	105	100.00
0.1	1	100	0.0360	5	100.00
0.2	0	100	1.9945	171	100.00
0.2	0.1	100	2.0310	169	100.00
0.2	0.2	100	2.0368	166	100.00
0.2	0.3	100	2.0425	163	100.00
0.2	0.4	100	2.0382	161	100.00
0.2	0.5	100	1.9806	156	100.00
0.2	0.6	100	1.8783	151	100.00
0.2	0.7	100	1.7117	144	100.00
0.2	0.8	100	1.4499	132	100.00
0.2	0.9	100	1.0784	107	100.00
0.2	1	100	0.0760	11	100.00
0.3	0	100	2.1112	181	100.00
0.3	0.1	100	2.1731	180	100.00
0.3	0.2	100	2.1617	175	100.00
0.3	0.3	100	2.1875	173	100.00
0.3	0.4	100	2.1567	169	100.00
0.3	0.5	100	2.1087	165	100.00
0.3	0.6	100	1.9870	159	100.00
0.3	0.7	100	1.7871	150	100.00
0.3	0.8	100	1.5035	137	100.00
0.3	0.9	100	1.0947	110	100.00
0.3	1	100	0.1300	19	100.00
0.4	0	100	2.1848	186	100.00
0.4	0.1	100	2.2044	183	100.00
0.4	0.2	100	2.2319	181	100.00
0.4	0.3	100	2.1957	176	100.00
0.4	0.4	100	2.1805	173	100.00
0.4	0.5	100	2.1557	169	100.00
0.4	0.6	100	2.0215	163	100.00
0.4	0.7	100	1.8254	155	100.00
0.4	0.8	100	1.5233	139	100.00
0.4	0.9	100	1.0967	110	100.00
0.4	1	100	0.1900	27	100.00
0.5	0	100	2.2259	190	100.00
0.5	0.1	100	2.2421	188	100.00
0.5	0.2	100	2.2820	186	100.00
0.5	0.3	100	2.2692	182	100.00
0.5	0.4	100	2.2440	178	100.00
0.5	0.5	100	2.1614	173	100.00
0.5	0.6	100	2.0425	166	100.00
0.5	0.7	100	1.8104	156	100.00
0.5	0.8	100	1.4924	139	100.00
0.5	0.9	100	1.0612	109	100.00
0.5	1	100	0.2600	38	100.00
0.6	0	96	10.1150	795	99.96
0.6	0.1	100	2.4229	203	100.00
0.6	0.2	100	2.6322	213	100.00
0.6	0.3	100	2.7612	216	100.00
0.6	0.4	100	2.7653	211	100.00
0.6	0.5	100	2.3597	188	100.00
0.6	0.6	100	2.1323	175	100.00
0.6	0.7	100	1.8047	159	100.00
0.6	0.8	100	1.4754	140	100.00
0.6	0.9	100	1.0301	109	100.00
0.6	1	100	0.3600	53	100.00
0.7	0	81	39.7424	3420	99.81
0.7	0.1	92.18	19.8110	1593	99.92
0.7	0.2	96.58	11.2069	865	99.97
0.7	0.3	98.7	6.8823	520	99.99
0.7	0.4	99.36	5.0621	383	99.99
0.7	0.5	100	2.9337	238	100.00
0.7	0.6	100	2.5144	212	100.00
0.7	0.7	100	1.9566	176	100.00
0.7	0.8	100	1.5142	148	100.00
0.7	0.9	100	1.0510	117	100.00
0.7	1	100	0.5000	78	100.00
0.8	0	30	140.5718	13282	99.04
0.8	0.1	50.48	106.3730	9768	99.44
0.8	0.2	74.22	65.0825	5653	99.73
0.8	0.3	88.64	37.9260	3308	99.89
0.8	0.4	95.44	23.5480	2039	99.95
0.8	0.5	98.46	12.2340	1077	99.98
0.8	0.6	99.94	7.0517	642	100.00
0.8	0.7	100	4.2283	422	100.00
0.8	0.8	100	2.4133	275	100.00
0.8	0.9	100	1.4613	199	100.00
0.8	1	100	0.7700	140	100.00
0.9	0	0	200.0232	23704	95.75
0.9	0.1	0	200.0228	23407	96.56
0.9	0.2	1	198.0780	23136	97.35
0.9	0.3	6.1	190.5669	22503	97.91
0.9	0.4	7.72	188.9000	22864	98.24
0.9	0.5	14.94	179.6333	22694	98.58
0.9	0.6	29.18	162.3341	22432	98.96
0.9	0.7	44.18	137.3867	21523	99.32
0.9	0.8	79.9	76.9066	14487	99.79
0.9	0.9	99.58	12.5637	2989	100.00
0.9	1	100	2.2009	569	100.00
