%!PS-Adobe-2.0 EPSF-2.0
%%Title: Compare-LS.eps
%%Creator: gnuplot 4.6 patchlevel 4
%%CreationDate: Fri Jun  6 19:53:11 2014
%%DocumentFonts: (atend)
%%BoundingBox: 50 50 302 770
%%EndComments
%%BeginProlog
/gnudict 256 dict def
gnudict begin
%
% The following true/false flags may be edited by hand if desired.
% The unit line width and grayscale image gamma correction may also be changed.
%
/Color true def
/Blacktext false def
/Solid false def
/Dashlength 1 def
/Landscape false def
/Level1 false def
/Rounded false def
/ClipToBoundingBox false def
/SuppressPDFMark false def
/TransparentPatterns false def
/gnulinewidth 10.000 def
/userlinewidth gnulinewidth def
/Gamma 1.0 def
/BackgroundColor {-1.000 -1.000 -1.000} def
%
/vshift -60 def
/dl1 {
  10.0 Dashlength mul mul
  Rounded { currentlinewidth 0.75 mul sub dup 0 le { pop 0.01 } if } if
} def
/dl2 {
  10.0 Dashlength mul mul
  Rounded { currentlinewidth 0.75 mul add } if
} def
/hpt_ 31.5 def
/vpt_ 31.5 def
/hpt hpt_ def
/vpt vpt_ def
/doclip {
  ClipToBoundingBox {
    newpath 50 50 moveto 302 50 lineto 302 770 lineto 50 770 lineto closepath
    clip
  } if
} def
%
% Gnuplot Prolog Version 4.6 (September 2012)
%
%/SuppressPDFMark true def
%
/M {moveto} bind def
/L {lineto} bind def
/R {rmoveto} bind def
/V {rlineto} bind def
/N {newpath moveto} bind def
/Z {closepath} bind def
/C {setrgbcolor} bind def
/f {rlineto fill} bind def
/g {setgray} bind def
/Gshow {show} def   % May be redefined later in the file to support UTF-8
/vpt2 vpt 2 mul def
/hpt2 hpt 2 mul def
/Lshow {currentpoint stroke M 0 vshift R 
	Blacktext {gsave 0 setgray show grestore} {show} ifelse} def
/Rshow {currentpoint stroke M dup stringwidth pop neg vshift R
	Blacktext {gsave 0 setgray show grestore} {show} ifelse} def
/Cshow {currentpoint stroke M dup stringwidth pop -2 div vshift R 
	Blacktext {gsave 0 setgray show grestore} {show} ifelse} def
/UP {dup vpt_ mul /vpt exch def hpt_ mul /hpt exch def
  /hpt2 hpt 2 mul def /vpt2 vpt 2 mul def} def
/DL {Color {setrgbcolor Solid {pop []} if 0 setdash}
 {pop pop pop 0 setgray Solid {pop []} if 0 setdash} ifelse} def
/BL {stroke userlinewidth 2 mul setlinewidth
	Rounded {1 setlinejoin 1 setlinecap} if} def
/AL {stroke userlinewidth 2 div setlinewidth
	Rounded {1 setlinejoin 1 setlinecap} if} def
/UL {dup gnulinewidth mul /userlinewidth exch def
	dup 1 lt {pop 1} if 10 mul /udl exch def} def
/PL {stroke userlinewidth setlinewidth
	Rounded {1 setlinejoin 1 setlinecap} if} def
3.8 setmiterlimit
% Default Line colors
/LCw {1 1 1} def
/LCb {0 0 0} def
/LCa {0 0 0} def
/LC0 {1 0 0} def
/LC1 {0 1 0} def
/LC2 {0 0 1} def
/LC3 {1 0 1} def
/LC4 {0 1 1} def
/LC5 {1 1 0} def
/LC6 {0 0 0} def
/LC7 {1 0.3 0} def
/LC8 {0.5 0.5 0.5} def
% Default Line Types
/LTw {PL [] 1 setgray} def
/LTb {BL [] LCb DL} def
/LTa {AL [1 udl mul 2 udl mul] 0 setdash LCa setrgbcolor} def
/LT0 {PL [] LC0 DL} def
/LT1 {PL [4 dl1 2 dl2] LC1 DL} def
/LT2 {PL [2 dl1 3 dl2] LC2 DL} def
/LT3 {PL [1 dl1 1.5 dl2] LC3 DL} def
/LT4 {PL [6 dl1 2 dl2 1 dl1 2 dl2] LC4 DL} def
/LT5 {PL [3 dl1 3 dl2 1 dl1 3 dl2] LC5 DL} def
/LT6 {PL [2 dl1 2 dl2 2 dl1 6 dl2] LC6 DL} def
/LT7 {PL [1 dl1 2 dl2 6 dl1 2 dl2 1 dl1 2 dl2] LC7 DL} def
/LT8 {PL [2 dl1 2 dl2 2 dl1 2 dl2 2 dl1 2 dl2 2 dl1 4 dl2] LC8 DL} def
/Pnt {stroke [] 0 setdash gsave 1 setlinecap M 0 0 V stroke grestore} def
/Dia {stroke [] 0 setdash 2 copy vpt add M
  hpt neg vpt neg V hpt vpt neg V
  hpt vpt V hpt neg vpt V closepath stroke
  Pnt} def
/Pls {stroke [] 0 setdash vpt sub M 0 vpt2 V
  currentpoint stroke M
  hpt neg vpt neg R hpt2 0 V stroke
 } def
/Box {stroke [] 0 setdash 2 copy exch hpt sub exch vpt add M
  0 vpt2 neg V hpt2 0 V 0 vpt2 V
  hpt2 neg 0 V closepath stroke
  Pnt} def
/Crs {stroke [] 0 setdash exch hpt sub exch vpt add M
  hpt2 vpt2 neg V currentpoint stroke M
  hpt2 neg 0 R hpt2 vpt2 V stroke} def
/TriU {stroke [] 0 setdash 2 copy vpt 1.12 mul add M
  hpt neg vpt -1.62 mul V
  hpt 2 mul 0 V
  hpt neg vpt 1.62 mul V closepath stroke
  Pnt} def
/Star {2 copy Pls Crs} def
/BoxF {stroke [] 0 setdash exch hpt sub exch vpt add M
  0 vpt2 neg V hpt2 0 V 0 vpt2 V
  hpt2 neg 0 V closepath fill} def
/TriUF {stroke [] 0 setdash vpt 1.12 mul add M
  hpt neg vpt -1.62 mul V
  hpt 2 mul 0 V
  hpt neg vpt 1.62 mul V closepath fill} def
/TriD {stroke [] 0 setdash 2 copy vpt 1.12 mul sub M
  hpt neg vpt 1.62 mul V
  hpt 2 mul 0 V
  hpt neg vpt -1.62 mul V closepath stroke
  Pnt} def
/TriDF {stroke [] 0 setdash vpt 1.12 mul sub M
  hpt neg vpt 1.62 mul V
  hpt 2 mul 0 V
  hpt neg vpt -1.62 mul V closepath fill} def
/DiaF {stroke [] 0 setdash vpt add M
  hpt neg vpt neg V hpt vpt neg V
  hpt vpt V hpt neg vpt V closepath fill} def
/Pent {stroke [] 0 setdash 2 copy gsave
  translate 0 hpt M 4 {72 rotate 0 hpt L} repeat
  closepath stroke grestore Pnt} def
/PentF {stroke [] 0 setdash gsave
  translate 0 hpt M 4 {72 rotate 0 hpt L} repeat
  closepath fill grestore} def
/Circle {stroke [] 0 setdash 2 copy
  hpt 0 360 arc stroke Pnt} def
/CircleF {stroke [] 0 setdash hpt 0 360 arc fill} def
/C0 {BL [] 0 setdash 2 copy moveto vpt 90 450 arc} bind def
/C1 {BL [] 0 setdash 2 copy moveto
	2 copy vpt 0 90 arc closepath fill
	vpt 0 360 arc closepath} bind def
/C2 {BL [] 0 setdash 2 copy moveto
	2 copy vpt 90 180 arc closepath fill
	vpt 0 360 arc closepath} bind def
/C3 {BL [] 0 setdash 2 copy moveto
	2 copy vpt 0 180 arc closepath fill
	vpt 0 360 arc closepath} bind def
/C4 {BL [] 0 setdash 2 copy moveto
	2 copy vpt 180 270 arc closepath fill
	vpt 0 360 arc closepath} bind def
/C5 {BL [] 0 setdash 2 copy moveto
	2 copy vpt 0 90 arc
	2 copy moveto
	2 copy vpt 180 270 arc closepath fill
	vpt 0 360 arc} bind def
/C6 {BL [] 0 setdash 2 copy moveto
	2 copy vpt 90 270 arc closepath fill
	vpt 0 360 arc closepath} bind def
/C7 {BL [] 0 setdash 2 copy moveto
	2 copy vpt 0 270 arc closepath fill
	vpt 0 360 arc closepath} bind def
/C8 {BL [] 0 setdash 2 copy moveto
	2 copy vpt 270 360 arc closepath fill
	vpt 0 360 arc closepath} bind def
/C9 {BL [] 0 setdash 2 copy moveto
	2 copy vpt 270 450 arc closepath fill
	vpt 0 360 arc closepath} bind def
/C10 {BL [] 0 setdash 2 copy 2 copy moveto vpt 270 360 arc closepath fill
	2 copy moveto
	2 copy vpt 90 180 arc closepath fill
	vpt 0 360 arc closepath} bind def
/C11 {BL [] 0 setdash 2 copy moveto
	2 copy vpt 0 180 arc closepath fill
	2 copy moveto
	2 copy vpt 270 360 arc closepath fill
	vpt 0 360 arc closepath} bind def
/C12 {BL [] 0 setdash 2 copy moveto
	2 copy vpt 180 360 arc closepath fill
	vpt 0 360 arc closepath} bind def
/C13 {BL [] 0 setdash 2 copy moveto
	2 copy vpt 0 90 arc closepath fill
	2 copy moveto
	2 copy vpt 180 360 arc closepath fill
	vpt 0 360 arc closepath} bind def
/C14 {BL [] 0 setdash 2 copy moveto
	2 copy vpt 90 360 arc closepath fill
	vpt 0 360 arc} bind def
/C15 {BL [] 0 setdash 2 copy vpt 0 360 arc closepath fill
	vpt 0 360 arc closepath} bind def
/Rec {newpath 4 2 roll moveto 1 index 0 rlineto 0 exch rlineto
	neg 0 rlineto closepath} bind def
/Square {dup Rec} bind def
/Bsquare {vpt sub exch vpt sub exch vpt2 Square} bind def
/S0 {BL [] 0 setdash 2 copy moveto 0 vpt rlineto BL Bsquare} bind def
/S1 {BL [] 0 setdash 2 copy vpt Square fill Bsquare} bind def
/S2 {BL [] 0 setdash 2 copy exch vpt sub exch vpt Square fill Bsquare} bind def
/S3 {BL [] 0 setdash 2 copy exch vpt sub exch vpt2 vpt Rec fill Bsquare} bind def
/S4 {BL [] 0 setdash 2 copy exch vpt sub exch vpt sub vpt Square fill Bsquare} bind def
/S5 {BL [] 0 setdash 2 copy 2 copy vpt Square fill
	exch vpt sub exch vpt sub vpt Square fill Bsquare} bind def
/S6 {BL [] 0 setdash 2 copy exch vpt sub exch vpt sub vpt vpt2 Rec fill Bsquare} bind def
/S7 {BL [] 0 setdash 2 copy exch vpt sub exch vpt sub vpt vpt2 Rec fill
	2 copy vpt Square fill Bsquare} bind def
/S8 {BL [] 0 setdash 2 copy vpt sub vpt Square fill Bsquare} bind def
/S9 {BL [] 0 setdash 2 copy vpt sub vpt vpt2 Rec fill Bsquare} bind def
/S10 {BL [] 0 setdash 2 copy vpt sub vpt Square fill 2 copy exch vpt sub exch vpt Square fill
	Bsquare} bind def
/S11 {BL [] 0 setdash 2 copy vpt sub vpt Square fill 2 copy exch vpt sub exch vpt2 vpt Rec fill
	Bsquare} bind def
/S12 {BL [] 0 setdash 2 copy exch vpt sub exch vpt sub vpt2 vpt Rec fill Bsquare} bind def
/S13 {BL [] 0 setdash 2 copy exch vpt sub exch vpt sub vpt2 vpt Rec fill
	2 copy vpt Square fill Bsquare} bind def
/S14 {BL [] 0 setdash 2 copy exch vpt sub exch vpt sub vpt2 vpt Rec fill
	2 copy exch vpt sub exch vpt Square fill Bsquare} bind def
/S15 {BL [] 0 setdash 2 copy Bsquare fill Bsquare} bind def
/D0 {gsave translate 45 rotate 0 0 S0 stroke grestore} bind def
/D1 {gsave translate 45 rotate 0 0 S1 stroke grestore} bind def
/D2 {gsave translate 45 rotate 0 0 S2 stroke grestore} bind def
/D3 {gsave translate 45 rotate 0 0 S3 stroke grestore} bind def
/D4 {gsave translate 45 rotate 0 0 S4 stroke grestore} bind def
/D5 {gsave translate 45 rotate 0 0 S5 stroke grestore} bind def
/D6 {gsave translate 45 rotate 0 0 S6 stroke grestore} bind def
/D7 {gsave translate 45 rotate 0 0 S7 stroke grestore} bind def
/D8 {gsave translate 45 rotate 0 0 S8 stroke grestore} bind def
/D9 {gsave translate 45 rotate 0 0 S9 stroke grestore} bind def
/D10 {gsave translate 45 rotate 0 0 S10 stroke grestore} bind def
/D11 {gsave translate 45 rotate 0 0 S11 stroke grestore} bind def
/D12 {gsave translate 45 rotate 0 0 S12 stroke grestore} bind def
/D13 {gsave translate 45 rotate 0 0 S13 stroke grestore} bind def
/D14 {gsave translate 45 rotate 0 0 S14 stroke grestore} bind def
/D15 {gsave translate 45 rotate 0 0 S15 stroke grestore} bind def
/DiaE {stroke [] 0 setdash vpt add M
  hpt neg vpt neg V hpt vpt neg V
  hpt vpt V hpt neg vpt V closepath stroke} def
/BoxE {stroke [] 0 setdash exch hpt sub exch vpt add M
  0 vpt2 neg V hpt2 0 V 0 vpt2 V
  hpt2 neg 0 V closepath stroke} def
/TriUE {stroke [] 0 setdash vpt 1.12 mul add M
  hpt neg vpt -1.62 mul V
  hpt 2 mul 0 V
  hpt neg vpt 1.62 mul V closepath stroke} def
/TriDE {stroke [] 0 setdash vpt 1.12 mul sub M
  hpt neg vpt 1.62 mul V
  hpt 2 mul 0 V
  hpt neg vpt -1.62 mul V closepath stroke} def
/PentE {stroke [] 0 setdash gsave
  translate 0 hpt M 4 {72 rotate 0 hpt L} repeat
  closepath stroke grestore} def
/CircE {stroke [] 0 setdash 
  hpt 0 360 arc stroke} def
/Opaque {gsave closepath 1 setgray fill grestore 0 setgray closepath} def
/DiaW {stroke [] 0 setdash vpt add M
  hpt neg vpt neg V hpt vpt neg V
  hpt vpt V hpt neg vpt V Opaque stroke} def
/BoxW {stroke [] 0 setdash exch hpt sub exch vpt add M
  0 vpt2 neg V hpt2 0 V 0 vpt2 V
  hpt2 neg 0 V Opaque stroke} def
/TriUW {stroke [] 0 setdash vpt 1.12 mul add M
  hpt neg vpt -1.62 mul V
  hpt 2 mul 0 V
  hpt neg vpt 1.62 mul V Opaque stroke} def
/TriDW {stroke [] 0 setdash vpt 1.12 mul sub M
  hpt neg vpt 1.62 mul V
  hpt 2 mul 0 V
  hpt neg vpt -1.62 mul V Opaque stroke} def
/PentW {stroke [] 0 setdash gsave
  translate 0 hpt M 4 {72 rotate 0 hpt L} repeat
  Opaque stroke grestore} def
/CircW {stroke [] 0 setdash 
  hpt 0 360 arc Opaque stroke} def
/BoxFill {gsave Rec 1 setgray fill grestore} def
/Density {
  /Fillden exch def
  currentrgbcolor
  /ColB exch def /ColG exch def /ColR exch def
  /ColR ColR Fillden mul Fillden sub 1 add def
  /ColG ColG Fillden mul Fillden sub 1 add def
  /ColB ColB Fillden mul Fillden sub 1 add def
  ColR ColG ColB setrgbcolor} def
/BoxColFill {gsave Rec PolyFill} def
/PolyFill {gsave Density fill grestore grestore} def
/h {rlineto rlineto rlineto gsave closepath fill grestore} bind def
%
% PostScript Level 1 Pattern Fill routine for rectangles
% Usage: x y w h s a XX PatternFill
%	x,y = lower left corner of box to be filled
%	w,h = width and height of box
%	  a = angle in degrees between lines and x-axis
%	 XX = 0/1 for no/yes cross-hatch
%
/PatternFill {gsave /PFa [ 9 2 roll ] def
  PFa 0 get PFa 2 get 2 div add PFa 1 get PFa 3 get 2 div add translate
  PFa 2 get -2 div PFa 3 get -2 div PFa 2 get PFa 3 get Rec
  TransparentPatterns {} {gsave 1 setgray fill grestore} ifelse
  clip
  currentlinewidth 0.5 mul setlinewidth
  /PFs PFa 2 get dup mul PFa 3 get dup mul add sqrt def
  0 0 M PFa 5 get rotate PFs -2 div dup translate
  0 1 PFs PFa 4 get div 1 add floor cvi
	{PFa 4 get mul 0 M 0 PFs V} for
  0 PFa 6 get ne {
	0 1 PFs PFa 4 get div 1 add floor cvi
	{PFa 4 get mul 0 2 1 roll M PFs 0 V} for
 } if
  stroke grestore} def
%
/languagelevel where
 {pop languagelevel} {1} ifelse
 2 lt
	{/InterpretLevel1 true def}
	{/InterpretLevel1 Level1 def}
 ifelse
%
% PostScript level 2 pattern fill definitions
%
/Level2PatternFill {
/Tile8x8 {/PaintType 2 /PatternType 1 /TilingType 1 /BBox [0 0 8 8] /XStep 8 /YStep 8}
	bind def
/KeepColor {currentrgbcolor [/Pattern /DeviceRGB] setcolorspace} bind def
<< Tile8x8
 /PaintProc {0.5 setlinewidth pop 0 0 M 8 8 L 0 8 M 8 0 L stroke} 
>> matrix makepattern
/Pat1 exch def
<< Tile8x8
 /PaintProc {0.5 setlinewidth pop 0 0 M 8 8 L 0 8 M 8 0 L stroke
	0 4 M 4 8 L 8 4 L 4 0 L 0 4 L stroke}
>> matrix makepattern
/Pat2 exch def
<< Tile8x8
 /PaintProc {0.5 setlinewidth pop 0 0 M 0 8 L
	8 8 L 8 0 L 0 0 L fill}
>> matrix makepattern
/Pat3 exch def
<< Tile8x8
 /PaintProc {0.5 setlinewidth pop -4 8 M 8 -4 L
	0 12 M 12 0 L stroke}
>> matrix makepattern
/Pat4 exch def
<< Tile8x8
 /PaintProc {0.5 setlinewidth pop -4 0 M 8 12 L
	0 -4 M 12 8 L stroke}
>> matrix makepattern
/Pat5 exch def
<< Tile8x8
 /PaintProc {0.5 setlinewidth pop -2 8 M 4 -4 L
	0 12 M 8 -4 L 4 12 M 10 0 L stroke}
>> matrix makepattern
/Pat6 exch def
<< Tile8x8
 /PaintProc {0.5 setlinewidth pop -2 0 M 4 12 L
	0 -4 M 8 12 L 4 -4 M 10 8 L stroke}
>> matrix makepattern
/Pat7 exch def
<< Tile8x8
 /PaintProc {0.5 setlinewidth pop 8 -2 M -4 4 L
	12 0 M -4 8 L 12 4 M 0 10 L stroke}
>> matrix makepattern
/Pat8 exch def
<< Tile8x8
 /PaintProc {0.5 setlinewidth pop 0 -2 M 12 4 L
	-4 0 M 12 8 L -4 4 M 8 10 L stroke}
>> matrix makepattern
/Pat9 exch def
/Pattern1 {PatternBgnd KeepColor Pat1 setpattern} bind def
/Pattern2 {PatternBgnd KeepColor Pat2 setpattern} bind def
/Pattern3 {PatternBgnd KeepColor Pat3 setpattern} bind def
/Pattern4 {PatternBgnd KeepColor Landscape {Pat5} {Pat4} ifelse setpattern} bind def
/Pattern5 {PatternBgnd KeepColor Landscape {Pat4} {Pat5} ifelse setpattern} bind def
/Pattern6 {PatternBgnd KeepColor Landscape {Pat9} {Pat6} ifelse setpattern} bind def
/Pattern7 {PatternBgnd KeepColor Landscape {Pat8} {Pat7} ifelse setpattern} bind def
} def
%
%
%End of PostScript Level 2 code
%
/PatternBgnd {
  TransparentPatterns {} {gsave 1 setgray fill grestore} ifelse
} def
%
% Substitute for Level 2 pattern fill codes with
% grayscale if Level 2 support is not selected.
%
/Level1PatternFill {
/Pattern1 {0.250 Density} bind def
/Pattern2 {0.500 Density} bind def
/Pattern3 {0.750 Density} bind def
/Pattern4 {0.125 Density} bind def
/Pattern5 {0.375 Density} bind def
/Pattern6 {0.625 Density} bind def
/Pattern7 {0.875 Density} bind def
} def
%
% Now test for support of Level 2 code
%
Level1 {Level1PatternFill} {Level2PatternFill} ifelse
%
/Symbol-Oblique /Symbol findfont [1 0 .167 1 0 0] makefont
dup length dict begin {1 index /FID eq {pop pop} {def} ifelse} forall
currentdict end definefont pop
/MFshow {
   { dup 5 get 3 ge
     { 5 get 3 eq {gsave} {grestore} ifelse }
     {dup dup 0 get findfont exch 1 get scalefont setfont
     [ currentpoint ] exch dup 2 get 0 exch R dup 5 get 2 ne {dup dup 6
     get exch 4 get {Gshow} {stringwidth pop 0 R} ifelse }if dup 5 get 0 eq
     {dup 3 get {2 get neg 0 exch R pop} {pop aload pop M} ifelse} {dup 5
     get 1 eq {dup 2 get exch dup 3 get exch 6 get stringwidth pop -2 div
     dup 0 R} {dup 6 get stringwidth pop -2 div 0 R 6 get
     show 2 index {aload pop M neg 3 -1 roll neg R pop pop} {pop pop pop
     pop aload pop M} ifelse }ifelse }ifelse }
     ifelse }
   forall} def
/Gswidth {dup type /stringtype eq {stringwidth} {pop (n) stringwidth} ifelse} def
/MFwidth {0 exch { dup 5 get 3 ge { 5 get 3 eq { 0 } { pop } ifelse }
 {dup 3 get{dup dup 0 get findfont exch 1 get scalefont setfont
     6 get Gswidth pop add} {pop} ifelse} ifelse} forall} def
/MLshow { currentpoint stroke M
  0 exch R
  Blacktext {gsave 0 setgray MFshow grestore} {MFshow} ifelse } bind def
/MRshow { currentpoint stroke M
  exch dup MFwidth neg 3 -1 roll R
  Blacktext {gsave 0 setgray MFshow grestore} {MFshow} ifelse } bind def
/MCshow { currentpoint stroke M
  exch dup MFwidth -2 div 3 -1 roll R
  Blacktext {gsave 0 setgray MFshow grestore} {MFshow} ifelse } bind def
/XYsave    { [( ) 1 2 true false 3 ()] } bind def
/XYrestore { [( ) 1 2 true false 4 ()] } bind def
Level1 SuppressPDFMark or 
{} {
/SDict 10 dict def
systemdict /pdfmark known not {
  userdict /pdfmark systemdict /cleartomark get put
} if
SDict begin [
  /Title (Compare-LS.eps)
  /Subject (gnuplot plot)
  /Creator (gnuplot 4.6 patchlevel 4)
  /Author (danny)
%  /Producer (gnuplot)
%  /Keywords ()
  /CreationDate (Fri Jun  6 19:53:11 2014)
  /DOCINFO pdfmark
end
} ifelse
end
%%EndProlog
%%Page: 1 1
gnudict begin
gsave
doclip
50 50 translate
0.050 0.050 scale
0 setgray
newpath
(Times-Roman) findfont 180 scalefont setfont
BackgroundColor 0 lt 3 1 roll 0 lt exch 0 lt or or not {BackgroundColor C 1.000 0 0 5040.00 14400.00 BoxColFill} if
LCb setrgbcolor
LTb
1.000 UL
LTb
LCb setrgbcolor
882 10056 M
63 0 V
3770 0 R
-63 0 V
stroke
774 10056 M
[ [(Times-Roman) 180.0 0.0 true true 0 ( 0)]
] -60.0 MRshow
1.000 UL
LTb
LCb setrgbcolor
882 10781 M
63 0 V
3770 0 R
-63 0 V
stroke
774 10781 M
[ [(Times-Roman) 180.0 0.0 true true 0 ( 20)]
] -60.0 MRshow
1.000 UL
LTb
LCb setrgbcolor
882 11505 M
63 0 V
3770 0 R
-63 0 V
stroke
774 11505 M
[ [(Times-Roman) 180.0 0.0 true true 0 ( 40)]
] -60.0 MRshow
1.000 UL
LTb
LCb setrgbcolor
882 12230 M
63 0 V
3770 0 R
-63 0 V
stroke
774 12230 M
[ [(Times-Roman) 180.0 0.0 true true 0 ( 60)]
] -60.0 MRshow
1.000 UL
LTb
LCb setrgbcolor
882 12954 M
63 0 V
3770 0 R
-63 0 V
stroke
774 12954 M
[ [(Times-Roman) 180.0 0.0 true true 0 ( 80)]
] -60.0 MRshow
1.000 UL
LTb
LCb setrgbcolor
882 13679 M
63 0 V
3770 0 R
-63 0 V
stroke
774 13679 M
[ [(Times-Roman) 180.0 0.0 true true 0 ( 100)]
] -60.0 MRshow
1.000 UL
LTb
LCb setrgbcolor
882 10056 M
0 63 V
0 3560 R
0 -63 V
stroke
882 9876 M
[ [(Times-Roman) 180.0 0.0 true true 0 ( 0)]
] -60.0 MCshow
1.000 UL
LTb
LCb setrgbcolor
1649 10056 M
0 63 V
0 3560 R
0 -63 V
stroke
1649 9876 M
[ [(Times-Roman) 180.0 0.0 true true 0 ( 0.2)]
] -60.0 MCshow
1.000 UL
LTb
LCb setrgbcolor
2415 10056 M
0 63 V
0 3560 R
0 -63 V
stroke
2415 9876 M
[ [(Times-Roman) 180.0 0.0 true true 0 ( 0.4)]
] -60.0 MCshow
1.000 UL
LTb
LCb setrgbcolor
3182 10056 M
0 63 V
0 3560 R
0 -63 V
stroke
3182 9876 M
[ [(Times-Roman) 180.0 0.0 true true 0 ( 0.6)]
] -60.0 MCshow
1.000 UL
LTb
LCb setrgbcolor
3948 10056 M
0 63 V
0 3560 R
0 -63 V
stroke
3948 9876 M
[ [(Times-Roman) 180.0 0.0 true true 0 ( 0.8)]
] -60.0 MCshow
1.000 UL
LTb
LCb setrgbcolor
4715 10056 M
0 63 V
0 3560 R
0 -63 V
stroke
4715 9876 M
[ [(Times-Roman) 180.0 0.0 true true 0 ( 1)]
] -60.0 MCshow
1.000 UL
LTb
LCb setrgbcolor
1.000 UL
LTb
LCb setrgbcolor
882 13679 N
0 -3623 V
3833 0 V
0 3623 V
-3833 0 V
Z stroke
LCb setrgbcolor
144 11867 M
currentpoint gsave translate -270 rotate 0 0 moveto
[ [(Times-Roman) 180.0 0.0 true true 0 (Percentage of stable marriages with no singles)]
] -60.0 MCshow
grestore
LTb
LCb setrgbcolor
2798 9606 M
[ [(Times-Roman) 180.0 0.0 true true 0 (Probability of ties P2)]
] -60.0 MCshow
LTb
2798 13949 M
[ [(Times-Roman) 180.0 0.0 true true 0 (\(a\) Perfect Marriages)]
] -60.0 MCshow
1.000 UP
1.000 UL
LTb
LCb setrgbcolor
% Begin plot #1
1.000 UP
4.000 UL
LT0
LC0 setrgbcolor
LCb setrgbcolor
3896 13526 M
[ [(Times-Roman) 180.0 0.0 true true 0 (P1=0.1)]
] -60.0 MRshow
LT0
4004 13526 M
495 0 V
882 13679 M
383 0 V
384 0 V
383 0 V
383 0 V
384 0 V
383 0 V
383 0 V
383 0 V
384 0 V
383 0 V
882 13679 Pls
1265 13679 Pls
1649 13679 Pls
2032 13679 Pls
2415 13679 Pls
2799 13679 Pls
3182 13679 Pls
3565 13679 Pls
3948 13679 Pls
4332 13679 Pls
4715 13679 Pls
4251 13526 Pls
% End plot #1
% Begin plot #2
1.000 UP
4.000 UL
LT1
LC1 setrgbcolor
LCb setrgbcolor
3896 13346 M
[ [(Times-Roman) 180.0 0.0 true true 0 (P1=0.2)]
] -60.0 MRshow
LT1
4004 13346 M
495 0 V
882 13679 M
383 0 V
384 0 V
383 0 V
383 0 V
384 0 V
383 0 V
383 0 V
383 0 V
384 0 V
383 0 V
882 13679 Crs
1265 13679 Crs
1649 13679 Crs
2032 13679 Crs
2415 13679 Crs
2799 13679 Crs
3182 13679 Crs
3565 13679 Crs
3948 13679 Crs
4332 13679 Crs
4715 13679 Crs
4251 13346 Crs
% End plot #2
% Begin plot #3
1.000 UP
4.000 UL
LT2
LC2 setrgbcolor
LCb setrgbcolor
3896 13166 M
[ [(Times-Roman) 180.0 0.0 true true 0 (P1=0.3)]
] -60.0 MRshow
LT2
4004 13166 M
495 0 V
882 13679 M
383 0 V
384 0 V
383 0 V
383 0 V
384 0 V
383 0 V
383 0 V
383 0 V
384 0 V
383 0 V
882 13679 Star
1265 13679 Star
1649 13679 Star
2032 13679 Star
2415 13679 Star
2799 13679 Star
3182 13679 Star
3565 13679 Star
3948 13679 Star
4332 13679 Star
4715 13679 Star
4251 13166 Star
% End plot #3
% Begin plot #4
1.000 UP
4.000 UL
LT3
LC3 setrgbcolor
LCb setrgbcolor
3896 12986 M
[ [(Times-Roman) 180.0 0.0 true true 0 (P1=0.4)]
] -60.0 MRshow
LT3
4004 12986 M
495 0 V
882 13679 M
383 0 V
384 0 V
383 0 V
383 0 V
384 0 V
383 0 V
383 0 V
383 0 V
384 0 V
383 0 V
882 13679 Box
1265 13679 Box
1649 13679 Box
2032 13679 Box
2415 13679 Box
2799 13679 Box
3182 13679 Box
3565 13679 Box
3948 13679 Box
4332 13679 Box
4715 13679 Box
4251 12986 Box
% End plot #4
% Begin plot #5
1.000 UP
4.000 UL
LT4
LC4 setrgbcolor
LCb setrgbcolor
3896 12806 M
[ [(Times-Roman) 180.0 0.0 true true 0 (P1=0.5)]
] -60.0 MRshow
LT4
4004 12806 M
495 0 V
882 13679 M
383 0 V
384 0 V
383 0 V
383 0 V
384 0 V
383 0 V
383 0 V
383 0 V
384 0 V
383 0 V
882 13679 BoxF
1265 13679 BoxF
1649 13679 BoxF
2032 13679 BoxF
2415 13679 BoxF
2799 13679 BoxF
3182 13679 BoxF
3565 13679 BoxF
3948 13679 BoxF
4332 13679 BoxF
4715 13679 BoxF
4251 12806 BoxF
% End plot #5
% Begin plot #6
1.000 UP
4.000 UL
LT5
LC5 setrgbcolor
LCb setrgbcolor
3896 12626 M
[ [(Times-Roman) 180.0 0.0 true true 0 (P1=0.6)]
] -60.0 MRshow
LT5
4004 12626 M
495 0 V
882 13534 M
383 145 V
384 0 V
383 0 V
383 0 V
384 0 V
383 0 V
383 0 V
383 0 V
384 0 V
383 0 V
882 13534 Circle
1265 13679 Circle
1649 13679 Circle
2032 13679 Circle
2415 13679 Circle
2799 13679 Circle
3182 13679 Circle
3565 13679 Circle
3948 13679 Circle
4332 13679 Circle
4715 13679 Circle
4251 12626 Circle
% End plot #6
% Begin plot #7
1.000 UP
4.000 UL
LT6
LC6 setrgbcolor
LCb setrgbcolor
3896 12446 M
[ [(Times-Roman) 180.0 0.0 true true 0 (P1=0.7)]
] -60.0 MRshow
LT6
4004 12446 M
495 0 V
882 12991 M
383 507 V
384 72 V
383 109 V
383 0 V
384 0 V
383 0 V
383 0 V
383 0 V
384 0 V
383 0 V
882 12991 CircleF
1265 13498 CircleF
1649 13570 CircleF
2032 13679 CircleF
2415 13679 CircleF
2799 13679 CircleF
3182 13679 CircleF
3565 13679 CircleF
3948 13679 CircleF
4332 13679 CircleF
4715 13679 CircleF
4251 12446 CircleF
% End plot #7
% Begin plot #8
1.000 UP
4.000 UL
LT7
LC7 setrgbcolor
LCb setrgbcolor
3896 12266 M
[ [(Times-Roman) 180.0 0.0 true true 0 (P1=0.8)]
] -60.0 MRshow
LT7
4004 12266 M
495 0 V
882 11143 M
383 797 V
384 942 V
383 580 V
383 145 V
384 72 V
383 0 V
383 0 V
383 0 V
384 0 V
383 0 V
882 11143 TriU
1265 11940 TriU
1649 12882 TriU
2032 13462 TriU
2415 13607 TriU
2799 13679 TriU
3182 13679 TriU
3565 13679 TriU
3948 13679 TriU
4332 13679 TriU
4715 13679 TriU
4251 12266 TriU
% End plot #8
1.000 UL
LTb
LCb setrgbcolor
882 13679 N
0 -3623 V
3833 0 V
0 3623 V
-3833 0 V
Z stroke
1.000 UP
1.000 UL
LTb
LCb setrgbcolor
1.000 UL
LTb
LCb setrgbcolor
882 5316 M
63 0 V
3770 0 R
-63 0 V
stroke
774 5316 M
[ [(Times-Roman) 180.0 0.0 true true 0 ( 0)]
] -60.0 MRshow
1.000 UL
LTb
LCb setrgbcolor
882 5769 M
63 0 V
3770 0 R
-63 0 V
stroke
774 5769 M
[ [(Times-Roman) 180.0 0.0 true true 0 ( 50)]
] -60.0 MRshow
1.000 UL
LTb
LCb setrgbcolor
882 6222 M
63 0 V
3770 0 R
-63 0 V
stroke
774 6222 M
[ [(Times-Roman) 180.0 0.0 true true 0 ( 100)]
] -60.0 MRshow
1.000 UL
LTb
LCb setrgbcolor
882 6675 M
63 0 V
3770 0 R
-63 0 V
stroke
774 6675 M
[ [(Times-Roman) 180.0 0.0 true true 0 ( 150)]
] -60.0 MRshow
1.000 UL
LTb
LCb setrgbcolor
882 7128 M
63 0 V
3770 0 R
-63 0 V
stroke
774 7128 M
[ [(Times-Roman) 180.0 0.0 true true 0 ( 200)]
] -60.0 MRshow
1.000 UL
LTb
LCb setrgbcolor
882 7580 M
63 0 V
3770 0 R
-63 0 V
stroke
774 7580 M
[ [(Times-Roman) 180.0 0.0 true true 0 ( 250)]
] -60.0 MRshow
1.000 UL
LTb
LCb setrgbcolor
882 8033 M
63 0 V
3770 0 R
-63 0 V
stroke
774 8033 M
[ [(Times-Roman) 180.0 0.0 true true 0 ( 300)]
] -60.0 MRshow
1.000 UL
LTb
LCb setrgbcolor
882 8486 M
63 0 V
3770 0 R
-63 0 V
stroke
774 8486 M
[ [(Times-Roman) 180.0 0.0 true true 0 ( 350)]
] -60.0 MRshow
1.000 UL
LTb
LCb setrgbcolor
882 8939 M
63 0 V
3770 0 R
-63 0 V
stroke
774 8939 M
[ [(Times-Roman) 180.0 0.0 true true 0 ( 400)]
] -60.0 MRshow
1.000 UL
LTb
LCb setrgbcolor
882 5316 M
0 63 V
0 3560 R
0 -63 V
stroke
882 5136 M
[ [(Times-Roman) 180.0 0.0 true true 0 ( 0)]
] -60.0 MCshow
1.000 UL
LTb
LCb setrgbcolor
1649 5316 M
0 63 V
0 3560 R
0 -63 V
stroke
1649 5136 M
[ [(Times-Roman) 180.0 0.0 true true 0 ( 0.2)]
] -60.0 MCshow
1.000 UL
LTb
LCb setrgbcolor
2415 5316 M
0 63 V
0 3560 R
0 -63 V
stroke
2415 5136 M
[ [(Times-Roman) 180.0 0.0 true true 0 ( 0.4)]
] -60.0 MCshow
1.000 UL
LTb
LCb setrgbcolor
3182 5316 M
0 63 V
0 3560 R
0 -63 V
stroke
3182 5136 M
[ [(Times-Roman) 180.0 0.0 true true 0 ( 0.6)]
] -60.0 MCshow
1.000 UL
LTb
LCb setrgbcolor
3948 5316 M
0 63 V
0 3560 R
0 -63 V
stroke
3948 5136 M
[ [(Times-Roman) 180.0 0.0 true true 0 ( 0.8)]
] -60.0 MCshow
1.000 UL
LTb
LCb setrgbcolor
4715 5316 M
0 63 V
0 3560 R
0 -63 V
stroke
4715 5136 M
[ [(Times-Roman) 180.0 0.0 true true 0 ( 1)]
] -60.0 MCshow
1.000 UL
LTb
LCb setrgbcolor
1.000 UL
LTb
LCb setrgbcolor
882 8939 N
0 -3623 V
3833 0 V
0 3623 V
-3833 0 V
Z stroke
LCb setrgbcolor
144 7127 M
currentpoint gsave translate -270 rotate 0 0 moveto
[ [(Times-Roman) 180.0 0.0 true true 0 (Execution time \(ms\))]
] -60.0 MCshow
grestore
LTb
LCb setrgbcolor
2798 4866 M
[ [(Times-Roman) 180.0 0.0 true true 0 (Probability of ties P2)]
] -60.0 MCshow
LTb
2798 9209 M
[ [(Times-Roman) 180.0 0.0 true true 0 (\(b\) Execution Time)]
] -60.0 MCshow
1.000 UP
1.000 UL
LTb
LCb setrgbcolor
% Begin plot #1
1.000 UP
4.000 UL
LT0
LC0 setrgbcolor
LCb setrgbcolor
3896 8786 M
[ [(Times-Roman) 180.0 0.0 true true 0 (P1=0.1)]
] -60.0 MRshow
LT0
4004 8786 M
495 0 V
882 5334 M
383 1 V
384 -1 V
383 0 V
383 1 V
384 -1 V
383 -1 V
383 -2 V
383 -2 V
384 -3 V
383 -10 V
882 5334 Pls
1265 5335 Pls
1649 5334 Pls
2032 5334 Pls
2415 5335 Pls
2799 5334 Pls
3182 5333 Pls
3565 5331 Pls
3948 5329 Pls
4332 5326 Pls
4715 5316 Pls
4251 8786 Pls
% End plot #1
% Begin plot #2
1.000 UP
4.000 UL
LT1
LC1 setrgbcolor
LCb setrgbcolor
3896 8606 M
[ [(Times-Roman) 180.0 0.0 true true 0 (P1=0.2)]
] -60.0 MRshow
LT1
4004 8606 M
495 0 V
882 5334 M
383 1 V
384 0 V
383 0 V
383 0 V
384 -1 V
383 -1 V
383 -1 V
383 -2 V
384 -4 V
383 -9 V
882 5334 Crs
1265 5335 Crs
1649 5335 Crs
2032 5335 Crs
2415 5335 Crs
2799 5334 Crs
3182 5333 Crs
3565 5332 Crs
3948 5330 Crs
4332 5326 Crs
4715 5317 Crs
4251 8606 Crs
% End plot #2
% Begin plot #3
1.000 UP
4.000 UL
LT2
LC2 setrgbcolor
LCb setrgbcolor
3896 8426 M
[ [(Times-Roman) 180.0 0.0 true true 0 (P1=0.3)]
] -60.0 MRshow
LT2
4004 8426 M
495 0 V
882 5335 M
383 -1 V
384 1 V
383 1 V
383 -1 V
384 0 V
383 -1 V
383 -1 V
383 -3 V
384 -4 V
383 -9 V
882 5335 Star
1265 5334 Star
1649 5335 Star
2032 5336 Star
2415 5335 Star
2799 5335 Star
3182 5334 Star
3565 5333 Star
3948 5330 Star
4332 5326 Star
4715 5317 Star
4251 8426 Star
% End plot #3
% Begin plot #4
1.000 UP
4.000 UL
LT3
LC3 setrgbcolor
LCb setrgbcolor
3896 8246 M
[ [(Times-Roman) 180.0 0.0 true true 0 (P1=0.4)]
] -60.0 MRshow
LT3
4004 8246 M
495 0 V
882 5335 M
383 1 V
384 1 V
383 -1 V
383 0 V
384 -1 V
383 0 V
383 -1 V
383 -4 V
384 -4 V
383 -8 V
882 5335 Box
1265 5336 Box
1649 5337 Box
2032 5336 Box
2415 5336 Box
2799 5335 Box
3182 5335 Box
3565 5334 Box
3948 5330 Box
4332 5326 Box
4715 5318 Box
4251 8246 Box
% End plot #4
% Begin plot #5
1.000 UP
4.000 UL
LT4
LC4 setrgbcolor
LCb setrgbcolor
3896 8066 M
[ [(Times-Roman) 180.0 0.0 true true 0 (P1=0.5)]
] -60.0 MRshow
LT4
4004 8066 M
495 0 V
882 5335 M
383 1 V
384 1 V
383 0 V
383 0 V
384 -2 V
383 -1 V
383 -2 V
383 -2 V
384 -5 V
383 -7 V
882 5335 BoxF
1265 5336 BoxF
1649 5337 BoxF
2032 5337 BoxF
2415 5337 BoxF
2799 5335 BoxF
3182 5334 BoxF
3565 5332 BoxF
3948 5330 BoxF
4332 5325 BoxF
4715 5318 BoxF
4251 8066 BoxF
% End plot #5
% Begin plot #6
1.000 UP
4.000 UL
LT5
LC5 setrgbcolor
LCb setrgbcolor
3896 7886 M
[ [(Times-Roman) 180.0 0.0 true true 0 (P1=0.6)]
] -60.0 MRshow
LT5
4004 7886 M
495 0 V
882 5576 M
383 -240 V
384 5 V
383 0 V
383 2 V
384 -5 V
383 -4 V
383 -1 V
383 -3 V
384 -4 V
383 -7 V
882 5576 Circle
1265 5336 Circle
1649 5341 Circle
2032 5341 Circle
2415 5343 Circle
2799 5338 Circle
3182 5334 Circle
3565 5333 Circle
3948 5330 Circle
4332 5326 Circle
4715 5319 Circle
4251 7886 Circle
% End plot #6
% Begin plot #7
1.000 UP
4.000 UL
LT6
LC6 setrgbcolor
LCb setrgbcolor
3896 7706 M
[ [(Times-Roman) 180.0 0.0 true true 0 (P1=0.7)]
] -60.0 MRshow
LT6
4004 7706 M
495 0 V
882 6340 M
383 -642 V
384 -150 V
383 -162 V
383 -42 V
384 -3 V
383 1 V
383 -8 V
383 -4 V
384 -4 V
383 -5 V
882 6340 CircleF
1265 5698 CircleF
1649 5548 CircleF
2032 5386 CircleF
2415 5344 CircleF
2799 5341 CircleF
3182 5342 CircleF
3565 5334 CircleF
3948 5330 CircleF
4332 5326 CircleF
4715 5321 CircleF
4251 7706 CircleF
% End plot #7
% Begin plot #8
1.000 UP
4.000 UL
LT7
LC7 setrgbcolor
LCb setrgbcolor
3896 7526 M
[ [(Times-Roman) 180.0 0.0 true true 0 (P1=0.8)]
] -60.0 MRshow
LT7
4004 7526 M
495 0 V
882 8701 M
383 -947 V
1649 6728 L
383 -732 V
383 -308 V
384 -281 V
383 -27 V
383 -27 V
383 -14 V
384 -10 V
383 -6 V
882 8701 TriU
1265 7754 TriU
1649 6728 TriU
2032 5996 TriU
2415 5688 TriU
2799 5407 TriU
3182 5380 TriU
3565 5353 TriU
3948 5339 TriU
4332 5329 TriU
4715 5323 TriU
4251 7526 TriU
% End plot #8
1.000 UL
LTb
LCb setrgbcolor
882 8939 N
0 -3623 V
3833 0 V
0 3623 V
-3833 0 V
Z stroke
1.000 UP
1.000 UL
LTb
LCb setrgbcolor
1.000 UL
LTb
LCb setrgbcolor
990 576 M
63 0 V
3662 0 R
-63 0 V
stroke
882 576 M
[ [(Times-Roman) 180.0 0.0 true true 0 ( 99)]
] -60.0 MRshow
1.000 UL
LTb
LCb setrgbcolor
990 1301 M
63 0 V
3662 0 R
-63 0 V
stroke
882 1301 M
[ [(Times-Roman) 180.0 0.0 true true 0 ( 99.2)]
] -60.0 MRshow
1.000 UL
LTb
LCb setrgbcolor
990 2026 M
63 0 V
3662 0 R
-63 0 V
stroke
882 2026 M
[ [(Times-Roman) 180.0 0.0 true true 0 ( 99.4)]
] -60.0 MRshow
1.000 UL
LTb
LCb setrgbcolor
990 2750 M
63 0 V
3662 0 R
-63 0 V
stroke
882 2750 M
[ [(Times-Roman) 180.0 0.0 true true 0 ( 99.6)]
] -60.0 MRshow
1.000 UL
LTb
LCb setrgbcolor
990 3475 M
63 0 V
3662 0 R
-63 0 V
stroke
882 3475 M
[ [(Times-Roman) 180.0 0.0 true true 0 ( 99.8)]
] -60.0 MRshow
1.000 UL
LTb
LCb setrgbcolor
990 4200 M
63 0 V
3662 0 R
-63 0 V
stroke
882 4200 M
[ [(Times-Roman) 180.0 0.0 true true 0 ( 100)]
] -60.0 MRshow
1.000 UL
LTb
LCb setrgbcolor
990 576 M
0 63 V
0 3561 R
0 -63 V
stroke
990 396 M
[ [(Times-Roman) 180.0 0.0 true true 0 ( 0)]
] -60.0 MCshow
1.000 UL
LTb
LCb setrgbcolor
1735 576 M
0 63 V
0 3561 R
0 -63 V
stroke
1735 396 M
[ [(Times-Roman) 180.0 0.0 true true 0 ( 0.2)]
] -60.0 MCshow
1.000 UL
LTb
LCb setrgbcolor
2480 576 M
0 63 V
0 3561 R
0 -63 V
stroke
2480 396 M
[ [(Times-Roman) 180.0 0.0 true true 0 ( 0.4)]
] -60.0 MCshow
1.000 UL
LTb
LCb setrgbcolor
3225 576 M
0 63 V
0 3561 R
0 -63 V
stroke
3225 396 M
[ [(Times-Roman) 180.0 0.0 true true 0 ( 0.6)]
] -60.0 MCshow
1.000 UL
LTb
LCb setrgbcolor
3970 576 M
0 63 V
0 3561 R
0 -63 V
stroke
3970 396 M
[ [(Times-Roman) 180.0 0.0 true true 0 ( 0.8)]
] -60.0 MCshow
1.000 UL
LTb
LCb setrgbcolor
4715 576 M
0 63 V
0 3561 R
0 -63 V
stroke
4715 396 M
[ [(Times-Roman) 180.0 0.0 true true 0 ( 1)]
] -60.0 MCshow
1.000 UL
LTb
LCb setrgbcolor
1.000 UL
LTb
LCb setrgbcolor
990 4200 N
990 576 L
3725 0 V
0 3624 V
-3725 0 V
Z stroke
LCb setrgbcolor
144 2388 M
currentpoint gsave translate -270 rotate 0 0 moveto
[ [(Times-Roman) 180.0 0.0 true true 0 (Average marriage size)]
] -60.0 MCshow
grestore
LTb
LCb setrgbcolor
2852 126 M
[ [(Times-Roman) 180.0 0.0 true true 0 (Probability of ties P2)]
] -60.0 MCshow
LTb
2852 4470 M
[ [(Times-Roman) 180.0 0.0 true true 0 (\(c\) Average Marriage Size)]
] -60.0 MCshow
1.000 UP
1.000 UL
LTb
LCb setrgbcolor
% Begin plot #1
1.000 UP
4.000 UL
LT0
LC0 setrgbcolor
LCb setrgbcolor
3896 4047 M
[ [(Times-Roman) 180.0 0.0 true true 0 (P1=0.1)]
] -60.0 MRshow
LT0
4004 4047 M
495 0 V
990 4200 M
373 0 V
372 0 V
373 0 V
372 0 V
373 0 V
372 0 V
373 0 V
372 0 V
373 0 V
372 0 V
990 4200 Pls
1363 4200 Pls
1735 4200 Pls
2108 4200 Pls
2480 4200 Pls
2853 4200 Pls
3225 4200 Pls
3598 4200 Pls
3970 4200 Pls
4343 4200 Pls
4715 4200 Pls
4251 4047 Pls
% End plot #1
% Begin plot #2
1.000 UP
4.000 UL
LT1
LC1 setrgbcolor
LCb setrgbcolor
3896 3867 M
[ [(Times-Roman) 180.0 0.0 true true 0 (P1=0.2)]
] -60.0 MRshow
LT1
4004 3867 M
495 0 V
990 4200 M
373 0 V
372 0 V
373 0 V
372 0 V
373 0 V
372 0 V
373 0 V
372 0 V
373 0 V
372 0 V
990 4200 Crs
1363 4200 Crs
1735 4200 Crs
2108 4200 Crs
2480 4200 Crs
2853 4200 Crs
3225 4200 Crs
3598 4200 Crs
3970 4200 Crs
4343 4200 Crs
4715 4200 Crs
4251 3867 Crs
% End plot #2
% Begin plot #3
1.000 UP
4.000 UL
LT2
LC2 setrgbcolor
LCb setrgbcolor
3896 3687 M
[ [(Times-Roman) 180.0 0.0 true true 0 (P1=0.3)]
] -60.0 MRshow
LT2
4004 3687 M
495 0 V
990 4200 M
373 0 V
372 0 V
373 0 V
372 0 V
373 0 V
372 0 V
373 0 V
372 0 V
373 0 V
372 0 V
990 4200 Star
1363 4200 Star
1735 4200 Star
2108 4200 Star
2480 4200 Star
2853 4200 Star
3225 4200 Star
3598 4200 Star
3970 4200 Star
4343 4200 Star
4715 4200 Star
4251 3687 Star
% End plot #3
% Begin plot #4
1.000 UP
4.000 UL
LT3
LC3 setrgbcolor
LCb setrgbcolor
3896 3507 M
[ [(Times-Roman) 180.0 0.0 true true 0 (P1=0.4)]
] -60.0 MRshow
LT3
4004 3507 M
495 0 V
990 4200 M
373 0 V
372 0 V
373 0 V
372 0 V
373 0 V
372 0 V
373 0 V
372 0 V
373 0 V
372 0 V
990 4200 Box
1363 4200 Box
1735 4200 Box
2108 4200 Box
2480 4200 Box
2853 4200 Box
3225 4200 Box
3598 4200 Box
3970 4200 Box
4343 4200 Box
4715 4200 Box
4251 3507 Box
% End plot #4
% Begin plot #5
1.000 UP
4.000 UL
LT4
LC4 setrgbcolor
LCb setrgbcolor
3896 3327 M
[ [(Times-Roman) 180.0 0.0 true true 0 (P1=0.5)]
] -60.0 MRshow
LT4
4004 3327 M
495 0 V
990 4200 M
373 0 V
372 0 V
373 0 V
372 0 V
373 0 V
372 0 V
373 0 V
372 0 V
373 0 V
372 0 V
990 4200 BoxF
1363 4200 BoxF
1735 4200 BoxF
2108 4200 BoxF
2480 4200 BoxF
2853 4200 BoxF
3225 4200 BoxF
3598 4200 BoxF
3970 4200 BoxF
4343 4200 BoxF
4715 4200 BoxF
4251 3327 BoxF
% End plot #5
% Begin plot #6
1.000 UP
4.000 UL
LT5
LC5 setrgbcolor
LCb setrgbcolor
3896 3147 M
[ [(Times-Roman) 180.0 0.0 true true 0 (P1=0.6)]
] -60.0 MRshow
LT5
4004 3147 M
495 0 V
990 4055 M
373 145 V
372 0 V
373 0 V
372 0 V
373 0 V
372 0 V
373 0 V
372 0 V
373 0 V
372 0 V
990 4055 Circle
1363 4200 Circle
1735 4200 Circle
2108 4200 Circle
2480 4200 Circle
2853 4200 Circle
3225 4200 Circle
3598 4200 Circle
3970 4200 Circle
4343 4200 Circle
4715 4200 Circle
4251 3147 Circle
% End plot #6
% Begin plot #7
1.000 UP
4.000 UL
LT6
LC6 setrgbcolor
LCb setrgbcolor
3896 2967 M
[ [(Times-Roman) 180.0 0.0 true true 0 (P1=0.7)]
] -60.0 MRshow
LT6
4004 2967 M
495 0 V
990 3511 M
373 508 V
372 72 V
373 109 V
372 0 V
373 0 V
372 0 V
373 0 V
372 0 V
373 0 V
372 0 V
990 3511 CircleF
1363 4019 CircleF
1735 4091 CircleF
2108 4200 CircleF
2480 4200 CircleF
2853 4200 CircleF
3225 4200 CircleF
3598 4200 CircleF
3970 4200 CircleF
4343 4200 CircleF
4715 4200 CircleF
4251 2967 CircleF
% End plot #7
% Begin plot #8
1.000 UP
4.000 UL
LT7
LC7 setrgbcolor
LCb setrgbcolor
3896 2787 M
[ [(Times-Roman) 180.0 0.0 true true 0 (P1=0.8)]
] -60.0 MRshow
LT7
4004 2787 M
495 0 V
990 721 M
373 1558 V
372 1087 V
373 617 V
372 145 V
373 72 V
372 0 V
373 0 V
372 0 V
373 0 V
372 0 V
990 721 TriU
1363 2279 TriU
1735 3366 TriU
2108 3983 TriU
2480 4128 TriU
2853 4200 TriU
3225 4200 TriU
3598 4200 TriU
3970 4200 TriU
4343 4200 TriU
4715 4200 TriU
4251 2787 TriU
% End plot #8
1.000 UL
LTb
LCb setrgbcolor
990 4200 N
990 576 L
3725 0 V
0 3624 V
-3725 0 V
Z stroke
1.000 UP
1.000 UL
LTb
LCb setrgbcolor
stroke
grestore
end
showpage
%%Trailer
%%DocumentFonts: Times-Roman
