%!PS-Adobe-2.0 EPSF-2.0
%%Title: LTIUvsAS-time-log-color.eps
%%Creator: gnuplot 4.6 patchlevel 5
%%CreationDate: Mon Dec  8 16:27:09 2014
%%DocumentFonts: (atend)
%%BoundingBox: 50 50 266 194
%%EndComments
%%BeginProlog
/gnudict 256 dict def
gnudict begin
%
% The following true/false flags may be edited by hand if desired.
% The unit line width and grayscale image gamma correction may also be changed.
%
/Color true def
/Blacktext false def
/Solid false def
/Dashlength 1 def
/Landscape false def
/Level1 false def
/Rounded false def
/ClipToBoundingBox false def
/SuppressPDFMark false def
/TransparentPatterns false def
/gnulinewidth 5.000 def
/userlinewidth gnulinewidth def
/Gamma 1.0 def
/BackgroundColor {-1.000 -1.000 -1.000} def
%
/vshift -40 def
/dl1 {
  10.0 Dashlength mul mul
  Rounded { currentlinewidth 0.75 mul sub dup 0 le { pop 0.01 } if } if
} def
/dl2 {
  10.0 Dashlength mul mul
  Rounded { currentlinewidth 0.75 mul add } if
} def
/hpt_ 31.5 def
/vpt_ 31.5 def
/hpt hpt_ def
/vpt vpt_ def
/doclip {
  ClipToBoundingBox {
    newpath 50 50 moveto 266 50 lineto 266 194 lineto 50 194 lineto closepath
    clip
  } if
} def
%
% Gnuplot Prolog Version 4.6 (September 2012)
%
%/SuppressPDFMark true def
%
/M {moveto} bind def
/L {lineto} bind def
/R {rmoveto} bind def
/V {rlineto} bind def
/N {newpath moveto} bind def
/Z {closepath} bind def
/C {setrgbcolor} bind def
/f {rlineto fill} bind def
/g {setgray} bind def
/Gshow {show} def   % May be redefined later in the file to support UTF-8
/vpt2 vpt 2 mul def
/hpt2 hpt 2 mul def
/Lshow {currentpoint stroke M 0 vshift R 
	Blacktext {gsave 0 setgray show grestore} {show} ifelse} def
/Rshow {currentpoint stroke M dup stringwidth pop neg vshift R
	Blacktext {gsave 0 setgray show grestore} {show} ifelse} def
/Cshow {currentpoint stroke M dup stringwidth pop -2 div vshift R 
	Blacktext {gsave 0 setgray show grestore} {show} ifelse} def
/UP {dup vpt_ mul /vpt exch def hpt_ mul /hpt exch def
  /hpt2 hpt 2 mul def /vpt2 vpt 2 mul def} def
/DL {Color {setrgbcolor Solid {pop []} if 0 setdash}
 {pop pop pop 0 setgray Solid {pop []} if 0 setdash} ifelse} def
/BL {stroke userlinewidth 2 mul setlinewidth
	Rounded {1 setlinejoin 1 setlinecap} if} def
/AL {stroke userlinewidth 2 div setlinewidth
	Rounded {1 setlinejoin 1 setlinecap} if} def
/UL {dup gnulinewidth mul /userlinewidth exch def
	dup 1 lt {pop 1} if 10 mul /udl exch def} def
/PL {stroke userlinewidth setlinewidth
	Rounded {1 setlinejoin 1 setlinecap} if} def
3.8 setmiterlimit
% Default Line colors
/LCw {1 1 1} def
/LCb {0 0 0} def
/LCa {0 0 0} def
/LC0 {1 0 0} def
/LC1 {0 1 0} def
/LC2 {0 0 1} def
/LC3 {1 0 1} def
/LC4 {0 1 1} def
/LC5 {1 1 0} def
/LC6 {0 0 0} def
/LC7 {1 0.3 0} def
/LC8 {0.5 0.5 0.5} def
% Default Line Types
/LTw {PL [] 1 setgray} def
/LTb {BL [] LCb DL} def
/LTa {AL [1 udl mul 2 udl mul] 0 setdash LCa setrgbcolor} def
/LT0 {PL [] LC0 DL} def
/LT1 {PL [4 dl1 2 dl2] LC1 DL} def
/LT2 {PL [2 dl1 3 dl2] LC2 DL} def
/LT3 {PL [1 dl1 1.5 dl2] LC3 DL} def
/LT4 {PL [6 dl1 2 dl2 1 dl1 2 dl2] LC4 DL} def
/LT5 {PL [3 dl1 3 dl2 1 dl1 3 dl2] LC5 DL} def
/LT6 {PL [2 dl1 2 dl2 2 dl1 6 dl2] LC6 DL} def
/LT7 {PL [1 dl1 2 dl2 6 dl1 2 dl2 1 dl1 2 dl2] LC7 DL} def
/LT8 {PL [2 dl1 2 dl2 2 dl1 2 dl2 2 dl1 2 dl2 2 dl1 4 dl2] LC8 DL} def
/Pnt {stroke [] 0 setdash gsave 1 setlinecap M 0 0 V stroke grestore} def
/Dia {stroke [] 0 setdash 2 copy vpt add M
  hpt neg vpt neg V hpt vpt neg V
  hpt vpt V hpt neg vpt V closepath stroke
  Pnt} def
/Pls {stroke [] 0 setdash vpt sub M 0 vpt2 V
  currentpoint stroke M
  hpt neg vpt neg R hpt2 0 V stroke
 } def
/Box {stroke [] 0 setdash 2 copy exch hpt sub exch vpt add M
  0 vpt2 neg V hpt2 0 V 0 vpt2 V
  hpt2 neg 0 V closepath stroke
  Pnt} def
/Crs {stroke [] 0 setdash exch hpt sub exch vpt add M
  hpt2 vpt2 neg V currentpoint stroke M
  hpt2 neg 0 R hpt2 vpt2 V stroke} def
/TriU {stroke [] 0 setdash 2 copy vpt 1.12 mul add M
  hpt neg vpt -1.62 mul V
  hpt 2 mul 0 V
  hpt neg vpt 1.62 mul V closepath stroke
  Pnt} def
/Star {2 copy Pls Crs} def
/BoxF {stroke [] 0 setdash exch hpt sub exch vpt add M
  0 vpt2 neg V hpt2 0 V 0 vpt2 V
  hpt2 neg 0 V closepath fill} def
/TriUF {stroke [] 0 setdash vpt 1.12 mul add M
  hpt neg vpt -1.62 mul V
  hpt 2 mul 0 V
  hpt neg vpt 1.62 mul V closepath fill} def
/TriD {stroke [] 0 setdash 2 copy vpt 1.12 mul sub M
  hpt neg vpt 1.62 mul V
  hpt 2 mul 0 V
  hpt neg vpt -1.62 mul V closepath stroke
  Pnt} def
/TriDF {stroke [] 0 setdash vpt 1.12 mul sub M
  hpt neg vpt 1.62 mul V
  hpt 2 mul 0 V
  hpt neg vpt -1.62 mul V closepath fill} def
/DiaF {stroke [] 0 setdash vpt add M
  hpt neg vpt neg V hpt vpt neg V
  hpt vpt V hpt neg vpt V closepath fill} def
/Pent {stroke [] 0 setdash 2 copy gsave
  translate 0 hpt M 4 {72 rotate 0 hpt L} repeat
  closepath stroke grestore Pnt} def
/PentF {stroke [] 0 setdash gsave
  translate 0 hpt M 4 {72 rotate 0 hpt L} repeat
  closepath fill grestore} def
/Circle {stroke [] 0 setdash 2 copy
  hpt 0 360 arc stroke Pnt} def
/CircleF {stroke [] 0 setdash hpt 0 360 arc fill} def
/C0 {BL [] 0 setdash 2 copy moveto vpt 90 450 arc} bind def
/C1 {BL [] 0 setdash 2 copy moveto
	2 copy vpt 0 90 arc closepath fill
	vpt 0 360 arc closepath} bind def
/C2 {BL [] 0 setdash 2 copy moveto
	2 copy vpt 90 180 arc closepath fill
	vpt 0 360 arc closepath} bind def
/C3 {BL [] 0 setdash 2 copy moveto
	2 copy vpt 0 180 arc closepath fill
	vpt 0 360 arc closepath} bind def
/C4 {BL [] 0 setdash 2 copy moveto
	2 copy vpt 180 270 arc closepath fill
	vpt 0 360 arc closepath} bind def
/C5 {BL [] 0 setdash 2 copy moveto
	2 copy vpt 0 90 arc
	2 copy moveto
	2 copy vpt 180 270 arc closepath fill
	vpt 0 360 arc} bind def
/C6 {BL [] 0 setdash 2 copy moveto
	2 copy vpt 90 270 arc closepath fill
	vpt 0 360 arc closepath} bind def
/C7 {BL [] 0 setdash 2 copy moveto
	2 copy vpt 0 270 arc closepath fill
	vpt 0 360 arc closepath} bind def
/C8 {BL [] 0 setdash 2 copy moveto
	2 copy vpt 270 360 arc closepath fill
	vpt 0 360 arc closepath} bind def
/C9 {BL [] 0 setdash 2 copy moveto
	2 copy vpt 270 450 arc closepath fill
	vpt 0 360 arc closepath} bind def
/C10 {BL [] 0 setdash 2 copy 2 copy moveto vpt 270 360 arc closepath fill
	2 copy moveto
	2 copy vpt 90 180 arc closepath fill
	vpt 0 360 arc closepath} bind def
/C11 {BL [] 0 setdash 2 copy moveto
	2 copy vpt 0 180 arc closepath fill
	2 copy moveto
	2 copy vpt 270 360 arc closepath fill
	vpt 0 360 arc closepath} bind def
/C12 {BL [] 0 setdash 2 copy moveto
	2 copy vpt 180 360 arc closepath fill
	vpt 0 360 arc closepath} bind def
/C13 {BL [] 0 setdash 2 copy moveto
	2 copy vpt 0 90 arc closepath fill
	2 copy moveto
	2 copy vpt 180 360 arc closepath fill
	vpt 0 360 arc closepath} bind def
/C14 {BL [] 0 setdash 2 copy moveto
	2 copy vpt 90 360 arc closepath fill
	vpt 0 360 arc} bind def
/C15 {BL [] 0 setdash 2 copy vpt 0 360 arc closepath fill
	vpt 0 360 arc closepath} bind def
/Rec {newpath 4 2 roll moveto 1 index 0 rlineto 0 exch rlineto
	neg 0 rlineto closepath} bind def
/Square {dup Rec} bind def
/Bsquare {vpt sub exch vpt sub exch vpt2 Square} bind def
/S0 {BL [] 0 setdash 2 copy moveto 0 vpt rlineto BL Bsquare} bind def
/S1 {BL [] 0 setdash 2 copy vpt Square fill Bsquare} bind def
/S2 {BL [] 0 setdash 2 copy exch vpt sub exch vpt Square fill Bsquare} bind def
/S3 {BL [] 0 setdash 2 copy exch vpt sub exch vpt2 vpt Rec fill Bsquare} bind def
/S4 {BL [] 0 setdash 2 copy exch vpt sub exch vpt sub vpt Square fill Bsquare} bind def
/S5 {BL [] 0 setdash 2 copy 2 copy vpt Square fill
	exch vpt sub exch vpt sub vpt Square fill Bsquare} bind def
/S6 {BL [] 0 setdash 2 copy exch vpt sub exch vpt sub vpt vpt2 Rec fill Bsquare} bind def
/S7 {BL [] 0 setdash 2 copy exch vpt sub exch vpt sub vpt vpt2 Rec fill
	2 copy vpt Square fill Bsquare} bind def
/S8 {BL [] 0 setdash 2 copy vpt sub vpt Square fill Bsquare} bind def
/S9 {BL [] 0 setdash 2 copy vpt sub vpt vpt2 Rec fill Bsquare} bind def
/S10 {BL [] 0 setdash 2 copy vpt sub vpt Square fill 2 copy exch vpt sub exch vpt Square fill
	Bsquare} bind def
/S11 {BL [] 0 setdash 2 copy vpt sub vpt Square fill 2 copy exch vpt sub exch vpt2 vpt Rec fill
	Bsquare} bind def
/S12 {BL [] 0 setdash 2 copy exch vpt sub exch vpt sub vpt2 vpt Rec fill Bsquare} bind def
/S13 {BL [] 0 setdash 2 copy exch vpt sub exch vpt sub vpt2 vpt Rec fill
	2 copy vpt Square fill Bsquare} bind def
/S14 {BL [] 0 setdash 2 copy exch vpt sub exch vpt sub vpt2 vpt Rec fill
	2 copy exch vpt sub exch vpt Square fill Bsquare} bind def
/S15 {BL [] 0 setdash 2 copy Bsquare fill Bsquare} bind def
/D0 {gsave translate 45 rotate 0 0 S0 stroke grestore} bind def
/D1 {gsave translate 45 rotate 0 0 S1 stroke grestore} bind def
/D2 {gsave translate 45 rotate 0 0 S2 stroke grestore} bind def
/D3 {gsave translate 45 rotate 0 0 S3 stroke grestore} bind def
/D4 {gsave translate 45 rotate 0 0 S4 stroke grestore} bind def
/D5 {gsave translate 45 rotate 0 0 S5 stroke grestore} bind def
/D6 {gsave translate 45 rotate 0 0 S6 stroke grestore} bind def
/D7 {gsave translate 45 rotate 0 0 S7 stroke grestore} bind def
/D8 {gsave translate 45 rotate 0 0 S8 stroke grestore} bind def
/D9 {gsave translate 45 rotate 0 0 S9 stroke grestore} bind def
/D10 {gsave translate 45 rotate 0 0 S10 stroke grestore} bind def
/D11 {gsave translate 45 rotate 0 0 S11 stroke grestore} bind def
/D12 {gsave translate 45 rotate 0 0 S12 stroke grestore} bind def
/D13 {gsave translate 45 rotate 0 0 S13 stroke grestore} bind def
/D14 {gsave translate 45 rotate 0 0 S14 stroke grestore} bind def
/D15 {gsave translate 45 rotate 0 0 S15 stroke grestore} bind def
/DiaE {stroke [] 0 setdash vpt add M
  hpt neg vpt neg V hpt vpt neg V
  hpt vpt V hpt neg vpt V closepath stroke} def
/BoxE {stroke [] 0 setdash exch hpt sub exch vpt add M
  0 vpt2 neg V hpt2 0 V 0 vpt2 V
  hpt2 neg 0 V closepath stroke} def
/TriUE {stroke [] 0 setdash vpt 1.12 mul add M
  hpt neg vpt -1.62 mul V
  hpt 2 mul 0 V
  hpt neg vpt 1.62 mul V closepath stroke} def
/TriDE {stroke [] 0 setdash vpt 1.12 mul sub M
  hpt neg vpt 1.62 mul V
  hpt 2 mul 0 V
  hpt neg vpt -1.62 mul V closepath stroke} def
/PentE {stroke [] 0 setdash gsave
  translate 0 hpt M 4 {72 rotate 0 hpt L} repeat
  closepath stroke grestore} def
/CircE {stroke [] 0 setdash 
  hpt 0 360 arc stroke} def
/Opaque {gsave closepath 1 setgray fill grestore 0 setgray closepath} def
/DiaW {stroke [] 0 setdash vpt add M
  hpt neg vpt neg V hpt vpt neg V
  hpt vpt V hpt neg vpt V Opaque stroke} def
/BoxW {stroke [] 0 setdash exch hpt sub exch vpt add M
  0 vpt2 neg V hpt2 0 V 0 vpt2 V
  hpt2 neg 0 V Opaque stroke} def
/TriUW {stroke [] 0 setdash vpt 1.12 mul add M
  hpt neg vpt -1.62 mul V
  hpt 2 mul 0 V
  hpt neg vpt 1.62 mul V Opaque stroke} def
/TriDW {stroke [] 0 setdash vpt 1.12 mul sub M
  hpt neg vpt 1.62 mul V
  hpt 2 mul 0 V
  hpt neg vpt -1.62 mul V Opaque stroke} def
/PentW {stroke [] 0 setdash gsave
  translate 0 hpt M 4 {72 rotate 0 hpt L} repeat
  Opaque stroke grestore} def
/CircW {stroke [] 0 setdash 
  hpt 0 360 arc Opaque stroke} def
/BoxFill {gsave Rec 1 setgray fill grestore} def
/Density {
  /Fillden exch def
  currentrgbcolor
  /ColB exch def /ColG exch def /ColR exch def
  /ColR ColR Fillden mul Fillden sub 1 add def
  /ColG ColG Fillden mul Fillden sub 1 add def
  /ColB ColB Fillden mul Fillden sub 1 add def
  ColR ColG ColB setrgbcolor} def
/BoxColFill {gsave Rec PolyFill} def
/PolyFill {gsave Density fill grestore grestore} def
/h {rlineto rlineto rlineto gsave closepath fill grestore} bind def
%
% PostScript Level 1 Pattern Fill routine for rectangles
% Usage: x y w h s a XX PatternFill
%	x,y = lower left corner of box to be filled
%	w,h = width and height of box
%	  a = angle in degrees between lines and x-axis
%	 XX = 0/1 for no/yes cross-hatch
%
/PatternFill {gsave /PFa [ 9 2 roll ] def
  PFa 0 get PFa 2 get 2 div add PFa 1 get PFa 3 get 2 div add translate
  PFa 2 get -2 div PFa 3 get -2 div PFa 2 get PFa 3 get Rec
  TransparentPatterns {} {gsave 1 setgray fill grestore} ifelse
  clip
  currentlinewidth 0.5 mul setlinewidth
  /PFs PFa 2 get dup mul PFa 3 get dup mul add sqrt def
  0 0 M PFa 5 get rotate PFs -2 div dup translate
  0 1 PFs PFa 4 get div 1 add floor cvi
	{PFa 4 get mul 0 M 0 PFs V} for
  0 PFa 6 get ne {
	0 1 PFs PFa 4 get div 1 add floor cvi
	{PFa 4 get mul 0 2 1 roll M PFs 0 V} for
 } if
  stroke grestore} def
%
/languagelevel where
 {pop languagelevel} {1} ifelse
 2 lt
	{/InterpretLevel1 true def}
	{/InterpretLevel1 Level1 def}
 ifelse
%
% PostScript level 2 pattern fill definitions
%
/Level2PatternFill {
/Tile8x8 {/PaintType 2 /PatternType 1 /TilingType 1 /BBox [0 0 8 8] /XStep 8 /YStep 8}
	bind def
/KeepColor {currentrgbcolor [/Pattern /DeviceRGB] setcolorspace} bind def
<< Tile8x8
 /PaintProc {0.5 setlinewidth pop 0 0 M 8 8 L 0 8 M 8 0 L stroke} 
>> matrix makepattern
/Pat1 exch def
<< Tile8x8
 /PaintProc {0.5 setlinewidth pop 0 0 M 8 8 L 0 8 M 8 0 L stroke
	0 4 M 4 8 L 8 4 L 4 0 L 0 4 L stroke}
>> matrix makepattern
/Pat2 exch def
<< Tile8x8
 /PaintProc {0.5 setlinewidth pop 0 0 M 0 8 L
	8 8 L 8 0 L 0 0 L fill}
>> matrix makepattern
/Pat3 exch def
<< Tile8x8
 /PaintProc {0.5 setlinewidth pop -4 8 M 8 -4 L
	0 12 M 12 0 L stroke}
>> matrix makepattern
/Pat4 exch def
<< Tile8x8
 /PaintProc {0.5 setlinewidth pop -4 0 M 8 12 L
	0 -4 M 12 8 L stroke}
>> matrix makepattern
/Pat5 exch def
<< Tile8x8
 /PaintProc {0.5 setlinewidth pop -2 8 M 4 -4 L
	0 12 M 8 -4 L 4 12 M 10 0 L stroke}
>> matrix makepattern
/Pat6 exch def
<< Tile8x8
 /PaintProc {0.5 setlinewidth pop -2 0 M 4 12 L
	0 -4 M 8 12 L 4 -4 M 10 8 L stroke}
>> matrix makepattern
/Pat7 exch def
<< Tile8x8
 /PaintProc {0.5 setlinewidth pop 8 -2 M -4 4 L
	12 0 M -4 8 L 12 4 M 0 10 L stroke}
>> matrix makepattern
/Pat8 exch def
<< Tile8x8
 /PaintProc {0.5 setlinewidth pop 0 -2 M 12 4 L
	-4 0 M 12 8 L -4 4 M 8 10 L stroke}
>> matrix makepattern
/Pat9 exch def
/Pattern1 {PatternBgnd KeepColor Pat1 setpattern} bind def
/Pattern2 {PatternBgnd KeepColor Pat2 setpattern} bind def
/Pattern3 {PatternBgnd KeepColor Pat3 setpattern} bind def
/Pattern4 {PatternBgnd KeepColor Landscape {Pat5} {Pat4} ifelse setpattern} bind def
/Pattern5 {PatternBgnd KeepColor Landscape {Pat4} {Pat5} ifelse setpattern} bind def
/Pattern6 {PatternBgnd KeepColor Landscape {Pat9} {Pat6} ifelse setpattern} bind def
/Pattern7 {PatternBgnd KeepColor Landscape {Pat8} {Pat7} ifelse setpattern} bind def
} def
%
%
%End of PostScript Level 2 code
%
/PatternBgnd {
  TransparentPatterns {} {gsave 1 setgray fill grestore} ifelse
} def
%
% Substitute for Level 2 pattern fill codes with
% grayscale if Level 2 support is not selected.
%
/Level1PatternFill {
/Pattern1 {0.250 Density} bind def
/Pattern2 {0.500 Density} bind def
/Pattern3 {0.750 Density} bind def
/Pattern4 {0.125 Density} bind def
/Pattern5 {0.375 Density} bind def
/Pattern6 {0.625 Density} bind def
/Pattern7 {0.875 Density} bind def
} def
%
% Now test for support of Level 2 code
%
Level1 {Level1PatternFill} {Level2PatternFill} ifelse
%
/Symbol-Oblique /Symbol findfont [1 0 .167 1 0 0] makefont
dup length dict begin {1 index /FID eq {pop pop} {def} ifelse} forall
currentdict end definefont pop
/MFshow {
   { dup 5 get 3 ge
     { 5 get 3 eq {gsave} {grestore} ifelse }
     {dup dup 0 get findfont exch 1 get scalefont setfont
     [ currentpoint ] exch dup 2 get 0 exch R dup 5 get 2 ne {dup dup 6
     get exch 4 get {Gshow} {stringwidth pop 0 R} ifelse }if dup 5 get 0 eq
     {dup 3 get {2 get neg 0 exch R pop} {pop aload pop M} ifelse} {dup 5
     get 1 eq {dup 2 get exch dup 3 get exch 6 get stringwidth pop -2 div
     dup 0 R} {dup 6 get stringwidth pop -2 div 0 R 6 get
     show 2 index {aload pop M neg 3 -1 roll neg R pop pop} {pop pop pop
     pop aload pop M} ifelse }ifelse }ifelse }
     ifelse }
   forall} def
/Gswidth {dup type /stringtype eq {stringwidth} {pop (n) stringwidth} ifelse} def
/MFwidth {0 exch { dup 5 get 3 ge { 5 get 3 eq { 0 } { pop } ifelse }
 {dup 3 get{dup dup 0 get findfont exch 1 get scalefont setfont
     6 get Gswidth pop add} {pop} ifelse} ifelse} forall} def
/MLshow { currentpoint stroke M
  0 exch R
  Blacktext {gsave 0 setgray MFshow grestore} {MFshow} ifelse } bind def
/MRshow { currentpoint stroke M
  exch dup MFwidth neg 3 -1 roll R
  Blacktext {gsave 0 setgray MFshow grestore} {MFshow} ifelse } bind def
/MCshow { currentpoint stroke M
  exch dup MFwidth -2 div 3 -1 roll R
  Blacktext {gsave 0 setgray MFshow grestore} {MFshow} ifelse } bind def
/XYsave    { [( ) 1 2 true false 3 ()] } bind def
/XYrestore { [( ) 1 2 true false 4 ()] } bind def
Level1 SuppressPDFMark or 
{} {
/SDict 10 dict def
systemdict /pdfmark known not {
  userdict /pdfmark systemdict /cleartomark get put
} if
SDict begin [
  /Title (LTIUvsAS-time-log-color.eps)
  /Subject (gnuplot plot)
  /Creator (gnuplot 4.6 patchlevel 5)
  /Author (dannymunera)
%  /Producer (gnuplot)
%  /Keywords ()
  /CreationDate (Mon Dec  8 16:27:09 2014)
  /DOCINFO pdfmark
end
} ifelse
end
%%EndProlog
%%Page: 1 1
gnudict begin
gsave
doclip
50 50 translate
0.050 0.050 scale
0 setgray
newpath
(Times-Roman) findfont 120 scalefont setfont
BackgroundColor 0 lt 3 1 roll 0 lt exch 0 lt or or not {BackgroundColor C 1.000 0 0 4320.00 2880.00 BoxColFill} if
1.000 UL
LTb
LCb setrgbcolor
1.000 UL
LTa
LCa setrgbcolor
804 384 M
2219 0 V
stroke
LTb
LCb setrgbcolor
804 384 M
63 0 V
2156 0 R
-63 0 V
stroke
732 384 M
[ [(Times-Roman) 120.0 0.0 true true 0 ( 0.0001)]
] -40.0 MRshow
1.000 UL
LTb
LCb setrgbcolor
804 502 M
31 0 V
2188 0 R
-31 0 V
804 571 M
31 0 V
2188 0 R
-31 0 V
804 620 M
31 0 V
2188 0 R
-31 0 V
804 658 M
31 0 V
2188 0 R
-31 0 V
804 689 M
31 0 V
2188 0 R
-31 0 V
804 715 M
31 0 V
2188 0 R
-31 0 V
804 738 M
31 0 V
2188 0 R
-31 0 V
804 758 M
31 0 V
2188 0 R
-31 0 V
stroke
LTa
LCa setrgbcolor
804 776 M
2219 0 V
stroke
LTb
LCb setrgbcolor
804 776 M
63 0 V
2156 0 R
-63 0 V
stroke
732 776 M
[ [(Times-Roman) 120.0 0.0 true true 0 ( 0.001)]
] -40.0 MRshow
1.000 UL
LTb
LCb setrgbcolor
804 894 M
31 0 V
2188 0 R
-31 0 V
804 963 M
31 0 V
2188 0 R
-31 0 V
804 1012 M
31 0 V
2188 0 R
-31 0 V
804 1050 M
31 0 V
2188 0 R
-31 0 V
804 1081 M
31 0 V
2188 0 R
-31 0 V
804 1107 M
31 0 V
2188 0 R
-31 0 V
804 1130 M
31 0 V
2188 0 R
-31 0 V
804 1150 M
31 0 V
2188 0 R
-31 0 V
stroke
LTa
LCa setrgbcolor
804 1168 M
2219 0 V
stroke
LTb
LCb setrgbcolor
804 1168 M
63 0 V
2156 0 R
-63 0 V
stroke
732 1168 M
[ [(Times-Roman) 120.0 0.0 true true 0 ( 0.01)]
] -40.0 MRshow
1.000 UL
LTb
LCb setrgbcolor
804 1286 M
31 0 V
2188 0 R
-31 0 V
804 1355 M
31 0 V
2188 0 R
-31 0 V
804 1404 M
31 0 V
2188 0 R
-31 0 V
804 1442 M
31 0 V
2188 0 R
-31 0 V
804 1473 M
31 0 V
2188 0 R
-31 0 V
804 1499 M
31 0 V
2188 0 R
-31 0 V
804 1522 M
31 0 V
2188 0 R
-31 0 V
804 1542 M
31 0 V
2188 0 R
-31 0 V
stroke
LTa
LCa setrgbcolor
804 1560 M
2219 0 V
stroke
LTb
LCb setrgbcolor
804 1560 M
63 0 V
2156 0 R
-63 0 V
stroke
732 1560 M
[ [(Times-Roman) 120.0 0.0 true true 0 ( 0.1)]
] -40.0 MRshow
1.000 UL
LTb
LCb setrgbcolor
804 1677 M
31 0 V
2188 0 R
-31 0 V
804 1746 M
31 0 V
2188 0 R
-31 0 V
804 1795 M
31 0 V
2188 0 R
-31 0 V
804 1833 M
31 0 V
2188 0 R
-31 0 V
804 1864 M
31 0 V
2188 0 R
-31 0 V
804 1891 M
31 0 V
2188 0 R
-31 0 V
804 1913 M
31 0 V
2188 0 R
-31 0 V
804 1933 M
31 0 V
2188 0 R
-31 0 V
stroke
LTa
LCa setrgbcolor
804 1951 M
2219 0 V
stroke
LTb
LCb setrgbcolor
804 1951 M
63 0 V
2156 0 R
-63 0 V
stroke
732 1951 M
[ [(Times-Roman) 120.0 0.0 true true 0 ( 1)]
] -40.0 MRshow
1.000 UL
LTb
LCb setrgbcolor
804 2069 M
31 0 V
2188 0 R
-31 0 V
804 2138 M
31 0 V
2188 0 R
-31 0 V
804 2187 M
31 0 V
2188 0 R
-31 0 V
804 2225 M
31 0 V
2188 0 R
-31 0 V
804 2256 M
31 0 V
2188 0 R
-31 0 V
804 2282 M
31 0 V
2188 0 R
-31 0 V
804 2305 M
31 0 V
2188 0 R
-31 0 V
804 2325 M
31 0 V
2188 0 R
-31 0 V
stroke
LTa
LCa setrgbcolor
804 2343 M
2219 0 V
stroke
LTb
LCb setrgbcolor
804 2343 M
63 0 V
2156 0 R
-63 0 V
stroke
732 2343 M
[ [(Times-Roman) 120.0 0.0 true true 0 ( 10)]
] -40.0 MRshow
1.000 UL
LTb
LCb setrgbcolor
804 2461 M
31 0 V
2188 0 R
-31 0 V
804 2530 M
31 0 V
2188 0 R
-31 0 V
804 2579 M
31 0 V
2188 0 R
-31 0 V
804 2617 M
31 0 V
2188 0 R
-31 0 V
804 2648 M
31 0 V
2188 0 R
-31 0 V
804 2674 M
31 0 V
2188 0 R
-31 0 V
804 2697 M
31 0 V
2188 0 R
-31 0 V
804 2717 M
31 0 V
2188 0 R
-31 0 V
stroke
LTa
LCa setrgbcolor
804 2735 M
2219 0 V
stroke
LTb
LCb setrgbcolor
804 2735 M
63 0 V
2156 0 R
-63 0 V
stroke
732 2735 M
[ [(Times-Roman) 120.0 0.0 true true 0 ( 100)]
] -40.0 MRshow
1.000 UL
LTb
LCb setrgbcolor
804 384 M
0 63 V
0 2288 R
0 -63 V
stroke
804 264 M
[ [(Times-Roman) 120.0 0.0 true true 0 ( 0)]
] -40.0 MCshow
1.000 UL
LTb
LCb setrgbcolor
1026 384 M
0 63 V
0 2288 R
0 -63 V
stroke
1026 264 M
[ [(Times-Roman) 120.0 0.0 true true 0 ( 0.1)]
] -40.0 MCshow
1.000 UL
LTb
LCb setrgbcolor
1248 384 M
0 63 V
0 2288 R
0 -63 V
stroke
1248 264 M
[ [(Times-Roman) 120.0 0.0 true true 0 ( 0.2)]
] -40.0 MCshow
1.000 UL
LTb
LCb setrgbcolor
1470 384 M
0 63 V
0 2288 R
0 -63 V
stroke
1470 264 M
[ [(Times-Roman) 120.0 0.0 true true 0 ( 0.3)]
] -40.0 MCshow
1.000 UL
LTb
LCb setrgbcolor
1692 384 M
0 63 V
0 2288 R
0 -63 V
stroke
1692 264 M
[ [(Times-Roman) 120.0 0.0 true true 0 ( 0.4)]
] -40.0 MCshow
1.000 UL
LTb
LCb setrgbcolor
1914 384 M
0 63 V
0 2288 R
0 -63 V
stroke
1914 264 M
[ [(Times-Roman) 120.0 0.0 true true 0 ( 0.5)]
] -40.0 MCshow
1.000 UL
LTb
LCb setrgbcolor
2135 384 M
0 63 V
0 2288 R
0 -63 V
stroke
2135 264 M
[ [(Times-Roman) 120.0 0.0 true true 0 ( 0.6)]
] -40.0 MCshow
1.000 UL
LTb
LCb setrgbcolor
2357 384 M
0 63 V
0 2288 R
0 -63 V
stroke
2357 264 M
[ [(Times-Roman) 120.0 0.0 true true 0 ( 0.7)]
] -40.0 MCshow
1.000 UL
LTb
LCb setrgbcolor
2579 384 M
0 63 V
0 2288 R
0 -63 V
stroke
2579 264 M
[ [(Times-Roman) 120.0 0.0 true true 0 ( 0.8)]
] -40.0 MCshow
1.000 UL
LTb
LCb setrgbcolor
2801 384 M
0 63 V
0 2288 R
0 -63 V
stroke
2801 264 M
[ [(Times-Roman) 120.0 0.0 true true 0 ( 0.9)]
] -40.0 MCshow
1.000 UL
LTb
LCb setrgbcolor
3023 384 M
0 63 V
0 2288 R
0 -63 V
stroke
3023 264 M
[ [(Times-Roman) 120.0 0.0 true true 0 ( 1)]
] -40.0 MCshow
1.000 UL
LTb
LCb setrgbcolor
1.000 UL
LTb
LCb setrgbcolor
804 2735 N
804 384 L
2219 0 V
0 2351 V
-2219 0 V
Z stroke
LCb setrgbcolor
96 1559 M
currentpoint gsave translate -270 rotate 0 0 moveto
[ [(Times-Roman) 120.0 0.0 true true 0 (time \(s\) log-scale)]
] -40.0 MCshow
grestore
LTb
LCb setrgbcolor
1913 84 M
[ [(Times-Roman) 120.0 0.0 true true 0 (p2)]
] -40.0 MCshow
LTb
1.000 UP
1.000 UL
LTb
LCb setrgbcolor
% Begin plot #1
1.000 UP
2.000 UL
LT6
0.00 1.00 0.00 C LCb setrgbcolor
3752 2675 M
[ [(Times-Roman) 120.0 0.0 true true 0 (ASp1=0.6)]
] -40.0 MRshow
LT6
0.00 1.00 0.00 C 3824 2675 M
351 0 V
804 1347 M
1026 909 L
222 37 V
222 5 V
222 11 V
222 -35 V
221 -33 V
222 -13 V
222 -34 V
222 -63 V
3023 602 L
804 1347 TriUF
1026 909 TriUF
1248 946 TriUF
1470 951 TriUF
1692 962 TriUF
1914 927 TriUF
2135 894 TriUF
2357 881 TriUF
2579 847 TriUF
2801 784 TriUF
3023 602 TriUF
3999 2675 TriUF
% End plot #1
% Begin plot #2
1.000 UP
2.000 UL
LT5
1.00 0.00 0.00 C LCb setrgbcolor
3752 2555 M
[ [(Times-Roman) 120.0 0.0 true true 0 (LTIUp1=0.6)]
] -40.0 MRshow
LT5
1.00 0.00 0.00 C 3824 2555 M
351 0 V
804 2114 M
222 46 V
222 -109 V
222 -20 V
222 -167 V
222 69 V
221 -20 V
222 -49 V
222 49 V
222 -167 V
222 577 V
804 2114 TriU
1026 2160 TriU
1248 2051 TriU
1470 2031 TriU
1692 1864 TriU
1914 1933 TriU
2135 1913 TriU
2357 1864 TriU
2579 1913 TriU
2801 1746 TriU
3023 2323 TriU
3999 2555 TriU
% End plot #2
% Begin plot #3
1.000 UP
2.000 UL
LT4
0.00 1.00 0.00 C LCb setrgbcolor
3752 2435 M
[ [(Times-Roman) 120.0 0.0 true true 0 (ASp1=0.7)]
] -40.0 MRshow
LT4
0.00 1.00 0.00 C 3824 2435 M
351 0 V
804 1580 M
222 -168 V
222 -84 V
222 -204 V
1692 971 L
222 -24 V
221 10 V
222 -62 V
222 -48 V
222 -63 V
3023 665 L
804 1580 CircleF
1026 1412 CircleF
1248 1328 CircleF
1470 1124 CircleF
1692 971 CircleF
1914 947 CircleF
2135 957 CircleF
2357 895 CircleF
2579 847 CircleF
2801 784 CircleF
3023 665 CircleF
3999 2435 CircleF
% End plot #3
% Begin plot #4
1.000 UP
2.000 UL
LT3
1.00 0.00 0.00 C LCb setrgbcolor
3752 2315 M
[ [(Times-Roman) 120.0 0.0 true true 0 (LTIUp1=0.7)]
] -40.0 MRshow
LT3
1.00 0.00 0.00 C 3824 2315 M
351 0 V
804 2400 M
222 -141 V
222 -239 V
222 41 V
222 -65 V
222 -28 V
221 -55 V
222 20 V
222 35 V
222 -173 V
222 846 V
804 2400 Circle
1026 2259 Circle
1248 2020 Circle
1470 2061 Circle
1692 1996 Circle
1914 1968 Circle
2135 1913 Circle
2357 1933 Circle
2579 1968 Circle
2801 1795 Circle
3023 2641 Circle
3999 2315 Circle
% End plot #4
% Begin plot #5
1.000 UP
2.000 UL
LT2
0.00 1.00 0.00 C LCb setrgbcolor
3752 2195 M
[ [(Times-Roman) 120.0 0.0 true true 0 (ASp1=0.8)]
] -40.0 MRshow
LT2
0.00 1.00 0.00 C 3824 2195 M
351 0 V
804 1784 M
222 -56 V
222 -93 V
222 -124 V
222 -103 V
222 -239 V
221 -61 V
222 -95 V
222 -81 V
222 -97 V
3023 729 L
804 1784 BoxF
1026 1728 BoxF
1248 1635 BoxF
1470 1511 BoxF
1692 1408 BoxF
1914 1169 BoxF
2135 1108 BoxF
2357 1013 BoxF
2579 932 BoxF
2801 835 BoxF
3023 729 BoxF
3999 2195 BoxF
% End plot #5
% Begin plot #6
1.000 UP
2.000 UL
LT1
1.00 0.00 0.00 C LCb setrgbcolor
3752 2075 M
[ [(Times-Roman) 120.0 0.0 true true 0 (LTIUp1=0.8)]
] -40.0 MRshow
LT1
1.00 0.00 0.00 C 3824 2075 M
351 0 V
804 2560 M
222 -87 V
222 -57 V
222 -75 V
222 -25 V
222 -75 V
221 -6 V
222 -32 V
222 8 V
222 90 V
222 356 V
804 2560 Box
1026 2473 Box
1248 2416 Box
1470 2341 Box
1692 2316 Box
1914 2241 Box
2135 2235 Box
2357 2203 Box
2579 2211 Box
2801 2301 Box
3023 2657 Box
3999 2075 Box
% End plot #6
1.000 UL
LTb
LCb setrgbcolor
804 2735 N
804 384 L
2219 0 V
0 2351 V
-2219 0 V
Z stroke
1.000 UP
1.000 UL
LTb
LCb setrgbcolor
stroke
grestore
end
showpage
%%Trailer
%%DocumentFonts: Times-Roman
