%!PS-Adobe-2.0 EPSF-2.0
%%Title: LTIUvsAS-time.eps
%%Creator: gnuplot 4.6 patchlevel 4
%%CreationDate: Thu Jun 19 13:39:41 2014
%%DocumentFonts: (atend)
%%BoundingBox: 50 50 554 424
%%EndComments
%%BeginProlog
/gnudict 256 dict def
gnudict begin
%
% The following true/false flags may be edited by hand if desired.
% The unit line width and grayscale image gamma correction may also be changed.
%
/Color true def
/Blacktext false def
/Solid false def
/Dashlength 1 def
/Landscape false def
/Level1 false def
/Rounded false def
/ClipToBoundingBox false def
/SuppressPDFMark false def
/TransparentPatterns false def
/gnulinewidth 10.000 def
/userlinewidth gnulinewidth def
/Gamma 1.0 def
/BackgroundColor {-1.000 -1.000 -1.000} def
%
/vshift -60 def
/dl1 {
  10.0 Dashlength mul mul
  Rounded { currentlinewidth 0.75 mul sub dup 0 le { pop 0.01 } if } if
} def
/dl2 {
  10.0 Dashlength mul mul
  Rounded { currentlinewidth 0.75 mul add } if
} def
/hpt_ 31.5 def
/vpt_ 31.5 def
/hpt hpt_ def
/vpt vpt_ def
/doclip {
  ClipToBoundingBox {
    newpath 50 50 moveto 554 50 lineto 554 424 lineto 50 424 lineto closepath
    clip
  } if
} def
%
% Gnuplot Prolog Version 4.6 (September 2012)
%
%/SuppressPDFMark true def
%
/M {moveto} bind def
/L {lineto} bind def
/R {rmoveto} bind def
/V {rlineto} bind def
/N {newpath moveto} bind def
/Z {closepath} bind def
/C {setrgbcolor} bind def
/f {rlineto fill} bind def
/g {setgray} bind def
/Gshow {show} def   % May be redefined later in the file to support UTF-8
/vpt2 vpt 2 mul def
/hpt2 hpt 2 mul def
/Lshow {currentpoint stroke M 0 vshift R 
	Blacktext {gsave 0 setgray show grestore} {show} ifelse} def
/Rshow {currentpoint stroke M dup stringwidth pop neg vshift R
	Blacktext {gsave 0 setgray show grestore} {show} ifelse} def
/Cshow {currentpoint stroke M dup stringwidth pop -2 div vshift R 
	Blacktext {gsave 0 setgray show grestore} {show} ifelse} def
/UP {dup vpt_ mul /vpt exch def hpt_ mul /hpt exch def
  /hpt2 hpt 2 mul def /vpt2 vpt 2 mul def} def
/DL {Color {setrgbcolor Solid {pop []} if 0 setdash}
 {pop pop pop 0 setgray Solid {pop []} if 0 setdash} ifelse} def
/BL {stroke userlinewidth 2 mul setlinewidth
	Rounded {1 setlinejoin 1 setlinecap} if} def
/AL {stroke userlinewidth 2 div setlinewidth
	Rounded {1 setlinejoin 1 setlinecap} if} def
/UL {dup gnulinewidth mul /userlinewidth exch def
	dup 1 lt {pop 1} if 10 mul /udl exch def} def
/PL {stroke userlinewidth setlinewidth
	Rounded {1 setlinejoin 1 setlinecap} if} def
3.8 setmiterlimit
% Default Line colors
/LCw {1 1 1} def
/LCb {0 0 0} def
/LCa {0 0 0} def
/LC0 {1 0 0} def
/LC1 {0 1 0} def
/LC2 {0 0 1} def
/LC3 {1 0 1} def
/LC4 {0 1 1} def
/LC5 {1 1 0} def
/LC6 {0 0 0} def
/LC7 {1 0.3 0} def
/LC8 {0.5 0.5 0.5} def
% Default Line Types
/LTw {PL [] 1 setgray} def
/LTb {BL [] LCb DL} def
/LTa {AL [1 udl mul 2 udl mul] 0 setdash LCa setrgbcolor} def
/LT0 {PL [] LC0 DL} def
/LT1 {PL [4 dl1 2 dl2] LC1 DL} def
/LT2 {PL [2 dl1 3 dl2] LC2 DL} def
/LT3 {PL [1 dl1 1.5 dl2] LC3 DL} def
/LT4 {PL [6 dl1 2 dl2 1 dl1 2 dl2] LC4 DL} def
/LT5 {PL [3 dl1 3 dl2 1 dl1 3 dl2] LC5 DL} def
/LT6 {PL [2 dl1 2 dl2 2 dl1 6 dl2] LC6 DL} def
/LT7 {PL [1 dl1 2 dl2 6 dl1 2 dl2 1 dl1 2 dl2] LC7 DL} def
/LT8 {PL [2 dl1 2 dl2 2 dl1 2 dl2 2 dl1 2 dl2 2 dl1 4 dl2] LC8 DL} def
/Pnt {stroke [] 0 setdash gsave 1 setlinecap M 0 0 V stroke grestore} def
/Dia {stroke [] 0 setdash 2 copy vpt add M
  hpt neg vpt neg V hpt vpt neg V
  hpt vpt V hpt neg vpt V closepath stroke
  Pnt} def
/Pls {stroke [] 0 setdash vpt sub M 0 vpt2 V
  currentpoint stroke M
  hpt neg vpt neg R hpt2 0 V stroke
 } def
/Box {stroke [] 0 setdash 2 copy exch hpt sub exch vpt add M
  0 vpt2 neg V hpt2 0 V 0 vpt2 V
  hpt2 neg 0 V closepath stroke
  Pnt} def
/Crs {stroke [] 0 setdash exch hpt sub exch vpt add M
  hpt2 vpt2 neg V currentpoint stroke M
  hpt2 neg 0 R hpt2 vpt2 V stroke} def
/TriU {stroke [] 0 setdash 2 copy vpt 1.12 mul add M
  hpt neg vpt -1.62 mul V
  hpt 2 mul 0 V
  hpt neg vpt 1.62 mul V closepath stroke
  Pnt} def
/Star {2 copy Pls Crs} def
/BoxF {stroke [] 0 setdash exch hpt sub exch vpt add M
  0 vpt2 neg V hpt2 0 V 0 vpt2 V
  hpt2 neg 0 V closepath fill} def
/TriUF {stroke [] 0 setdash vpt 1.12 mul add M
  hpt neg vpt -1.62 mul V
  hpt 2 mul 0 V
  hpt neg vpt 1.62 mul V closepath fill} def
/TriD {stroke [] 0 setdash 2 copy vpt 1.12 mul sub M
  hpt neg vpt 1.62 mul V
  hpt 2 mul 0 V
  hpt neg vpt -1.62 mul V closepath stroke
  Pnt} def
/TriDF {stroke [] 0 setdash vpt 1.12 mul sub M
  hpt neg vpt 1.62 mul V
  hpt 2 mul 0 V
  hpt neg vpt -1.62 mul V closepath fill} def
/DiaF {stroke [] 0 setdash vpt add M
  hpt neg vpt neg V hpt vpt neg V
  hpt vpt V hpt neg vpt V closepath fill} def
/Pent {stroke [] 0 setdash 2 copy gsave
  translate 0 hpt M 4 {72 rotate 0 hpt L} repeat
  closepath stroke grestore Pnt} def
/PentF {stroke [] 0 setdash gsave
  translate 0 hpt M 4 {72 rotate 0 hpt L} repeat
  closepath fill grestore} def
/Circle {stroke [] 0 setdash 2 copy
  hpt 0 360 arc stroke Pnt} def
/CircleF {stroke [] 0 setdash hpt 0 360 arc fill} def
/C0 {BL [] 0 setdash 2 copy moveto vpt 90 450 arc} bind def
/C1 {BL [] 0 setdash 2 copy moveto
	2 copy vpt 0 90 arc closepath fill
	vpt 0 360 arc closepath} bind def
/C2 {BL [] 0 setdash 2 copy moveto
	2 copy vpt 90 180 arc closepath fill
	vpt 0 360 arc closepath} bind def
/C3 {BL [] 0 setdash 2 copy moveto
	2 copy vpt 0 180 arc closepath fill
	vpt 0 360 arc closepath} bind def
/C4 {BL [] 0 setdash 2 copy moveto
	2 copy vpt 180 270 arc closepath fill
	vpt 0 360 arc closepath} bind def
/C5 {BL [] 0 setdash 2 copy moveto
	2 copy vpt 0 90 arc
	2 copy moveto
	2 copy vpt 180 270 arc closepath fill
	vpt 0 360 arc} bind def
/C6 {BL [] 0 setdash 2 copy moveto
	2 copy vpt 90 270 arc closepath fill
	vpt 0 360 arc closepath} bind def
/C7 {BL [] 0 setdash 2 copy moveto
	2 copy vpt 0 270 arc closepath fill
	vpt 0 360 arc closepath} bind def
/C8 {BL [] 0 setdash 2 copy moveto
	2 copy vpt 270 360 arc closepath fill
	vpt 0 360 arc closepath} bind def
/C9 {BL [] 0 setdash 2 copy moveto
	2 copy vpt 270 450 arc closepath fill
	vpt 0 360 arc closepath} bind def
/C10 {BL [] 0 setdash 2 copy 2 copy moveto vpt 270 360 arc closepath fill
	2 copy moveto
	2 copy vpt 90 180 arc closepath fill
	vpt 0 360 arc closepath} bind def
/C11 {BL [] 0 setdash 2 copy moveto
	2 copy vpt 0 180 arc closepath fill
	2 copy moveto
	2 copy vpt 270 360 arc closepath fill
	vpt 0 360 arc closepath} bind def
/C12 {BL [] 0 setdash 2 copy moveto
	2 copy vpt 180 360 arc closepath fill
	vpt 0 360 arc closepath} bind def
/C13 {BL [] 0 setdash 2 copy moveto
	2 copy vpt 0 90 arc closepath fill
	2 copy moveto
	2 copy vpt 180 360 arc closepath fill
	vpt 0 360 arc closepath} bind def
/C14 {BL [] 0 setdash 2 copy moveto
	2 copy vpt 90 360 arc closepath fill
	vpt 0 360 arc} bind def
/C15 {BL [] 0 setdash 2 copy vpt 0 360 arc closepath fill
	vpt 0 360 arc closepath} bind def
/Rec {newpath 4 2 roll moveto 1 index 0 rlineto 0 exch rlineto
	neg 0 rlineto closepath} bind def
/Square {dup Rec} bind def
/Bsquare {vpt sub exch vpt sub exch vpt2 Square} bind def
/S0 {BL [] 0 setdash 2 copy moveto 0 vpt rlineto BL Bsquare} bind def
/S1 {BL [] 0 setdash 2 copy vpt Square fill Bsquare} bind def
/S2 {BL [] 0 setdash 2 copy exch vpt sub exch vpt Square fill Bsquare} bind def
/S3 {BL [] 0 setdash 2 copy exch vpt sub exch vpt2 vpt Rec fill Bsquare} bind def
/S4 {BL [] 0 setdash 2 copy exch vpt sub exch vpt sub vpt Square fill Bsquare} bind def
/S5 {BL [] 0 setdash 2 copy 2 copy vpt Square fill
	exch vpt sub exch vpt sub vpt Square fill Bsquare} bind def
/S6 {BL [] 0 setdash 2 copy exch vpt sub exch vpt sub vpt vpt2 Rec fill Bsquare} bind def
/S7 {BL [] 0 setdash 2 copy exch vpt sub exch vpt sub vpt vpt2 Rec fill
	2 copy vpt Square fill Bsquare} bind def
/S8 {BL [] 0 setdash 2 copy vpt sub vpt Square fill Bsquare} bind def
/S9 {BL [] 0 setdash 2 copy vpt sub vpt vpt2 Rec fill Bsquare} bind def
/S10 {BL [] 0 setdash 2 copy vpt sub vpt Square fill 2 copy exch vpt sub exch vpt Square fill
	Bsquare} bind def
/S11 {BL [] 0 setdash 2 copy vpt sub vpt Square fill 2 copy exch vpt sub exch vpt2 vpt Rec fill
	Bsquare} bind def
/S12 {BL [] 0 setdash 2 copy exch vpt sub exch vpt sub vpt2 vpt Rec fill Bsquare} bind def
/S13 {BL [] 0 setdash 2 copy exch vpt sub exch vpt sub vpt2 vpt Rec fill
	2 copy vpt Square fill Bsquare} bind def
/S14 {BL [] 0 setdash 2 copy exch vpt sub exch vpt sub vpt2 vpt Rec fill
	2 copy exch vpt sub exch vpt Square fill Bsquare} bind def
/S15 {BL [] 0 setdash 2 copy Bsquare fill Bsquare} bind def
/D0 {gsave translate 45 rotate 0 0 S0 stroke grestore} bind def
/D1 {gsave translate 45 rotate 0 0 S1 stroke grestore} bind def
/D2 {gsave translate 45 rotate 0 0 S2 stroke grestore} bind def
/D3 {gsave translate 45 rotate 0 0 S3 stroke grestore} bind def
/D4 {gsave translate 45 rotate 0 0 S4 stroke grestore} bind def
/D5 {gsave translate 45 rotate 0 0 S5 stroke grestore} bind def
/D6 {gsave translate 45 rotate 0 0 S6 stroke grestore} bind def
/D7 {gsave translate 45 rotate 0 0 S7 stroke grestore} bind def
/D8 {gsave translate 45 rotate 0 0 S8 stroke grestore} bind def
/D9 {gsave translate 45 rotate 0 0 S9 stroke grestore} bind def
/D10 {gsave translate 45 rotate 0 0 S10 stroke grestore} bind def
/D11 {gsave translate 45 rotate 0 0 S11 stroke grestore} bind def
/D12 {gsave translate 45 rotate 0 0 S12 stroke grestore} bind def
/D13 {gsave translate 45 rotate 0 0 S13 stroke grestore} bind def
/D14 {gsave translate 45 rotate 0 0 S14 stroke grestore} bind def
/D15 {gsave translate 45 rotate 0 0 S15 stroke grestore} bind def
/DiaE {stroke [] 0 setdash vpt add M
  hpt neg vpt neg V hpt vpt neg V
  hpt vpt V hpt neg vpt V closepath stroke} def
/BoxE {stroke [] 0 setdash exch hpt sub exch vpt add M
  0 vpt2 neg V hpt2 0 V 0 vpt2 V
  hpt2 neg 0 V closepath stroke} def
/TriUE {stroke [] 0 setdash vpt 1.12 mul add M
  hpt neg vpt -1.62 mul V
  hpt 2 mul 0 V
  hpt neg vpt 1.62 mul V closepath stroke} def
/TriDE {stroke [] 0 setdash vpt 1.12 mul sub M
  hpt neg vpt 1.62 mul V
  hpt 2 mul 0 V
  hpt neg vpt -1.62 mul V closepath stroke} def
/PentE {stroke [] 0 setdash gsave
  translate 0 hpt M 4 {72 rotate 0 hpt L} repeat
  closepath stroke grestore} def
/CircE {stroke [] 0 setdash 
  hpt 0 360 arc stroke} def
/Opaque {gsave closepath 1 setgray fill grestore 0 setgray closepath} def
/DiaW {stroke [] 0 setdash vpt add M
  hpt neg vpt neg V hpt vpt neg V
  hpt vpt V hpt neg vpt V Opaque stroke} def
/BoxW {stroke [] 0 setdash exch hpt sub exch vpt add M
  0 vpt2 neg V hpt2 0 V 0 vpt2 V
  hpt2 neg 0 V Opaque stroke} def
/TriUW {stroke [] 0 setdash vpt 1.12 mul add M
  hpt neg vpt -1.62 mul V
  hpt 2 mul 0 V
  hpt neg vpt 1.62 mul V Opaque stroke} def
/TriDW {stroke [] 0 setdash vpt 1.12 mul sub M
  hpt neg vpt 1.62 mul V
  hpt 2 mul 0 V
  hpt neg vpt -1.62 mul V Opaque stroke} def
/PentW {stroke [] 0 setdash gsave
  translate 0 hpt M 4 {72 rotate 0 hpt L} repeat
  Opaque stroke grestore} def
/CircW {stroke [] 0 setdash 
  hpt 0 360 arc Opaque stroke} def
/BoxFill {gsave Rec 1 setgray fill grestore} def
/Density {
  /Fillden exch def
  currentrgbcolor
  /ColB exch def /ColG exch def /ColR exch def
  /ColR ColR Fillden mul Fillden sub 1 add def
  /ColG ColG Fillden mul Fillden sub 1 add def
  /ColB ColB Fillden mul Fillden sub 1 add def
  ColR ColG ColB setrgbcolor} def
/BoxColFill {gsave Rec PolyFill} def
/PolyFill {gsave Density fill grestore grestore} def
/h {rlineto rlineto rlineto gsave closepath fill grestore} bind def
%
% PostScript Level 1 Pattern Fill routine for rectangles
% Usage: x y w h s a XX PatternFill
%	x,y = lower left corner of box to be filled
%	w,h = width and height of box
%	  a = angle in degrees between lines and x-axis
%	 XX = 0/1 for no/yes cross-hatch
%
/PatternFill {gsave /PFa [ 9 2 roll ] def
  PFa 0 get PFa 2 get 2 div add PFa 1 get PFa 3 get 2 div add translate
  PFa 2 get -2 div PFa 3 get -2 div PFa 2 get PFa 3 get Rec
  TransparentPatterns {} {gsave 1 setgray fill grestore} ifelse
  clip
  currentlinewidth 0.5 mul setlinewidth
  /PFs PFa 2 get dup mul PFa 3 get dup mul add sqrt def
  0 0 M PFa 5 get rotate PFs -2 div dup translate
  0 1 PFs PFa 4 get div 1 add floor cvi
	{PFa 4 get mul 0 M 0 PFs V} for
  0 PFa 6 get ne {
	0 1 PFs PFa 4 get div 1 add floor cvi
	{PFa 4 get mul 0 2 1 roll M PFs 0 V} for
 } if
  stroke grestore} def
%
/languagelevel where
 {pop languagelevel} {1} ifelse
 2 lt
	{/InterpretLevel1 true def}
	{/InterpretLevel1 Level1 def}
 ifelse
%
% PostScript level 2 pattern fill definitions
%
/Level2PatternFill {
/Tile8x8 {/PaintType 2 /PatternType 1 /TilingType 1 /BBox [0 0 8 8] /XStep 8 /YStep 8}
	bind def
/KeepColor {currentrgbcolor [/Pattern /DeviceRGB] setcolorspace} bind def
<< Tile8x8
 /PaintProc {0.5 setlinewidth pop 0 0 M 8 8 L 0 8 M 8 0 L stroke} 
>> matrix makepattern
/Pat1 exch def
<< Tile8x8
 /PaintProc {0.5 setlinewidth pop 0 0 M 8 8 L 0 8 M 8 0 L stroke
	0 4 M 4 8 L 8 4 L 4 0 L 0 4 L stroke}
>> matrix makepattern
/Pat2 exch def
<< Tile8x8
 /PaintProc {0.5 setlinewidth pop 0 0 M 0 8 L
	8 8 L 8 0 L 0 0 L fill}
>> matrix makepattern
/Pat3 exch def
<< Tile8x8
 /PaintProc {0.5 setlinewidth pop -4 8 M 8 -4 L
	0 12 M 12 0 L stroke}
>> matrix makepattern
/Pat4 exch def
<< Tile8x8
 /PaintProc {0.5 setlinewidth pop -4 0 M 8 12 L
	0 -4 M 12 8 L stroke}
>> matrix makepattern
/Pat5 exch def
<< Tile8x8
 /PaintProc {0.5 setlinewidth pop -2 8 M 4 -4 L
	0 12 M 8 -4 L 4 12 M 10 0 L stroke}
>> matrix makepattern
/Pat6 exch def
<< Tile8x8
 /PaintProc {0.5 setlinewidth pop -2 0 M 4 12 L
	0 -4 M 8 12 L 4 -4 M 10 8 L stroke}
>> matrix makepattern
/Pat7 exch def
<< Tile8x8
 /PaintProc {0.5 setlinewidth pop 8 -2 M -4 4 L
	12 0 M -4 8 L 12 4 M 0 10 L stroke}
>> matrix makepattern
/Pat8 exch def
<< Tile8x8
 /PaintProc {0.5 setlinewidth pop 0 -2 M 12 4 L
	-4 0 M 12 8 L -4 4 M 8 10 L stroke}
>> matrix makepattern
/Pat9 exch def
/Pattern1 {PatternBgnd KeepColor Pat1 setpattern} bind def
/Pattern2 {PatternBgnd KeepColor Pat2 setpattern} bind def
/Pattern3 {PatternBgnd KeepColor Pat3 setpattern} bind def
/Pattern4 {PatternBgnd KeepColor Landscape {Pat5} {Pat4} ifelse setpattern} bind def
/Pattern5 {PatternBgnd KeepColor Landscape {Pat4} {Pat5} ifelse setpattern} bind def
/Pattern6 {PatternBgnd KeepColor Landscape {Pat9} {Pat6} ifelse setpattern} bind def
/Pattern7 {PatternBgnd KeepColor Landscape {Pat8} {Pat7} ifelse setpattern} bind def
} def
%
%
%End of PostScript Level 2 code
%
/PatternBgnd {
  TransparentPatterns {} {gsave 1 setgray fill grestore} ifelse
} def
%
% Substitute for Level 2 pattern fill codes with
% grayscale if Level 2 support is not selected.
%
/Level1PatternFill {
/Pattern1 {0.250 Density} bind def
/Pattern2 {0.500 Density} bind def
/Pattern3 {0.750 Density} bind def
/Pattern4 {0.125 Density} bind def
/Pattern5 {0.375 Density} bind def
/Pattern6 {0.625 Density} bind def
/Pattern7 {0.875 Density} bind def
} def
%
% Now test for support of Level 2 code
%
Level1 {Level1PatternFill} {Level2PatternFill} ifelse
%
/Symbol-Oblique /Symbol findfont [1 0 .167 1 0 0] makefont
dup length dict begin {1 index /FID eq {pop pop} {def} ifelse} forall
currentdict end definefont pop
/MFshow {
   { dup 5 get 3 ge
     { 5 get 3 eq {gsave} {grestore} ifelse }
     {dup dup 0 get findfont exch 1 get scalefont setfont
     [ currentpoint ] exch dup 2 get 0 exch R dup 5 get 2 ne {dup dup 6
     get exch 4 get {Gshow} {stringwidth pop 0 R} ifelse }if dup 5 get 0 eq
     {dup 3 get {2 get neg 0 exch R pop} {pop aload pop M} ifelse} {dup 5
     get 1 eq {dup 2 get exch dup 3 get exch 6 get stringwidth pop -2 div
     dup 0 R} {dup 6 get stringwidth pop -2 div 0 R 6 get
     show 2 index {aload pop M neg 3 -1 roll neg R pop pop} {pop pop pop
     pop aload pop M} ifelse }ifelse }ifelse }
     ifelse }
   forall} def
/Gswidth {dup type /stringtype eq {stringwidth} {pop (n) stringwidth} ifelse} def
/MFwidth {0 exch { dup 5 get 3 ge { 5 get 3 eq { 0 } { pop } ifelse }
 {dup 3 get{dup dup 0 get findfont exch 1 get scalefont setfont
     6 get Gswidth pop add} {pop} ifelse} ifelse} forall} def
/MLshow { currentpoint stroke M
  0 exch R
  Blacktext {gsave 0 setgray MFshow grestore} {MFshow} ifelse } bind def
/MRshow { currentpoint stroke M
  exch dup MFwidth neg 3 -1 roll R
  Blacktext {gsave 0 setgray MFshow grestore} {MFshow} ifelse } bind def
/MCshow { currentpoint stroke M
  exch dup MFwidth -2 div 3 -1 roll R
  Blacktext {gsave 0 setgray MFshow grestore} {MFshow} ifelse } bind def
/XYsave    { [( ) 1 2 true false 3 ()] } bind def
/XYrestore { [( ) 1 2 true false 4 ()] } bind def
Level1 SuppressPDFMark or 
{} {
/SDict 10 dict def
systemdict /pdfmark known not {
  userdict /pdfmark systemdict /cleartomark get put
} if
SDict begin [
  /Title (LTIUvsAS-time.eps)
  /Subject (gnuplot plot)
  /Creator (gnuplot 4.6 patchlevel 4)
  /Author (danny)
%  /Producer (gnuplot)
%  /Keywords ()
  /CreationDate (Thu Jun 19 13:39:41 2014)
  /DOCINFO pdfmark
end
} ifelse
end
%%EndProlog
%%Page: 1 1
gnudict begin
gsave
doclip
50 50 translate
0.050 0.050 scale
0 setgray
newpath
(Times-Roman) findfont 180 scalefont setfont
BackgroundColor 0 lt 3 1 roll 0 lt exch 0 lt or or not {BackgroundColor C 1.000 0 0 10080.00 7488.00 BoxColFill} if
LCb setrgbcolor
LTb
1.000 UL
LTb
LCb setrgbcolor
1080 4230 M
63 0 V
6776 0 R
-63 0 V
stroke
972 4230 M
[ [(Times-Roman) 180.0 0.0 true true 0 ( 0)]
] -60.0 MRshow
1.000 UL
LTb
LCb setrgbcolor
1080 4620 M
63 0 V
6776 0 R
-63 0 V
stroke
972 4620 M
[ [(Times-Roman) 180.0 0.0 true true 0 ( 10)]
] -60.0 MRshow
1.000 UL
LTb
LCb setrgbcolor
1080 5011 M
63 0 V
6776 0 R
-63 0 V
stroke
972 5011 M
[ [(Times-Roman) 180.0 0.0 true true 0 ( 20)]
] -60.0 MRshow
1.000 UL
LTb
LCb setrgbcolor
1080 5401 M
63 0 V
6776 0 R
-63 0 V
stroke
972 5401 M
[ [(Times-Roman) 180.0 0.0 true true 0 ( 30)]
] -60.0 MRshow
1.000 UL
LTb
LCb setrgbcolor
1080 5791 M
63 0 V
6776 0 R
-63 0 V
stroke
972 5791 M
[ [(Times-Roman) 180.0 0.0 true true 0 ( 40)]
] -60.0 MRshow
1.000 UL
LTb
LCb setrgbcolor
1080 6182 M
63 0 V
6776 0 R
-63 0 V
stroke
972 6182 M
[ [(Times-Roman) 180.0 0.0 true true 0 ( 50)]
] -60.0 MRshow
1.000 UL
LTb
LCb setrgbcolor
1080 6572 M
63 0 V
6776 0 R
-63 0 V
stroke
972 6572 M
[ [(Times-Roman) 180.0 0.0 true true 0 ( 60)]
] -60.0 MRshow
1.000 UL
LTb
LCb setrgbcolor
1080 4230 M
0 63 V
0 2474 R
0 -63 V
stroke
1080 4050 M
[ [(Times-Roman) 180.0 0.0 true true 0 ( 0)]
] -60.0 MCshow
1.000 UL
LTb
LCb setrgbcolor
1764 4230 M
0 63 V
0 2474 R
0 -63 V
stroke
1764 4050 M
[ [(Times-Roman) 180.0 0.0 true true 0 ( 0.1)]
] -60.0 MCshow
1.000 UL
LTb
LCb setrgbcolor
2448 4230 M
0 63 V
0 2474 R
0 -63 V
stroke
2448 4050 M
[ [(Times-Roman) 180.0 0.0 true true 0 ( 0.2)]
] -60.0 MCshow
1.000 UL
LTb
LCb setrgbcolor
3132 4230 M
0 63 V
0 2474 R
0 -63 V
stroke
3132 4050 M
[ [(Times-Roman) 180.0 0.0 true true 0 ( 0.3)]
] -60.0 MCshow
1.000 UL
LTb
LCb setrgbcolor
3816 4230 M
0 63 V
0 2474 R
0 -63 V
stroke
3816 4050 M
[ [(Times-Roman) 180.0 0.0 true true 0 ( 0.4)]
] -60.0 MCshow
1.000 UL
LTb
LCb setrgbcolor
4500 4230 M
0 63 V
0 2474 R
0 -63 V
stroke
4500 4050 M
[ [(Times-Roman) 180.0 0.0 true true 0 ( 0.5)]
] -60.0 MCshow
1.000 UL
LTb
LCb setrgbcolor
5183 4230 M
0 63 V
0 2474 R
0 -63 V
stroke
5183 4050 M
[ [(Times-Roman) 180.0 0.0 true true 0 ( 0.6)]
] -60.0 MCshow
1.000 UL
LTb
LCb setrgbcolor
5867 4230 M
0 63 V
0 2474 R
0 -63 V
stroke
5867 4050 M
[ [(Times-Roman) 180.0 0.0 true true 0 ( 0.7)]
] -60.0 MCshow
1.000 UL
LTb
LCb setrgbcolor
6551 4230 M
0 63 V
0 2474 R
0 -63 V
stroke
6551 4050 M
[ [(Times-Roman) 180.0 0.0 true true 0 ( 0.8)]
] -60.0 MCshow
1.000 UL
LTb
LCb setrgbcolor
7235 4230 M
0 63 V
0 2474 R
0 -63 V
stroke
7235 4050 M
[ [(Times-Roman) 180.0 0.0 true true 0 ( 0.9)]
] -60.0 MCshow
1.000 UL
LTb
LCb setrgbcolor
7919 4230 M
0 63 V
0 2474 R
0 -63 V
stroke
7919 4050 M
[ [(Times-Roman) 180.0 0.0 true true 0 ( 1)]
] -60.0 MCshow
1.000 UL
LTb
LCb setrgbcolor
1.000 UL
LTb
LCb setrgbcolor
1080 6767 N
0 -2537 V
6839 0 V
0 2537 V
-6839 0 V
Z stroke
LCb setrgbcolor
450 5498 M
currentpoint gsave translate -270 rotate 0 0 moveto
[ [(Times-Roman) 180.0 0.0 true true 0 (Execution time \(s\))]
] -60.0 MCshow
grestore
LTb
LCb setrgbcolor
4499 3780 M
[ [(Times-Roman) 180.0 0.0 true true 0 (Probability of ties p2)]
] -60.0 MCshow
LTb
4499 7037 M
[ [(Times-Roman) 180.0 0.0 true true 0 (\(a\) LTIU)]
] -60.0 MCshow
1.000 UP
1.000 UL
LTb
LCb setrgbcolor
% Begin plot #1
1.000 UP
2.000 UL
LT1
LC2 setrgbcolor
LCb setrgbcolor
9260 6677 M
[ [(Times-Roman) 180.0 0.0 true true 0 (LTIU p1=0.6)]
] -60.0 MRshow
LT1
LC2 setrgbcolor
9368 6677 M
495 0 V
1080 4308 M
684 39 V
684 -39 V
684 0 V
684 0 V
684 0 V
683 0 V
684 0 V
684 -39 V
684 0 V
684 312 V
1080 4308 CircleF
1764 4347 CircleF
2448 4308 CircleF
3132 4308 CircleF
3816 4308 CircleF
4500 4308 CircleF
5183 4308 CircleF
5867 4308 CircleF
6551 4269 CircleF
7235 4269 CircleF
7919 4581 CircleF
9615 6677 CircleF
% End plot #1
% Begin plot #2
1.000 UP
2.000 UL
LT1
LC1 setrgbcolor
LCb setrgbcolor
9260 6497 M
[ [(Times-Roman) 180.0 0.0 true true 0 (LTIU p1=0.7)]
] -60.0 MRshow
LT1
LC1 setrgbcolor
9368 6497 M
495 0 V
1080 4776 M
684 -312 V
684 -156 V
684 0 V
684 -39 V
684 0 V
683 0 V
684 0 V
684 0 V
684 0 V
684 2186 V
1080 4776 BoxF
1764 4464 BoxF
2448 4308 BoxF
3132 4308 BoxF
3816 4269 BoxF
4500 4269 BoxF
5183 4269 BoxF
5867 4269 BoxF
6551 4269 BoxF
7235 4269 BoxF
7919 6455 BoxF
9615 6497 BoxF
% End plot #2
% Begin plot #3
1.000 UP
2.000 UL
LT1
LC0 setrgbcolor
LCb setrgbcolor
9260 6317 M
[ [(Times-Roman) 180.0 0.0 true true 0 (LTIU p1=0.8)]
] -60.0 MRshow
LT1
LC0 setrgbcolor
9368 6317 M
495 0 V
1080 5635 M
684 -585 V
684 -235 V
684 -195 V
684 -78 V
684 -117 V
683 0 V
684 -39 V
684 0 V
684 156 V
684 2147 V
1080 5635 Star
1764 5050 Star
2448 4815 Star
3132 4620 Star
3816 4542 Star
4500 4425 Star
5183 4425 Star
5867 4386 Star
6551 4386 Star
7235 4542 Star
7919 6689 Star
9615 6317 Star
% End plot #3
1.000 UL
LTb
LCb setrgbcolor
1080 6767 N
0 -2537 V
6839 0 V
0 2537 V
-6839 0 V
Z stroke
1.000 UP
1.000 UL
LTb
LCb setrgbcolor
1.000 UL
LTb
LCb setrgbcolor
1080 576 M
63 0 V
6776 0 R
-63 0 V
stroke
972 576 M
[ [(Times-Roman) 180.0 0.0 true true 0 ( 0)]
] -60.0 MRshow
1.000 UL
LTb
LCb setrgbcolor
1080 966 M
63 0 V
6776 0 R
-63 0 V
stroke
972 966 M
[ [(Times-Roman) 180.0 0.0 true true 0 ( 0.1)]
] -60.0 MRshow
1.000 UL
LTb
LCb setrgbcolor
1080 1357 M
63 0 V
6776 0 R
-63 0 V
stroke
972 1357 M
[ [(Times-Roman) 180.0 0.0 true true 0 ( 0.2)]
] -60.0 MRshow
1.000 UL
LTb
LCb setrgbcolor
1080 1747 M
63 0 V
6776 0 R
-63 0 V
stroke
972 1747 M
[ [(Times-Roman) 180.0 0.0 true true 0 ( 0.3)]
] -60.0 MRshow
1.000 UL
LTb
LCb setrgbcolor
1080 2138 M
63 0 V
6776 0 R
-63 0 V
stroke
972 2138 M
[ [(Times-Roman) 180.0 0.0 true true 0 ( 0.4)]
] -60.0 MRshow
1.000 UL
LTb
LCb setrgbcolor
1080 2528 M
63 0 V
6776 0 R
-63 0 V
stroke
972 2528 M
[ [(Times-Roman) 180.0 0.0 true true 0 ( 0.5)]
] -60.0 MRshow
1.000 UL
LTb
LCb setrgbcolor
1080 2919 M
63 0 V
6776 0 R
-63 0 V
stroke
972 2919 M
[ [(Times-Roman) 180.0 0.0 true true 0 ( 0.6)]
] -60.0 MRshow
1.000 UL
LTb
LCb setrgbcolor
1080 576 M
0 63 V
0 2475 R
0 -63 V
stroke
1080 396 M
[ [(Times-Roman) 180.0 0.0 true true 0 ( 0)]
] -60.0 MCshow
1.000 UL
LTb
LCb setrgbcolor
1764 576 M
0 63 V
0 2475 R
0 -63 V
stroke
1764 396 M
[ [(Times-Roman) 180.0 0.0 true true 0 ( 0.1)]
] -60.0 MCshow
1.000 UL
LTb
LCb setrgbcolor
2448 576 M
0 63 V
0 2475 R
0 -63 V
stroke
2448 396 M
[ [(Times-Roman) 180.0 0.0 true true 0 ( 0.2)]
] -60.0 MCshow
1.000 UL
LTb
LCb setrgbcolor
3132 576 M
0 63 V
0 2475 R
0 -63 V
stroke
3132 396 M
[ [(Times-Roman) 180.0 0.0 true true 0 ( 0.3)]
] -60.0 MCshow
1.000 UL
LTb
LCb setrgbcolor
3816 576 M
0 63 V
0 2475 R
0 -63 V
stroke
3816 396 M
[ [(Times-Roman) 180.0 0.0 true true 0 ( 0.4)]
] -60.0 MCshow
1.000 UL
LTb
LCb setrgbcolor
4500 576 M
0 63 V
0 2475 R
0 -63 V
stroke
4500 396 M
[ [(Times-Roman) 180.0 0.0 true true 0 ( 0.5)]
] -60.0 MCshow
1.000 UL
LTb
LCb setrgbcolor
5183 576 M
0 63 V
0 2475 R
0 -63 V
stroke
5183 396 M
[ [(Times-Roman) 180.0 0.0 true true 0 ( 0.6)]
] -60.0 MCshow
1.000 UL
LTb
LCb setrgbcolor
5867 576 M
0 63 V
0 2475 R
0 -63 V
stroke
5867 396 M
[ [(Times-Roman) 180.0 0.0 true true 0 ( 0.7)]
] -60.0 MCshow
1.000 UL
LTb
LCb setrgbcolor
6551 576 M
0 63 V
0 2475 R
0 -63 V
stroke
6551 396 M
[ [(Times-Roman) 180.0 0.0 true true 0 ( 0.8)]
] -60.0 MCshow
1.000 UL
LTb
LCb setrgbcolor
7235 576 M
0 63 V
0 2475 R
0 -63 V
stroke
7235 396 M
[ [(Times-Roman) 180.0 0.0 true true 0 ( 0.9)]
] -60.0 MCshow
1.000 UL
LTb
LCb setrgbcolor
7919 576 M
0 63 V
0 2475 R
0 -63 V
stroke
7919 396 M
[ [(Times-Roman) 180.0 0.0 true true 0 ( 1)]
] -60.0 MCshow
1.000 UL
LTb
LCb setrgbcolor
1.000 UL
LTb
LCb setrgbcolor
1080 3114 N
0 -2538 V
6839 0 V
0 2538 V
-6839 0 V
Z stroke
LCb setrgbcolor
342 1845 M
currentpoint gsave translate -270 rotate 0 0 moveto
[ [(Times-Roman) 180.0 0.0 true true 0 (Execution time \(s\))]
] -60.0 MCshow
grestore
LTb
LCb setrgbcolor
4499 126 M
[ [(Times-Roman) 180.0 0.0 true true 0 (Probability of ties p2)]
] -60.0 MCshow
LTb
4499 3384 M
[ [(Times-Roman) 180.0 0.0 true true 0 (\(b\) AS)]
] -60.0 MCshow
1.000 UP
1.000 UL
LTb
LCb setrgbcolor
% Begin plot #1
1.000 UP
2.000 UL
LT0
LC2 setrgbcolor
LCb setrgbcolor
9260 3024 M
[ [(Times-Roman) 180.0 0.0 true true 0 (AS p1=0.6)]
] -60.0 MRshow
LT0
LC2 setrgbcolor
9368 3024 M
495 0 V
1080 688 M
1764 585 L
684 2 V
684 0 V
684 1 V
684 -3 V
683 -1 V
684 -1 V
684 -1 V
684 -2 V
684 -3 V
1080 688 Circle
1764 585 Circle
2448 587 Circle
3132 587 Circle
3816 588 Circle
4500 585 Circle
5183 584 Circle
5867 583 Circle
6551 582 Circle
7235 580 Circle
7919 577 Circle
9615 3024 Circle
% End plot #1
% Begin plot #2
1.000 UP
2.000 UL
LT0
LC1 setrgbcolor
LCb setrgbcolor
9260 2844 M
[ [(Times-Roman) 180.0 0.0 true true 0 (AS p1=0.7)]
] -60.0 MRshow
LT0
LC1 setrgbcolor
9368 2844 M
495 0 V
1080 1018 M
1764 741 L
684 -65 V
684 -70 V
684 -18 V
684 -1 V
683 0 V
684 -3 V
684 -2 V
684 -2 V
684 -2 V
1080 1018 Box
1764 741 Box
2448 676 Box
3132 606 Box
3816 588 Box
4500 587 Box
5183 587 Box
5867 584 Box
6551 582 Box
7235 580 Box
7919 578 Box
9615 2844 Box
% End plot #2
% Begin plot #3
1.000 UP
2.000 UL
LT0
LC0 setrgbcolor
LCb setrgbcolor
9260 2664 M
[ [(Times-Roman) 180.0 0.0 true true 0 (AS p1=0.8)]
] -60.0 MRshow
LT0
LC0 setrgbcolor
9368 2664 M
495 0 V
1080 2035 M
684 -408 V
684 -442 V
3132 869 L
3816 736 L
4500 615 L
683 -12 V
684 -11 V
684 -6 V
684 -4 V
684 -3 V
1080 2035 Crs
1764 1627 Crs
2448 1185 Crs
3132 869 Crs
3816 736 Crs
4500 615 Crs
5183 603 Crs
5867 592 Crs
6551 586 Crs
7235 582 Crs
7919 579 Crs
9615 2664 Crs
% End plot #3
1.000 UL
LTb
LCb setrgbcolor
1080 3114 N
0 -2538 V
6839 0 V
0 2538 V
-6839 0 V
Z stroke
1.000 UP
1.000 UL
LTb
LCb setrgbcolor
stroke
grestore
end
showpage
%%Trailer
%%DocumentFonts: Times-Roman
